#lt      40.0
#count pbc
#dt      1.0
#dn      40
#edges  -27.1557089 -26.6125947 -26.0694805 -25.5263664 -24.9832522 -24.4401380 -23.8970238 -23.3539097 -22.8107955 -22.2676813 -21.7245671 -21.1814529 -20.6383388 -20.0952246 -19.5521104 -19.0089962 -18.4658821 -17.9227679 -17.3796537 -16.8365395 -16.2934253 -15.7503112 -15.2071970 -14.6640828 -14.1209686 -13.5778545 -13.0347403 -12.4916261 -11.9485119 -11.4053977 -10.8622836 -10.3191694  -9.7760552  -9.2329410  -8.6898268  -8.1467127  -7.6035985  -7.0604843  -6.5173701  -5.9742560  -5.4311418  -4.8880276  -4.3449134  -3.8017992  -3.2586851  -2.7155709  -2.1724567  -1.6293425  -1.0862284  -0.5431142   0.0000000   0.5431142   1.0862284   1.6293425   2.1724567   2.7155709   3.2586851   3.8017992   4.3449134   4.8880276   5.4311418   5.9742560   6.5173701   7.0604843   7.6035985   8.1467127   8.6898268   9.2329410   9.7760552  10.3191694  10.8622836  11.4053977  11.9485119  12.4916261  13.0347403  13.5778545  14.1209686  14.6640828  15.2071970  15.7503112  16.2934253  16.8365395  17.3796537  17.9227679  18.4658821  19.0089962  19.5521104  20.0952246  20.6383388  21.1814529  21.7245671  22.2676813  22.8107955  23.3539097  23.8970238  24.4401380  24.9832522  25.5263664  26.0694805  26.6125947  27.1557089
    36    50    60    46    42    54    46    42    40    41    34    33    32    43    22    26    19    14    19    15    17     8     6    10     4    11     5     8     7     8     0     3     0     2     3     1     1     0     0     0     0     0     0     0     0     0     0     0     0     0     0     0     0     0     0     0     0     1     0     0     0     0     0     0     1     2     0     2     0     1     1     0     2     4    12     9     6    16     7    13    16    24    24    28    24    27    32    30    27    34    34    46    42    44    48    57    61    41    53    57
    58    42    35    45    54    44    42    49    50    34    42    30    30    31    36    27    20    22    12    19    19    14     7    14    10     5     8     7     6     2     2     3     3     0     2     3     0     0     1     0     2     1     0     1     0     1     1     0     0     0     0     0     0     0     0     0     0     0     0     0     0     0     0     0     1     1     2     1     1     2     1     6     3     5     9     6     3     5     8     9    12     9    23    18    19    25    19    24    32    33    27    43    41    32    29    55    45    62    42    56
    45    54    40    58    52    43    45    36    46    31    48    34    38    39    22    23    23    19    19    17    16    13    11    19    18     6     8     6     6     1     2     3     1     2     3     2     1     2     1     1     0     2     1     0     1     0     0     0     0     0     0     0     0     0     0     0     0     1     0     0     0     0     0     0     2     0     2     1     2     1     1     4     2     5     3     8     1    11     8     8     4    11    12    18    19    27    22    18    27    29    40    37    34    38    43    35    39    50    43    47
    55    58    43    49    58    54    49    40    27    37    40    46    43    32    24    30    18    20    18    17    14    17    14    11    14    13    10    13     6     3     9     3     5     4     5     2     3     1     1     3     1     0     1     0     1     1     0     0     0     0     0     0     0     0     0     0     0     0     0     0     1     0     0     0     0     0     1     0     1     0     1     4     1     0     6     0     7     4     6     6     8    14     8     9    12    14    22    18    19    19    29    21    29    38    33    39    50    46    47    43
    45    50    50    51    62    61    52    57    35    47    42    45    46    29    31    35    22    35    22    28    18    17    19    22    15    20    15     6     7     2     7     3     7     5     1     1     2     2     0     1     0     0     0     1     0     1     0     0     0     0     0     0     0     0     0     0     0     0     0     0     0     1     0     0     0     1     1     1     0     0     0     0     0     4     1     4     1     1     3     7    13     8    11    15    16    20    21    21    18    21    35    28    25    45    39    38    31    43    41    42
    42    48    57    52    59    51    48    48    46    30    50    47    39    44    44    37    29    31    40    28    29    30    22    22    19    25    17    11     8     5     5     6     5     5     5     4     0     1     3     3     3     3     0     1     0     3     0     0     1     0     0     1     0     0     0     0     0     0     0     0     0     0     0     0     1     1     1     0     0     0     1     1     2     4     3     2     2     5     6     4     3     9     8    16    15    14    15    28    15    26    28    33    35    35    19    22    44    47    49    41
    52    37    58    43    52    70    63    46    42    44    48    54    51    37    42    42    30    40    41    32    35    32    25    26    26    23    18     9    13     7     9     6     5     7     1     5     1     4     4     2     4     0     2     1     1     1     0     2     1     0     0     0     0     0     0     0     0     0     0     0     0     0     0     0     1     1     0     0     0     1     0     1     3     0     4     1     1     2     2     1     7    10     8    13     6     8    15    10    16    26    31    25    32    38    32    39    34    34    45    45
    38    44    44    45    50    53    45    51    51    52    50    49    38    45    35    45    34    44    44    31    48    33    31    39    30    28    29    16    23    13    14     8     3     9     6     8     2     3     3     3     0     2     1     1     3     2     0     0     0     1     0     0     0     0     0     0     0     0     0     0     0     0     0     1     0     0     1     0     1     0     0     0     1     3     3     0     0     2     1     4     4     8     7     6    11    11    13    14    17    22    29    30    25    31    32    29    23    37    39    43
    27    47    33    43    46    53    59    51    41    44    28    47    37    41    47    49    42    40    40    43    35    38    35    23    28    24    23    20    13     6     8     7    15     8     5     2     6     5     4     2     3     0     2     1     1     3     3     1     1     0     0     0     0     0     0     0     0     0     0     0     0     1     0     2     0     0     0     0     0     1     1     1     1     1     0     0     0     1     3     2     4     3     9    12     4     6     5     6    10    17    16    23    28    26    27    29    25    36    44    42
    29    24    30    34    46    34    48    38    43    44    49    39    49    63    48    60    51    46    57    41    36    46    42    40    38    29    24    21    16     9    16    13     8    10    11     7     9     5     4     0     3     0     3     4     4     2     1     0     0     1     0     1     0     0     0     0     0     0     1     0     0     0     0     0     0     0     0     0     0     0     0     0     1     0     1     2     3     2     3     1     2     4     4     3     2     4     3    10    12    16    15    16    19    27    32    22    27    36    32    36
    42    21    31    44    39    46    44    47    44    41    56    40    51    56    49    59    40    59    55    45    42    52    32    43    36    30    32    23    21    11    19    18     9     7     9    12     5     6     5     4     3     3     5     4     2     4     3     2     1     1     1     1     0     0     0     0     0     0     0     0     0     0     0     0     0     0     0     0     0     0     1     1     0     0     1     2     0     1     1     4     1     4     4     3     2     2     4     5     3     9    17    17    23    23    21    26    23    32    18    33
    24    30    37    48    38    48    55    60    34    39    48    52    38    62    65    57    46    42    40    52    48    52    48    53    34    30    38    39    16    24    28    21    15     8     6     8     6    11     8     5    10     0     6     1     1     2     2     2     0     2     2     0     1     0     0     1     0     0     0     0     0     0     0     0     0     0     0     0     0     0     0     0     0     0     0     1     0     1     1     1     1     1     3     3     2     0     6     1     3    10     9    11    13    19    15    15    23    24    21    28
    31    22    34    46    34    40    39    41    56    42    31    60    56    61    61    52    57    51    64    59    58    48    36    37    40    23    28    30    25    25    30    15    17    15    14     8     5     8     3     2     8     5     5     5     2     1     4     2     2     1     1     1     2     2     0     0     2     0     0     0     0     0     0     0     0     0     0     0     0     0     0     0     0     0     0     0     0     0     1     1     3     1     0     1     0     4     4     6     4     1     8     8    10     9    18    22    12    17    26    26
    27    30    39    27    40    39    51    51    29    49    52    53    63    50    62    45    51    52    62    34    53    57    43    47    47    39    44    28    42    24    24    23    29    20    16    15    10     7     7     6     6     6     7     7     4     4     3     4     1     0     1     0     0     0     0     1     0     0     0     0     0     0     0     0     0     0     0     0     0     0     0     0     1     0     0     0     0     2     1     0     2     1     1     3     1     2     4     3     4     2    12     8    12    13    14    16    13    18    16    19
    16    25    20    32    28    36    35    52    39    40    47    59    50    42    41    51    60    58    60    59    55    54    41    53    57    44    35    34    29    30    26    31    24    22    17    16    11    11     8    14     5     8     1     6     2     1     2     2     1     1     2     2     0     1     0     0     0     0     0     0     0     0     0     0     0     0     0     0     0     0     0     0     0     0     0     0     0     1     0     0     0     0     1     0     1     2     4     1     6     4     2     8     6     7    16    11    16    10    31    20
    28    27    30    25    24    34    48    46    44    29    50    60    54    68    39    68    74    61    67    56    69    63    60    57    43    37    42    35    39    34    36    33    36    30    17    22    19    19     9    11     6    10     4     8     4     4     5     3     1     1     2     0     1     0     0     1     0     0     0     0     0     0     0     0     0     0     0     0     0     0     0     0     0     0     0     1     0     1     1     0     2     0     2     1     3     0     0     1     2     4     5    10     8    18    10    10    15    24    18    15
     9    23    32    23    31    36    45    36    36    35    46    55    57    48    48    65    55    61    55    47    53    47    50    39    60    40    53    28    59    40    36    39    33    28    30    22    17    27    13    12    14    15    11    10     2     3     8     3     2     2     0     1     3     0     1     0     0     0     0     0     0     0     0     0     0     0     0     0     0     0     0     0     0     0     0     0     0     0     0     1     0     0     0     2     1     0     2     3     2     5     3     5    10     6    10    11    14    12    10    11
    18    21    21    13    29    29    41    29    33    51    45    38    46    64    60    64    53    57    60    63    34    61    60    64    46    49    43    59    45    39    42    42    28    28    27    30    17    20    18    21    24    17     8     8     4     7     6     5     4     2     2     3     1     3     0     1     0     1     0     0     0     0     0     0     0     0     0     0     0     0     0     0     0     0     0     0     0     0     0     0     1     0     3     1     3     2     2     2     2     3     7     7     7     5     5    12     8     7     4    12
     8    12    24    22    25    33    39    40    48    54    43    42    52    68    54    67    60    52    57    53    56    61    65    59    48    61    42    48    43    49    46    33    42    38    46    33    27    17    24    14    15    12    15    10     8     8     7     4     6     7     6     3     3     0     2     1     0     0     0     0     0     0     0     0     1     0     0     0     0     0     0     0     0     0     0     0     0     0     0     0     0     2     0     0     0     0     1     5     2     2     4     6     6     9     2     6    11    10     9    12
    13    15    14    19    25    26    41    50    47    32    30    50    46    54    50    56    63    59    63    61    62    43    65    54    46    46    64    50    52    38    48    42    36    44    31    39    25    29    23    29    24    15    18    14    13    13     3     7     8     4     7     0     0     1     2     0     2     1     0     0     1     1     1     0     0     0     0     0     0     0     0     0     0     0     0     0     0     0     0     0     0     0     0     0     1     0     1     0     3     1     4     8     1     6     4    10     4    10    13     5
     7     9    19    19    12    22    27    34    34    40    48    51    38    53    46    64    66    61    63    64    60    58    52    59    66    47    63    60    74    74    43    53    47    49    39    42    34    30    21    22    25    23    17    18    13    13     6     5     5     5     1     5     3     1     3     4     0     0     0     0     2     0     0     0     0     0     1     0     0     0     0     0     0     0     0     0     0     0     0     0     0     0     0     0     0     1     1     1     1     0     9     3    10     4     4     5     8     9    11     6
    14    15    10    18    13    29    21    29    39    51    40    52    42    56    54    75    48    42    64    60    60    87    63    55    61    63    70    68    69    70    56    64    47    56    47    41    43    26    38    32    29    30    16    21    11    10     9     9     5     5     5     3     3     1     4     3     0     1     2     2     2     0     1     2     0     0     0     0     0     0     0     0     0     0     0     0     0     0     0     0     0     0     0     0     1     0     1     2     0     0     2     4     4     6     6     5     9     4     6    10
    13    11    13    11    13    22    18    35    33    32    31    42    34    31    41    40    73    59    63    58    71    66    64    56    80    78    73    82    75    95    59    55    61    49    63    48    57    32    26    40    30    26    23    16    11    15    12     9    13     9     8     3     3     1     3     2     1     2     0     0     1     0     1     0     1     0     0     1     0     1     0     0     0     0     0     0     0     0     0     0     0     0     0     1     0     0     0     0     0     0     4     0     4     7     3     4     2     4    10     5
    11     3    11    10    16    21    26    28    27    36    49    39    41    35    56    42    52    46    68    54    53    64    66    83    67    63    86    67    86    76    60    83    52    74    54    48    41    41    34    37    47    36    19    22    21    24    19    18    11    10    11     2     2     4     5     6     5     2     1     1     3     1     1     1     1     1     1     0     0     0     0     0     0     0     0     0     0     0     0     0     0     0     0     0     0     0     1     0     0     0     2     4     2     2     1     4     7     5     6     5
     9     9     5    13    13    12    28    28    22    35    45    33    38    48    39    57    41    34    54    46    70    79    73    61    66    75    86    85    66    71    73    60    82    70    59    49    65    33    49    36    33    43    31    30    25    17    26    11    10    12    13     3     4     8     2     5     1     0     1     3     3     0     1     1     1     1     1     1     0     0     0     0     0     0     0     0     0     0     0     0     0     0     0     0     0     0     0     1     1     0     2     1     1     1     4     4     4     5     9     4
     2     9     5     8    16    13    23    18    33    27    23    41    48    45    40    52    49    45    56    38    54    61    72    68    71    78    83    88    58    82    73    70    77    67    63    62    59    50    49    41    31    36    27    37    28    25    22    17    12    11    12     8     5     6     5     4     2     4     5     2     1     5     0     0     1     1     0     1     0     0     0     0     0     0     0     0     0     0     0     0     0     0     0     0     0     0     0     0     3     1     1     1     0     2     1     2     7     4     2     5
     4    10     2     3    10    18    21    23    23    22    31    26    33    36    44    28    37    51    46    53    58    46    66    78    84    68    66    74    76    71    99    75    85    77    63    53    58    58    46    43    52    35    43    33    41    29    24    25    19    16    19     8    10     9     6     8     4     3     4     5     1     2     1     2     0     0     1     0     1     0     0     0     0     0     0     0     0     0     0     0     0     0     0     0     0     0     0     0     0     1     0     0     1     0     1     2     3     9     2     9
     6     8     3     4     7    11    21    12    15    22    25    23    22    17    29    39    41    49    55    54    52    57    76    72    74    85    85    87    72    83    77    68    72    82    79    73    51    58    61    48    58    44    51    57    41    32    26    26    12    19    14    11    10    14     7     6     6     3     3     5     2     2     4     2     0     0     1     0     1     1     0     0     0     0     0     0     0     0     0     0     0     0     0     0     0     0     0     0     0     0     0     0     2     2     2     1     3     3     4     2
     4     4     2    13    11    15    11    22     9    20    17    23    20    28    31    40    30    57    41    50    47    66    58    63    63    82    82    88    88    81    86    76    79    70    83    90    59    77    65    51    58    54    53    53    35    39    32    29    19    24    15    16    14    12    13     7     5     6     8     6     4     5     6     3     1     2     1     1     0     0     0     0     0     1     0     0     0     0     0     0     0     0     0     0     0     0     0     0     0     0     0     1     2     1     3     1     1     1     2     2
     4     4     5     6     7     9    12    12    11    19    15    20    19    22    23    36    40    40    40    64    54    53    62    66    76    63    73    80    73    89    81    92    70    77    92    71    85    75    71    73    67    56    59    53    33    43    34    31    31    22    18    18    19    17    11     8     8     5     3     5     8     5     4     2     2     2     3     0     0     1     0     1     0     0     0     0     0     0     0     0     0     0     0     0     0     0     0     0     0     0     1     1     0     1     2     2     0     3     5     2
     4     3     5     6     3     7     9    18    18    23    10    12    19    29    28    42    40    45    41    48    48    58    70    63    79    67    68    77    94    78    88    89    83    85    85    82    82    72    76    66    62    75    61    54    50    42    36    38    26    18    21    33    16    18    14    18    10     9     8    10     2     5     5     1     4     3     1     3     2     1     1     0     1     0     0     0     0     0     0     0     0     0     0     0     0     0     0     0     1     0     1     1     2     0     0     1     1     1     1     2
     2     0     3     4     3     6     8     8    16     8    15    11    14    12    32    36    36    37    42    50    53    59    64    65    67    71    65    85    68    71    94    81   106    77    89    80    89    84    93    64    77    68    66    53    44    41    45    43    26    38    25    29    27    23    17    14    10    21    11     6     4     3     5     2     5     8     2     4     0     0     0     1     0     0     0     0     0     0     0     0     0     0     0     1     0     0     0     0     0     0     1     1     0     4     1     0     1     1     1     1
     1     1     5     2     6     3     8    12     6    11    14    14    12    13    16    24    32    33    33    44    45    57    50    73    63    73    83    71    81    86    96    98    89   100    90    86    89    83    85    74    68    69    66    58    51    60    51    55    38    42    29    24    31    25    16    11    12    13    11     9     8     9     6     8     4     4     2     1     3     3     1     0     1     1     0     0     0     0     0     0     0     0     0     0     0     0     1     0     0     0     1     1     0     1     1     0     1     3     0     3
     3     8     4     4     6     3     5     5    10    12    10    10    17    10    25    26    23    24    24    43    59    48    52    61    71    74    79    70    78    91   102   101    87    99   105    72    75    81    77    69    90    72    75    64    63    51    58    64    60    40    45    32    40    18    18    16    12    14     8     6     9     8     7     2     5     2     2     7     2     2     3     0     2     1     0     1     1     0     0     0     0     0     0     0     0     1     0     0     0     1     1     0     0     3     0     2     0     2     5     2
     1     2     2     3     5     7     5     7     4     8     5     5    12    17    11    16    18    23    33    39    39    45    69    58    73    75    86    89    76   102    92   108   104    82    83    97   106   106    88    86    92    70    59    78    62    68    56    62    51    47    39    33    35    31    32    24    21    10    16    10    16     7     6     4     6     8     6     5     3     0     1     0     0     1     0     1     0     0     0     0     0     0     1     0     1     0     0     0     0     0     0     0     0     0     0     0     0     0     0     0
     0     1     0     1     4     1     7     3     4    11     9     8     9     9     9    22    25    25    26    17    37    50    50    43    45    80    59    68    96    87    86    97   108    92    91   111    87    96    97    77    91    93    58    78    84    71    59    56    59    51    46    31    52    46    32    21    29    14    16    18    16    12     5     6     1     4     3     2     5     3     1     1     3     0     0     1     1     0     0     0     0     0     1     2     0     0     0     0     0     0     0     0     0     1     0     0     0     0     1     2
     0     1     1     0     0     2     2     3     6     7     9    16     4    16    15    12    20    23    18    28    41    47    50    54    54    57    56    68    65    87   101    85    94    72    92   110    88    88    95    94    88    84   104    69    88    70    66    62    65    55    41    54    46    31    38    28    24    29    24    21    20    15    10     8     7    13     4     3     4     3     2     2     3     1     1     1     0     0     0     0     0     0     0     0     0     0     0     0     0     0     0     0     0     0     0     0     0     0     2     1
     0     1     1     1     2     0     1     3     4     7     6     8     9    10     8    18    14    20    22    25    31    42    44    44    40    41    49    67    66    65    89    81    86    76   108    99    86    94    99    76   100    98    72    75    86    72    64    70    72    55    62    53    55    43    49    50    34    26    33    27    15    22    11    11     4     9     4     7     4     0     1     1     3     0     1     1     2     0     2     1     0     0     0     0     0     0     0     0     0     0     0     0     0     0     0     0     0     1     0     0
     0     1     0     0     2     0     2     6     4     8     8     4     6     9    20    10    10    10    24    30    30    27    39    45    40    54    46    42    73    50    81    76    97    87   100   102    94   117   100   105   100    83    87    84    87    86    80    79    92    70    58    54    62    43    55    48    35    43    38    27    30    15    24    10     9    13     6     8     4     3     0     1     2     2     0     0     2     2     1     3     0     0     0     0     0     0     0     0     0     0     0     0     0     0     0     0     0     0     0     0
     0     0     0     0     0     1     0     2     3     4     5     3     7     7     9    15    11    19    17    18    19    31    33    30    36    35    34    49    71    69    76    73    66   102    98    87    97   102    86    91    90   109    85    78    84    75   108    79    72    66    69    68    65    54    52    36    42    22    42    26    21    26    19    15    15    13    10    11     5     3     5     3     2     1     3     4     1     1     1     0     0     0     0     0     0     0     0     0     0     0     0     0     0     0     0     0     0     0     0     0
     0     1     0     0     1     1     2     1     4     4     2     9     3    13     6    12    15    16    13    20    21    20    24    31    42    38    38    45    51    73    63    74    79    80    73    96   102   122   114    99    94   114    99    86   102    86    93    84    77    70    78    60    78    62    55    51    36    42    28    35    29    36    26    23    17    11    15    13    10    11     9     4     9     2     4     3     2     2     2     0     0     0     0     0     0     0     0     0     0     0     0     0     0     0     0     0     0     0     0     0
     0     1     1     0     1     1     5     1     2     2     4     5     1     4     4    14    17    18    17    16    18    27    26    33    27    25    27    42    43    29    49    68    56    78   108    92    94    88    98   114    89   115   108   112   100   101    84    88    88    75    70    85    78    64    64    61    48    59    48    49    35    44    29    31    20    21    18    17    15     8     6     7     7     4     1     1     5     3     1     0     1     1     0     0     0     0     0     0     0     0     0     0     0     0     0     0     0     0     0     0
     0     1     0     1     0     0     1     1     3     0     2     3     5     9     6    11    11    12     8    12    11    13    30    27    20    33    27    35    50    51    38    47    72    57    57    72    70    68   107    96   110   110    83    89    92    98    91    93    79    87    74    69    75    60    70    49    53    59    61    39    39    36    24    27    25    17    22    15    14    11     5     5     3     4     5     5     2     0     1     0     0     0     0     0     0     0     0     0     0     0     0     0     0     0     0     0     0     0     0     0
     0     0     0     0     0     0     1     1     0     1     1     7     5     4     5     7     8     9    12    12    14    19    17    14    27    29    27    39    38    36    58    53    51    87    87    85   102    73    97   100   107   100   100    98    86   128   113    93    95    81    98    66    89    81    66    61    58    62    49    51    45    43    38    27    22    31    22    17    15    10    12     5     3     7     7     2     2     3     1     0     0     1     0     0     0     0     0     0     0     0     0     0     0     0     0     0     0     0     0     0
     0     0     0     0     1     0     2     1     1     1     3     4     3     7     4     8     8    11     6     3    11    17    10    14    31    27    24    31    34    41    37    53    60    54    71    77    91    80    83    96    91    94    70    99    98   105   121   111    86    88    99    97    85    85    88    62    86    58    53    58    50    59    39    32    30    31    22    20    12    14    16     9    10    11     2     6     5     3     2     0     1     0     0     0     0     0     0     0     0     0     0     0     0     0     0     0     0     0     0     0
     0     0     0     0     0     0     0     1     0     2     3     1     0     3     3     7     9     5     7    11    12    11    14    32    15    31    25    31    29    47    49    44    46    56    49    67    73    78   100    89    86    93    84   114   102   108   112   104    97    97    92    86    84    87    89    88    75    91    73    69    54    72    42    43    35    32    22    21    20    25    18    11    10     7     4     5     5     4     1     1     5     1     0     0     0     0     0     0     0     0     0     0     0     0     0     0     0     0     0     0
     0     0     0     0     0     1     0     1     1     0     1     0     1     2     3     2     5     7     6    12     7    13    17    14    16    24    24    24    30    41    43    39    48    52    74    59    76    72    86    87    93   100    96   101   111    95   102   107   100   107   113   104    86    99    90    84    84    96    83    69    76    62    48    53    53    35    30    26    19    23    13    15    10     8     9     4     6     4     4     3     2     0     0     0     0     0     0     0     0     0     0     0     0     0     0     0     0     0     0     0
     0     1     0     0     0     0     0     0     0     1     0     0     1     2     2     2     4     7     7     9     8    12    12    12    21    15    14    25    19    28    30    25    40    54    73    62    76    92    77    70    96    91    77    96   103   104   103   106   108   124   112   134   114   104    89    99    94    83    87    91    64    69    56    51    45    35    28    37    23    15    16     8    11    13     9     6     6     5     2     2     0     0     0     0     0     0     0     0     0     0     0     0     0     0     0     0     0     0     0     0
     0     1     0     0     0     0     0     0     1     0     1     1     0     3     0     1     3     3     7     5     9     8    14    12    18     9    11    23    28    24    33    57    32    37    57    56    79    78    76    67    70    94   106    84    83    96   106    97   109   108   106   107   100   109    95    93    84   104    97    83    80    82    67    64    40    41    37    25    24    30    21    24    13    12     9     4     5     4     4     5     1     0     2     1     0     0     0     0     0     0     0     0     0     0     0     0     0     0     0     0
     1     0     1     0     0     0     0     0     0     0     0     1     0     1     1     2     1     1     8     4     7    13     6     8     7    14    17    18    12    26    21    30    37    61    47    55    67    52    68    74    89    82    72    90   114    94   106   111   101   116   127   132   117   114   104   109   122    99    88    85    78    66    73    47    63    33    42    30    30    21    21    31    11     9     7     8     9     8     8     2     4     0     3     0     1     0     0     0     1     0     0     0     0     0     0     0     0     0     0     0
     0     0     0     0     0     0     0     0     0     0     0     1     0     1     1     0     8     2     5     7     4     5     3     6     4    10     8    11    20    16    26    25    35    50    37    44    49    59    73    65    73    71    79   101    96   117   122    95   124   115   127   119    92   127   125    97   124   119   110    91    82    67    66    49    55    57    40    39    30    31    24    17    20    11    12     9     5     6     6     5     4     5     0     0     2     0     0     1     1     0     1     0     0     0     0     0     0     0     0     0
     0     0     1     0     0     0     0     0     0     0     0     0     1     0     0     2     2     5     0     3     2     2     4     7     6     5    13    10    12     9    18    21    25    45    44    38    54    45    77    75    62    70    81   103    98    95   110    99   100   104   110   101   123   121   111   113   127   108   101    98   109   103    70    66    72    51    51    47    30    22    17    21    29    13    14    16    13     5     8     5     1     2     0     2     2     0     0     0     1     2     3     0     1     0     0     0     0     0     0     0
     0     0     0     0     0     0     0     0     0     0     0     0     0     3     2     0     3     5     2     3     0     2     7     6     5     7     9     9     8    13    18    16    28    26    33    41    44    45    48    65    70    86    71    96   106   101    90   115   107   130   114   119   133   130   121   134   113   109   102   100   101    75    90    74    68    60    41    40    28    33    34    42    33    21    20    16    10    14     8     4     3     3     4     2     4     0     0     1     1     3     1     2     1     0     0     0     0     0     0     0
     0     0     0     0     0     0     0     0     0     0     0     0     0     1     1     3     0     5     1     1     4     6     5     9     6    10     4    10    10     8    15    14    16    16    30    42    35    41    54    56    72    63    71    73    89    95   101   101    88    92   116   124   120   144   142   120   125   103   106   118   101   111    91    85    66    70    69    51    38    37    40    28    26    24    18    15    18    11     7    10     3     5     3     4     1     0     0     1     1     0     2     2     1     0     0     1     1     0     0     0
     0     0     0     0     0     0     0     0     0     0     0     0     0     1     1     1     1     0     0     1     1     3     2     3     3     6     6     7    10    11    13    14    21    23    25    27    29    40    52    42    61    72    53    67    76    97    99    91   121   116   128   134   116   128   136   120   112   120   108    92    90   105    93    77    90    48    48    52    60    39    26    29    34    27    19    21    12    12    17     9     9     8     7     3     2     2     2     3     0     2     0     0     1     0     0     1     0     0     0     0
     0     0     0     0     0     0     0     0     0     0     0     0     0     0     0     1     0     0     1     3     1     0     2     2     5     6     5     3     9     9    10    15    14    22    20    24    34    39    48    35    46    64    51    74    71    89    97   118    94   105   121   103   126   122   104   112   117   110   109   111    82   117    89    64    79    72    54    57    48    55    53    45    27    23    22    19    23    13    11     7     3     7    12     5     2     6     3     1     1     2     1     0     1     2     0     1     1     0     0     1
     0     0     0     0     0     0     0     0     0     0     0     0     0     0     0     0     0     1     1     0     1     0     1     3     2     2     2     1    11     6     8     7    12    11    19    27    21    37    39    42    57    50    60    64    81    74   111   113   121   114   128   117   119   116   122   109   120   106    93    85   102   105    97    88    77    70    77    66    66    53    38    47    52    36    22    22    16    18    12    18    12     7     8     5     6     6     4     5     1     2     0     1     1     0     0     0     0     0     0     0
     0     0     0     0     0     0     0     0     0     0     0     0     0     0     0     0     0     1     0     0     0     1     0     3     0     2     6     3     3     6     4     8    11    18    18    21    25    20    31    39    43    58    55    67    57    90    72    98    98   115   114   104   133   106   111   120   115    90    92    81    92    98    83    89    80    64    74    73    68    53    56    51    61    43    25    29    28    24    14    17    19    10     9     7     0    10     4     4     7     3     2     2     0     1     2     1     0     0     0     0
     0     0     0     0     0     0     0     0     0     0     0     0     0     0     1     0     1     0     0     0     0     1     1     2     0     6     2     2     4     5     4    10    17    16    12    20    23    25    25    39    37    47    39    47    69    60    67    84    99   107    92   104    83    88   103   106   114   111    92    92   100   102   103    93    86    67    97    74    58    63    58    65    45    42    38    35    33    25    16    13    18    25     9    10     5     9     8     3     3     2     1     0     1     2     1     0     0     0     1     0
     0     0     0     0     0     0     0     0     0     0     0     0     0     0     1     0     1     0     0     1     0     0     2     1     5     1     1     2     3     6     2     7     7    13    10    16    18    25    34    28    33    45    50    43    47    56    66    85    76    84    85    95    90    97   103   123   113   104   105    92    81    93    90    98    77    86    88    86    59    66    65    67    47    47    47    40    25    32    23    24    17    19    13    17     9     5     4     8     6     7     1     0     3     2     0     2     1     0     0     0
     0     0     1     0     0     0     0     0     0     0     0     0     0     0     0     0     0     0     1     0     0     0     0     1     0     2     1     1     1     3     2     5     6     7    16    10    22    20    26    23    18    32    25    44    53    59    78    64    79    82    76    93    97    94    92    76    90   105   100    86    95    84    98    85    95    88    88    66    97    71    88    65    68    63    50    40    42    43    31    24    20     6    18     9    15    12     5     5     7     1     3     3     2     1     1     0     0     0     0     1
     0     1     0     0     0     0     0     0     0     0     0     0     0     0     0     0     0     0     0     0     0     1     0     0     0     0     1     0     4     2     6     4     6     5    18    11    17     6    10    26    28    22    34    41    44    54    58    65    73    61    82    89    87   106    91   102   105    86    87    93   125    94    92    99   118    94    86   100    85    77    93    97    62    59    71    48    44    32    34    35    39    30    17    13    15     8    12     4     5     6     2     4     3     2     0     0     0     1     0     0
     1     2     0     0     1     0     0     1     0     0     0     0     0     0     0     0     1     0     1     0     1     1     0     0     0     1     1     2     3     4     0     2     3     7     8    13    11    10    15    14    20    33    26    36    36    42    49    49    63    66    78    74    71    91    80    75    85   100    94    91    84   116   118    88    80    95    98   111    83    83    87    69    87    62    60    71    46    51    30    36    34    20    20    12    21     7    15    11     7     4     4     6     3     5     1     2     0     1     0     1
     1     0     0     0     0     0     0     0     0     0     0     0     0     0     0     0     0     0     0     1     0     0     1     0     0     3     4     2     2     0     2     0     2     4     4     5    11    10    19    16    20    18    24    22    31    36    38    47    59    56    53    57    75    88    66    86    75    97    82   100    83    97   110    92    83    79    93    94    75    77    86    76    80    89    61    51    48    53    51    35    31    30    18    19    23    11    16    14     9     5     8     2     7     6     0     2     1     1     0     0
     0     0     0     0     0     0     0     0     0     0     0     0     0     0     0     0     0     0     0     0     0     1     0     1     0     2     0     0     2     1     0     1     3     4     6     5     8     6    12    15    18    15    21    23    22    27    35    41    49    39    52    64    73    68    74    77    84    98    90    95    84    98    95   106    93    89   108    81    84    83   100    66    73    70    62    63    46    50    43    44    39    38    38    19    14    16    16    22     9     4     6     9     4     4     3     5     4     1     3     0
     0     0     2     0     0     0     0     0     0     0     0     0     0     0     0     0     0     0     0     1     2     1     0     0     0     0     2     0     2     0     1     0     3     4     2     3     7     3    11    17    14    12    10    25    25    29    27    27    40    50    45    54    64    64    81    69    74    75    71    62    78    98    96    88   100    84    93    92    86    91    97    86    97    84    58    63    57    60    58    42    42    26    27    23    18    19    17     6    13    10    10    11     6     3     3     3     3     5     0     0
     0     2     0     1     1     1     1     0     0     0     0     0     0     0     0     0     0     0     0     1     0     0     0     1     0     2     0     0     0     0     1     1     0     1     2     2     6     6     5    10     9    11     4    15    18    17    28    31    33    52    42    53    53    59    57    67    74    71    73    84   101    93   102    91    93    78    96    97    88   114    88    87    72    84    73    73    86    69    70    44    54    38    35    33    21    16    18    20    18    16    16    11     9     7     4     2     3     2     2     3
     1     1     0     1     1     2     0     1     1     0     0     0     0     0     0     0     0     0     0     0     1     0     1     1     1     1     0     0     1     0     1     0     1     2     0     1     5     2     3     6     6    10    10    10    21    16    24    27    35    47    41    36    54    62    58    59    88    68    72    75    73    87    88    93    98   108    83    95   102   107    76    96    82    93    76    67    74    69    61    56    50    51    32    29    28    34    18    12    10    11    11    12     8    14     5     4     2     6     2     5
     4     1     1     2     0     1     0     0     0     0     0     0     0     0     0     0     0     0     0     0     0     0     0     1     0     0     0     0     0     0     1     0     0     1     3     1     2     1     7     2    10     8     6    11    16    12    15    26    20    32    41    27    35    45    52    63    72    46    72    79    56    72    80    75    65    90    91    96    86   108    97    98    79    87    82    80    92    67    60    58    45    31    44    35    39    23    29    19    25    16    14    14     8     8     5     7     3     2     2     2
     6     3     2     2     1     0     0     0     0     0     0     0     0     0     1     0     0     0     0     0     0     0     0     1     0     0     0     0     0     1     0     0     1     0     2     1     2     2     6     4     7     9    10     9     7    14    14    19    22    26    25    37    40    42    46    57    69    64    47    71    81    67    73    76    72    84   100    99   110    86    73    90    91    70    77    79    78    60    61    42    53    46    40    37    41    26    32    28    25    25    20    22    12    11     8     9     7     7     6     3
     4     3     3     1     0     1     1     1     0     0     0     0     1     1     0     0     0     0     0     0     0     0     0     0     0     0     0     0     0     0     0     1     1     0     0     0     0     4     7     3     5     6     7    13    11    20    14    14    20    30    22    26    30    34    53    34    46    49    56    58    73    59    74    69    83   105    97   114    87    99    84    94    90    80    82    63    60    63    61    67    49    64    57    51    47    30    30    22    29    25    13    15    12    16     7     5     6     3     6     6
     2     5     2     1     1     0     0     0     0     0     0     2     1     0     0     0     1     0     0     0     0     1     0     0     0     0     0     0     0     0     1     0     1     0     0     1     3     1     5     6     3     2     7     8     7    14    18    14    18    21    21    23    28    37    29    46    35    53    65    52    62    63    73    72    81    86    88    88    82   106    92    88    89    80    98    79    70    60    56    56    68    61    52    58    41    42    32    26    24    27    26    19    14    13     7    11     9    11     6     3
     4     5     6     2     1     1     0     1     2     0     1     1     0     0     0     0     0     0     0     0     0     0     0     0     0     0     0     0     0     0     0     1     0     0     0     0     0     1     1     1     3     4     2    11     5     6    17    14    20    21    16    23    24    21    24    28    42    40    50    50    63    71    87    73    84    76    74    91    86    95    94    96   103    75    81    68    61    53    63    64    63    63    58    65    56    50    29    36    34    25    30    30    14    10     9     8     9    14     5     3
     3     5     4     2     3     2     2     0     0     0     1     0     2     0     0     0     0     0     0     0     0     0     0     0     0     0     0     0     0     0     0     0     0     0     0     0     2     0     1     0     0     3     5     7     4     7     7    10     9    10     9    18    18    20    35    28    36    38    43    56    52    64    47    70    62    73    85    73    95    80    82    95    78    87    74    73    71    71    70    61    67    60    63    68    57    52    47    31    30    34    20    11    20    25    12    24     6     9     8     0
     4     0     4     2     2     0     0     1     0     1     0     0     0     0     0     0     1     0     0     0     0     0     0     0     0     0     0     0     0     0     0     0     0     0     0     0     0     1     1     0     1     1     1     3     1     8     8    10     5    15    13    11    20    16    21    26    35    30    37    41    46    56    53    56    56    51    69    71    95    83    93    82    98    75    57    67    98    68    56    62    66    51    53    62    50    41    36    40    30    41    32    22    22    19    19    11    13    10     6     5
     5     3     5     3     2     3     5     0     0     1     0     0     0     0     0     0     0     0     1     0     0     0     0     0     0     0     0     0     0     0     0     0     0     0     0     0     0     0     0     2     2     0     0     2     3     7     6     5     4     8    10    14    18    17    15    29    33    22    23    40    36    48    39    59    58    63    68    69    63    58    85    74    93    81    85    70    75    59    64    61    75    64    78    63    45    64    34    40    42    42    32    26    24    19    20    19     9    16    12     5
    12     5    11     3     3     3     2     0     0     1     1     0     0     0     0     0     0     0     0     0     0     0     0     0     0     0     0     0     0     0     0     0     0     0     0     0     0     0     0     0     2     0     2     3     2     2     3     6     3    15    13    17    19    14    25    18    30    27    28    31    33    44    45    47    54    47    53    66    62    60    74    75    68    70    73    77    82    73    71    67    58    70    75    74    57    45    52    40    46    37    32    35    30    22    24    18    11    15    10    11
    12     8    11     7     0     3     4     0     2     3     1     1     0     0     0     0     0     1     0     0     0     0     0     0     0     0     0     0     0     0     0     0     0     0     0     0     0     2     0     1     0     2     2     1     4     1     5    13     4    13     9    17    13    13    20    18    17    24    29    30    32    26    52    36    45    49    79    61    65    58    80    82    63    74    71    79    57    60    53    60    79    67    59    68    47    49    54    52    35    44    23    23    27    18    21    21    17    14    18    19
    14     2     7     3     3     4     4     2     7     0     1     1     0     0     0     0     0     0     1     1     0     0     0     0     0     0     0     0     0     0     0     0     0     0     0     0     0     1     0     0     0     0     0     2     5     2     5     3     8     4     7     5    14    16    12    11    20    18    24    19    28    40    37    34    37    51    70    53    60    63    67    64    59    61    67    73    74    82    77    61    62    54    75    54    54    70    51    53    40    42    34    52    40    26    28    16    20    21    11    12
    16     8     2     5     6     5     5     8     5     4     1     0     0     0     1     0     0     1     1     1     1     0     0     0     0     0     0     0     0     0     0     0     0     0     0     0     0     0     0     1     0     0     0     1     1     1     1     7     7     5     2    13     9     6     8    13    15    15    17    29    26    26    40    43    50    47    46    49    57    53    53    58    63    54    58    65    65    61    80    60    82    53    62    50    60    48    50    48    54    34    42    32    41    35    28    19    28    17    14    21
    15    14     9     2    10     5     2     5     2     1     1     1     5     0     2     1     0     0     1     0     1     1     0     0     0     0     0     0     0     0     0     0     0     0     0     0     0     0     0     1     0     0     0     1     1     0     6     5     5     4     3     6     6    10     4     9    10     7    18    22    24    25    31    33    37    49    40    45    53    64    54    50    53    76    55    58    76    68    71    86    81    67    57    70    63    65    59    56    56    46    42    45    40    34    35    34    28    30    14    16
    21    11    10     7     9     6     1     4     6     5     3     2     5     3     0     1     0     1     0     1     1     1     1     0     0     0     0     0     0     0     0     0     0     0     0     0     0     0     0     0     0     0     1     1     0     0     2     1     1     1     6     4     6     8     5    10     6    16    13    16    16    21    20    27    44    43    37    56    52    46    48    39    52    52    60    57    59    66    71    68    82    64    65    80    59    66    59    52    48    49    50    52    38    40    28    22    29    23    28    21
    22    15     7    17    11     2     2     5     4     7     0     3     2     1     0     0     1     0     0     2     0     0     0     0     0     0     0     0     0     0     0     0     0     0     0     0     0     1     2     1     0     1     1     1     1     5     1     0     4     2     3     3     6     8     6     6     8    12    15    15    13    28    24    31    24    35    35    41    45    51    39    41    32    58    53    56    56    64    56    58    87   100    74    63    63    70    64    74    60    65    41    62    38    37    32    29    21    36    26    24
    26    21     7     8     5    10    10    10     1     2     3     7     4     2     1     1     2     2     0     0     0     1     0     0     0     0     0     0     0     0     0     0     0     0     0     0     1     0     0     0     0     0     0     1     0     2     1     2     3     3     3     5     6     8     9    10     6    10     9    14     8    16    22    23    25    24    34    38    46    34    43    41    44    46    62    53    56    62    47    70    74    81    70    78    69    73    66    57    53    57    60    56    55    38    44    30    42    40    41    27
    19    23    14    10     9    10     8     8     5     3    10     2     1     2     2     1     1     0     1     1     0     3     1     0     2     2     0     0     0     0     0     0     0     0     0     0     0     0     0     0     0     0     0     1     1     2     0     1     3     2     4     7     7     3     3     7     7     2    10     9    10     9    17    21    24    25    32    26    25    33    31    33    53    50    54    51    56    57    70    55    54    58    68    59    67    48    49    49    60    62    61    61    51    53    45    39    31    37    25    36
    31    21    21    15    19    13    12     6     5     6     3     4     4     3     2     4     1     1     1     1     5     0     0     1     0     0     0     0     1     0     0     0     0     0     0     0     0     0     0     0     0     0     0     1     2     1     0     1     0     2     3     2     3     3     3     3     5     4     8    10    16     8    12    12    16    13    20    29    28    25    28    41    48    48    36    43    48    48    66    59    56    67    61    70    59    65    63    62    50    59    59    72    58    54    41    40    35    23    30    27
    25    19    20    12    16    15    10    12    12     6     3     9     4     9     1     3     2     1     1     0     1     2     0     0     0     0     0     0     0     0     0     0     0     0     0     0     0     0     0     0     0     0     0     3     0     1     1     1     0     0     2     0     5     1     5     5     5     3     2     3    18     8     9    22     9    19    28    21    26    21    30    32    43    28    42    41    34    57    53    70    52    78    59    64    59    62    64    58    62    67    52    57    51    42    48    38    30    38    38    33
    36    28    18    16    19    14    15    10    15    13    10    11     5     6     9     4     6     3     3     1     3     1     1     0     0     1     0     0     0     0     0     0     0     0     0     0     0     0     0     0     0     0     0     0     3     1     0     0     0     0     1     1     0     2     2     6     0     3     4     6     4     8     7     7    12    11    18    19    23    23    28    23    27    40    30    32    43    37    45    55    63    54    54    59    65    61    53    49    60    56    61    65    44    54    40    51    43    40    32    32
    32    24    20    23    18    20    18    20    11    14    11    11    17     7     6     8     4     3     2     2     2     1     1     2     3     1     0     0     0     0     0     0     0     0     0     0     0     0     0     0     0     1     0     0     2     2     2     0     0     1     1     1     0     3     2     4     5     1     3     7     4     8     6     8    13     8     8    21    10    19    22    28    30    18    39    38    33    38    45    51    42    47    59    64    57    54    58    71    58    62    58    56    48    65    44    54    51    40    46    33
    33    28    43    20    27    32    20    13    23    10    16    11    13     8     5     6     5     1     0     1     2     2     2     0     0     1     0     0     0     0     0     3     1     0     0     0     0     0     0     0     0     0     0     0     0     1     1     0     0     0     0     0     0     0     1     0     1     2     5     5     3     7     7    10     8     6     9    13    12    17    18    21    26    30    34    42    37    32    49    29    37    40    49    47    54    58    69    71    69    66    62    63    55    61    60    64    57    41    50    32
    52    47    29    33    24    24    27    33    18    14    13    15    14     7     6     6     4     7     4     6     5     0     2     4     3     0     1     0     1     1     0     0     2     2     0     0     0     0     0     0     0     0     0     0     1     0     0     0     0     0     0     0     0     0     1     0     0     2     4     5     1     3     0     5     8     9    11     5    13    13    15    22    26    26    19    31    26    41    44    36    38    39    47    49    51    49    50    51    70    60    59    52    58    50    68    59    68    49    48    49
    40    45    49    32    21    30    25    31    20    25    15    13    13     8     7     5     8     4     6     6     5     3     4     2     0     0     2     1     1     0     0     1     1     0     0     1     0     0     0     0     0     0     0     0     0     0     0     0     0     0     0     0     1     1     0     0     2     2     0     3     1     5     6     5     9     9     7     7    10    15    15    21    18    24    19    30    42    27    33    40    32    42    49    57    46    60    52    62    55    54    53    67    57    66    63    69    63    65    51    45
    48    38    41    32    41    31    28    26    22    20    19    17     6     9     7     7     1     8     6     6     6     2     4     5     2     2     1     0     0     0     1     0     1     1     0     0     0     0     0     0     0     0     0     0     0     0     0     0     0     0     0     0     0     0     0     0     1     0     1     1     1     0     1     1     0     3    11     8     5    11    13    20    14    25    21    22    26    30    39    28    30    38    45    40    51    42    67    54    60    65    56    56    63    71    69    62    60    68    57    41
    60    37    42    40    47    45    35    31    19    26    26    13    13     9    11    13     2     9     2     5     3     3     5     8     4     0     2     0     2     0     0     0     1     3     1     3     0     0     0     0     0     0     0     0     0     0     0     0     0     0     0     0     0     0     0     0     0     1     0     0     2     3     1     4     5     4     1     5     2     6     9    11    18    20    14    20    20    21    21    29    36    30    37    50    49    51    65    53    65    50    57    63    69    51    56    61    66    38    66    58
    45    42    46    47    35    38    42    35    24    34    19    18    15    11    13     9     9     6     3     1     8     9     4    10     3     5     1     0     0     0     1     0     1     2     2     0     1     0     0     0     0     0     0     0     0     0     0     0     0     0     0     0     0     0     0     0     0     0     1     0     0     1     1     1     2     5     2     4     4     7     5    12    14    11    11    16    21    21    23    21    42    35    31    47    44    44    39    46    55    51    62    47    66    58    59    49    53    79    52    54
    51    55    48    42    46    49    43    30    35    24    23    20    14     9    12     8    10     3     5     7     4     3    10     1     7     3     0     0     2     3     0     4     2     1     0     0     0     0     0     0     0     0     0     0     0     0     0     0     0     0     0     0     0     0     0     0     0     0     0     0     0     0     0     0     2     2     0     2     3     2     5     9    14    16     5    15    23    24    25    22    30    27    40    38    43    39    56    46    49    44    53    52    41    66    57    59    56    74    53    63
    62    67    46    49    48    47    39    51    34    38    29    19    23     7    14     8     9    12     8     5     7     6     3     5     3     1     4     2     1     3     1     1     0     0     0     1     0     0     0     0     0     0     0     0     0     0     0     0     0     0     0     0     0     0     0     0     0     0     0     0     1     1     0     1     1     1     1     0     2     1     8     7     4     6    10    17    16    17    18    16    26    31    31    36    37    34    35    45    42    52    46    52    40    59    59    51    45    60    62    50
    69    58    62    59    52    52    45    52    44    40    30    24    23    15    13    11    11     7     9    11     5     4     4     6     3     5     0     5     0     2     0     0     0     2     0     0     0     1     0     0     0     0     0     0     0     0     0     0     0     0     0     0     0     0     0     0     0     0     0     2     0     1     0     0     1     1     0     1     0     4     3     5     5    11    12    16    18    21    21    27    22    18    28    34    35    44    31    28    39    31    43    46    64    41    78    61    60    58    66    65
    60    75    49    48    50    51    40    46    41    42    30    20    25    26    17    14    13    10     9     6    12     8     3     8     4     3     1     4     1     2     1     1     2     1     1     1     0     0     0     0     0     0     0     0     0     0     0     0     0     0     0     0     0     0     0     0     0     0     0     0     0     0     0     0     0     0     2     0     0     2     2     1     5     7     6    10    16    19    26    22    19    19    31    27    34    33    33    20    38    47    40    51    58    44    56    71    54    61    52    52
    67    40    42    40    53    40    44    34    45    39    43    26    30    21    16    19    15    12    12     8     9     4     6     4     6     4     4     1     4     1     2     3     2     0     2     0     0     0     0     0     0     0     0     0     0     0     0     0     0     0     0     0     0     0     0     0     0     1     0     1     1     0     0     2     1     0     0     1     0     4     0     1     2     6     8    13    10    17    18    15    15    18    22    30    20    34    27    35    28    49    44    38    61    49    63    51    56    57    61    56
