#lt      20.0
#count pbc
#dt      1.0
#dn      20
#edges  -27.1557089 -26.6125947 -26.0694805 -25.5263664 -24.9832522 -24.4401380 -23.8970238 -23.3539097 -22.8107955 -22.2676813 -21.7245671 -21.1814529 -20.6383388 -20.0952246 -19.5521104 -19.0089962 -18.4658821 -17.9227679 -17.3796537 -16.8365395 -16.2934253 -15.7503112 -15.2071970 -14.6640828 -14.1209686 -13.5778545 -13.0347403 -12.4916261 -11.9485119 -11.4053977 -10.8622836 -10.3191694  -9.7760552  -9.2329410  -8.6898268  -8.1467127  -7.6035985  -7.0604843  -6.5173701  -5.9742560  -5.4311418  -4.8880276  -4.3449134  -3.8017992  -3.2586851  -2.7155709  -2.1724567  -1.6293425  -1.0862284  -0.5431142   0.0000000   0.5431142   1.0862284   1.6293425   2.1724567   2.7155709   3.2586851   3.8017992   4.3449134   4.8880276   5.4311418   5.9742560   6.5173701   7.0604843   7.6035985   8.1467127   8.6898268   9.2329410   9.7760552  10.3191694  10.8622836  11.4053977  11.9485119  12.4916261  13.0347403  13.5778545  14.1209686  14.6640828  15.2071970  15.7503112  16.2934253  16.8365395  17.3796537  17.9227679  18.4658821  19.0089962  19.5521104  20.0952246  20.6383388  21.1814529  21.7245671  22.2676813  22.8107955  23.3539097  23.8970238  24.4401380  24.9832522  25.5263664  26.0694805  26.6125947  27.1557089
    66    56    66    60    60    57    56    46    42    36    46    48    17    21    29    24    17    16    11     7     5     6     5     3     1     2     2     0     0     0     0     0     0     0     1     0     1     0     0     0     0     0     0     0     0     0     0     0     0     0     0     0     0     0     0     0     0     0     0     0     0     0     0     0     0     0     0     0     0     0     0     0     1     0     3     3     1     6     5     4     5     4     8    10    10     9    19    22    22    31    31    36    44    50    53    64    47    60    57    66
    58    62    76    57    64    56    53    49    62    46    43    47    36    39    26    23    19    23    16     9     9     4     6     3     1     1     2     3     0     1     0     0     1     1     0     0     0     0     0     0     0     0     0     0     0     0     0     0     0     0     0     0     0     0     0     0     0     0     0     0     0     0     0     0     0     0     0     0     0     0     0     0     2     1     0     1     1     3     3     3     6     7     8     9    11    14    11    24    23    35    25    40    41    37    36    38    43    50    45    63
    80    55    70    68    86    62    63    52    59    54    51    49    37    49    26    25    29    20    21    14    18     4     5     2     6     0     3     2     1     1     0     1     1     1     0     1     0     0     0     0     0     0     0     0     0     0     0     0     0     0     0     0     0     0     0     0     0     0     0     0     0     0     0     0     0     0     0     0     0     0     1     1     0     1     1     3     2     1     1     7     5     6     7     7     9    10    10    15    19    25    25    22    40    39    49    48    36    46    64    56
    47    79    65    74    63    73    63    70    67    51    43    40    43    47    30    40    32    26    21    18    10    10     8     4     6     5     2     1     0     0     0     2     2     1     2     0     0     0     0     0     0     0     0     0     0     0     0     0     0     0     0     0     0     0     0     0     0     0     0     0     0     0     0     0     0     0     0     0     0     0     0     1     0     1     0     2     1     3     1     2     3     2     5     1     8     8     2    14     8    16    17    28    30    40    34    37    36    53    51    60
    79    69    88    75    86    78    65    72    74    64    53    52    47    58    44    48    38    40    23    29    15    13     7    11     4     9     3     1     4     0     3     1     2     0     1     0     0     0     0     0     0     0     0     0     0     0     0     0     0     0     0     0     0     0     0     0     0     0     0     0     0     0     0     0     0     0     0     0     0     0     0     0     0     1     1     0     0     2     2     0     2     2     3     4     3     5     5     9    15    13    16    26    29    24    30    33    34    51    41    60
    66    57    83    69    80    72    70    89    68    55    60    58    51    53    47    28    48    32    22    33    21    19    11     5     3     3     3     4     5     0     0     2     3     2     1     1     1     0     0     0     0     0     0     0     0     0     0     0     0     0     0     0     0     0     0     0     0     0     0     0     0     0     0     0     0     0     0     0     0     0     0     0     0     0     1     1     0     1     0     1     0     2     2     2     3     5     2     2     8    11    12    15    20    19    21    26    32    34    32    56
    58    60    57    67    67    54    60    63    66    72    63    63    58    65    55    45    54    45    36    28    25    20    16    20    17     6     8     3     4     5     2     2     1     5     0     0     2     0     0     0     0     0     0     0     0     0     0     0     0     0     0     0     0     0     0     0     0     0     0     0     0     0     0     0     0     0     0     0     0     0     0     0     0     0     2     1     1     0     0     0     1     0     1     1     2     2     3     1     2     4    13    11    19    18    22    26    30    34    39    47
    43    51    63    60    68    61    68    76    79    75    70    63    62    63    55    56    54    57    44    33    24    24    17    26    13     8    10     7     8     7     2     1     1     5     1     0     0     1     0     0     0     0     0     0     0     0     0     0     0     0     0     0     0     0     0     0     0     0     0     0     0     0     0     0     0     0     0     0     0     0     0     0     0     0     0     0     0     0     1     0     0     0     1     0     2     1     2     3     4     3     7     9    17     9    19    23    33    32    41    38
    44    52    50    58    70    64    59    62    79    83    93    90    76    82    71    72    64    44    42    40    44    30    27    21    17    19    11     7    14     4     6     5     3     4     1     2     0     1     1     0     0     0     0     0     0     0     0     0     0     0     0     0     0     0     0     0     0     0     0     0     0     0     0     0     0     0     0     0     0     0     0     0     0     0     0     0     1     2     0     0     0     1     1     0     1     0     4     2     0     3    12     6    13    16    30    21    28    28    38    39
    30    42    60    60    68    57    72    59    75    60    73    78    91    91    79    76    79    54    45    65    42    36    19    19    23    13    17    10    10    10     3     2     6     3     2     1     1     1     1     0     0     0     1     0     0     0     0     0     0     0     0     0     0     0     0     0     0     0     0     0     0     0     0     0     0     0     0     0     0     0     0     0     0     0     0     0     0     1     0     0     0     0     0     0     2     1     3     3     3     3     8     5     8    18    26    20    22    21    21    46
    40    54    42    51    71    58    69    75    79    93    88    94    92    78    62    80    71    70    53    52    44    44    25    31    21    12    10    14    18     9     7     1     4     1     3     1     1     0     3     1     1     1     0     0     0     0     0     0     0     0     0     0     0     0     0     0     0     0     0     0     0     0     0     0     0     0     0     0     0     0     0     0     0     0     0     0     0     0     0     0     0     0     0     0     0     1     3     3     2     4     3     6    10    10    11    18    15    20    26    34
    37    40    44    50    66    65    64    93    76    74    81   100    91    77    85    74    88    85    73    60    54    40    39    27    29    27    21    20    12    17     7     5     3     5     1     7     4     1     1     1     0     1     0     0     0     0     0     0     0     0     0     0     0     0     0     0     0     0     0     0     0     0     0     0     0     0     0     0     0     0     0     0     0     0     0     0     0     0     0     0     0     0     0     0     2     0     0     1     2     1     5     5     2     5    10    16    19    19    21    25
    37    40    44    43    57    57    69    69    77    92    79    84   101    90    85   105    70    73    69    67    51    59    41    41    36    30    20    15    14    18    13     4     3     5     4     5     2     4     3     0     2     2     1     0     2     0     0     0     0     0     0     0     0     0     0     0     0     0     0     0     0     0     0     0     0     0     0     0     0     0     0     0     0     0     0     0     0     0     0     0     0     0     0     0     1     0     0     1     0     1     2     5     4     5    10    14     9    11    21    23
    23    28    39    35    43    58    55    62    84    77    91    75   100    69    98   113    99    84    76    74    57    60    49    49    47    35    36    33    20    16    13     8     7     3     2     5     0     6     3     3     5     0     1     0     0     0     0     0     0     0     0     0     0     0     0     0     0     0     0     0     0     0     0     0     0     0     0     0     0     0     0     0     0     0     0     0     0     0     0     0     0     0     0     0     0     0     0     1     1     0     2     2     5    10     0     7     7    10    19    25
    24    33    31    27    41    50    42    51    64    72    58    94    96    98    83    90    79    90    95    72    65    54    60    62    50    41    40    38    29    27    11    11     8    10    16     3     4     2     2     2     1     1     0     1     0     0     0     0     0     0     0     0     0     0     0     0     0     0     0     0     0     0     0     0     0     0     0     0     0     0     0     0     0     0     0     0     0     0     0     0     0     0     1     0     0     0     1     1     0     2     0     0     2     3     8     9     7    12    13    20
    15    19    30    38    41    42    32    60    52    59    80    91    93    84    93    89    97   102   106    87    77    74    65    55    60    38    58    33    38    39    23    13    13    12     9     3     3     3     1     3     0     1     0     1     1     0     0     0     0     0     0     0     0     0     0     0     0     0     0     0     0     0     0     0     0     0     0     0     0     0     0     0     0     0     0     0     0     0     0     0     0     0     0     0     0     0     0     0     1     1     2     1     4     1     4     6     7     6    16    24
    17    17    18    35    31    39    42    46    54    66    83    83    81    80    97    96    87   105   100    80    79    80    86    51    55    64    58    47    40    25    26    13    18    14     9     3    12     3     3     3     3     3     3     1     1     1     0     0     0     0     0     0     0     0     0     0     0     0     0     0     0     0     0     0     0     0     0     0     0     0     0     0     0     0     0     0     0     0     0     0     0     0     0     0     0     0     0     2     0     0     0     1     1     3     1     5     9    10     6    11
    16    15    25    17    28    32    47    30    63    63    69    97    79    93    85    96    83    80   115   103    94    92    68    73    72    66    54    46    39    46    23    33    18    16    15     9    12     4     9     5     2     0     1     3     2     3     0     0     0     0     0     0     0     0     0     0     0     0     0     0     0     0     0     0     0     0     0     0     0     0     0     0     0     0     0     0     0     0     0     0     0     0     0     0     0     1     0     0     0     0     1     0     2     1     2     3     1     4     5    11
    12    13    14    22    32    33    33    42    51    51    43    63    69    87    78    97   101   100   108   108   106    89    97    78   100    65    88    63    54    52    34    42    21    25    23    12    21    10    11     3     5     5     2     1     1     0     1     1     1     0     0     0     0     0     0     0     0     0     0     0     0     0     0     0     0     0     0     0     0     0     0     0     0     0     0     0     0     0     0     0     0     0     1     0     0     0     1     0     0     0     0     1     0     3     1     0     2     3     6     8
    15    11     9    19    19    38    26    33    42    58    51    66    66    71    72    77    79    76    95   100    94    87   100    78    90    77    92    64    61    56    49    36    43    19    25    18    17    13    10     9     5     6     4     2     0     0     0     0     0     0     0     0     0     0     0     1     0     0     0     0     0     0     0     0     0     0     0     0     0     0     0     0     0     0     0     0     0     0     0     0     0     0     0     0     0     0     0     0     0     0     0     1     0     0     2     1     2     3     3     6
     1     5    13    16    11    27    34    29    35    49    50    52    61    69    72    68    69    86    88    91   102    91   126   105   102    89    92    68    57    48    54    48    51    43    27    23    20    17    10    10     7    11     8     5     3     2     2     0     0     0     0     0     0     0     0     0     0     0     0     0     0     0     0     0     0     0     0     0     0     0     0     0     0     0     0     0     0     0     0     0     0     0     0     0     0     0     0     0     0     0     0     0     2     1     1     4     0     0     2     1
     4     8    12    10     9    14    21    29    29    40    32    34    51    55    62    52    92    78   101    96    98   107   104    97    99    86    99    76    67    84    56    62    64    43    44    35    29    17    19    13    15    10     4     1     5     3     3     0     0     1     0     0     0     0     0     0     0     1     1     0     0     0     0     0     0     0     0     0     0     0     0     0     0     0     0     0     0     0     0     0     0     0     0     1     0     0     0     0     0     0     0     0     1     0     0     1     1     0     2     3
     2     5     6     5    10     8     9    21    29    28    50    29    33    43    54    62    52    77   105    90    96   109   120   116    95   103    97    82    96    70    68    70    73    53    50    35    24    29    19    16    17     7    16    10     5     3     3     1     2     0     1     0     0     1     0     0     0     0     0     0     0     0     0     0     0     0     0     0     0     0     0     0     0     0     0     0     0     0     0     0     0     0     0     0     0     0     0     0     0     0     0     0     0     1     2     0     0     1     3     1
     1     3     4     5    10     3    15    14    26    22    27    33    43    62    46    62    59    73    85    69    89    95   109    87   100   101   105    90    79    83    86    78    80    60    60    41    38    32    25    20    20    22    16     9     6     6     3     1     3     4     1     0     0     0     0     0     0     0     0     0     0     0     0     0     0     0     0     0     0     0     0     0     0     0     0     0     0     0     0     0     0     0     0     0     0     0     0     0     0     0     0     0     0     0     0     0     0     1     1     2
     0     2     4     1     8     7     7    15    19    26    27    26    34    33    51    62    53    69    70    89    83   100    92   118    97   106   110   111    96   106    83    83    94    91    57    56    54    39    26    19    19    15    10    12    15     9     5     3     3     4     0     0     0     0     0     0     0     0     0     0     0     0     0     0     0     0     0     0     0     0     0     0     0     0     0     0     0     0     0     0     0     0     0     0     0     0     0     0     0     0     0     0     0     1     0     0     1     0     0     0
     1     1     2     4     5     3     5     8    11    18    22    28    32    32    45    47    59    63    73    62    91    90   103   100   105   113    89   110   106    99    85    96    88    70    68    76    47    45    40    24    27    20    13    10     8    10     4     2     4     7     0     1     2     0     0     1     0     0     0     0     1     0     0     0     0     0     0     0     0     0     0     0     0     0     0     0     0     0     0     0     0     0     0     0     0     0     0     0     0     1     0     0     0     0     1     0     0     0     0     2
     2     0     2     5     5     9     5     7     6    12    24    22    28    35    30    36    59    51    74    76    86    79   107   100   107   121   112   107   106   110   102   112   109    81    77    75    74    49    55    37    36    22    28    20    14    12    11     6     4     5     3     3     1     2     0     1     1     0     0     0     0     0     0     0     0     0     0     0     0     0     0     0     0     0     0     0     0     0     0     0     0     0     0     0     0     0     0     0     0     1     0     0     0     0     1     1     1     0     0     0
     0     1     2     1     2     3     3     8     9    13    14    15    23    30    42    39    50    49    46    63    80    93    76    97   123    92   100   117   119   112   103   109    89   100    86    87    83    46    52    38    42    27    29    19    24    16    16     3     7    10     5     4     3     1     0     1     0     0     0     0     0     0     0     0     0     0     0     0     0     0     0     0     0     0     0     0     0     0     0     0     0     0     0     0     0     0     0     0     0     0     0     0     0     0     0     0     2     0     1     1
     0     2     0     3     2     1     3     2     8    12    18    11    17    23    24    29    26    42    54    50    80    92    85    80    80   100    96   120   110   116   130    98   106   109    94    81    91    73    79    60    49    40    32    28    19    17     7    11    14     5     6     3     6     3     1     3     1     3     0     1     0     0     0     0     0     0     0     0     0     0     0     0     0     0     0     0     0     0     0     0     0     0     0     0     0     0     0     0     0     0     0     0     0     1     0     1     1     0     0     1
     0     0     0     3     1     2     2     3     3     9     9    15    22    19    26    27    37    42    45    52    78    81    86    83    93   107   104    99   106   144   123   114   131   120   131   116    83    80    74    67    66    45    37    31    27    22    23    13    15     7     3     9     7     3     1     0     2     1     2     0     0     0     0     0     0     0     0     0     0     0     0     0     0     0     0     0     0     0     0     0     0     0     0     0     0     0     0     0     0     0     0     0     0     0     0     0     1     0     0     0
     0     0     0     0     0     1     2     1     2     3     7    12    14    17    15    15    23    30    33    36    55    51    65    64    86    77    99   101   124   139   128   127   106   112   121   106    90    95    65    83    71    48    56    33    31    26    18    20    22    13     7     4     7     4     2     3     2     3     1     5     0     0     0     0     0     0     0     0     0     0     0     0     0     0     0     0     0     0     0     0     0     0     0     0     0     0     0     0     0     0     0     0     0     0     0     0     0     0     0     0
     0     0     1     1     0     0     3     3     3     4     7     6    15     8    20    18    26    24    50    47    41    60    79    72    72    64   114   117    98   110   122   132   118   108   125    99   111    96   110    94    80    63    56    52    48    36    29    27    18    17     9     8     6     8     3     1     2     4     2     0     0     0     1     0     0     0     0     0     0     0     0     0     0     0     0     0     0     0     0     0     0     0     0     0     0     0     0     0     0     0     0     0     0     0     0     0     0     0     0     0
     0     1     0     1     2     1     2     0     3     9     4    11     8    13     7    19    17    30    31    41    49    56    54    68    90    85    88   111   104   124   120   117   122   113   131   118   131   113   112   108   102    76    49    68    53    39    33    37    20    29    13     7     8     7     8     3     1     5     2     0     1     0     2     0     0     0     0     0     0     0     0     0     0     0     0     0     0     0     0     0     0     0     0     0     0     0     0     0     0     0     0     0     0     0     0     0     0     0     0     0
     0     0     0     0     0     0     0     1     2     0     4     7     8    10    14    14    10    22    28    30    39    37    42    47    63    75    80    93   110   114   102   138   132   138   122   129   132   117   115   129   102    91    57    59    64    51    34    57    23    26    19    11    10     4     4     4     3     5     5     2     2     0     0     1     0     1     0     0     0     0     0     0     0     0     0     0     0     0     0     0     0     0     0     0     0     0     0     0     0     0     0     0     0     0     0     0     0     0     0     0
     0     0     1     2     0     0     0     0     1     4     3     3     3     4     6    11    10    14    27    24    38    43    41    60    52    72    79    87   107   109   105   101   120   125   141   134   156   123   134   114   101    95   104    69    69    63    42    34    33    21    30    15    13    10     8     6     5     3     6     1     1     2     0     0     1     0     0     0     0     0     0     0     0     0     0     0     0     0     0     0     0     0     0     0     0     0     0     0     0     0     0     0     0     0     0     0     0     0     0     1
     0     0     0     0     0     0     0     3     1     2     1     2     3     3     5     7    10    17    17    28    30    35    31    51    56    67    77    78    91    85    93   127   127   130   116   141   148   146   131   135   116    94    94    63    95    77    52    52    52    27    32    22    19    16    12     9     9     4     7     1     1     1     1     0     1     1     1     0     0     0     0     0     0     0     0     0     0     0     0     0     0     0     0     0     0     0     0     0     0     0     0     0     0     0     0     0     0     0     0     0
     0     0     1     0     0     0     1     2     3     1     5     3     1     4     5     6     4    12    15    14    22    39    26    41    48    65    73    62    77    95    94   119   125   109   122   130   133   129   154   155   115   118   113    84    84    74    57    59    50    55    38    37    31    30    11    16    12     6     3     9     0     2     2     1     2     0     0     0     0     0     0     0     0     0     0     0     0     0     0     0     0     0     0     0     0     0     0     0     0     0     0     0     0     0     0     0     0     0     0     0
     0     0     1     0     0     0     0     2     2     0     1     1     3     3     3     4     3     4    12    11    17    21    25    35    36    43    55    60    75    79    75   106    98   109   125   141   127   124   135   124   127   133    97    93    95    98    76    78    71    58    36    34    35    18    20     9     9     9     8     6    11     2     1     1     0     1     1     0     0     0     0     0     0     0     0     0     0     0     0     0     0     0     0     0     0     0     0     0     0     0     0     0     0     0     0     0     0     0     0     0
     0     0     0     0     0     0     0     1     1     0     1     1     4     4     5     2     6     6    10    13    13    21    22    35    47    30    33    68    72    74    84    99   100   112   114   130   132   160   149   119   137   102   118   133   115    90    82    92    78    62    57    57    35    39    20    21    20     7    10     7     8     6     1     1     1     0     1     1     1     0     0     1     0     0     0     0     0     0     0     0     0     0     0     0     0     0     0     0     0     0     0     0     0     0     0     0     0     0     0     0
     0     0     1     0     0     0     0     0     0     1     1     0     1     1     2     3     1     5     9    10     7    18    15    21    19    21    37    43    43    70    81    94    89   111   110   114   124   131   124   132   143   124   117   127   114   110    98    94   107    97    61    58    57    42    30    26    16    15     6    10     5     6    12     3     2     1     2     1     0     0     0     0     1     0     0     0     0     0     0     0     0     0     0     0     0     0     0     0     0     0     0     0     0     0     0     0     0     0     0     0
     0     0     0     0     0     0     0     0     2     2     0     0     0     0     0     2     2     6     7     9    11     7    17    14    26    25    55    38    52    58    59    71    78   105   104   118   122   123   128   146   149   139   125   148   142   105   120   104   107   102    69    55    62    42    47    26    32    14     9    12     9     9     5     1     2     3     3     3     0     1     2     0     0     1     0     0     0     0     0     0     0     0     0     0     0     0     0     0     0     0     0     0     0     0     0     0     0     0     0     0
     0     0     0     0     0     0     0     0     0     0     0     0     0     1     0     0     4     2     5     6     5     4     5    16    12    23    33    29    31    54    56    62    87   105    62   101   120   106   129   118   134   147   131   111   131   119   134   123   106    91    88    61    63    69    44    51    37    23    16    18    12     6     9     2     3     3     1     1     0     1     2     0     0     0     0     0     0     0     1     0     0     0     0     0     0     0     0     0     0     0     0     0     0     0     0     0     0     0     0     0
     0     0     0     0     0     0     0     0     0     0     0     0     0     0     0     1     1     3     1     3     4     2     7     8    16    22    22    36    24    47    42    50    72    77    86    83   104   101   112   110   134   137   150   148   153   145   140   122   106    92   106    90    70    76    58    44    29    28    18    20    21     8    11     5     2     2     1     0     4     0     0     0     1     1     0     1     0     0     0     0     1     0     0     0     0     0     0     0     0     0     0     0     0     0     0     0     0     0     0     0
     0     0     0     0     0     0     0     0     0     0     0     0     0     1     0     0     0     0     1     2     5     4     7     8     7    11    18    19    20    37    35    62    60    61    75    79    76    89    93   106   120   114   156   129   129   137   159   138   123   114   104    90    93    83    77    60    50    39    41    19    20    13     8    14     4     6     3     2     2     0     0     0     0     0     0     0     0     1     1     0     0     0     0     0     0     0     0     0     0     0     0     0     0     0     0     0     0     0     0     0
     0     0     0     0     0     0     0     0     0     0     0     0     0     0     0     0     0     0     0     2     2     3     3    10    17     9    16    23    23    24    27    31    69    48    57    87    88    79   108   135   129   134   140   145   155   153   154   142   138   125   120   123   123    93    78    70    50    54    45    44    33    18    25    17    15     6     8     1     2     2     2     1     0     1     0     0     0     0     0     0     0     0     0     0     0     0     0     0     0     0     0     0     0     0     0     0     0     0     0     0
     0     0     0     0     0     0     0     0     0     0     0     0     0     0     0     0     0     0     0     0     1     0     5     7     5     2     8    13    10    24    23    26    44    50    71    66    82    89    84   114   128   142   148   132   153   165   157   132   127   127   129   131   122    98    99    82    77    57    48    29    29    18    18    15    13     3     6     7     3     4     3     3     0     1     0     0     0     1     0     0     0     0     0     0     0     0     0     0     0     0     0     0     0     0     0     0     0     0     0     0
     0     0     0     0     0     0     0     0     0     0     0     0     0     0     0     1     0     0     0     0     0     0     1     5     3    10     9    10    18    16    21    26    35    45    51    81    64    79    92   121   101   116   118   131   160   148   149   151   162   141   142   103   106   104   112    86    77    78    52    40    20    30    26    23    22    11    11     7    12     8     4     2     4     2     1     0     0     0     0     0     0     0     0     0     0     0     0     0     0     0     0     0     0     0     0     0     0     0     0     0
     0     0     0     0     0     0     0     0     0     0     0     0     0     0     0     0     0     0     1     0     0     0     2     2     3     7     5    11    16    20    16    28    21    48    41    47    65    75    87    77   120   112   135   123   132   162   152   136   154   138   143   127   123   116   105   102    78    60    55    46    44    39    36    26    29    14    13     8     9     7     6     5     4     0     1     0     0     0     0     0     0     0     0     0     0     0     0     0     0     0     0     0     0     0     0     0     0     0     0     0
     0     0     0     0     0     0     0     0     0     0     0     0     0     0     0     0     0     0     0     2     0     0     2     2     3     6    10    13    11    22    17    16    29    37    57    46    57    59    76    89    95   108   109   119   139   150   154   144   122   139   144   133   129   132   120    92    82    96    71    84    62    52    44    23    23    20    17     9    14     7     7     7     2     2     1     0     0     0     0     0     0     0     0     0     0     0     0     0     0     0     0     0     0     0     0     0     0     0     0     0
     0     0     0     0     0     0     0     0     0     0     0     0     0     0     0     0     0     0     1     0     0     0     3     5     4     7     2     2     5    13    22    16    26    24    31    50    45    59    70    61    92    87    98   101   127   138   148   135   153   149   130   122   129   142   115   128   102    80    93    85    61    60    59    40    35    29    16    17    15     7    12     7     6     3     2     4     1     0     0     0     0     0     0     0     0     0     0     0     0     0     0     0     0     0     0     0     0     0     0     0
     0     0     0     0     0     0     0     0     0     0     0     0     0     0     0     0     1     1     0     0     0     0     2     1     1     5     2     6     5    10    13    11    13    19    29    30    38    31    52    57    70   100    81    97   113   119   130   132   153   142   138   163   147   142   124   134   111   116    88    87    77    61    45    36    44    36    36    23    14    10    12     7     6     1     5     5     2     1     0     0     1     0     0     0     0     0     0     0     0     0     0     0     0     0     0     0     0     0     0     0
     0     0     0     0     0     0     0     0     0     0     0     0     0     0     1     0     1     0     0     0     0     0     0     2     2     2     2     2     4     4     8    10    20    12    25    21    32    33    56    47    72    72   111    90   104   118   130   139   151   150   137   140   143   162   138   120   150   106   107   119    97    75    76    62    30    44    36    27    20    21    16     9     6     6     5     1     1     1     0     1     0     0     0     0     0     0     0     0     0     0     0     0     0     0     0     0     0     0     0     0
     0     0     0     0     0     0     0     0     0     0     0     0     0     0     1     1     0     0     0     0     1     0     2     1     0     1     1     3     3     3     6     7     8    13    16    32    24    35    46    41    38    72    76    82    96   106   121   122   134   126   143   161   160   155   194   155   130   140   127   115    99    85    65    61    63    44    51    37    21    37    26    13    11     6     4     7     2     1     2     4     0     0     0     0     0     0     0     0     0     0     0     0     0     0     0     0     0     0     0     0
     0     0     0     0     0     0     0     0     0     0     0     0     0     0     0     0     0     0     0     0     0     0     0     0     1     2     0     5     2     4     6     4     4     5    11    22    16    30    41    36    51    49    64    76   103   111    90   116   158   133   148   162   160   129   170   143   150   154   136   123   100   107    83    90    86    66    63    31    32    29    25    16     8     5     6     4     2     4     2     4     1     2     0     2     0     0     0     0     0     0     0     0     0     0     0     0     0     0     0     0
     0     0     0     0     0     0     0     0     0     0     0     0     0     0     0     0     0     0     0     0     0     0     0     0     0     0     0     1     2     1     3     4     6     5     8    23    15    18    30    38    39    38    50    78    79    87    90   108   123   146   134   161   152   159   158   137   159   160   142   134   121   113    97    86    88    66    53    52    40    27    28    18     8     9     5    11     4     4     0     2     1     2     0     0     0     0     0     0     0     0     0     0     0     0     0     0     0     0     0     0
     0     0     0     0     0     0     0     0     0     0     0     0     0     0     0     0     0     0     0     0     0     0     1     0     0     0     0     0     2     2     2     4     4     5     6     9    12    27    22    20    38    37    39    49    62    76    82    87    85   100   112   150   162   162   163   154   146   155   148   152   130   107   125    80    88    75    64    50    59    55    34    27    23    15    10     8     4     5     3     2     2     0     1     1     0     2     0     0     0     0     0     0     0     0     0     0     0     0     0     0
     0     0     0     0     0     0     0     0     0     0     0     0     0     0     0     0     0     0     0     0     0     0     0     0     0     0     0     1     1     0     2     1     6     2     8     3     6    12    12    20    25    23    37    54    64    53    80    82    86   123   114   141   153   175   167   148   181   147   125   152   145   123   122   108    95    76    67    71    54    54    42    37    19    21    19     9     8    12     4     2     4     1     0     0     0     0     0     1     0     1     0     0     0     0     0     0     0     0     0     0
     0     0     0     0     0     0     0     0     0     0     0     0     0     0     0     0     0     0     0     0     0     0     0     0     0     0     0     0     0     0     1     1     3     3     4     4     7    10    22    20    18    24    26    33    40    50    69    85    78    85    91   135   135   163   142   152   157   163   143   143   159   138   136   113   109    78   102    86    65    63    51    41    26    24    21    13    14     9     9     5     8     4     3     0     1     0     2     1     1     3     0     0     0     0     0     0     0     0     0     0
     0     0     0     0     0     0     0     0     0     0     0     0     0     0     0     0     0     0     0     0     0     0     0     0     0     0     0     0     1     1     2     0     4     1     1     5     7     5     9    11    16    11    30    28    53    45    44    68    70    67   112   104   132   158   144   155   152   154   171   159   154   151   146   126   124   107    91    81    70    61    64    54    31    29    26     9    12    14     5    12     6     5     6     3     2     1     1     0     1     0     0     0     0     0     0     0     0     0     0     0
     0     0     0     0     0     0     0     0     0     0     0     0     0     0     0     0     0     0     0     0     0     0     0     0     0     0     0     0     0     0     0     0     2     2     0     1     2     4     7     6    12    17    17    19    44    29    45    44    51    78    89   114   122   137   138   142   144   166   185   171   153   157   156   144   120   108   115   102    92    61    71    47    37    39    31    21    23    15    12     8     7     5     6     3     0     2     0     1     0     0     1     0     0     0     0     0     0     0     0     0
     0     0     0     0     0     0     0     0     0     0     0     0     0     0     0     0     0     0     0     0     0     0     0     0     0     0     0     0     0     0     0     0     0     0     1     2     3     1     3     6    14    14    11    17    38    25    42    39    53    68    76    94    97   130   104   141   148   157   184   168   153   147   149   127   139   114   123   104    84    86    83    55    47    36    42    26    19    15    23    14     6     9     2     6     5     1     0     1     0     1     0     1     0     0     0     0     0     0     0     0
     0     0     0     0     0     0     0     0     0     0     0     0     0     0     0     0     0     0     0     0     0     0     0     0     0     0     0     0     0     0     0     0     0     0     0     0     4     0     3     7     9     9    13    17    17    23    32    40    56    46    62    90    96   103    92   110   136   154   125   145   169   150   139   154   134   128   122   100   102    98    87    72    52    26    40    29    34    20    19    14    13    11    10    10     6     1     2     1     1     1     0     0     0     0     0     0     0     1     0     0
     1     0     0     0     0     0     0     0     0     0     0     0     0     0     0     0     0     0     0     0     0     0     0     0     0     0     0     0     0     0     0     0     1     0     0     0     4     3     4     5     6    10     4    17    19    31    24    39    38    45    56    76    73    93   100   110   115   135   141   131   170   175   155   151   111   140   132   102    96   108    92    80    70    61    42    37    28    22    24    17    18    11     6     7     4     0     2     1     2     1     3     2     0     0     0     1     0     0     0     0
     0     0     0     0     0     0     0     0     0     0     0     0     0     0     0     0     0     0     0     0     0     0     0     0     0     0     0     0     0     0     0     0     0     0     1     0     1     1     2     4     3     2     5    12    10    22    30    33    35    34    43    65    65    75    76    83   113   124   138   154   141   151   131   152   160   150   133   119   107   126    95    84    67    55    44    38    41    27    28    20    18    10    17    10     6     5     1     2     1     0     1     0     0     0     0     0     0     0     0     0
     0     0     0     0     0     0     0     0     0     0     0     0     0     0     0     0     0     0     0     0     0     0     0     0     0     0     0     0     0     0     0     0     0     0     0     1     0     1     3     1     1     4     4     8    11    12    21    15    25    37    39    38    62    50    83    77    86    94   121   123   148   136   141   144   148   148   138   130   141   118   100   103    79    66    64    51    39    42    21    25    13    16    10    12     7     3     3     4     0     0     1     1     0     2     0     0     0     0     0     0
     0     0     0     0     0     0     0     0     0     0     0     0     0     0     0     0     0     0     0     0     0     0     0     0     0     0     0     0     0     0     0     0     0     0     0     0     0     3     1     0     1     4     9     6     9     9    13    17    17    32    37    30    39    47    69    75    79    86   104   133   130   133   163   158   138   142   114   125   129   118   107    98    79    63    57    55    57    37    39    23    31    17    12    11    12     5     5     2     2     4     1     3     1     0     0     0     0     0     0     0
     0     0     0     0     0     0     0     0     0     0     0     0     0     0     0     0     0     0     0     0     0     0     0     0     0     0     0     0     0     0     0     0     0     0     0     0     0     0     0     2     0     4     5     5     9    13    17    14    15    22    25    30    42    38    61    61    67    88    87   119   121   135   132   138   130   127   127   144   138   138   119    83    94    82    68    69    62    61    31    44    37    13    13    13    12     4     2     5     3     3     1     1     1     1     1     0     0     0     0     0
     0     0     0     0     0     0     0     0     0     0     0     0     0     0     0     0     0     0     0     0     0     0     0     0     0     0     0     0     0     0     0     0     0     0     0     0     0     0     0     1     0     1     2     2     4     5     9    16    14    22    17    26    27    32    40    57    62    64    85    93   103    96   137   127   137   131   137   129   138   142   117   102    89    88    82    64    63    66    42    56    37    31    18    17    15    14     6     5     7     1     5     1     0     1     1     0     0     0     0     0
     1     1     0     0     0     0     0     0     0     0     0     0     0     0     0     0     0     0     0     0     0     0     0     0     0     0     0     0     0     0     0     0     0     0     0     0     0     0     0     0     2     2     0     0     3     2     5     9    12    14    19    25    27    26    36    42    54    62    61    63    91    94   118   138   122   132   134   129   142   132   127   138   103    99    91    76    80    63    59    45    45    32    19    20    16    15    17     8     8     5     1     3     2     1     0     0     1     1     0     0
     1     1     0     0     0     0     0     0     0     0     0     0     0     0     0     0     0     0     0     0     0     0     0     0     0     0     0     0     0     0     0     0     0     0     0     0     0     0     0     0     0     0     0     3     2     2     2     6    10    16    16    22    22    21    45    45    45    48    93    66    82    92    99   119   118   115   126   151   131   119   124   147   127   111   118    76    97    97    72    68    36    47    31    26    18    17    18    11     9     5     5     6     3     3     3     1     0     0     0     0
     0     0     0     0     0     0     0     0     0     0     0     0     0     0     0     0     0     0     0     0     0     0     0     0     0     0     0     0     0     0     0     0     0     0     0     0     0     0     0     0     0     0     0     2     3     4     4     5     7     6    12    15    20    17    19    34    34    48    69    57    71    76    96    94    95   124   107   110   121   140   121   119   114   119   100   121    96    89    91    70    58    42    40    34    26    22    17    13    14     7    12     6     5     4     4     2     2     0     0     0
     1     0     0     0     0     0     0     0     0     0     0     0     0     0     0     0     0     0     0     0     0     0     0     0     0     0     0     0     0     0     0     0     0     0     0     0     0     0     0     0     0     0     0     1     1     1     2     1     5     6     7    12    12    12    20    18    45    33    48    54    64    54    67    91    76    78   117   112   115   138   121   116   102   114   113   109   116    95   103    72    58    71    41    45    25    33    23    25     9    10    10     6     7     4     3     4     1     1     0     0
     0     0     1     0     0     0     0     0     0     0     0     0     0     0     0     0     0     0     0     0     0     0     0     0     0     0     0     0     0     0     0     0     0     0     0     0     0     0     0     0     0     0     0     1     0     0     0     0     3     3     4     8     6    14    16    29    31    23    35    56    41    45    62    74    80    80    81   104   104   128   118   116   101   113    94   105   101    81    79    75    65    68    57    48    35    34    25    23    15    13    13    10     5     4     4     6     0     2     0     0
     0     0     0     0     0     0     0     0     0     0     0     0     0     0     0     0     0     0     0     0     0     0     0     0     0     0     0     0     0     0     0     0     0     0     0     0     0     0     0     0     0     0     0     0     1     0     1     2     1     1     5     3     4     9     5    26    21    25    40    34    32    47    44    63    50    67    69    84    87   106   104   117   111   106   115   107   107    96    92    90    65    53    63    51    50    34    33    33    18    18    14    11    13     6     0     3     3     0     2     0
     2     0     1     0     0     0     0     0     0     0     0     0     0     0     0     0     0     0     0     0     0     0     0     0     0     0     0     0     0     0     0     0     0     0     0     0     0     0     0     0     0     0     0     1     2     1     1     0     1     2     1     3     3     5     8    11    24    28    37    29    31    34    34    53    58    79    69    75    93    98   101    98    96    98   113   107   103   105    73    95    97    70    68    65    56    53    39    29    31    14    13    18     7     7     5     4     1     4     3     0
     2     2     1     0     1     0     0     0     0     0     0     0     0     0     0     0     0     0     0     0     0     0     0     0     0     0     0     0     0     0     0     0     0     0     0     0     0     0     0     0     0     0     0     0     0     2     0     1     0     2     4     1     3     8    12     8    15    22    16    20    31    36    34    35    58    56    60    84    80    81    90   104    90    96   117   111    87   100    96    90    82    62    74    70    58    32    33    46    39    25    30     9    16     5     3     4     3     4     0     1
     1     0     0     0     1     0     0     0     0     0     0     0     0     0     0     0     0     0     0     0     0     0     0     0     0     0     0     0     0     0     0     0     0     0     0     0     0     0     0     0     0     0     0     0     0     0     1     0     0     0     1     2     2     4     2     5    12    15    14    27    27    26    39    35    37    40    57    71    83    89    87    83    98    93   101    88    92   103   112    95    93    67    77    73    64    46    50    35    35    48    27    18    14    12    14     8     3     2     1     2
     1     1     0     0     0     1     0     0     0     0     0     0     0     0     0     0     0     0     0     0     0     0     0     0     0     0     0     0     0     0     0     0     0     0     0     0     0     0     0     0     0     0     0     0     0     0     1     0     0     0     0     2     1     2     7     4    14     8    17    13    18    35    27    28    33    40    56    53    56    78    88    89    85    91   107    84   101    98   100   115    81    92    88    90    56    69    59    51    49    49    33    33    16     9     9     5     4     3     4     5
     0     1     0     0     1     0     0     0     0     0     0     0     0     0     0     0     0     0     0     0     0     0     0     0     0     0     0     0     0     0     0     0     0     0     0     0     0     0     0     0     0     0     0     0     0     0     0     0     1     1     1     1     0     1     0     7     4     6    10     8    13    21    14    24    39    48    49    46    58    74    84    86    86    88   107    89   101   105   121    92   107    89    74    82    63    66    69    53    54    48    33    20    16    25    12     5     7     9     7     3
     4     2     2     0     0     1     0     1     0     0     0     0     0     0     0     0     0     0     0     0     0     0     0     0     0     0     0     0     0     0     0     0     0     0     0     0     0     0     0     0     0     0     0     0     0     0     1     0     1     1     1     2     3     2     3     3     7     2     4     8    17    11    15    19    18    35    27    33    51    71    61    74    81    83    73    85    96    96   124   117   124   112    94    88    82    73    79    56    57    57    40    41    14    20    15    20    15    12     9     3
     4     5     0     3     1     1     0     1     0     0     0     0     0     0     0     0     0     0     0     0     0     0     0     0     0     0     0     0     0     0     0     0     0     0     0     0     0     0     0     0     0     0     0     0     0     0     0     0     0     1     0     2     0     2     2     1     1     1     2     8     5     8     8    10    15    31    33    43    43    60    69    78    79    94    76   103   101    81    85   105    96    81    96    86    74    82    69    83    53    45    51    33    27    30    18    17     7    15     9     3
     7     6     1     1     3     2     1     0     1     0     1     1     0     0     0     0     0     0     0     0     0     0     0     0     0     0     0     0     0     0     0     0     0     0     0     0     0     0     0     0     0     0     0     0     1     0     0     0     0     0     2     0     0     2     3     5     0     4     5     6     5     8     6    15    18    18    17    25    31    43    55    60    71    59    70    80    79    90    95   106   105    98   100    96    95    75    79    79    61    57    49    40    36    28    26    15    17    11    10    12
     8     4     4     6     3     3     0     1     0     0     2     0     0     0     0     0     0     0     0     0     0     0     0     0     0     0     0     0     0     0     0     0     0     0     0     0     0     0     0     0     0     0     0     0     0     0     0     0     0     1     0     0     3     1     1     2     3     3     0     3     8    10     7    12    18    18    22    19    30    39    46    49    52    68    46    73    67    72    91   102    84    97   107    96    82    85   105    76    72    69    58    56    48    31    25    27    17    14    13    12
     7     8    10     4     4     4     7     2     1     0     1     0     0     2     0     0     0     0     0     0     0     0     0     0     0     0     0     0     0     0     0     0     0     0     0     0     0     0     0     0     0     0     0     0     1     1     0     0     0     0     0     0     1     0     1     0     2     0     2     2     0     7    11     7     9     5    19    18    17    26    37    43    67    54    55    63    52    83    68    83    82    93   117   116    99    98    96    92    90    67    75    49    35    39    42    29    28    19    20    10
    19    11     7     5     7     1     7     2     0     1     0     1     0     1     1     0     0     0     0     0     0     0     0     0     0     0     0     0     0     0     0     0     0     0     0     0     0     0     0     0     0     0     0     0     0     0     0     0     0     0     0     0     2     2     0     0     0     1     1     1     0     6     2     9     9    16    11    18    14    22    18    32    45    40    55    55    52    64    72    71    67   102   108   113   104    87   111    73    61    64    61    62    49    51    29    32    38    15    20    22
    17    10    11     7     7     8     8     3     1     4     0     0     0     0     0     0     0     0     0     0     0     0     0     0     0     0     0     0     0     0     0     0     0     0     0     0     0     0     0     0     0     0     0     0     0     0     0     0     0     0     0     0     0     0     0     1     0     0     0     2     0     2     4     9     4     7     8    12    16    12    12    19    26    35    40    54    47    68    79    68    78    92    83    91    99    99   100   102    81    63    68    74    56    42    54    45    32    26    18    14
    28    17    19    11     8     9     7     4     1     2     5     0     0     0     1     0     0     0     0     0     0     0     0     0     0     0     0     0     0     0     0     0     0     0     0     0     0     0     0     0     0     0     0     0     0     0     0     0     0     0     0     0     0     1     0     0     0     0     0     0     0     2     5     3     8     9     8     5    10     8    12    17    28    27    31    35    44    56    53    59    79    87    79    99   103    90    76    90    94    92    73    75    72    80    44    47    38    37    30    25
    36    28    21     8     9     7     9     4     4     2     1     1     0     0     1     0     1     0     0     0     0     0     0     0     0     0     0     0     0     0     0     0     0     0     0     0     0     0     0     0     0     0     0     0     0     0     0     0     0     0     0     0     0     0     0     0     0     0     0     0     1     0     1     1     5     2    10     8     7    10    16    15    27    20    31    31    42    49    46    72    69    65    67    90    78    89    79    79    96    96    74    76    75    68    57    49    50    33    33    38
    17    30    12    13    14     8    10     2    11     8     7     3     1     1     2     0     0     0     0     0     0     0     0     0     0     0     0     0     0     0     0     0     0     0     0     0     0     0     0     0     0     0     0     0     0     0     0     0     0     0     0     0     0     0     0     0     0     0     0     0     2     2     2     2     3     5     3     6     8     9     8    12    15    13    17    31    30    42    50    50    57    79    80    54    70    87    94    86    82    70    83    91    66    69    68    52    52    37    39    36
    43    18    21    17    17     9     4     7     5     8     5     1     1     1     3     1     0     0     1     0     0     0     0     0     0     0     0     0     0     0     0     0     0     0     0     0     0     0     0     0     0     0     0     0     0     0     0     0     0     0     0     0     0     0     0     0     0     1     0     0     0     0     1     2     1     4     1     4     3     5     7    15    11    15    19    10    22    31    32    44    52    64    65    87    72    87    87    88    75    78    80    65    79    93    80    65    62    34    45    30
    22    29    27    19    13     8     7    15     3     5     5     3     3     2     2     2     1     1     0     0     0     0     0     0     0     0     0     0     0     0     0     0     0     0     0     0     0     0     0     0     0     0     0     0     0     0     0     0     0     0     0     0     0     0     0     0     0     0     0     0     0     0     0     2     0     2     4     1     4     3     5     5    13    11    12    16    13    24    37    39    47    57    48    52    66    87    86    72    86    82    81    76    82    76    82    68    62    52    53    35
    43    33    19    24    20    18     9    17    12    10     2     7     3     1     4     2     1     0     0     0     0     0     0     0     0     0     0     0     0     0     0     0     0     0     0     0     0     0     0     0     0     0     0     0     0     0     0     0     0     0     0     0     0     0     0     0     0     0     0     0     0     0     1     0     1     2     1     1     4     4     6     7    10    13    17    15    15    20    20    28    41    41    37    56    49    59    78    70    80    88    80    88    73    70    76    80    51    75    52    47
    39    36    36    24    24    26    20    16    19     8     7     9     6     3     1     0     0     3     0     0     0     0     0     0     0     0     0     0     0     0     0     0     0     0     0     0     0     0     0     0     0     0     0     0     0     0     0     0     0     0     0     0     0     0     0     0     0     0     0     0     1     1     0     1     3     1     5     4     4     3     2     6     5     9     7    14    10    19    28    19    26    38    31    36    56    58    65    64    62    75    71    70    85    91    70    59    68    68    69    44
    45    41    42    36    35    19    18    20    13     8     9     7     5     4     1     1     3     0     0     1     1     0     0     0     0     0     0     0     0     0     0     0     0     0     0     0     0     0     0     0     0     0     0     0     0     0     0     0     0     0     0     0     0     0     0     0     0     0     0     0     0     1     0     0     1     0     2     2     2     3     2     1     5     6    14    11    17    10    17    24    25    33    40    50    49    63    57    59    78    76    62    75    85    85    68    85    64    79    65    53
    32    45    43    33    42    24    30    16    21    12     5     8     6     6     5     4     7     1     0     1     0     0     0     0     0     0     0     0     0     0     0     0     0     0     0     0     0     0     0     0     0     0     0     0     0     0     0     0     0     0     0     0     0     0     0     0     0     0     0     0     0     0     0     0     0     0     0     1     0     1     2     4     6     6     7     6    11    16    12    26    24    26    40    36    43    43    56    64    72    60    64    76    73    90    77    89    85    63    58    53
    70    52    41    39    39    29    31    19    20    22    14    13     9     3     3     5     3     2     2     1     0     0     0     1     0     0     0     0     0     0     0     0     0     0     0     0     0     0     0     0     0     0     0     0     0     0     0     0     0     0     0     0     0     0     0     0     0     0     0     0     0     1     0     1     0     0     1     0     0     3     3     1     5     3     9     6     6     8    13    15    20    16    40    26    33    43    47    51    53    57    70    63    76    66    83    86    60    61    53    68
    47    44    52    59    43    41    40    32    18    14    19    11     8     7     9     6     1     4     3     0     0     2     0     0     0     0     0     0     0     0     0     0     0     0     0     0     0     0     0     0     0     0     0     0     0     0     0     0     0     0     0     0     0     0     0     0     0     0     0     0     0     0     0     0     0     0     0     0     1     0     2     1     3     8     4     4     3    11     8    15    10    19    21    24    29    37    41    36    36    55    60    67    61    74    66    64    51    72    66    55
    45    59    55    52    53    46    27    26    33    23    19    18    14     5     7    10     9     6     4     2     4     1     0     1     0     0     0     0     0     0     0     0     0     0     0     0     0     0     0     0     0     0     0     0     0     0     0     0     0     0     0     0     0     0     0     0     0     0     0     0     0     0     0     0     0     0     0     0     0     2     0     1     1     2     2     4     4     1     6     8    18    13    20    18    29    22    39    47    36    40    47    59    47    59    78    60    77    57    58    54
    61    48    57    51    56    43    44    22    45    24    24    24    23     9     9    15     6    10     9     1     1     1     3     1     0     1     0     0     1     0     0     0     0     0     0     0     0     0     0     0     0     0     0     0     0     0     0     0     0     0     0     0     0     0     0     0     0     0     0     0     0     0     0     0     0     0     0     0     0     1     0     1     1     1     5     2     9     3     8    11    13    13    18    22    26    21    20    41    42    37    49    41    47    51    67    62    75    47    50    52
    57    60    65    48    57    34    49    41    37    37    39    25    23    20    21    18    10    14    14     5     6     3     2     0     0     3     2     1     1     0     0     0     1     0     0     0     0     0     0     0     0     0     0     0     0     0     0     0     0     0     0     0     0     0     0     0     0     0     0     0     0     0     0     0     0     0     0     0     0     0     0     2     0     1     1     2     4     6     7     5     8    11    10    13    20    19    10    23    29    41    33    41    47    72    72    49    65    64    59    62
