#lt      50.0
#count pbc
#dt      1.0
#dn      50
#edges  -27.1557089 -26.6125947 -26.0694805 -25.5263664 -24.9832522 -24.4401380 -23.8970238 -23.3539097 -22.8107955 -22.2676813 -21.7245671 -21.1814529 -20.6383388 -20.0952246 -19.5521104 -19.0089962 -18.4658821 -17.9227679 -17.3796537 -16.8365395 -16.2934253 -15.7503112 -15.2071970 -14.6640828 -14.1209686 -13.5778545 -13.0347403 -12.4916261 -11.9485119 -11.4053977 -10.8622836 -10.3191694  -9.7760552  -9.2329410  -8.6898268  -8.1467127  -7.6035985  -7.0604843  -6.5173701  -5.9742560  -5.4311418  -4.8880276  -4.3449134  -3.8017992  -3.2586851  -2.7155709  -2.1724567  -1.6293425  -1.0862284  -0.5431142   0.0000000   0.5431142   1.0862284   1.6293425   2.1724567   2.7155709   3.2586851   3.8017992   4.3449134   4.8880276   5.4311418   5.9742560   6.5173701   7.0604843   7.6035985   8.1467127   8.6898268   9.2329410   9.7760552  10.3191694  10.8622836  11.4053977  11.9485119  12.4916261  13.0347403  13.5778545  14.1209686  14.6640828  15.2071970  15.7503112  16.2934253  16.8365395  17.3796537  17.9227679  18.4658821  19.0089962  19.5521104  20.0952246  20.6383388  21.1814529  21.7245671  22.2676813  22.8107955  23.3539097  23.8970238  24.4401380  24.9832522  25.5263664  26.0694805  26.6125947  27.1557089
    50    22    27    37    49    35    47    30    27    34    27    37    33    28    36    26    34    36    20    23    17    23    19    12    15     6    12     8     9     9    11     2     8     4     2     2     3     2     2     2     3     2     1     0     0     0     0     0     1     0     0     0     1     0     0     0     0     1     0     1     0     3     0     3     4     3     4     4     3     5     4     5     1     5     3     8     7     5     9    12    12    12    21    17    26    18    20    35    32    29    31    34    28    36    36    26    31    31    33    41
    43    30    43    42    53    48    24    37    37    31    39    30    39    39    38    37    27    37    31    22    14    23    22    10    15    24     8     8    12     4     5     9     7     3     6     1     4     2     2     1     3     1     2     2     0     3     2     1     1     0     2     1     0     0     1     0     0     1     0     1     0     0     0     0     0     1     3     2     5     2     4     1     7     2     5     7     3     4    14    12     6    14    11    12    26    16    18    21    27    30    24    30    25    26    29    32    26    33    23    39
    37    42    43    49    42    35    57    36    46    38    54    45    41    35    36    45    36    44    26    30    28    25    16    13    20    12    12    14    14     8     4     9     6     2     9     3     6     0     2     0     2     2     1     3     1     0     0     1     1     1     0     0     1     0     0     0     1     0     0     0     1     0     1     1     1     1     2     1     3     4     4     1     4     5     3     3     3     8     9     9     5     9    15     8    14    20    24    23    22    32    19    22    26    29    30    33    38    33    38    34
    41    47    41    47    54    45    37    34    49    43    41    32    37    36    41    43    46    42    43    36    20    23    19    14    15     9    12     4     8    16    11     8     9     5     5     3     7     3     3     4     2     1     1     0     2     3     0     0     0     5     0     0     0     0     0     0     0     0     0     1     0     0     0     0     0     2     0     0     1     1     0     2     2     4     6     2     5     7     3     6     4     7     7     8    20    29    18    16    20    22    28    26    23    27    27    26    31    20    28    32
    48    47    55    39    41    43    35    37    37    64    36    56    43    46    50    58    43    41    44    38    27    31    27    18    19    22    27    23    12    13     8     8     9    13     4     5     5     0     6     7     4     3     5     4     0     0     1     1     1     1     0     1     0     0     1     0     0     0     1     1     0     0     0     0     0     0     1     1     0     5     2     1     0     1     5     6     3     7     6     3     4    15    12    12    11    10    14    15    25    21    15    29    31    17    30    22    24    37    28    45
    34    45    40    37    48    43    37    43    43    41    46    43    47    44    47    44    41    40    38    34    31    36    32    21    20    19    18    15    11    15    11     5    10     7     5     4     2     7     5     2     2     4     4     1     2     1     1     2     1     0     1     2     1     0     0     0     0     0     0     0     0     0     0     0     0     1     1     1     0     0     0     2     0     5     1     2     2     5     4     6     1     7     8    13    11    11    13    13    16    23    13    16    23    26    28    27    26    32    30    30
    30    38    29    29    40    33    42    41    49    44    41    37    50    56    41    51    35    50    41    39    50    18    25    23    21    18    18    15    21    10    17    12    11     5    13     8     8     5     6     9     2     1     4     2     2     4     4     0     0     4     0     1     0     1     0     0     1     0     0     0     0     1     0     0     0     0     1     0     0     2     1     1     4     2     3     4     1     5     6     3     5     5     6     8     9    14     8    19    18    14    22    14    28    26    28    29    23    22    28    33
    30    35    39    35    41    46    41    48    48    36    53    50    45    30    58    48    45    35    38    41    36    38    29    33    24    16    15    26    24    21    15    14    11    11     8     6     7     5     7     9     5     2     2     2     3     3     2     0     2     0     2     1     0     0     1     0     0     1     0     0     0     0     0     0     0     1     2     0     0     2     3     1     2     1     1     2     2     4     7     3     3     8     3     4     7     9    10    18    12    19    14    16    27    27    35    26    27    25    32    19
    35    51    43    35    52    46    34    38    53    49    52    51    56    59    47    56    37    44    46    37    44    49    39    32    21    22    24    25    32    18    22    17    11     7     8    12     9    15     3    12     7     3     4     3     3     2     3     2     3     0     1     2     0     0     0     0     0     0     0     0     0     0     0     0     0     0     0     3     2     1     0     0     0     3     3     1     3     5     7     8     4    10     9     6     6    10    13    19    21    11    16    13    18    24    20    26    30    28    29    28
    32    40    41    42    48    44    35    47    53    51    43    63    49    49    41    49    52    50    64    45    58    39    28    32    33    22    21    25    20    16    24    15    14     9    15     5     6     7    14     7     6     4    12     2     3     1     1     0     0     0     1     1     0     2     0     1     0     0     0     1     1     0     0     0     0     0     1     0     2     0     0     1     0     0     4     3     3     1     4     6     4     7     5    11     5    10    11     9    13     9    16    19    14    23    27    27    38    19    32    31
    35    33    36    49    50    44    42    43    69    54    53    68    46    49    46    47    48    51    45    49    41    43    43    33    24    37    29    21    20    20    14    14    18    16     8    15    15    13    12    11     3     3     7     6     5     2     2     1     1     0     0     2     0     0     1     0     0     0     0     0     0     1     0     0     0     0     0     0     0     0     1     1     0     0     1     3     5     4     5     2     7     5     5     8    10     6     7    10     4    16    14    18    21    27    22    29    28    21    34    33
    35    33    28    43    53    54    47    61    51    55    52    58    40    52    56    44    51    47    60    47    60    46    43    40    28    33    31    27    28    28    22    28    22    15    15    19    13     8    14    10     4    10     7     2     8    10     1     1     3     1     0     0     0     3     2     1     1     1     0     0     1     0     0     0     0     0     0     0     0     0     0     2     0     2     0     2     1     2     1     1     5     2     6     4     3     9     7     9    11    19    20    14    19    26    22    19    29    25    23    40
    27    40    42    37    45    54    45    52    57    47    50    58    53    50    38    56    76    62    61    54    39    46    45    31    32    34    44    26    29    25    17    23    20    23    16    15    19    10    15    13    20    11     7     3     6     3     1     2     2     0     0     1     1     2     0     1     0     0     0     0     1     1     2     0     0     0     0     0     0     0     0     3     0     1     1     2     1     1     1     2     2     7     9     4     2     9     5    18     5    18     9    14    16    17    24    25    18    22    30    33
    25    18    45    34    45    43    45    64    50    60    51    41    55    58    66    51    62    52    51    45    51    49    50    38    48    39    44    29    35    41    44    29    21    23    18    25    16    20    10     5    10     9     9     8     3     3     5     0     1     0     1     0     1     1     4     1     2     2     0     0     0     1     0     0     0     0     0     0     0     0     0     0     2     0     1     2     1     1     1     2     0     0     6     3     8     4    10    12    10    12    15    10    20    18    13    14    23    31    31    23
    32    44    38    42    49    37    59    41    48    44    55    54    37    47    54    41    73    65    63    52    45    45    51    48    41    36    37    37    28    34    35    23    28    26    22    19    14    24    19     9    16    10     4     7     4     2     3     2     2     0     2     1     2     1     2     5     1     0     2     2     0     0     1     0     0     0     0     0     0     0     0     0     1     1     2     0     1     2     5     3     1     4     3     6     5     4    10     5     5     2    10    14    12    17    13    21    20    22    19    32
    34    28    43    30    37    38    53    50    49    62    45    50    53    55    39    69    61    57    65    53    46    40    49    55    48    41    54    39    42    44    29    41    32    29    27    18    19    15    20    19    14     7    11    10    12    10     3     3     6     3     0     2     0     4     2     0     1     1     0     0     0     0     0     0     0     0     0     0     0     0     0     0     0     1     0     0     0     2     3     2     2     3     2     2     7     6    10     6     8     8     5    10    10    16    22    23    17    13    25    34
    27    39    30    29    47    34    34    43    60    57    59    55    49    49    45    58    48    58    67    63    56    34    44    55    50    52    50    49    30    42    39    29    38    28    31    22    25    20    19    18    16     8    10     7    13     7     4     6     7     4     3     1     0     2     2     2     4     1     1     0     0     0     0     0     0     0     0     0     0     0     0     0     0     3     0     0     2     2     2     3     0     2     1     4     2     3     4     7    14     7     9     9    11    11    22    12    19    22    17    37
    15    37    34    30    35    40    43    43    42    52    56    54    68    66    47    62    63    54    65    55    47    51    50    57    62    44    50    32    45    56    34    29    42    38    34    32    23    24    17    18    18    11    15     7    11    11     8     5     4     3     1     2     0     5     3     0     0     0     0     1     0     0     1     0     1     0     0     0     0     1     0     0     1     1     1     1     1     2     0     0     1     0     2     1     4     6     4     6     7     8    10    11    13    17    10    12     7    19    23    33
    14    31    20    29    31    34    32    43    44    46    49    50    55    59    72    68    43    63    69    63    46    67    70    57    50    52    65    48    56    58    49    43    53    41    38    45    36    32    23    20    24    16    20    20    13     7     5    10     6     6     4     3     3     3     1     4     4     1     1     0     0     1     1     0     1     0     0     0     0     0     0     0     0     1     2     1     0     0     1     0     1     2     1     2     5     7     4     5     6     6     4    12    11     8     9    19     6    19    20    16
    13    18    26    24    27    29    30    39    34    44    60    42    52    41    45    58    42    60    60    60    59    70    65    42    62    66    64    40    55    65    37    54    46    49    40    27    37    19    29    38    26    19    21    19    12    12     7     6    10     8     7     3     3     7     3     7     4     1     2     0     0     1     1     1     1     0     0     0     0     1     0     0     0     0     0     0     0     0     1     0     1     1     1     3     4     1     2     4     3     6     8     9     6     8     7    13    19    16    11    16
    22     7    15    24    24    28    27    36    49    32    51    46    45    43    59    56    52    60    58    61    61    63    79    63    68    49    66    48    50    52    42    61    68    39    47    41    46    29    31    24    21    25    27    15    27    10    10    14    11    11     4     9     3     4     4     5     2     4     1     2     0     1     0     0     1     1     0     0     0     0     0     0     0     1     0     0     0     0     0     0     0     2     1     1     2     2     0     7     4     3     2     4    11     9    12     9     5     7    12    14
    10     7    18    16    32    24    31    38    37    45    36    30    43    59    54    51    52    54    63    57    58    68    67    60    61    65    59    61    57    57    52    68    51    42    43    38    29    43    39    26    22    32    24    38    23    20    15    16     5    12    11     8     4     3     2     4     2     8     5     1     3     3     1     3     1     0     1     0     0     0     1     1     1     0     1     0     0     2     0     0     0     0     2     0     2     3     1     2     2     7     2     4     6     9     5    12    10     8     9     8
     6    13    24    17    16    24    18    40    32    34    36    38    49    54    43    48    49    58    49    72    60    55    69    67    61    58    64    41    59    70    48    53    44    56    41    46    49    45    43    43    59    35    33    28    21    28    18    15    17    10    10     9     6     9    10     3     6     7     7     1     0     5     1     1     1     0     1     0     0     0     0     0     0     0     0     1     0     0     0     0     0     0     0     0     1     0     3     1     2     4     4     1     7     6     5     8     6    11     6     7
     8     8     9    20    20    20    18    33    31    35    39    43    36    42    48    45    46    43    63    50    67    68    54    63    63    50    62    56    61    59    63    58    58    57    51    46    47    47    45    50    55    33    36    38    30    23    31    18    12    10    10     8     9     6     6     3     5    10     7     5     0     2     2     1     1     0     0     0     0     0     0     0     0     1     0     0     0     1     0     0     0     0     0     1     0     0     0     2     0     3     3     3     5     4     2     6     8     5     4    16
     9    11    15    15    21    26    14    26    24    20    24    29    37    45    46    43    48    53    59    65    55    65    55    50    69    70    54    71    66    71    68    63    54    64    63    68    69    53    62    49    39    28    41    29    37    26    24    25    21    12    12    13     9     9    10     8     6     7     6     4     2     2     2     2     4     1     0     0     0     0     0     1     1     0     0     0     0     0     0     0     0     0     0     0     1     0     1     2     3     2     1     5     6     4     6     8     4     4    11     4
    12     4    16    15    13    17    17    23    27    31    27    34    47    33    35    47    51    44    53    49    62    42    69    53    62    61    63    75    61    57    54    54    54    72    56    66    61    67    43    64    53    43    35    40    42    28    32    25    20    24    10    15     9     9    12     8     8     6     2     3     5     3     2     0     3     1     0     0     0     0     1     0     0     0     0     1     0     0     0     0     0     0     0     0     0     1     0     1     2     1     2     3     3     3     5     4     3     8     4     5
    13     7    19    11    15    14    22    24    23    24    28    35    40    37    45    40    26    41    50    54    63    64    47    66    63    48    65    80    57    64    68    65    64    56    74    87    88    64    66    59    59    48    52    36    33    37    23    26    38    36    15    12    16    16    17    13     8     9    13     6     7     6     2     2     2     2     2     2     0     0     0     2     0     0     0     0     0     2     0     0     0     0     0     0     0     0     0     0     0     2     0     3     3     3     5     2     4     2     5    10
     6    14    15     9    17    18    20    15    17    27    31    31    30    33    33    35    43    40    61    47    58    64    52    75    81    62    70    72    67    76    71    59    60    70    70    56    56    68    61    51    58    60    40    42    30    32    30    34    21    25    27    16    23    23    12    10    13    12     8     6     1     6     3     2     2     2     0     0     2     2     2     0     1     0     1     0     0     0     0     0     0     0     0     0     1     0     0     0     1     0     1     2     0     2     3     0     3     5     7    10
     8     5    12    12    12    15    19    20    24    19    30    28    34    29    25    40    44    48    53    46    47    34    45    65    59    60    66    71    64    72    80    72    87    65    67    76    71    63    53    55    53    43    52    37    50    47    40    34    37    26    39    19    27    23    21    16    13    11     8     7     9     2     2     2     4     2     0     2     2     1     1     1     0     0     0     1     0     0     0     0     0     0     0     0     0     0     0     0     0     4     2     0     2     1     2     2     4     4     2     9
     5     4    14     8    12    13    14    18    12    12    22    35    45    43    46    41    44    44    41    55    59    54    57    67    67    74    57    75    74    83    62    90    69    81    76    66    77    75    79    58    55    65    59    41    64    43    43    29    34    37    23    29    26    23    17    18    18    14     7     7     5     2     2     4     2     3     5     1     4     4     0     1     0     0     1     0     0     0     1     0     0     0     0     1     1     0     0     0     0     0     1     1     1     3     8     2     4     2     2     9
    10     7    11     8     6    10    17     7    17    18    24    27    25    27    28    29    31    28    44    54    48    49    55    57    67    62    77    69    64    66    69    65    77    74    80    62    71    71    72    62    68    66    57    54    39    55    34    46    46    26    40    14    32    14    23    12     9    12     6     6     8     4     5     2     2     2     3     4     3     3     2     1     1     0     0     1     1     0     0     0     0     0     1     0     0     0     0     0     0     1     0     1     0     4     3     0     6     2     3     3
     4     8     9     7    14     5    18    15    14    27    18    32    21    16    34    33    36    40    48    28    54    48    49    64    66    69    65    69    79    77    66    86    76    99    81    84    72    70    64    69    69    53    57    73    48    44    44    39    41    42    35    29    28    21    21    18    23    19    10    11     8     9    12     8     5     3     1     5     2     2     1     1     0     2     1     0     1     0     0     1     0     2     0     0     0     1     0     0     0     0     0     2     0     1     1     1     4     2     5     5
     4     6     8    13     7     7    16    16    13    22    13    30    26    30    29    32    26    28    46    42    65    56    55    49    80    56    76    82    75    70    87    94    81    88    87    94    77    61    82   100    67    65    56    54    53    68    51    45    49    37    45    31    20    27    22    26    13    18    15    14     8     4    12     6     3     1     4     4     3     2     6     2     0     1     1     1     2     0     0     1     0     0     0     0     0     0     1     0     0     0     2     0     0     0     2     0     1     1     1     2
     4     6     3     8     5    13     8    12    15    24    12    24    27    30    26    35    30    32    24    37    42    54    52    51    49    49    72    63    52    82    98    97    73    74   105    89    87    69    71    65    78    62    62    46    66    69    58    69    70    45    35    40    42    28    29    18    20    19    16    14    10     6     8     9     3     5     2     2     1     4     3     1     1     4     3     1     0     1     0     2     1     0     1     0     0     0     0     1     0     0     0     0     0     1     0     1     1     2     7     2
     5     8     5     6    11    10     6     7    19     7    18    19    19    32    23    15    24    27    33    40    42    43    50    33    56    68    82    77    66    84    64    80    82    79    72    84    91    71    79    79    80    84    63    63    47    68    60    69    62    51    55    62    41    33    36    30    22    20    16    17    14    13     3     6     7     8     3     5     3     4     2     1     4     1     4     0     0     2     0     0     0     0     1     0     0     0     0     0     0     0     0     0     0     0     0     1     2     1     1     3
     5    11     7     7     7     4     9     7    10    13    15    19    19    32    17    26    29    38    39    36    44    39    42    48    47    60    56    77    68    76    78    74    74    78   101    75    87    59    72    76    81    68    71    63    86    77    74    58    66    69    60    53    39    38    32    37    29    22    19    17    11    12    10     5     5     5     6     7     6     6     6     4     6     0     2     0     3     2     1     0     0     0     0     0     0     0     0     0     0     0     0     0     0     0     1     3     1     2     2     3
     4     8     4    10     6     4     5     8    14    15     8    11    15    13    24    18    31    24    28    29    36    47    36    49    51    64    57    63    71    68    98    86    89    92    90    96    90    66    76    84    82    80    75    72    76    55    69    69    50    51    48    61    39    46    47    41    29    28    24    18    17    15    15    15     8     6    14     5     8     9     7     9     6     5     2     1     1     0     0     0     1     1     0     0     0     0     0     0     0     0     0     0     0     0     0     0     1     1     0     2
     2     3     4     3     4     7     4    14     6     7    12     9    15    10    17    22    22    24    40    32    37    36    51    53    54    49    48    56    66    66    59    78    78    72    83    91    84    66    84    73    72    84    65    63    80    67    62    66    70    65    44    54    40    42    35    48    40    27    19    17    22    23    16    14    16    15     8     9    11     5     6     8     3     4     5     3     2     2     1     2     1     0     0     0     1     0     0     0     0     0     0     0     0     0     0     0     0     1     0     2
     1     1     5     9     6     6     2     7     5     8     7     7    16    14    21    16    23    27    30    33    35    36    48    49    63    53    53    75    52    64    72    72    74    77    77    86    76    92    78    92    85    83    90    78    70    67    81    69    69    56    55    54    64    51    42    34    50    36    34    23    35    30    25    17    17     6    10    12    12    10     4     6     4     5     1     4     3     0     0     0     2     1     1     0     0     0     0     0     0     0     0     0     0     0     0     0     0     0     0     3
     0     0     1     6     4     9     7     4     1     5     5     7     7     6    13    16    16    17    22    28    17    38    32    55    38    38    48    56    69    78    62    84    76    67    85    86    79    78    95    79    82    79    88    77    83    83    62    69    74    72    48    48    65    68    61    54    41    34    35    42    32    24    23    17    19    10    15    16    14     5    11     8     9     3     0     2     0     3     0     1     1     1     0     0     0     0     1     0     0     0     0     0     0     0     0     0     0     0     0     1
     0     2     4     4     2     7     2     8     3     4     4     9    12     9    20    10    15    17    20    27    26    38    33    37    39    47    63    71    60    64    55    71    96    77    73    78    94    94    86    74    80    81    65    78    82    67    78    95    75    66    66    58    71    61    53    54    56    46    43    49    37    22    24    18    17    12    18    19    13    11    10    13     7     3     4     0     1     1     2     1     2     2     1     0     1     1     0     0     0     1     2     1     1     0     0     0     0     0     0     0
     1     1     6     3     5     2     5     3     4     5     4     4     6    16     7     4    20    20    18    22    20    22    25    40    37    43    37    41    44    70    57    65    73    92    64    82    67    86    77    80    69    69    70    80   106    84    75    77    82    65    84    71    56    51    54    58    57    52    49    46    38    27    21    16    27    12    13    15    13    21    12    13     8     8     3     3     2     4     4     2     3     1     0     2     1     0     0     0     0     0     0     0     0     0     0     0     0     0     1     0
     1     3     1     4     1     4     2     2     6     5     0     3    10     8     7    11    13    13    10    17    24    31    25    22    39    40    40    39    48    51    46    62    70    63    70    76    74    80    88    64    67    79    81    81    79    92    86    71    91    74    78    69    81    65    64    71    53    72    51    48    52    28    31    34    23    17    22    19    16    18     9     8     8     5     4     5     6     4     3     3     1     0     0     1     2     1     4     0     1     0     1     1     0     0     0     0     0     0     0     0
     0     0     3     1     3     2     1     3     5     2     5     4     4     4     3     9    10    16    11    17    12    27    27    28    29    24    39    43    42    40    40    52    63    55    69    62    73    80    82    89    63    77    81    71    90    91    83    62    87    81    76    67    79    82    80    65    63    62    39    53    51    35    38    29    24    16    36    31    19    19     9    13     9     5     9     4     3     1     7     4     5     1     2     1     1     0     1     5     2     0     0     0     0     0     0     0     0     0     0     0
     1     3     1     2     1     1     4     1     4     4     3     4     7     4     8     8     4    13     7    12    19    27    26    22    23    28    35    40    48    55    40    58    65    58    58    68    62    68    72    85    76    77    85    90   102    91    89    87   105   104    80    89    79    91    90    77    80    62    60    55    42    42    39    41    43    26    43    27    24    21    20    15    14     4     9    10    10    10     8     7     1     4     3     1     2     2     2     1     0     0     0     1     0     0     0     0     0     0     0     0
     0     0     1     1     2     1     0     4     1     1     2     4     6     3     6     2     8     8    12    10    22    19    15    22    23    22    30    31    41    44    44    38    66    69    63    66    69    75    88    79    72    83    94    89    78    89    94   102    77    99    80   101    89    80    91    90    65    63    57    53    51    45    48    34    48    32    41    24    21    20    21    11     9     8    11    10     6    10    10     4     4     2     1     0     1     0     1     1     0     1     0     1     1     0     0     0     0     0     0     0
     1     1     1     1     0     0     0     0     2     1     4     2     3     7     6     7     6    10     7    11    10    19    20    20    16    26    31    30    40    44    46    33    48    49    67    70    60    66    63    70    86    76    81    90    95   111   102   110    83    86    75    93    86    77    89    76    65    64    66    69    56    57    55    53    47    42    42    32    29    16    20    16    12    11    12    12    12     9     6    10     2     3     1     3     0     0     0     1     2     1     0     0     0     0     0     0     0     0     0     0
     2     0     1     3     0     1     1     1     1     1     0     3     5     2     2    12     7    11    10     7    10    11    17    11    25    22    34    24    32    41    35    40    45    57    62    70    54    56    61    69    94    84    87    83    78   103    99    89   103    85    73    98    96    90    98    61    69    61    79    57    64    59    58    58    44    51    43    29    19    20    20    15    14    21    11     6    10    10     5     8     6     6     4     3     2     1     0     1     1     0     1     0     1     0     0     0     0     0     0     0
     0     0     1     1     0     0     1     0     2     1     3     2     4     3     3     5     8     9    11    11     7    16    16    26    24    27    26    24    32    38    44    29    61    44    42    56    60    64    65    71    87    74    80    82    82    84   104    87    76    96    99    82    95    93    98    80    72    78    69    79    79    58    62    61    50    58    37    32    21    33    22    18    11     9    12    11    17    10     9    15     6     3     3     6     4     2     1     1     1     0     2     1     1     0     1     2     0     0     0     1
     0     1     0     1     0     1     0     1     0     2     2     4     4     2     4     4     6     8    10     9    11    10    10    10    17    21    16    32    22    38    32    41    38    47    60    51    52    61    57    65    75    71    68    77    65    98   106    75    82    89   100    80   104    94    93    87    77    74    73    74    86    64    73    82    59    54    47    28    45    20    29    20    17    16    27    13    11    14    12     6     5     3     5     3     4     1     2     1     1     0     4     0     0     1     1     0     0     0     0     0
     0     0     1     0     0     0     1     0     0     0     0     0     0     1     0     1     1     6     5     7     9    14    15    15    17    25    34    19    28    23    22    33    37    24    39    40    60    57    52    68    78    75    54    54    95    96    73    92    78    75    92    83   102    95    69    92    93    95    84    75    72    71    77    86    67    63    51    45    36    43    35    33    18    23    18    13    12    10     8    11     8     5     7     2     4     2     1     1     0     1     0     1     0     0     0     0     0     0     1     0
     0     0     0     0     0     0     0     0     1     0     1     1     1     1     1     3     2     5     5     5     5     4     9    22    22    21    24    22    24    19    26    22    33    29    34    38    41    62    74    60    70    68    89    80    95    89    79    83    74    94   104    93    90    90   113    81    82    89    94    80    90    82    93    65    61    68    67    52    54    39    35    30    28    15    12    17    15    14    11    12    13     8     6     5     7     2     1     2     1     0     0     3     2     1     0     1     0     1     0     0
     0     0     0     0     0     1     0     0     0     0     2     3     0     0     2     2     1     2     7     6     5     6     9     9    19    17    14    23    27    25    15    23    27    34    31    36    57    46    45    51    59    77    82    67   113    79    93    92    84    85    99    97    95   101    93    86    99    95    82   105    89    99    87    79    57    66    58    70    40    58    30    43    38    24    21    15    18    14    12    14    14     9     5     6     8     7     2     0     1     4     3     2     1     1     1     0     0     1     0     0
     2     0     0     0     0     0     0     0     0     1     0     0     0     0     0     1     0     1     0     2     3     7     9    14     6     9    17    19    23    17    26    25    25    30    33    36    41    51    54    56    69    56    67    82    74    80    81   105   107    99    86   103    98    85    76    95    96    91    95   109   100    96    81    87    95    85    61    57    48    49    44    35    28    34    30    24    24    17    15    16    12    16    12    12     1     6     1     0     1     1     4     2     1     1     0     0     0     0     0     0
     0     0     0     0     0     0     0     0     0     0     1     1     0     0     0     1     1     0     1     3     1     2     7     5     5    12    12    18     9    20    16    28    33    34    27    32    39    44    36    56    55    57    56    75    80    70    72    79   105   101    81    98   107   105   101    98    90    86   104    95   106   102   108    81    85    79    59    54    52    48    56    45    34    33    29    18    26    17    14    14    14    13    18    10     9     6     2     0     4     2     5     2     1     1     3     1     0     0     0     0
     0     0     0     0     0     0     0     1     0     0     0     1     0     0     0     0     0     0     1     1     5     3     3     9     5     8    18    11    14     9    18    22    35    30    28    40    41    43    45    55    61    46    52    58    75    81    80    61    73    69    90    98   106    88    88   102   102    93   106    89   108   102    95    75    83    77    79    59    58    46    47    51    30    28    38    23    19    26    23    15    11    14    14     9     3     5     7     6     3     3     3     7     4     4     1     1     0     0     0     0
     0     0     0     0     0     0     0     1     1     0     0     1     0     0     0     0     0     1     2     2     4     2     3     2     5     6     9     8    10    16    19    16    25    35    36    30    36    41    35    35    43    46    59    61    71    76    85    76    84    88    90    87    93   108   100    88    96   113   110   103    85    97    97    89    88    78    60    59    72    68    56    49    40    27    33    31    22    23    18    13    12    14    18    15    10     9     6     5     1     4     4     1     4     1     2     3     0     0     0     1
     0     0     0     0     0     0     0     1     1     0     0     0     0     0     0     0     2     1     0     2     3     1     1     6     2     6     3     5     3     9    10    18    15    20    22    24    24    24    50    43    49    50    55    57    74    66    74    76    71    99    89   102    83    99    99    91   125   102   107    97    89    98    99   100    75    82    85    73    52    77    46    56    38    39    48    40    27    35    15    24    26     8    15    15    11     9     5     1     4     7     6     3     1     1     1     2     1     2     0     0
     0     1     0     0     0     0     0     1     0     1     1     0     0     1     0     1     0     1     0     0     1     0     4     0     6     5     3    10    10    13    13    19    20    18    21    32    29    25    38    34    40    43    53    54    58    64    79    69    64    68    72    87    85   109    92   104   112   124    88    92   100   107   102   100    83    88    83    89    76    74    50    60    38    47    29    39    40    34    28    24    14    14    18    18     7     3     7    13     6     7     9     3     6     1     1     1     1     1     1     0
     0     0     0     0     0     0     0     1     0     0     0     0     0     1     0     0     0     0     0     1     0     1     1     3     4     6     1     5    10     7     6     8    11    18    20    21    28    27    35    24    39    43    51    53    66    65    75    75    79    69    86    78    87   107    82    95   100    85   107   110   109    88   102    90    88    83    98    77    62    90    70    51    62    50    39    33    42    30    26    39    25    22    19    23    14    10    12    14     7    11     6     8     4     5     0     2     3     1     2     1
     3     0     0     0     0     0     0     0     0     0     1     1     1     0     0     0     0     0     0     0     0     1     0     1     0     1     5     1     4     5     2     6     7    13    20    26    33    21    32    30    33    33    38    45    52    54    55    70    70    68    81    88    84   106    90    91   112    88   107   101    96   102   100   103   103    93    85    83    68    63    80    71    53    57    38    50    34    39    39    32    22    29    19    14    14     8    10    10     8     6     5     4     1     6     3     5     4     2     2     2
     0     1     0     1     0     0     0     0     0     0     0     1     0     0     2     1     0     1     0     0     0     1     0     4     0     1     3     2     0     6     9    15    12     8     8     9    23    23    37    30    44    49    33    36    41    31    51    54    68    65    67    80    94    72    84    86   104    93    96    97    90    93    81    77   114    83    86    83    77    76    73    66    56    62    56    46    57    35    29    31    31    32    16    20    16    14     8    13    11     8    10    11     8     5     4     3     0     1     2     1
     4     2     0     0     0     0     0     0     0     0     0     0     0     0     0     0     0     0     0     0     1     0     0     1     2     2     6     0     4     3     5     7     7    12    12    12    12     9    37    17    30    38    34    33    53    36    50    70    52    56    65    70    76    84    77    80    88    92    91   105   101    96    99    92    98    98    88    90    94    98    83    69    60    57    56    53    45    39    53    37    37    25    24    20    20    12    10     8    11     3     6     4     3     7     6     1     1     3     0     0
     1     0     0     0     0     0     0     0     0     0     0     0     0     0     1     1     1     0     0     0     0     2     1     1     2     2     2     1     1     4     2     4     8     2     5     6     9    16    11    18    21    26    25    34    42    44    48    44    50    54    68    80    85    83    72    79    81    90   103    88    99    91    81   101    89    77    93    91    92    85    94    83    58    63    75    65    35    35    47    50    39    21    25    30    21    17     8    11    15    10     8     8     7     1     6     2     1     2     4     2
     3     0     3     0     0     0     0     0     0     0     0     0     0     1     2     0     0     0     0     0     0     0     2     0     1     2     1     1     5     2     4     1     3     9     7    10    10     6    22    11    18    25    29    28    18    36    43    38    53    57    48    89    73    80    76    71    63    95    90    90    91    92    78    80    88    95    84    81    92    82    81    66    55    57    47    61    66    56    55    45    52    44    25    24    15    18    15    14    11    11    14     5     7     4     3     4     3     6     6     4
     3     3     1     0     0     0     0     0     0     0     1     0     0     0     0     0     0     0     1     0     0     0     1     0     2     3     3     3     4     1     2     4     2     3     2     6     6     7    14    24    20    18    32    27    35    26    44    45    48    52    48    60    64    67    73    65    64    89   106    92    81   103    71    97    79    70    85    76   101    84    79    62    72    60    59    54    63    59    33    40    41    40    32    28    13    12    14    20    17    16    15     8     1     4     6     5     2     4     4     5
     3     3     1     0     0     0     0     0     0     0     0     0     0     0     0     1     0     0     0     1     1     1     1     0     2     1     0     1     1     2     1     0     8     9    10     7    10    11    11     9    17    25    24    35    24    27    31    35    45    43    39    47    49    51    80    85    79    76    82    93    80    81    84    86    90    72    87    74    86    94    81    74    66    62    63    53    49    53    51    50    48    41    33    30    28    23    21    19    17    20    16     7     9     7     3     3     4     8     3     6
     2     0     2     0     0     0     0     0     0     0     0     0     0     0     0     0     0     0     1     0     0     0     1     0     1     1     2     1     0     1     0     2     2     3     4     4     7     6    14    13    14    16    15    18    20    25    38    29    45    24    42    51    60    71    61    56    80    74    70    96    74    85    88    76    90    68    85    71    79    78    83    77    59    72    69    67    51    52    46    50    49    39    41    40    30    27    19    29    25    20    16     7     8     9     7     4     6     3     5     1
     8     2     2     2     1     1     0     0     1     0     0     1     0     0     0     0     0     0     1     0     1     0     1     1     0     1     1     2     2     0     1     3     3     5     4     2     8     3     3     8    11    15    19    16    28    26    29    22    41    42    43    45    57    58    51    59    53    74    74    83    92    56    90   104    70    77    80    78    85    66    79    64    70    71    72    57    82    64    56    62    45    33    42    40    21    21    27    26    18    25    12    13     9    13     8     4     3     5     2     3
     4     5     2     3     1     1     0     1     1     1     0     0     0     0     0     1     1     0     0     0     0     0     0     2     0     0     2     0     1     6     1     1     0     2     4     2     4     9     7    12    12    10    16    17    26    27    32    26    24    32    47    43    54    52    66    42    59    64    68    77    74    85    82    78    90    79    73    73    90   102    92    72    72    67    67    87    85    58    51    70    43    47    52    54    38    29    38    28    32    24    14    15    10    11    10     3     7    10     6     3
     2     5     7     1     2     5     0     1     1     1     0     0     0     1     0     1     2     0     1     0     1     0     0     1     1     1     2     1     2     0     2     2     2     5     0     6     3     4     3     9     9    10    13    12    24    22    11    34    22    29    32    42    35    72    39    50    48    38    62    63    63    71    68    65    66    80    67    75    77    98    88    85    84    84    84    55    58    66    65    59    65    52    42    50    48    36    31    31    31    18    26    23    17    13    11     7    13     6     4     7
    10     5     2     3     4     3     0     1     2     2     0     0     0     0     0     0     0     0     1     1     0     0     1     0     0     1     0     0     0     0     0     0     0     2     2     2     4     2     5     3     8     6    10    18    15    13    16    21    21    28    35    37    31    48    46    41    33    42    56    48    68    62    66    65    59    62    68    87    92    76    68    79    68    82    71    63    69    89    63    45    57    48    68    52    34    49    33    48    35    31    37    25    15    20     9     5     4     6     3    12
     4     5     5     5     4     6     2     1     1     1     0     1     0     0     0     0     0     0     0     0     0     0     2     0     1     1     0     0     0     0     0     0     2     1     0     3     1     0     2     4     8     6     3    10    16    12    12    22    13    23    24    25    30    34    39    41    42    45    49    59    49    62    64    76    55    66    63    88    75    88    68    61    64    68    69    73    85    70    63    53    45    50    43    49    47    30    30    46    18    26    22    23    14    17    13    16     4     7     4     7
    10     7     8     8     4     4     5     0     4     1     1     0     1     0     0     0     0     0     0     0     0     0     1     0     0     0     0     1     0     0     1     1     0     0     0     3     6     2     2     3     2     5     6     2     5    11    11    17    13    24    26    20    26    35    29    30    34    42    36    44    44    43    45    58    49    57    68    65    66    72    67    80    85    69    64    80    53    66    70    72    53    66    53    39    34    47    43    32    31    22    32    33    26    16    11    12    10     7     6     4
    14     6     4     3     4     7     2     0     2     2     2     0     1     0     0     0     0     0     1     0     1     0     0     1     1     0     0     1     0     0     0     0     0     0     1     1     2     1     2     8     7     5     4     5    10     8     9    12    12    24     9    22    17    28    26    38    32    39    61    35    45    34    49    49    48    52    74    60    83    65    75    91    80    66    75    67    63    76    63    57    47    54    43    46    53    52    42    33    46    33    22    25    23    19    12    18    16     9    11     9
     7     4     3     9     3     2     3     5     0     1     1     0     3     0     0     0     0     1     1     0     0     2     0     0     0     0     0     1     0     0     0     0     0     0     1     3     3     4     6     1     1     2     1     8     6     3     5    15    11    13    12    24    24    13    28    30    35    42    37    39    38    45    53    50    48    49    48    75    54    81    72    59    78    64    73    50    66    64    61    64    54    45    49    51    47    42    41    44    33    47    31    24    30    25    23    14    17     8    11     8
     4     7    12     4     5     4     3     1     2     1     0     0     0     0     0     0     0     0     0     0     0     0     0     1     1     0     0     0     0     0     0     0     1     0     2     3     1     1     3     0     0     1     2     2     4     4     9     5    11     7    13    18    24    23    24    32    33    35    32    46    39    42    35    28    52    50    52    56    54    90    67    74    80    64    64    66    59    43    57    66    51    63    54    51    59    56    46    33    41    38    33    35    32    23    28    25    14    11    10     9
     7     7    10     7     7     3     3     2     0     2     0     1     0     0     1     0     1     0     0     0     0     0     0     0     0     0     0     0     1     1     1     0     0     0     0     0     4     0     1     0     1     4     2     2     4     4     6     6     8    16    11    20    15    13    23    21    20    30    30    31    51    34    43    38    21    45    33    66    74    64    58    60    63    59    73    71    53    69    59    56    45    61    76    61    54    54    66    52    46    45    38    44    34    36    25    23    31    19    18     9
     8    13    10    10     5     7     2     1     3     1     2     1     0     1     0     0     0     0     0     0     1     0     0     0     0     0     0     2     0     1     0     0     1     0     1     1     1     0     3     1     1     0     1     0     1     3     3     3     8     8    12    15    14    13    24    34    27    28    35    38    36    26    28    33    45    42    41    51    68    76    63    68    60    57    62    61    52    60    66    64    57    61    69    51    53    63    61    50    45    41    40    32    39    36    38    28    17    19    10    13
    21    11    11     8     5     4     3     1     3     1     4     0     4     1     0     3     2     2     1     0     0     0     1     0     0     0     0     0     1     1     0     0     1     0     0     1     0     1     1     0     1     1     1     2     1     2     2     6     7    14     6    16    15    14    18    16    23    17    29    27    27    35    30    26    35    30    38    41    37    61    73    71    79    62    62    63    63    70    68    68    68    67    49    64    59    70    56    54    50    38    43    39    36    34    41    43    22    18    21    19
    13     8     6     4     5     5     5     4     6     3     3     1     2     0     5     2     2     3     0     1     0     1     0     0     1     0     0     0     0     0     0     0     0     0     0     2     0     0     0     3     1     5     0     2     0     4     3     3     5     8    11    11     7    15     9    21    18    16    25    26    23    29    31    40    31    38    37    46    43    50    67    73    68    65    45    56    59    58    51    47    70    66    57    64    65    69    48    49    53    43    37    45    45    33    32    40    26    21    25    15
    16    14    12     8     6     5    10     5     7     1     2     4     2     5     2     3     1     2     1     1     0     1     3     1     0     1     0     0     0     0     0     0     0     0     0     0     0     0     1     1     2     0     2     1     1     1     4     3     6     4     7     5    13    10    14    11    15    21    20    25    26    23    29    44    24    41    26    36    51    46    58    45    56    46    49    46    57    54    74    62    47    59    57    61    59    58    71    70    45    63    48    42    36    37    46    24    35    22    17    15
    19    16    11    10    13     6    10     6    12     5     3     3     6     4     4     5     3     2     2     1     2     1     1     0     0     0     0     0     0     0     1     0     0     0     0     1     0     2     2     1     2     3     1     0     1     1     3     2     4    11     4     6     7    11     7    14    19    15    26    19    21    24    26    27    31    38    25    28    36    50    39    49    46    51    53    50    58    52    58    63    60    64    54    67    68    53    60    58    52    40    48    50    39    44    37    37    20    27    29    25
    21    17    11    13    12     6    16    12     5     9     5     6     7     2     3     2     1     4     4     1     5     0     1     3     2     2     0     0     0     0     0     0     0     1     0     0     1     4     0     0     0     0     1     1     1     1     2     2     5     7     5     3     5     3     6    15    12    12    16    11    14    22    32    22    36    34    26    24    34    44    49    48    47    44    52    49    45    61    62    68    70    59    59    58    68    65    59    45    53    63    46    41    39    51    49    40    31    27    33    22
    15    15    23    21    18    13    15     8     6     9     6     8     7     7     5     3     1     5     3     2     3     2     1     4     2     2     0     0     0     0     0     0     0     0     0     0     0     2     2     2     0     2     0     2     1     1     2     1     0     2     5     7     4     3     5     8    11     8    16    20    18    18    14    25    28    24    32    34    27    35    38    45    37    40    50    48    48    36    60    63    49    53    52    55    58    62    53    47    55    58    47    58    34    35    30    37    35    36    31    26
    26    21    25    13    18    13    19     6     8     9    10     4     6     6     7     3     6     2     3     1     5     2     1     1     0     1     0     0     1     0     0     0     0     0     0     0     0     0     0     1     1     1     1     1     2     0     1     0     1     0     3     2     5     3     8     7    11     9    12    11    14    18    18    14    27    28    22    22    29    31    46    34    38    24    36    35    38    51    62    62    68    55    68    61    55    47    53    54    52    54    55    51    47    39    43    37    34    41    28    24
    29    35    29    26    20    15    18     7    16    13     9     6     6     7     5     5     5     4     5     0     2     0     1     1     1     0     4     1     1     1     0     0     1     1     0     1     0     1     1     0     0     0     0     0     5     0     1     3     2     4     2     2     6     0     6     4    17    11     8    12    18    13    14    15    13    13    26    20    29    28    32    30    31    37    36    36    48    36    43    47    67    57    58    59    61    57    63    61    55    60    51    53    51    42    42    36    39    41    30    23
    39    27    21    16    20    14    13    13    17    11    14     8     5     6     6     8    11     5     5     5     1     1     6     1     2     1     2     1     0     0     0     0     0     0     0     0     0     0     0     0     0     2     0     1     0     1     3     3     2     1     2     2     3     0     1     5    13     7    10    13     9     9    23    19    19    25    24    25    22    22    27    21    32    28    32    39    38    37    39    43    54    59    49    62    57    47    64    61    50    55    61    49    46    46    45    49    32    39    41    25
    27    28    21    24    21    23    15    14    16     9    18    19    11     7     8     7     6     3     5     6     2     3     1     3     0     2     1     0     2     0     1     1     1     1     0     0     0     0     0     0     1     0     0     0     1     1     1     1     0     2     2     2     0     1     2     4     7     9     4     7    10    12    12    14    18    24    30    15    10    25    19    34    28    30    31    32    38    36    51    45    50    47    40    57    57    63    57    47    63    54    61    52    50    43    34    23    31    34    31    30
    27    22    23    21    20    19    25    16    13    17    10     8     9     4     7     6     5     4     6     6     3     2     5     5     1     2     2     0     0     1     0     0     0     0     0     0     0     0     2     0     0     0     0     0     0     1     0     1     2     1     1     0     1     5     2     0     4     9     3     9     5     4    15    11    12    11    15    21    19    18    19    18    26    24    37    36    26    41    35    33    43    58    62    55    53    65    65    57    54    58    60    55    55    44    40    42    38    37    42    30
    22    28    21    25    18    16    17    16    23    22    20    16    21    12     8    10     3     8     6     3     5     4     1     0     1     4     0     1     3     1     0     0     0     0     0     0     0     0     1     0     0     0     1     0     0     0     0     0     1     2     3     0     2     0     2     2     6     3     5     5     6     3     9     9    15    18    19    14    14    18    19    23    25    33    28    36    30    34    39    32    43    40    53    43    37    49    64    53    50    43    45    50    50    38    55    47    45    31    40    31
    31    30    34    22    18    26    23    21    26    16    15    15    12    24    12    11     9     7     5     3     5     4     5     2     3     8     2     0     4     2     0     0     1     0     0     0     1     0     0     1     0     0     0     0     1     0     0     1     1     2     1     1     3     2     1     2     2     8     3     4     5     9     6     5     9    12    14    16    16    12    17    27    21    27    18    19    28    43    41    35    46    32    38    50    43    40    43    43    44    51    45    47    58    43    50    49    26    41    34    39
    26    21    31    24    31    24    21    24    26    15    32    28    23    13    14    16    16     7     5     5    11     8     3     7     4     5     1     1     0     1     0     0     1     0     0     0     0     0     0     0     0     0     0     0     0     0     0     0     0     2     2     0     0     1     2     1     2     3     2     9    10     1    10     7     3    17    11     9    11     7    12    14    16    18    15    15    26    23    29    43    53    31    34    55    46    35    54    39    43    41    46    49    40    59    51    41    40    42    33    24
    41    29    37    34    26    19    27    13    20    27    18    22    19    19    13    13     8    11     7     4     6     2     1     6     5     3     3     4     3     1     0     0     0     0     0     0     0     0     0     0     0     0     0     0     0     0     0     0     2     0     0     0     1     1     4     1     2     2     4     5     6     7     7    10     9    12     8     9     6     8    19    15    16    15    20    19    28    34    25    39    29    34    46    44    41    51    57    46    49    46    49    36    47    58    33    54    66    34    36    44
    45    37    30    35    36    24    23    23    26    24    30    28    20    21    13    16    10    17     9    11     7     5     6     3     1     1     6     1     1     1     3     0     0     0     0     0     0     0     0     0     0     0     1     1     0     0     0     0     2     0     0     0     0     2     1     1     1     1     4     5     1     8     4    10    11     8    10     6     5     6     8    15     8    15    16    19    24    29    47    24    35    38    44    33    31    44    50    47    45    36    38    37    35    45    43    57    54    38    37    37
    40    22    26    35    41    21    20    10    22    17    21    29    18    21    17    17    18     7    14    13     9     9     7     4     5     6     4     2     0     1     0     0     0     0     0     0     0     0     0     1     0     0     0     0     0     0     1     1     1     0     0     1     1     0     0     0     2     0     1     2     2     6     3     5     5     3     7     4     6    11     4    13    13    15    15    13    21    25    19    37    38    38    42    43    41    32    41    44    36    41    31    48    39    58    43    53    48    53    43    38
    34    37    34    26    25    20    19    23    23    29    23    32    21    22    22    20    15    13    13    14    11     6     8     6     6     6     7     4     1     1     4     1     3     1     2     0     0     0     0     0     0     0     0     0     0     0     0     0     0     1     0     0     1     1     0     2     0     0     3     0     5     1     4     4     2     6     6     3     5     8     4     9    14    16    14    15     9    21    15    29    34    29    39    32    32    38    38    30    33    35    35    34    38    52    40    42    40    37    33    42
    36    25    39    39    28    26    24    21    27    27    27    22    21    37    16    21    17    13    10    23    11    18    11     7    11     7     4     5     3     0     0     2     2     2     0     0     0     0     1     1     0     0     0     0     0     1     0     2     0     0     0     0     2     0     0     0     0     2     0     0     3     1     3     5     1     7     3     4     6     2     5     8    14    10    20    23    12    24    21    24    29    30    31    24    25    30    39    27    30    22    26    32    31    39    40    44    36    33    35    35
    39    36    38    27    31    24    24    29    23    30    29    26    27    32    20    23    37    24    16    10    19     9    12     5     4     6     6     3     6     3     0     4     2     2     0     0     0     1     0     0     0     1     0     0     2     0     0     0     0     0     0     0     0     1     0     0     0     0     1     0     1     3     2     2     3     8     6     6     3     2     9     7    11    14     7    12    11    12    17    20    32    27    25    32    28    29    33    30    31    24    37    31    34    42    45    24    26    36    38    33
    32    49    37    29    55    37    40    39    36    25    28    16    25    33    28    23    28    19    24    14    26     9    16    11     9     7     5    10     8     5     4     2     1     3     1     1     4     1     2     2     1     0     0     0     0     1     1     0     0     0     0     0     0     0     1     0     1     1     0     1     2     1     3     4     6     7     1     3     2     1     7     7     1     7    11     9    14    12    12    21    13    18    16    32    30    23    32    29    31    24    28    33    29    36    36    31    32    38    31    36
