#lt      30.0
#count pbc
#dt      1.0
#dn      30
#edges  -27.1557089 -26.6125947 -26.0694805 -25.5263664 -24.9832522 -24.4401380 -23.8970238 -23.3539097 -22.8107955 -22.2676813 -21.7245671 -21.1814529 -20.6383388 -20.0952246 -19.5521104 -19.0089962 -18.4658821 -17.9227679 -17.3796537 -16.8365395 -16.2934253 -15.7503112 -15.2071970 -14.6640828 -14.1209686 -13.5778545 -13.0347403 -12.4916261 -11.9485119 -11.4053977 -10.8622836 -10.3191694  -9.7760552  -9.2329410  -8.6898268  -8.1467127  -7.6035985  -7.0604843  -6.5173701  -5.9742560  -5.4311418  -4.8880276  -4.3449134  -3.8017992  -3.2586851  -2.7155709  -2.1724567  -1.6293425  -1.0862284  -0.5431142   0.0000000   0.5431142   1.0862284   1.6293425   2.1724567   2.7155709   3.2586851   3.8017992   4.3449134   4.8880276   5.4311418   5.9742560   6.5173701   7.0604843   7.6035985   8.1467127   8.6898268   9.2329410   9.7760552  10.3191694  10.8622836  11.4053977  11.9485119  12.4916261  13.0347403  13.5778545  14.1209686  14.6640828  15.2071970  15.7503112  16.2934253  16.8365395  17.3796537  17.9227679  18.4658821  19.0089962  19.5521104  20.0952246  20.6383388  21.1814529  21.7245671  22.2676813  22.8107955  23.3539097  23.8970238  24.4401380  24.9832522  25.5263664  26.0694805  26.6125947  27.1557089
    57    43    54    52    60    43    52    38    44    30    33    37    34    40    22    23    26    22    16    18    16     6    11     5     9     5     5     2     2     4     0     2     1     1     2     1     0     0     1     0     0     0     0     0     0     0     0     0     0     0     0     0     0     0     0     0     0     0     0     0     0     0     0     0     0     0     0     1     0     1     2     3     0     5     4     2     5     3     8     7    13    12    15    16    22    18    19    26    28    27    32    37    36    46    47    33    50    41    46    54
    46    50    56    46    65    50    49    49    44    37    53    42    42    47    33    30    24    40    19    22    12    12    11    12     5     5     6     2     4     4     4     2     3     0     0     1     1     2     0     1     0     0     0     0     0     0     0     0     0     0     0     0     0     0     0     0     0     0     0     0     0     0     0     0     1     0     0     1     0     3     1     0     1     3     3     7     4     2     5     7     7    11    14    12    16    15    22    21    22    35    27    27    29    26    34    34    32    34    51    35
    52    49    68    67    63    61    46    53    47    49    34    47    42    46    37    26    36    28    24    24    21    17    14     5    10    14     9     4     6     4     2     0     5     3     0     0     0     1     0     0     0     1     0     0     0     0     0     0     0     0     0     0     0     0     0     0     0     0     0     0     0     0     0     0     0     1     0     0     1     3     1     2     4     2     5     3     3     3     3     3     4     8    19    10     8    14    17    24    22    22    23    26    34    35    44    43    29    41    46    54
    37    73    57    51    67    48    46    48    40    45    48    49    39    55    39    58    22    31    29    22    25    20    10    16     7    10     9     3     7     4     1     2     2     0     2     1     1     2     1     0     0     1     0     0     0     0     0     0     0     0     0     0     0     0     0     0     0     0     0     0     0     0     0     0     0     0     0     0     1     1     0     1     2     1     0     1     2     2     5     4     3     6     7     6     7     8    16    14    22    26    18    21    29    33    41    43    33    48    38    42
    55    66    49    57    59    56    55    59    62    56    58    61    52    54    53    47    46    41    35    29    28    23    21    15     9    10    10    12    11     4     4     6     3     1     0     2     2     1     2     1     1     0     0     0     1     0     0     0     0     0     0     0     0     0     0     0     0     0     0     0     0     0     0     0     0     0     0     0     0     1     0     1     1     1     1     3     0     1     4     3     5     8    10     8     8    10    12    14    16    17    26    23    30    30    28    41    39    31    35    43
    45    45    60    61    60    50    45    63    68    48    47    57    43    64    54    53    45    44    21    35    26    26    15    17    17    13    13    10     8     5     3     4     2     3     2     1     2     3     3     0     0     0     1     1     0     1     0     0     0     0     0     0     0     0     0     0     0     0     0     0     0     0     0     0     0     0     0     0     0     0     0     1     0     1     0     2     2     1     0     3     1     2     5     6     2    10     7    14    13    11    12    22    20    26    25    33    29    31    37    33
    30    55    49    41    56    47    50    52    46    43    52    62    56    49    45    47    56    49    42    34    36    27    23    23    22    17    22     9    12    12     5     4     5     2     4     1     4     3     1     0     1     2     0     1     0     0     0     0     0     0     0     0     0     0     0     0     0     0     0     0     0     0     0     0     0     0     0     0     0     0     0     0     1     1     1     1     3     1     2     0     1     3     2     3     3     4    10     9     9    14    10    15    20    25    28    34    35    30    44    46
    44    42    49    48    59    55    48    52    72    54    41    45    47    44    56    66    42    54    43    33    44    38    30    21    25    13    25    15    21     9     4     3     7     3     2     2     0     0     2     1     1     3     1     0     0     0     0     0     0     0     0     0     0     0     0     0     0     0     0     0     0     0     0     0     0     0     0     0     0     0     0     0     0     0     0     0     1     3     2     4     2     3     4     0     6     7     7     6     9     8     7    10    16    24    24    25    40    38    33    57
    34    52    43    45    70    60    43    59    58    79    69    66    68    60    50    48    57    65    50    60    41    48    29    32    24    19    23    19    11     9    14     5     6     3     5     5     5     1     4     0     1     0     1     0     0     0     0     0     0     0     0     0     0     0     0     0     0     0     0     0     0     0     0     0     0     0     0     0     0     0     0     0     0     0     4     0     2     1     1     2     2     3     3     4     7     2     4     6     7    10    18    21    22    21    26    23    25    29    35    38
    47    41    46    45    48    63    60    42    71    63    65    54    56    63    67    68    57    54    67    54    50    34    37    36    22    26    14    14    17    14    13     7     5     8     5     1     5     1     2     1     3     2     0     2     0     1     0     0     0     1     0     0     0     0     0     0     0     0     0     0     0     0     0     0     0     0     0     0     0     0     0     0     0     1     0     1     0     3     2     2     3     0     3     3     5     4     5     6     6    12    17    12    12    15    22    20    25    25    50    38
    34    41    46    42    59    54    52    60    68    67    73    72    94    68    69    51    52    63    66    56    54    46    33    31    25    24    26    19    23    13    12     8     8     8     1     4     5     2     1     1     0     0     4     1     5     0     1     0     0     0     0     0     0     0     0     0     0     0     0     0     0     0     0     0     0     0     0     0     0     0     0     0     0     0     1     1     0     0     0     1     0     1     1     3     5     5     4     8     6     8     7    15    20    13    14    23    14    30    23    41
    49    40    48    46    55    45    59    67    64    67    64    67    79    82    65    61    81    60    67    54    57    47    42    30    43    32    25    23    26    18    16    11    14    14     4     4     4     5     2     3     3     3     5     4     0     3     0     0     1     1     0     0     1     0     0     0     0     0     0     0     0     0     0     0     0     0     0     0     0     0     0     0     0     0     0     0     0     1     0     1     0     1     1     2     1     5     5     3     5     7     9     8     8     9    23    21    28    31    23    24
    40    34    52    47    55    70    56    63    74    68    72    83    58    69    78    73    77    64    67    62    51    46    37    33    33    33    33    25    20    18    23    19    10    10     7     7     5     2     6     4     1     3     2     4     4     2     2     1     2     0     1     0     1     1     0     0     0     0     0     0     0     0     0     0     0     0     0     0     0     0     0     0     0     0     1     0     0     2     0     0     0     2     0     0     2     1     1     3     5     5     5    10    11    14     9    13    11    22    25    39
    31    35    42    51    51    47    47    69    59    54    70    69    70    81    76    87    89    70    62    65    48    57    66    41    46    34    39    39    35    27    14    19    15    10    13     7     5    11     8     4     2     3     3     1     2     2     0     2     1     2     0     1     3     0     0     0     0     0     0     0     0     0     0     0     0     0     0     0     0     0     0     0     0     0     0     0     0     1     2     0     0     0     1     1     3     2     3     1     6     4     6     5     6    11    20     9    13    14    13    24
    27    30    39    34    49    45    52    50    63    67    72    72    74    62    66    80    65    66    90    68    73    50    40    37    39    43    35    41    30    39    22    25    23    24    15    10    11    10     3     1     2     5     4     4     1     4     0     1     0     0     0     0     0     0     1     2     0     0     0     0     0     0     0     0     0     0     0     0     0     0     0     0     0     2     0     0     0     0     0     0     0     0     0     1     1     4     2     6     3     3     6     2    11     5    11    12    12    13    15    31
    22    28    38    45    44    48    52    54    47    71    68    67    77    67    68    77    76    80    90    62    52    63    68    43    57    48    55    47    39    31    22    24    21    25    17    20    13    10    11    10     5     6     5     1     2     1     0     0     0     1     0     1     0     0     1     0     0     0     0     0     0     0     0     0     0     0     0     0     0     0     0     0     0     0     0     0     0     0     0     0     0     1     0     0     2     1     2     6     1     2     6     5     4     9     6    10    13    14    18    26
    27    25    38    43    42    45    35    60    66    56    56    60    71    76    66    79    69    66    77    75    74    76    68    59    54    51    62    35    41    38    29    31    23    18    20    16    16    10     8     8     8     7     5     3     2     0     1     1     1     2     2     0     1     1     0     0     0     0     0     0     0     0     0     0     0     0     0     0     0     0     0     0     0     0     0     0     0     0     0     0     0     0     0     0     0     0     0     2     1     2     3     2     3     7    13    11    14    14    13    18
    19    17    22    37    42    51    43    49    57    56    68    69    68    82    65    66    71    80    88    91    76    64    76    67    62    59    41    54    40    42    44    33    25    17    25    18    22    13    10    14     8     8    10     4     3     2     0     0     0     0     0     0     0     1     0     2     0     1     1     0     0     0     0     0     0     0     0     0     0     0     0     0     0     0     0     0     0     0     0     0     0     0     2     0     1     0     1     1     3     1     1     1     4     8     7     9    10     7    10    18
    21    21    29    25    33    22    43    32    70    60    54    56    66    66    75    63    79    84    86    84    78    82    90    79    83    66    56    57    58    52    48    48    37    25    31    29    23    21    19    19    15     7     6     4     6     1     2     1     3     1     1     0     1     0     1     0     1     1     0     0     0     0     0     0     0     0     0     0     0     0     0     0     0     0     0     0     0     0     0     0     0     0     1     0     0     1     1     1     1     2     2     6     4     5     8    10     5     4     6    12
    15    20    22    25    37    32    40    28    42    44    49    49    55    58    67    65    74    73    80    81    77    80    78    84    70    74    78    50    59    60    50    43    37    39    31    25    23    27    15    16    14    11     8     9    11     4     2     0     0     3     0     2     0     2     0     0     2     0     0     1     0     0     0     0     1     0     0     0     0     0     0     0     0     0     0     0     0     0     0     0     0     0     0     0     0     1     0     1     1     2     2     1     4     3     2     7     3     7    10     8
    10    13    17    15    19    31    40    46    40    40    34    53    44    47    52    75    72    74    82    82    80    74    92    92    92    68    73    59    57    71    52    46    49    50    48    39    29    18    35    17    17    12    21     5     6     4     5     2     3     3     2     1     0     0     0     0     0     1     0     1     0     0     0     0     0     0     0     0     0     0     0     0     0     0     0     0     0     0     0     0     0     0     0     1     0     0     0     0     0     2     1     1     3     6     4     6     1     4     6    10
     8    10    15    18    27    22    22    23    22    39    35    48    55    49    59    52    68    69    82    77    88    94    78    82    83    80    76    71    51    74    63    64    56    51    49    30    37    28    28    26    36    16    17    14    11     9     6     3     4     1     0     3     0     0     2     0     1     1     1     0     1     0     2     1     0     0     0     0     0     0     0     0     0     0     0     0     0     0     0     0     0     0     0     0     1     0     0     0     0     0     0     2     4     2     5     3     4     6     1    10
     6    10     8    13     7    22    19    36    29    30    43    49    47    60    63    69    42    69    66    72    77    84    69    90    87    74    74    64    69    75    65    68    69    55    57    46    49    32    36    25    25    17    24    15    14    15     6     9     4     7     5     3     1     0     4     1     1     4     1     0     0     0     1     0     0     1     1     0     0     0     0     0     0     0     0     0     0     0     0     0     0     0     0     0     0     0     0     0     0     0     0     0     3     2     0     5     4     4     2     6
     2     5    13    15    13    18    24    14    23    47    36    49    50    33    53    56    64    60    64    67    69    74    87    72    87    82    77    58    57    81    63    68    81    61    69    49    67    52    48    34    25    20    19    16    18    17    12    11    13     2     2     5     3     1     0     1     0     0     0     0     0     0     0     0     1     0     0     0     0     0     0     0     0     0     0     0     0     0     0     0     0     0     0     0     0     0     0     0     0     0     0     0     0     2     0     1     0     0     2     1
     2     7    11     3    16    13    10    30    26    30    25    45    47    40    47    43    53    55    70    73    77    70    81    76    94    85    86    76    84   101    82    65    84    78    63    60    57    54    47    39    38    26    17    30    12    14    17    15     6     8     4     4     4     4     0     2     1     0     1     0     0     0     0     0     0     1     0     0     0     0     0     0     0     0     0     0     0     0     0     0     0     0     0     0     0     0     0     0     0     1     0     1     0     1     1     1     0     0     1     4
     3     3     8     2     6     7    17    20    20    26    23    36    32    34    42    50    44    67    59    65    79    73    86    80    93    93    79    87    81    82    78    86    70    79    66    74    55    47    43    49    39    26    33    14    26    21    10    13    12    11     9     3     1     4     0     0     0     0     2     1     0     0     0     0     1     0     0     0     0     0     0     0     0     0     0     0     0     0     0     0     0     0     0     0     0     0     0     0     0     0     0     1     0     1     1     1     1     2     0     0
     4     2     4     7     7    17    10    15    15    20    23    23    33    37    34    46    45    54    60    62    49    72    77    81   102    89   103    95    90   105    94    99    95    89    79    79    68    56    53    45    46    30    27    36    36    21    21    25    14    14     7     2     9     7     2     5     3     1     3     0     0     1     0     0     0     0     0     0     0     0     0     0     0     0     0     0     0     0     0     0     0     0     0     0     0     0     1     2     0     1     0     1     0     1     3     0     0     1     4     2
     2     4     5     8     4     5     4    12    16    14    22    28    28    32    36    33    47    51    64    56    72    63    85   101    74    90    92    90    96   105   110   101    89    80    84    77    67    58    37    56    42    44    35    26    29    29    30    13    16    13     4     5     8     6     3     8     2     2     3     0     0     1     0     0     0     0     0     0     0     0     0     0     0     0     0     0     0     0     0     0     0     0     0     0     0     0     0     0     0     0     0     1     0     1     1     0     0     2     0     3
     1     3     3     4     6     6    13    13    16    18    21    23    31    31    28    32    37    42    57    41    70    63    66    79    75    67    99   106   102    81    91    81    95    86   101    79    89    66    68    62    52    46    40    36    29    32    25    31    23    15    10    14     6     9     8     5     6     5     4     0     1     0     0     0     0     0     0     1     0     1     0     0     0     0     0     0     0     0     0     0     0     0     0     0     0     0     0     0     0     0     1     1     0     0     1     0     3     1     2     0
     2     2     4     5     5     7     9     8     8    22    20    18    28    33    32    38    52    42    59    56    70    60    75    69    82    89    89    90   100   115    83   112   106   106    82    91   101    67    76    68    58    70    48    42    41    36    24    24    27    26    12     7    10    10     4     6     2     9     0     3     1     1     0     0     0     0     0     0     0     0     0     0     0     0     0     0     0     0     0     0     0     0     0     0     0     0     0     0     0     0     0     0     0     0     1     1     3     1     0     3
     2     1     5     1     2     8     5     2     9    13    13    19     9    22    28    32    39    33    39    44    51    75    65    63    74    65    79    86    86    97    92   107   105   103   101    89    92    74    70    66    76    67    33    62    39    41    32    27    27    27    13    11    11    12     8     2     4     5     2     0     3     0     0     0     0     1     2     0     0     1     0     0     0     0     0     0     0     0     0     0     0     0     0     0     0     0     0     0     0     0     0     0     0     0     0     0     0     0     1     4
     3     3     4     3     5     2     4     9    10     6    15    14    21    21    21    26    36    35    35    52    62    62    72    68    70    91    82    75    87    97    98    96   108   107    89    92   104    83    93    75    76    63    57    54    52    44    44    26    38    28    18    21    19    13    12     8    11     5     5     6     2     0     2     0     1     1     0     0     0     0     1     1     0     0     0     0     0     0     0     0     0     0     0     0     0     0     0     0     0     0     0     0     0     0     1     1     0     0     1     0
     0     3     2     6     3     2     3    11     8    10    14     9    13    17    23    25    24    38    58    45    47    69    61    86    56    71    84    94    90   106    93   102    98   104   101   114   104    90   101    95    96    61    65    63    56    52    48    39    40    27    22    23    21    21    13    13    13     4     2     1     6     3     1     1     2     0     0     0     1     1     0     0     0     0     0     1     0     0     0     0     0     0     0     0     0     0     0     0     0     0     0     0     0     1     0     0     0     0     0     0
     3     2     2     2     3     1     6     4     6     8    13    11    15    14    18    19    28    20    31    29    51    56    44    54    74    71    77   102    74    93    93    94    91   108   115   107   119   102   112    95    82    78    67    58    68    64    54    57    40    35    31    21    22    27    12    13    10     7     2     3     4     1     6     1     1     1     0     3     1     0     1     1     0     1     0     0     0     0     0     0     0     0     0     0     0     0     0     0     0     0     0     0     0     0     0     0     0     0     0     0
     1     1     2     3     4     3     2     2     4     1     9    11    15    21    11    14    20    30    33    41    33    36    41    70    71    66    84    80    88    75    95   108   100   117    99    92   120   111   105    90    92    91    85    66    51    74    68    74    39    38    34    28    19    20    24    18     9     7     9     6     3     3     5     2     2     0     1     3     2     0     1     0     1     0     0     0     0     0     0     0     0     0     0     0     0     0     0     0     0     0     0     0     0     0     0     0     0     1     0     1
     0     0     4     3     0     2     4     2     4     6    11     5    20     8    15    16    14    20    18    31    31    40    65    43    60    50    70    73    96    90   104   105   106    84    98   123   117   115    96   103   101    91   102    85    91    76    58    69    56    37    38    28    19    28    25    23    15    18     5     7     8     4     6     2     4     2     2     0     0     0     0     0     0     0     0     0     0     1     0     0     0     0     0     0     0     0     0     0     0     0     0     0     0     0     0     0     0     0     0     0
     1     0     2     5     0     5     1     2     3     7     9    10     9     9    14    17     8    19    22    27    37    45    33    52    52    61    66    78    79    79    80    94   108    92   108   124   102   109   128   120   111    93    81    73    84    73    70    56    67    59    43    38    50    39    21    24    22    18    14    10    10     7     7     3     1     2     3     2     1     0     1     0     1     1     0     0     0     0     0     0     0     0     0     0     0     0     0     0     0     0     0     0     0     0     0     0     0     0     0     0
     0     0     1     0     0     1     0     2     1     3     2     5     7     8    10    11     7    20    21    18    20    46    31    39    35    52    72    88    68    83    75    88    90    77    99   104   101    99   100   108    93    93    91    83   100    80    77    71    70    49    60    63    47    39    30    35    19    29    12    10     8     7     8     7     6     1     0     0     0     2     2     0     0     0     1     1     0     0     0     0     0     0     0     0     0     0     0     0     0     0     0     0     0     0     0     0     0     0     0     0
     0     0     0     0     0     0     1     2     7     4     2     6     7     2     8    13     9    10    19    18    26    35    29    29    43    46    66    73    80    82    56   101    82   116    90   101    95   119   133   116   116   120    94    94    99    88    90    76    64    61    67    56    49    42    46    34    33    20    16    19    15    13     7    10     2     0     3     1     1     1     1     0     1     0     1     0     0     1     1     0     1     0     0     0     0     0     0     0     0     0     0     0     0     0     0     0     0     0     0     0
     0     0     1     1     2     0     1     1     1     3     5     6     3     5     3     9     5     9    16    10    16    18    25    29    43    40    52    48    52    72    77    78    88    84    94    93    95    88   121   120   106   104   107   102    96   102    80    84    94    88    65    65    74    55    52    42    41    22    29    20    16    17    14     6     7     4     4     1     3     1     1     3     1     0     0     0     0     1     0     0     0     0     0     0     0     0     0     0     0     0     0     0     0     0     0     0     0     0     0     2
     0     1     0     0     0     0     1     0     3     1     5     3     4     7     8     6     9    13     6    11    22    19    25    22    44    35    45    50    53    59    60    91   101    77    95   102    94   100   115   117   114    95   112   108   115   110   107   102   113    75    72    67    76    43    48    48    44    26    24    26    16    21    15    12     6     6     6     1     4     4     2     1     2     0     1     2     1     0     1     0     0     0     0     0     0     0     0     0     0     0     0     0     0     0     0     0     0     0     0     0
     0     0     0     1     0     0     0     2     1     1     1     2     4     2     3     3     3     6     9    12     6    15     9    26    22    34    50    49    39    67    57    48    77    72    85    92   100   106   101   103    99   104   116   109   128   105   101    85    94    92    93    78    80    60    45    52    42    36    35    29    17    16    16    12    14     9     4     7     8     5     3     6     1     2     0     0     0     0     0     0     0     0     0     0     0     0     0     0     0     0     0     0     0     0     0     0     0     0     0     0
     0     1     0     0     0     0     0     0     1     0     1     0     1     2     3     1     2     9     4    12    17     6    17    14    25    22    26    35    37    42    51    53    76    84    76    88    89   103    76   121   110   104   124   102   128   105   113   110    85    92   118   104    69    59    84    67    38    32    33    50    25    17    13    16    13    14     6     4     9     3     1     3     2     3     2     2     2     0     0     0     0     0     0     0     0     0     0     0     0     0     0     0     0     0     0     0     0     0     0     0
     0     0     0     0     0     0     0     1     0     0     1     1     1     2     1     1     6     3     8     9     9    10    16    16    13    15    33    34    30    39    44    49    50    74    76    71    89    85    98   118    94   118   108   103   118   103   107    97    87   117    93    87    82    95    66    58    63    62    40    34    36    22    22    18    23     5    12    10    14     9     3     1     3     2     3     2     0     2     0     1     1     0     0     0     0     0     0     0     0     0     0     0     0     0     0     0     0     0     0     0
     0     0     0     0     0     0     0     0     0     0     0     1     0     0     2     1     6     1     7    10     7    14     5    14    21    13    21    27    41    41    41    47    57    62    91    78    82    73    77   100   117   113   108   114   131   136   134   125   109   124   114    82    95    89    87    87    59    67    62    45    50    31    24    20    25    19    20    18    15    11     9     6     5     3     6     2     0     0     2     0     0     0     0     0     0     0     0     0     0     0     0     0     0     0     0     0     0     0     0     0
     0     0     0     0     0     0     0     0     0     0     0     0     0     0     0     1     1     3     3     3     5     7    13     6    15    14    13    23    31    36    32    53    61    54    65    72    68    77    86    85   118   120   114   112   117   133   139   117   133   125   119   109    96   103    85    75    64    63    75    47    32    28    29    21    21    25    25    10     9    12     7     6     3     3     2     1     0     0     2     0     0     0     0     0     0     0     0     0     0     0     0     0     0     0     0     0     0     0     0     0
     0     0     0     0     0     0     0     0     0     0     0     0     0     0     2     3     2     4     0     1     8     5     3    10    10    18    13    18    33    27    40    48    64    50    57    60    57    81    77    79   109   104   105   111   106   145   138   133   130   115   108   123   108    86    95    81    88    59    64    72    39    31    26    30    32    23    24    18    13    13    14    10     5     3     4     2     2     3     2     0     0     2     0     0     0     0     0     0     0     0     0     0     0     0     0     0     0     0     0     0
     0     0     0     0     0     0     0     0     0     0     0     0     0     0     0     0     1     1     2     1     5     3     9    11     8    19    13    22    24    33    28    37    42    43    51    66    64    84    83    72    97    95   103   125   137   116    97   131   108   105    97   106   106   129    86    92    90    75    79    70    58    53    38    33    25    22    23    27    12    11    19    10     7     5     7     4     5     2     2     0     1     0     0     0     0     0     0     0     0     0     0     0     0     0     0     0     0     0     0     0
     0     0     0     0     0     0     0     0     0     0     0     0     0     1     0     1     2     3     2     4     5     2     7     9    10    15    21    16    21    27    31    38    30    50    52    63    65    60    72    82    83    90    91   102   123   115   112   116   158   107   110   106    94   123   107    91    96    94    64    78    57    60    52    46    37    35    32    26    19    19    17    16    10     7     6     3     4     0     1     2     1     1     0     0     0     0     0     0     0     0     0     0     0     0     0     0     0     0     0     0
     0     0     0     0     0     0     0     0     0     0     0     0     0     0     0     1     1     0     1     1     2     3     8     4     2    10    19    16    23    25    23    27    30    46    44    43    54    43    80    83    82    83   108    93   104    97    93   117   123   129   109   113   112   115   129   101    86    87    88    69    77    75    50    59    52    42    34    30    23    30    17    15     5     6     7     3     6     5     4     1     3     0     0     0     1     0     0     0     0     0     0     0     0     0     0     0     0     0     0     0
     0     0     0     0     0     0     0     0     0     0     0     0     0     0     0     0     1     0     2     0     1     0     3     5     5     5     5    15    13    15    23    15    28    27    38    48    49    51    46    64    86    73    92    81   100   101   129    98   127   111   115   133   126   133   131   108    79    98    84    95    69    64    78    53    68    46    35    27    13    20    27    12    16    16     8     7     2     5     1     2     2     1     2     1     0     0     0     0     0     0     0     0     0     0     0     0     0     0     0     0
     0     0     0     0     0     0     0     0     0     0     0     0     0     0     0     0     0     1     2     0     1     1     3     4     5     6    11    11     9    15    12    14    19    26    37    52    45    49    54    51    89    70    82   100   111   102   102    96   116   122   114   126   122   118   121   124   112   117   100    85    91    68    81    75    70    41    65    41    34    26    28    29    13     8    14    10     7     3     4     1     3     2     0     3     0     0     0     0     0     0     0     0     0     0     0     0     0     0     0     0
     0     0     0     0     0     0     0     0     0     0     0     0     0     0     0     1     0     0     0     1     2     1     3     7     2     6     9     5     4     7    10    18    26    33    29    26    42    39    51    41    62    73    78    87   102    88    91   106   108   123   136   140   156   114   105   110   125   117   100    92    97    78    96    88    75    63    62    39    38    41    38    23    26    16    18    13    10    13     7     4     4     1     0     2     1     1     1     0     0     1     0     0     0     0     0     0     0     0     0     0
     0     0     0     0     0     0     0     0     0     0     0     0     0     0     0     0     0     0     0     1     0     0     0     5     4     2     5     7     5     6     9     5    19    22    25    35    35    50    46    50    56    72    70    64    80   105    95    93    93   120   135   124   140   134   136    96   128   136   112    94    90   112   109    87    79    72    77    56    50    37    32    33    18    16    16    14    12     6     9    10     5     6     2     3     1     1     1     0     0     1     2     1     1     0     0     0     0     0     0     0
     0     0     0     0     0     0     0     0     0     0     0     0     0     0     0     0     0     0     0     0     0     1     2     3     2     5     2     2     0     4     7    10    16    16    16    34    27    33    53    44    59    46    74    78    82    88    90    95   101    90   112   106   134   138   145   110   124   132   107   114   121    99    94   103    88    90    68    50    55    39    46    28    22    19    22     7    19    10     6    12     4     7     3     0     1     1     0     0     0     0     0     0     0     0     1     0     0     0     0     0
     0     0     0     0     0     0     0     0     0     0     0     0     0     0     0     0     0     0     0     1     0     0     1     1     1     1     4     4     2     1     3     7     6    16    18    23    25    31    40    40    40    52    49    65    61    70   103    84    87    95   109   131   134   133   118   115   120   119   121   120   108   110    95    82    90    85    68    66    68    72    46    42    28    25    22     8    19    11    13     8     8     4     2     2     4     0     2     1     2     1     1     0     0     0     0     0     0     0     0     0
     0     0     0     0     0     0     0     0     0     0     0     0     0     0     0     0     0     0     1     0     0     0     2     2     2     2     0     2     0     3     6     6    11     6    13    13    20    28    35    28    37    46    53    44    67    70    90    85    95   108   100   114   116   131   134   122   120   118   120   135   134   107   125   103    81    82    89    65    61    66    56    49    36    20    30    25    15    12     7    12     3     5     4     3     4     2     2     2     1     0     0     1     1     0     1     1     0     0     0     0
     0     0     0     0     0     0     0     0     0     0     0     0     0     0     0     0     0     0     0     0     0     0     0     2     2     2     0     0     4     2     2     3     9     4     6    11    16    16    29    33    29    49    44    46    63    70    73    72    91    85    92   106   120   116   116   116   119   132   117   139   122   114   124   100    90    92    89    85    97    78    63    57    38    47    24    12    20    20    13    11    15     6    10     5     3     5     0     4     2     0     2     3     1     0     1     1     0     0     0     0
     0     0     0     0     0     0     0     0     0     0     0     0     0     0     0     0     0     0     0     0     0     0     1     0     1     6     2     2     3     4     3     4     3     3     6    12    15     9    25    17    34    36    36    40    41    53    77    84    76    78    87   103   110   124   134   131   129   146   127   136   129   132   118    95    97    97    93    77    81    76    63    59    43    46    39    22    28    18    20    24    12    12     2     8     7     0     1     1     3     2     3     0     0     3     0     0     0     0     0     0
     0     0     0     0     0     0     0     0     0     0     0     0     0     0     0     0     0     0     0     0     0     0     0     1     1     1     0     1     0     5     3     0     5     2     6     9     6    18    19    18    22    37    26    30    46    52    54    55    80    77    83   106   112   121   110   121   142   143   136   137   133   138   132   118   102   100    90   101    74    73    71    70    63    47    37    29    32    24    13    21    11     9    10     9    11     6     4     1     1     1     1     4     0     1     0     1     0     0     0     0
     0     0     0     0     0     0     0     0     0     0     0     0     0     0     0     0     0     0     0     0     0     0     0     0     0     0     0     0     3     2     3     2     3     4     2    10     8     7    14    23    19    22    31    37    50    38    44    62    70    58    77   108   105   113   117   127   110   106   129   139   129   136   135   146   106   104   106   101    86    82    66    61    40    43    43    37    40    32    23    29    15    10    11     7     2     6     1     2     3     0     2     2     0     1     0     0     0     0     1     0
     1     0     0     0     0     0     0     0     0     0     0     0     0     0     0     0     0     0     0     0     0     0     0     0     0     1     0     1     1     2     3     2     3     5     5     2    10    10    13    17    23    11    22    25    32    32    39    46    56    60    75    87    91   104    96    99   135   116   131   124   129   113   118   117   122   102    98    90    91    81    79    70    63    55    57    46    40    42    21    21    20    16    11     4    10     0     8     5     5     1     5     3     2     2     1     1     0     1     0     0
     0     1     0     0     0     0     0     0     0     0     0     0     0     0     0     0     0     0     0     0     0     0     0     0     0     0     0     0     1     0     0     1     1     3     1     4     7     8    10    10    14    19    21    23    33    27    38    52    44    58    59    70    86    98   101   103   101   131   148   124   124   141   122   110   112   117   105    93    93    95    85    74    67    64    63    51    40    36    25    26    18    17    11    15     9     9     8     4     0     5     3     1     5     3     0     1     0     0     0     0
     2     0     0     0     0     0     0     0     0     0     0     0     0     0     0     0     0     0     0     0     0     0     0     0     0     0     0     0     0     1     2     1     2     2     2     2     4     7     6     4     6     7    18    19    31    25    40    49    49    47    56    64    61    95    83    95    98    84   111   128   141   122   123   134   116   118   100   108    95   108    96    92    61    68    55    56    51    39    27    29    26    23    16    10    11     6     6     7     4     4     4     1     3     1     2     0     0     0     0     0
     2     0     0     0     0     0     0     0     0     0     0     0     0     0     0     0     0     0     0     0     0     0     0     0     0     0     0     0     0     0     0     0     0     2     3     3     3     6     7     4    10     6    10    21    21    24    24    34    30    41    41    60    75    72    78    79    93    92   105   113   137   128   112   115   128   107   118    97   110   102   101    84    73    63    60    53    35    33    43    35    32    28    19    26     8    14    13    10     4     3     9     5     3     1     0     1     0     0     0     0
     0     0     0     0     0     0     0     0     0     0     0     0     0     0     0     0     0     0     0     0     0     0     0     0     0     0     0     0     0     1     0     0     0     1     0     3     4     2     6     8     6     8    12    13    13    19    29    43    24    45    41    54    48    54    66    65    85   100   121   146   112   115   108   107   116   124    96   112   106    96    83    81    70    68    61    53    59    42    46    40    32    18    26    21    15     9     8     1    12    10     4     5     4     4     1     2     0     1     1     0
     0     0     0     0     0     0     0     0     0     0     0     0     0     0     0     0     0     0     0     0     0     0     0     0     0     0     0     0     1     0     0     0     1     0     0     3     1     2     9     6    10    11     5    12    18    16    26    31    10    39    38    41    48    53    68    67    86    79   118    88   113   102   124   120   110    99   113   115   109   103    91    93    82    76    66    58    65    45    58    34    35    29    31    17    15    20     9    12     5     4     4     6     6     1     3     3     1     1     2     2
     0     1     0     0     0     0     0     0     0     0     0     0     0     0     0     0     0     0     0     0     0     0     0     0     0     0     0     0     0     0     0     0     0     0     0     0     1     2     3     3     5     2    12    11     8    15    17    18    27    24    31    35    40    51    51    62    84    86    75    93   110   101    99   108   107    93   105   109   112   122    99    83    72    61    77    71    66    66    52    45    45    42    44    20    20    20     9    14     7     8    11     6     4     6     2     1     1     1     4     0
     1     0     0     0     0     0     0     0     0     0     0     0     0     0     0     0     0     0     0     0     0     0     0     0     0     0     0     0     1     0     1     0     2     0     0     2     1     2     1     1     1     4     7     9    13    15    11     9    28    27    24    32    38    32    52    53    69    67    66    82    97   105    93   109    97    99   113   106   100   126   116    82    85    87    71    68    66    68    63    70    62    50    40    15    20    18    14    16    13     9     6     6     3     5     5     6     2     2     4     2
     0     1     0     0     0     0     0     0     1     0     0     0     0     0     0     0     0     0     0     0     0     0     0     0     0     0     0     0     0     0     0     0     0     0     0     1     1     2     1     3     3     3     2     7    10    11    20    13    19    24    26    34    34    39    50    65    53    58    76    85    82    91   109   106    89   103    92   107   107   116   114    93   105   102    85    81    77    87    59    70    61    55    47    31    29    23    25    20    16    13    11    11     5     5     5     4     5     4     4     1
     2     0     2     0     0     0     0     0     0     0     0     0     0     0     0     0     0     0     0     0     0     0     0     0     0     0     0     1     1     0     1     0     1     1     2     0     1     0     0     4     2     5     6     8     7    13     6    14    17    20    19    29    29    30    43    35    49    56    62    65    74    78    76    92    75   100    80   113   100   117   104    89   104    78    97    92    84    73    67    69    61    51    46    56    42    32    27    31    18    15    17    10     9     4     3     2     6     6     2     4
     0     0     1     0     1     0     0     0     0     0     0     0     0     0     0     0     0     0     0     0     0     0     0     0     0     0     0     0     0     0     0     0     1     0     0     0     1     1     1     0     1     0     1     3     5     7     6     9    12    14    15    17    24    29    28    51    36    45    57    56    70    59    87    91    92    87    79   106   107    91    89    93    96    83    68    83    84    75    68    77    57    66    58    65    38    47    35    28    30    21    17    10     9     6     6     5     7     5     5     3
     4     1     1     0     1     0     0     0     0     0     0     0     0     0     0     0     0     0     0     0     0     0     0     0     0     0     0     0     0     0     0     0     0     0     0     0     1     0     0     1     0     0     0     0     3     3     8     5    10    13    18    22    19    19    26    38    38    35    55    59    56    61    53    53    69    78    86    74    84    96   111    92    82   102    79    94    88    88    58    68    70    50    51    54    46    33    30    20    32    21    18     7    10    12     9     6     4     6     4     1
     5     1     0     0     1     0     0     0     0     0     0     0     0     0     0     0     0     0     0     0     0     0     0     0     0     0     0     0     0     0     0     0     0     0     0     0     0     0     0     0     1     0     0     2     7     7     2     1     8     6     8    14    14    12    15    24    34    43    38    41    44    59    51    53    56    60    82    78    70    88    86    97    93    74    80    92    94    87    85    79    59    53    39    65    46    48    35    37    33    35    22    22    13    12    12     9     3     2     3     2
     7     3     5     0     0     1     1     0     0     0     0     0     0     0     0     0     0     0     0     0     0     0     0     0     0     0     0     0     0     0     0     0     0     0     0     0     1     0     2     1     2     1     0     0     2     0     2     6     4     8     6    12    13    17    10    14    30    25    39    46    54    41    54    54    58    62    69    83    75    83    88    94    73    74    90    82    91    92    77    67    66    55    78    69    56    48    50    44    35    26    26    18    14    16     8    11     4     5     6     2
     3     1     2     1     0     3     0     0     0     0     0     0     0     0     0     0     0     0     0     0     0     0     0     0     0     0     0     0     0     0     0     0     0     0     0     1     0     0     0     0     0     1     0     1     0     2     3     3     6    12     5     8     6     9    23    15    24    27    31    25    36    36    46    54    54    55    54    74    69    88    89    89    72    77    87    83    81    87    90    77    75    56    62    69    46    42    37    45    35    34    36    22    20    12    11    13     7     7     5     6
     5     5     1     1     1     1     0     0     0     0     0     0     0     0     0     0     0     0     0     0     0     0     0     0     0     0     0     0     0     0     0     0     0     0     0     0     0     0     0     0     0     0     0     0     0     1     3     2     4     9     9     3     8    11    11    17    21    20    24    28    34    29    29    51    54    46    65    68    67    72    75    79    84    75    72    91    68    90    97    85    71    63    71    73    60    50    49    39    42    44    30    40    21    13    16     9     4    11     5     4
     5     5     3     3     0     3     0     0     1     0     0     0     0     0     0     0     0     0     0     0     0     0     0     0     0     0     0     0     0     0     0     0     0     0     0     0     0     0     0     0     0     0     0     0     0     1     1     3     1     1     8     8    11    10     9    18    22    16    17    16    21    29    37    31    41    63    71    56    75    53    59    75    84    77    83    84    58    78    94    74    97    63    86    75    72    68    57    62    47    30    41    38    34    27    10    10    12     4     9     9
     5    10     5     3     2     1     0     0     1     0     0     0     0     0     0     0     0     0     0     0     0     0     0     0     0     0     0     0     0     0     0     0     0     0     0     0     0     0     0     0     0     0     0     0     1     1     1     1     2     3     2     6     2     4     3    22    15    16    27    18    17    33    28    43    40    50    47    50    58    82    74    72    81    71    80    77    61    85    81    92    84    82    68    67    69    63    67    48    55    42    45    25    23    26    23    16    12    16    12    11
     5     6     8     0     5     2     1     1     5     0     1     0     0     0     0     0     0     0     0     0     0     0     0     0     0     0     0     0     0     0     0     0     0     0     0     0     0     0     0     0     0     0     0     0     0     0     0     3     2     3     4     2     4     2     9     5     8    12    21    19    14    21    27    37    29    35    39    36    46    55    69    80    66    79    72    75    99    95    89    90    81    96    76    78    75    70    76    60    57    56    50    44    32    25    25    19    16    11     8     8
    10     6     7     3     3     3     1     3     3     0     0     1     0     0     0     0     0     0     0     0     0     0     0     0     0     0     0     0     0     0     0     0     0     0     0     0     0     0     0     0     0     0     0     0     0     0     0     1     2     3     2     3     1     5     7     8     4    15    11    22    13    17    26    28    31    25    29    36    60    56    61    73    64    70    76    84    76    76    86   108    84    67    82    84    53    69    67    54    50    50    56    39    44    33    24    16    17    11    10     7
     9     6     8     6     5     3     5     1     4     2     2     2     0     0     0     0     0     0     0     0     0     0     0     0     0     0     0     0     0     0     0     0     0     0     0     0     0     0     0     0     0     0     0     0     0     0     0     0     0     3     4     0     4     3     2     9    11     8    11     4    14    17    17    19    27    28    27    43    39    48    48    46    63    72    82    64    65    59    83    76    88   100    84    88    80    72    65    69    52    65    50    41    37    33    21    21    23    17    20    12
    10    12    13     7     9     7     8     5     2     2     3     0     1     0     0     0     0     0     0     0     0     0     0     0     0     0     0     0     0     0     0     0     0     0     0     0     0     0     0     0     0     0     0     0     0     2     1     0     1     3     2     2     3     2     6     3     6     5    10     8    13    12    13    16    24    40    32    22    37    45    44    56    55    60    73    59    59    72    82    68    74    81    79    76    72    71    74    71    58    65    54    61    41    40    38    20    25    18    20    18
    16     7    12    15    13     4     3     6     4     7     1     1     5     1     1     1     3     0     0     0     0     0     0     0     0     0     0     0     0     0     0     0     0     0     0     0     0     0     0     0     0     0     0     0     0     0     1     0     2     2     0     1     0     2     4     2     3     7     8     5     6     9    18    19    15    19    22    25    33    47    34    50    54    55    49    43    69    71    71    75    73    97    77    98    82    89    97    69    59    69    53    55    43    45    42    29    24    20    14    23
    26    18    12    10     9     6     9    10     8     2     3     2     1     1     3     1     0     2     1     0     0     0     0     0     0     0     0     0     0     0     0     0     0     0     0     0     0     0     0     0     0     0     0     0     0     0     0     1     1     2     2     0     0     0     0     2     3     5     7     5     6     9     7    13    19    20    23    19    22    45    41    41    51    37    53    47    57    50    68    67    80    65    67    73    71    71    74    72    58    67    61    53    46    44    45    40    34    31    27    21
    24    16    10    17    18    11     9     9     3     6     1     1     2     3     1     1     2     1     0     0     0     0     0     0     0     0     0     0     0     0     0     0     0     0     0     0     0     0     0     0     0     0     0     0     0     0     0     0     0     1     0     0     2     1     1     3     3     1     6     4     4     5     8    15    10    14    14    12    20    24    32    39    47    37    31    44    49    77    65    64    57    73    84    73    85    81    71    73    57    63    45    59    56    60    53    55    29    30    24    21
    24    27    22    16    15    16    10     9     6     7     3     2     1     0     1     4     1     1     1     0     1     0     1     0     0     0     0     0     0     0     0     0     0     0     0     0     0     0     0     0     0     0     0     0     0     0     0     0     0     0     1     0     1     1     4     1     4     0     4     2     4     3     4     8    11    11    13    20    16    21    20    33    38    39    39    47    49    38    47    66    59    73    71    73    73    70    77    76    69    72    74    64    55    57    52    49    52    41    36    32
    32    21    14    19    12    18    18    12    11     7     2     3     2     2     3     2     3     0     1     0     0     0     0     0     0     0     0     0     0     0     0     0     0     0     0     0     0     0     0     0     0     0     0     0     0     0     0     0     0     0     0     1     0     4     0     0     1     1     0     0     1     4     9     6    15    14    15    12    15    24    19    24    29    32    32    39    26    42    45    62    63    67    65    76    70    67    72    74    73    71    63    78    65    58    65    61    48    32    28    32
    32    40    27    18    20    15    15    15     7     8     5     5     1     1     3     3     4     2     1     1     0     0     0     0     0     0     0     0     0     0     0     0     0     0     0     0     0     0     0     0     0     0     0     0     1     0     0     0     0     0     1     0     0     1     1     0     0     0     1     3     4     3     3     5    11     9     6    10    15    18    15    20    17    23    30    35    39    29    49    46    47    76    67    55    75    68    66    75    64    75    49    55    58    67    58    52    55    38    39    40
    34    26    21    23    19    17    20     9    10    11     7     5     7     3     2     4     1     3     3     0     1     1     0     0     0     0     0     0     0     0     0     0     0     0     0     0     0     0     0     0     0     0     0     0     0     1     0     0     0     0     0     0     0     0     0     0     0     1     0     1     1     5     5     0     0     2    13     5    15     9    11    18    13    21    30    27    24    23    47    43    60    61    50    61    80    80    72    83    87    59    58    49    58    60    73    59    68    43    38    36
    32    34    27    20    14    11    23    10    12    12    13     5     7     6     6     4     3     0     2     0     0     0     0     1     1     0     0     0     0     0     0     0     0     0     0     0     0     0     0     0     0     0     0     0     1     0     0     0     0     0     0     0     0     0     0     1     0     1     0     4     2     3     1     2     3     7     7    13     9     8     8    14    16    15    17    21    35    39    38    33    55    48    52    64    59    54    81    69    78    56    60    68    61    61    56    74    50    40    45    32
    30    24    33    31    26    10    29    13    16    18    14    14    14     6     5     5     3     5     4     3     1     2     4     0     0     2     0     0     0     0     0     0     0     0     0     0     0     0     0     0     0     0     0     0     0     0     0     0     0     0     0     1     0     0     0     0     0     1     1     2     1     1     5     3     2     3     2     4     8     4    10    15    16    13    20    20    26    32    28    33    41    37    59    64    45    45    59    52    72    54    74    55    52    78    76    71    50    48    46    36
    30    33    33    27    24    27    18    20    18    20    18    16    11    10    10     7     4     1     3     1     2     1     1     0     0     1     0     0     0     0     0     0     0     0     0     0     0     0     0     0     0     0     0     0     0     0     1     0     0     0     0     0     0     0     0     0     0     0     1     0     0     0     5     2     3     5     8     3     3     7     8     8    13    14    16    13    19    33    30    30    30    39    42    39    38    57    53    56    55    46    65    59    71    75    66    60    68    59    54    33
    49    29    37    32    36    28    21    23    27    16    20    13     9    11     6     6     2     6     4     0     1     0     1     0     1     1     0     0     0     0     0     0     0     0     0     0     0     0     0     0     0     0     0     0     0     0     0     0     0     0     0     0     0     0     0     0     0     0     0     1     1     1     1     3     5     4     3     3     2     4    11     4    10    12    12    27    20    30    25    39    32    28    36    35    41    55    67    53    57    69    58    77    58    82    70    58    61    54    39    50
    54    44    36    31    34    25    23    15    26    21    18    16    13    13    11    11     7     4     3     0     4     2     1     1     0     1     0     0     0     0     0     0     0     0     0     0     0     0     0     0     0     0     0     0     0     0     0     0     0     0     0     0     0     0     0     0     0     0     0     0     1     1     0     0     2     2     2     4     4     4     4     7    13    11    16    12    17    18    22    29    28    36    29    27    48    51    59    62    57    65    66    57    69    61    51    65    55    58    53    50
    44    44    29    44    38    30    23    13    27    18    25    19    16    15    12    18    10     5     4     3     2     2     0     2     1     0     0     0     0     0     0     0     0     0     0     0     0     0     0     0     0     0     0     0     0     0     0     0     0     0     0     0     0     0     0     0     0     0     0     0     1     0     1     1     3     2     3     1     4     2     5     7     9    17    11    11    12    20    20    19    21    24    36    40    38    45    41    39    60    63    56    50    58    65    58    45    65    60    53    54
    44    41    50    46    21    30    26    31    26    28    22    19    19    21    10    14     4     4     4     7     4     2     2     0     0     1     1     1     3     0     1     0     0     1     0     0     0     0     0     0     0     0     0     0     0     0     0     0     0     0     0     0     0     0     0     0     0     0     0     0     0     0     0     0     2     0     3     3     3     2     6     5     2     7     9    10    16    14    17    18    22    14    23    30    36    37    46    48    49    48    51    53    63    58    46    52    33    52    68    35
    45    46    42    32    49    28    35    27    33    29    26    29    17    17    19    14    18    11     9     2     3     4     7     2     1     2     1     1     2     0     2     1     1     1     0     0     0     0     0     0     0     0     0     0     0     0     0     0     0     0     0     0     0     0     0     0     0     0     0     0     0     0     0     0     2     1     0     2     0     3     4     3     6     4     7     8     6    15    16    12    15    27    22    33    23    37    32    43    38    41    33    53    45    47    52    57    37    48    55    43
    52    39    40    44    36    32    44    31    29    28    35    27    20    15    15    22    22    18    11     8     7     8     3     1     3     2     0     1     2     1     0     0     0     2     0     0     0     0     0     0     0     0     0     0     0     0     0     0     0     0     0     0     0     0     0     0     0     0     0     0     0     0     0     0     0     1     2     3     1     3     3     3     4     4     7    10     6    10    12    18    13    22    18    26    32    28    37    31    38    29    43    48    50    47    35    46    51    57    40    49
    53    46    51    30    46    30    34    28    33    36    38    34    29    31    28    26    25    11    20    17     6     4    10     7     3     1     1     2     1     3     1     1     3     0     1     0     0     0     1     0     0     0     0     0     0     0     0     0     0     0     0     0     0     0     0     0     0     0     0     0     0     0     0     1     0     1     2     0     3     4     3     2     2     5     4     5     5    10    12    15    14    14    16    14    24    19    22    25    23    40    34    43    45    45    54    40    60    61    45    63
