#lt      40.0
#count pbc
#dt      1.0
#dn      40
#edges  -27.1557089 -26.6125947 -26.0694805 -25.5263664 -24.9832522 -24.4401380 -23.8970238 -23.3539097 -22.8107955 -22.2676813 -21.7245671 -21.1814529 -20.6383388 -20.0952246 -19.5521104 -19.0089962 -18.4658821 -17.9227679 -17.3796537 -16.8365395 -16.2934253 -15.7503112 -15.2071970 -14.6640828 -14.1209686 -13.5778545 -13.0347403 -12.4916261 -11.9485119 -11.4053977 -10.8622836 -10.3191694  -9.7760552  -9.2329410  -8.6898268  -8.1467127  -7.6035985  -7.0604843  -6.5173701  -5.9742560  -5.4311418  -4.8880276  -4.3449134  -3.8017992  -3.2586851  -2.7155709  -2.1724567  -1.6293425  -1.0862284  -0.5431142   0.0000000   0.5431142   1.0862284   1.6293425   2.1724567   2.7155709   3.2586851   3.8017992   4.3449134   4.8880276   5.4311418   5.9742560   6.5173701   7.0604843   7.6035985   8.1467127   8.6898268   9.2329410   9.7760552  10.3191694  10.8622836  11.4053977  11.9485119  12.4916261  13.0347403  13.5778545  14.1209686  14.6640828  15.2071970  15.7503112  16.2934253  16.8365395  17.3796537  17.9227679  18.4658821  19.0089962  19.5521104  20.0952246  20.6383388  21.1814529  21.7245671  22.2676813  22.8107955  23.3539097  23.8970238  24.4401380  24.9832522  25.5263664  26.0694805  26.6125947  27.1557089
    53    34    44    46    55    39    44    34    29    37    29    32    38    34    33    37    27    21    16    18    18    18    13    11    12     4    10     7     8     5     4     8     4     3     2     0     1     1     0     0     0     1     0     0     0     0     0     1     0     0     0     0     0     0     0     0     0     0     0     0     0     1     1     1     0     2     3     0     1     2     6     2     4     5     3     4     2     9    11    14    15    11    16    16    19    21    24    28    19    24    19    30    46    35    43    46    51    32    38    40
    34    38    50    46    51    49    42    45    46    32    41    49    28    39    29    30    34    38    22    24    18    15    14    15    14    16    10    10     8     2     6     5     7     2     3     0     1     1     0     0     3     2     0     1     1     0     0     0     0     0     0     0     0     0     0     0     0     0     0     0     0     0     0     2     2     2     0     0     0     1     1     2     4     6     7     2     5     8     6     4     7     7    12    14    20    25    24    22    21    20    15    27    29    33    38    34    34    44    41    32
    37    45    56    58    53    45    49    47    52    53    46    39    31    39    42    43    33    36    25    24    29    20    14    17    18    12    13     6    11     7     5     6     4     2     1     4     1     0     0     0     1     1     0     2     0     0     0     0     0     1     0     0     0     0     0     0     0     0     0     0     0     0     0     1     0     1     0     1     0     1     3     2     3     1     2     1     7     5    10     7    12    15     7    18    17    16    15    26    22    25    24    26    20    40    39    28    30    39    39    41
    38    28    39    44    48    58    41    53    62    45    45    39    47    40    44    35    38    32    33    35    24    23    17     7    16    17    18    12     6    11     3     1     6     6     2     1     0     1     3     0     0     0     2     1     2     2     0     0     0     0     0     0     1     0     0     0     0     0     0     0     0     0     0     0     1     0     0     0     0     3     0     1     1     3     2     2     2     3     6     3     3    13    14    12     9    12    20    22    23    21    24    23    23    29    38    26    22    39    35    48
    43    48    48    55    49    51    38    43    62    57    51    36    49    51    57    48    44    48    41    35    25    38    30    20    14    19    18    11    15    12     5     7     6     8     1     2     6     3     2     1     1     0     3     1     0     1     0     1     1     2     0     0     1     0     0     0     0     0     0     0     0     0     0     0     0     2     0     0     1     0     0     2     4     1     3     0     2     4     7     9     2     9    12     8    11    13    10    18    26    21    20    14    28    26    30    35    22    38    40    41
    31    46    52    45    62    42    47    44    56    55    43    48    35    47    44    54    52    46    34    28    24    34    26    24    21     8    14    12    15     9     3     4    10     6     5     3     4     3     3     2     3     1     1     1     4     2     1     0     0     0     0     1     0     0     0     0     0     0     0     0     0     0     0     0     0     0     1     0     0     1     0     0     0     1     4     5     0     3     3     3     3     4     5     9     6     8    12    19    11    15    18    18    26    26    28    25    27    30    26    41
    31    46    42    37    40    35    42    48    58    40    44    57    35    45    51    54    53    55    43    28    29    36    23    20    28    22    14    16    22    14    10     5     9     7     5     4     7     2     4     2     0     5     5     0     3     2     0     0     1     1     1     0     0     0     0     1     0     0     0     0     0     0     0     0     0     0     1     0     0     0     0     0     0     0     1     4     4     1     1     5     3     3     3     1     7     9    15     8    24    18    16    22    28    25    25    29    31    20    34    32
    44    34    42    33    45    45    44    35    39    68    57    53    41    51    47    53    48    42    46    37    43    32    29    21    27    27    24    19    21    17    12     7     6    11    11     2     3     3     5     3     2     2     3     0     1     1     1     2     1     0     0     1     0     0     0     0     0     0     0     0     0     0     0     0     0     0     0     1     0     0     1     0     0     1     3     3     3     2     3     3     3     1     5     4     7     8    12    13     8    15    22    15    26    22    31    20    20    41    31    33
    43    42    33    42    46    46    56    56    64    63    48    58    61    57    49    61    49    50    56    44    41    26    40    34    21    20    40    20    18    23    15     8    12     6     7    11     8     5     5     5     6     3     1     1     0     3     0     0     1     0     1     0     0     0     0     0     0     0     0     0     0     0     0     0     0     1     1     0     0     0     0     3     1     1     1     2     1     4     4     4     3     4     5     6     6     4     5    16    13    16    10    16    13    30    23    27    30    26    37    37
    34    39    39    36    34    56    48    62    66    52    62    52    56    57    45    68    49    56    60    45    39    52    38    33    22    28    27    24    23    12     5     9     6     6     5    10     7     2     6     3     6     4     5     1     1     1     0     0     2     0     2     0     1     0     0     1     0     0     0     0     0     0     0     0     0     0     0     0     0     0     0     0     1     1     1     4     3     2     2     1     4     5     5     4     5     8     8     8    15     8    16    18    18    14    23    31    30    27    36    44
    29    45    45    51    51    41    51    46    55    53    69    77    63    47    55    61    67    64    45    50    52    34    33    31    35    35    32    20    22    19    13    15    10     9     8     9     5     5     9     7     1     3     3     3     5     0     0     0     0     2     1     0     0     1     0     0     0     2     0     0     0     0     0     0     0     0     0     0     0     0     0     2     1     1     1     1     0     2     3     3     4     3     6     3     5    13     6     7     6    14     9    14    19    12    20    26    19    24    33    40
    36    41    47    43    63    57    40    55    58    68    53    67    71    65    61    56    65    57    55    45    49    53    35    37    44    25    26    28    24    27    25    21    14     8    11    13    13     5     5     6     8     5     4     5     3     3     3     0     0     5     0     0     0     1     0     1     0     1     0     0     0     0     0     0     0     0     0     0     0     0     0     0     0     2     3     0     0     0     0     3     1     1     4     5     3     4     6     8    12    16    10    16    11    20    20    20    22    25    16    37
    40    48    39    50    62    55    47    71    61    52    56    60    53    59    51    69    56    58    65    53    44    47    52    38    34    36    32    23    20    32    19    22    17    17    12    11     8    10    18    11     2     6     7     1     0     2     1     0     1     2     1     1     0     1     1     0     1     1     2     0     0     0     0     0     0     0     0     0     0     0     0     1     0     2     0     0     1     1     5     1     2     3     1     0     1     5     7     8     7     6     8     7     8    20    25    23    27    19    28    35
    35    38    43    43    61    44    49    51    56    58    66    51    53    68    66    53    65    60    77    54    63    53    53    50    42    35    40    41    31    24    31    30    20    19    12    14    16    10     4     8     5     5     7     2     5     1     0     1     0     1     1     1     1     2     0     1     2     0     0     1     0     0     0     0     0     0     0     0     0     0     0     0     0     1     0     0     0     0     1     0     0     1     5     7     5     4     3     8     5     8    11    10     9    17    12    22    18    20    15    25
    36    43    36    35    42    61    42    71    53    48    58    55    72    51    56    65    45    55    71    60    75    57    41    43    54    33    37    31    33    27    34    14    19    25    29    14    11    12     8    10     7     7     4     7    10     5     2     0     1     1     1     0     0     1     2     0     1     0     0     1     0     1     0     0     0     0     0     0     0     0     0     2     0     0     0     0     0     3     1     2     0     2     3     3     7     2     9     4     0     6     3     9    11    14    15    21    14    20    15    27
    17    28    35    38    45    47    41    54    57    64    60    46    80    71    64    55    67    62    56    66    62    59    73    41    47    43    50    36    41    45    27    28    27    29    27    12    17     9    19    10    13     7    10     4     6     4     1     4     4     1     2     1     1     0     0     0     0     0     0     0     0     0     0     0     0     0     0     0     0     0     0     0     0     0     0     0     0     0     0     2     0     1     2     3     6     6     3     8     5     8     8     6     7    12    18    12    19    20    22    24
    34    29    28    39    48    35    49    42    58    43    54    71    66    58    58    56    53    41    85    67    61    50    77    54    52    49    40    36    34    46    33    37    35    33    22    23    24    15    17     9    10     5     9     6     4     7     7     4     3     1     1     1     1     2     0     1     1     0     0     0     0     0     0     0     0     0     0     0     0     1     0     0     0     0     0     0     1     0     2     0     0     2     1     0     1     3     2     3     4     1     7    10    12    18    15    21    15    24    18    21
    11    28    26    24    33    46    44    48    44    61    74    51    75    64    62    70    70    83    60    67    60    64    53    57    46    53    59    42    45    44    41    51    32    27    24    29    18    30    14    15    17    12     9     6     3     4     2     1     5     2     0     2     2     0     2     1     0     0     1     0     1     0     1     0     0     0     0     0     0     0     0     0     0     0     1     0     1     0     0     2     0     1     0     0     2     2     4     1     1     2     3     9    11    14     9    14    12    10    21    25
    17    28    28    24    28    36    45    40    39    51    54    63    64    68    48    55    71    56    82    90    63    65    70    57    85    61    58    50    57    64    40    46    52    42    41    35    32    23    20    23    14     9    10    13     8    13     5     2     6     1     3     2     0     1     1     2     1     1     2     0     1     0     1     0     0     0     0     0     0     0     1     0     0     0     0     0     0     0     0     1     0     0     2     1     3     1     3     4     4     3     3     4     8    13    14     9    15    11    10    13
    19    16    21    19    33    27    36    32    34    42    40    70    48    54    65    58    51    58    61    74    66    75    69    76    61    59    56    55    58    54    45    49    53    44    38    46    27    32    33    13    17    11    17    12    13     9     7     9     5     2     3     4     0     3     2     1     1     1     0     0     1     1     0     0     0     0     2     0     0     0     0     0     0     0     0     0     0     0     0     0     1     1     2     0     1     0     0     0     0     1     2     7    10     8     8    14     8    10    14    18
    11    14    29    25    25    22    31    26    39    49    35    41    57    54    54    53    64    57    67    81    67    64    71    80    68    72    73    51    54    68    52    50    54    53    35    38    40    35    34    25    15    21    18    15    20    12     5     5    10     5     5     1     3     2     2     2     2     0     0     2     0     2     2     0     0     2     0     0     0     0     0     0     0     0     0     0     0     0     0     0     0     0     0     1     3     1     0     0     2     1     3     5     5     4     8     5    10     5    14    11
    11    16    22    24    26    28    23    29    34    29    28    39    42    47    48    70    43    64    70    83    66    72    75    80    86    73    73    64    56    72    51    47    43    54    46    40    37    28    36    34    27    30    22    18    18    21     9     8     9     5     4     1     1     5     3     0     3     3     3     1     1     2     3     1     1     0     0     0     0     0     0     0     1     0     0     0     0     0     0     0     0     0     0     0     1     0     0     0     2     0     3     2     3     3     7     6     4     8     8    14
     9    16    16    16    26    22    22    30    31    27    36    38    31    54    51    51    67    59    64    81    70    74    76    76    68    62    63    73    58    49    61    64    54    51    58    45    51    49    32    42    32    17    25    26    21    18    16    19    11     8     6     4     3     4     3     7     3     4     2     6     0     1     1     2     2     0     0     0     0     0     0     0     0     0     0     0     0     0     0     0     0     0     0     0     0     0     0     1     1     2     3     1     6     2     3     5     4     2     4     9
    10     7    17    16    16    13    20    28    23    27    35    43    49    32    56    51    58    80    80    61    68    60    59    57    72    58    74    64    59    61    64    69    64    59    58    50    75    37    41    39    47    25    29    26    22    20    17    16    15    11     5     7     7     3     8     3     2     6     2     1     1     1     0     0     0     0     0     0     0     0     0     0     0     0     0     0     0     0     0     0     0     0     0     0     0     1     0     1     0     0     1     0     1     4     3     2     1     3     8     4
    12     7    15    17    23    18    19    21    36    23    24    31    25    42    52    49    45    60    59    58    60    52    72    76    74    72    78    65    76    90    67    76    77    69    62    62    77    57    51    39    43    33    29    28    31    15    19    19    13     8     6     7     5     8     4     9     4     2     2     1     2     0     2     0     1     1     1     0     0     0     0     0     0     0     0     0     0     0     0     0     0     0     0     0     0     1     0     1     1     0     0     0     1     2     3     3     3     3     5    11
     6     8    10     6    10    19    14    25    26    28    34    36    38    26    38    43    59    63    56    51    66    79    75    60    74    63    69    53    56    81    79    64    61    58    71    56    87    64    50    48    48    45    35    26    36    19    19    17    17    14    11     3    10     8     8     6     2     5     2     0     0     2     1     0     0     1     0     1     0     0     0     0     0     0     0     0     0     0     0     0     0     0     0     0     0     0     0     1     2     0     0     0     0     1     2     2     8     3     4     7
     5     5    11     9    14     8    17    18    15    23    25    36    31    53    40    47    49    55    66    51    68    59    61    61    58    67    73    74    88    77    82    82    92    75    85    68    62    73    56    63    53    39    42    51    26    35    28    28    21    20    12     9     6    16    15     7     8     4     3     1     1     0     1     0     2     0     0     2     0     1     0     1     0     0     0     0     0     0     0     0     0     0     0     0     0     0     0     0     0     0     2     4     1     3     2     3     1     4     2     4
     6     4    12    10    10     7    13    19    21    27    13    31    34    37    29    36    53    42    62    46    85    64    60    77    76    67    76    82    67    92    74    79    77    79    68    75    65    57    54    66    55    51    37    37    40    42    34    26    16    26    12    10    17    11     8     5     7     5     4     2     1     1     2     0     0     0     0     0     0     1     1     1     0     0     0     0     0     0     0     0     0     0     0     0     0     0     0     0     1     1     1     2     0     3     1     0     2     7     0     2
     3     4    11    13    13     6    12    17    18    25    22    16    33    35    39    43    36    38    56    47    54    57    51    69    75    73    68    77    92    81    86    82    58    85    76    58    64    66    66    80    63    56    40    42    42    38    29    32    24    21    27    19    17    21    15    14    12     6     4     5     2     1     1     1     0     0     0     1     0     1     0     0     0     1     0     0     0     0     0     0     0     0     0     0     0     0     0     0     0     2     2     2     1     0     1     2     2     3     1     3
     5     4     9     9    11    12    10    10    16    22    39    26    36    29    39    32    34    39    48    56    64    63    75    71    72    79    87    85    86    73    75    93    86    79    81    91    72    73    74    79    64    51    58    63    33    36    37    33    26    33    18    27    21    19     7    13    10    15     9     4     5     1     0     0     0     0     1     1     0     0     0     0     0     0     0     0     0     0     0     0     0     0     0     0     0     0     0     2     0     2     0     1     1     0     1     1     3     2     3     6
     3     8     7    10     7     9     7    13    14    24    13    20    31    32    19    23    26    42    38    58    57    52    57    54    74    83    76    76    87    76    80    88    74    88    63    65    76    71    72    63    85    56    51    42    39    42    41    47    40    26    31    24    19    17    10    13     8     7     9     3     2     3     2     2     1     0     0     0     1     0     0     2     1     1     0     1     0     0     0     0     0     0     0     0     0     0     0     0     0     1     0     0     0     0     2     2     1     1     0     3
     4     6     7     8     9     1     9    13    18    22    24    21    19    29    26    32    25    42    47    36    48    53    55    79    69    58    79   103    76    93    96    86   101    79    72    72    54    86    75    64    73    70    60    50    48    50    52    41    57    24    39    29    33    21    11    12    10    18     4     6     8     2     4     4     4     3     3     2     0     0     1     0     0     1     0     0     0     1     0     0     0     0     0     0     0     0     1     0     0     1     0     0     0     0     0     0     1     0     4     2
     3     7     6     5     6    10    10    14    15    11    14    21    21    25    30    26    23    23    50    37    52    64    50    67    75    87    88    83    83   100    85    83    76    92   104    99   101    77    74    99    79    75    67    47    49    59    48    45    39    41    31    37    21    25    16    21    12    11     8    11     9     5     4     4     1     0     1     1     0     1     2     1     1     0     1     1     1     0     1     0     0     0     0     0     0     0     0     0     0     0     1     1     0     0     0     0     0     0     1     2
     1     2     5     6     5    10     9     6     5    12    15    17    27    22    22    29    37    28    34    30    42    49    64    47    55    52    75    98    67    85    78    92    95    87   105    95   103    83    88    67    75    68    81    64    70    61    58    49    50    44    34    37    25    24    29    18    24    18     6     6    10     4     5     3     2     2     1     0     2     1     3     0     0     0     1     1     1     3     0     0     0     0     0     0     0     0     0     0     0     0     0     0     0     0     0     0     0     2     3     4
     4     2     7     3     2     5     8     4     6     9    20    14    20    16    25    23    32    26    30    43    38    59    53    57    56    58    69    65    76    74    84    84    95    97   103   106    96    84    80    81    78    86    68    67    81    60    61    66    56    51    38    39    35    25    26    12    18    24    14    12     6    10     4     8     6     2     2     4     4     1     2     2     1     0     0     0     0     1     0     0     0     0     0     0     0     0     0     0     0     0     0     0     0     0     0     0     0     0     1     0
     0     4     3     4     6     4     3     4     9     4    14    16    21    26    17    17    33    34    33    37    38    45    40    49    55    68    59    82    56    87    75    97    85    85    76    88   101    85   104   110    94    81    72    83    73    75    72    59    69    43    41    49    36    37    36    21    22    18    14    17    10     5     7     8     9     4     3     3     4     1     1     2     1     1     2     0     0     0     0     0     1     0     0     0     0     0     0     0     0     0     0     0     0     0     0     0     0     0     0     2
     3     3     2     9     3     9     6     6     9     9     7    13    10     7    12    21    18    22    34    24    35    40    36    45    51    60    75    92    54    90    72    82   102    92   101   110   101    89   105    87    82    92    75    75    77    85    68    78    64    55    51    37    37    42    32    29    19    22    16    21    13     9    15    13    15     9     6     1     3     6     1     3     1     1     0     1     1     0     0     0     0     0     0     0     0     0     0     0     0     0     0     0     0     0     0     0     0     0     0     0
     1     0     2     3     2     2     6     6     3     4     2     9     6    11    19    17    17    15    27    27    30    54    53    50    44    45    65    63    67    63    80    76    88    84    76   108   100    68    86    84    98    75    90    62    94    72    71    69    75    57    55    53    45    29    40    35    26    22    20    18    13    19    16    13    10     4     9     5     6     5     2     3     1     3     1     2     0     1     1     0     0     0     0     0     0     0     0     0     0     0     0     0     0     0     0     0     0     0     0     1
     1     1     0     3     1     7     3     2     6     6     4     7    13    12    11     9    14    31    17    26    25    42    43    52    55    54    52    63    78    68    61    75    83    84   101    98   112   106    99   107    86    82    97    86    78    80    88    68    62    59    57    52    55    58    52    52    37    25    25    19    13    12    23    14    13     7     6     6     8     7     1     1     0     1     0     1     3     0     2     1     0     0     0     0     0     0     0     0     0     0     0     0     0     0     0     0     0     0     0     0
     1     1     2     4     0     2     2     9     7     5     4     3     6     9     9     8    11    18    17    20    18    23    27    39    42    45    50    58    59    67    74    68    95    83   100    93    90    91   113    91    91    91    77    87    93    74    69    86    69    97    65    70    59    52    42    49    41    34    39    29    24    18    17    11     9     7     9    11    11     6     5     4     3     1     1     2     0     0     0     0     1     1     0     0     0     0     0     0     0     0     0     0     0     0     0     0     0     0     0     0
     1     0     1     2     3     3     4     3     2     4     2     8     7     6     6    18    10    21    16    21    21    27    28    20    34    43    60    44    75    56    66    80    82    88    90    92    85    90    94    86   100    90    98   100    92    99   102    71    99    84    67    65    65    51    48    67    56    40    38    29    24    27    18    13    16    10    10    12     6     4     6     2     6     4     1     2     2     0     0     2     2     1     0     0     0     1     0     0     0     0     0     0     0     0     0     0     0     0     0     0
     0     1     5     2     1     0     0     2     3     2     5     6     3     1    11    11    11     7     9    13    16    19    24    30    45    29    33    45    46    65    61    65    85    70    78    84    80    97    86   100    97    87    89    82    94    94    91    87    95    75    78    67    72    65    56    44    45    52    50    35    31    22    21    15    18    14    14     9    10    15     7     6     4     0     4     4     1     1     1     2     3     0     0     0     1     0     0     0     0     0     0     0     0     0     0     0     0     0     0     0
     0     0     1     0     0     2     1     2     3     8     6     3     8     7     2     8     3     5    11     7    13    20    26    23    32    29    34    42    43    49    53    72    83    56    82    71    76    77    70    94    79   101   101   103   108    88    78    83    89    95    92    82    72    76    77    71    64    48    50    45    34    30    29    17    18    20    11    11    10    10    12     5     4     0     6     2     0     3     2     1     3     2     0     0     0     1     0     0     0     0     0     0     0     0     0     0     0     0     0     0
     0     0     1     0     0     0     1     1     4     1     1     6     7     1     8     7     4     3     9    12    13    20    16    27    23    20    27    41    33    46    43    57    56    77    71    85    78    73    86    75    81    75    86    85   105   108    94    87    89    81    85    78    89   100    70    73    60    62    54    48    41    27    33    26    18    15    23    13    13    14    11     8     9     3     3     0     6     1     2     1     0     1     0     3     1     0     0     1     0     0     0     0     0     0     0     0     0     0     0     0
     0     0     0     0     0     0     0     1     2     0     3     4     3     3     9     7     4    12     7     9    17     9    14    17    21    24    26    24    39    51    46    53    69    71    63    77    88    69    87    80    99    86   108    99    91   130    90    90    98   106   104    84    99    94   103    87    79    56    59    54    45    31    47    36    29    21    33    24    17    13    10    10     9     4    10     5     6     4     5     3     3     2     0     2     3     0     0     0     0     0     0     0     0     0     0     0     0     0     0     0
     0     0     0     0     0     0     0     1     0     1     3     1     1     1     2     3     4    10    11     7    11    11     8    14    22    27    15    29    46    44    42    40    74    44    66    66    62    67    86    93    79    92    99   104   107    88   122   114   107   102    97    97   108   116    90    74    71    62    60    43    55    48    35    45    34    24    16    26    19    16    10     9     6     8     6     4     2     5     5     3     1     0     1     0     1     0     0     0     0     0     0     0     0     0     0     0     0     0     0     0
     0     0     0     0     0     1     0     1     0     0     0     0     0     1     1     2     7    10    10     5     6     4    14     9    11    24    30    26    27    40    39    47    52    61    60    66    70    79    71    96    98    97    90    91   107   118   104    89   102    96   108    93    91    93   108    72    65    73    53    70    60    50    38    42    44    30    31    24    14    26    21    11    12    18     2     9     5     4     2     7     1     0     1     0     1     1     0     0     1     0     0     0     0     0     0     0     0     0     0     0
     0     0     0     0     0     0     0     1     0     0     1     2     1     3     2     3     3     7     5     8     5    10     8    18    13    15    19    17    30    33    47    43    52    59    44    64    54    94    88    75    91   115    67    84   108   100    86   103   102    91    96    99   104    88   105    89    86    85    63    68    60    43    43    36    43    32    39    21    20    16    18    23    17    14     8     8     6     5     3     7     3     1     1     1     3     0     0     0     0     0     0     0     0     0     0     0     0     0     0     0
     0     0     0     0     0     0     0     2     0     0     0     0     1     1     1     2     5     3     3     7     5     6    18    10    24    21    29    33    31    31    34    44    29    56    64    55    63    67    76    64    72    79    96    95   107   100   100    96   103   103    98    99   104    95    99    69    79    87    83    76    72    50    49    51    45    47    41    29    27    25    21    27    22     6    14    10     5     7     6     3     3     3     1     0     1     0     2     1     1     0     1     1     0     0     0     0     0     0     0     0
     0     0     0     0     0     0     0     0     1     1     1     0     0     0     2     1     0     3     1     3     6    11    13    14    17    18    23    26    31    34    28    37    33    46    46    47    42    54    74    61    81    78    87    88    99   110   101    88   103    95   106   100    96    87    94    87    82    77    84    85    84    69    65    53    62    46    42    34    30    25    26    29    15    15    13    12    11     9     6     3     4     3     2     3     0     1     0     1     0     1     0     1     0     0     0     0     0     0     0     0
     0     0     0     0     0     0     0     0     0     0     1     0     0     0     1     0     1     0     0     3     6     6     2    16     8    15    16    28    13    33    29    38    29    41    43    48    50    40    50    56    74    59    83    74    92    99    96   109    86   119   107   108   107    89    96    93    85    91    88    88    78    77    72    70    48    42    44    42    32    39    36    28    14    19    24    11     5    11     9     5     3     1     2     0     0     1     1     0     0     0     0     1     0     0     0     0     0     0     0     0
     0     0     0     0     0     0     0     0     0     0     0     1     0     0     1     2     1     0     0     5     4     6     8     8    10    11    17    14    26    17    26    30    36    26    36    34    33    58    57    67    77    77    91    77    90    89   103    99    94   112   110   119   110    96   101    87   106    93    80    93    77    72   102    82    66    63    65    47    38    26    29    27    27    13    23    11    17    13     5     8     3     3     2     3     3     3     1     1     2     2     0     0     0     0     0     0     0     0     1     0
     0     0     0     0     0     0     0     0     0     0     0     0     0     1     1     0     1     2     3     3     4     1     8    10     6     9    23    15    15    17    17    26    23    33    39    37    33    48    42    72    64    77    67    73    76    88   105    98   120   101   103   114   116   109   107   105   106    82    93    90    85   112    79    82    66    69    73    49    52    45    44    39    26    13    22    10    13     9    10    11     8     5     3     7     1     0     3     1     2     2     2     1     1     0     1     2     0     0     0     0
     0     0     0     0     0     0     0     0     0     0     0     0     0     0     0     0     0     0     2     2     1     1     2     2     9    11    14     8    19    12    12    25    24    30    27    32    45    44    41    52    49    61    82    71    91    92   108   105    98   108    87   103   109   112   107   105   124   108    99   114    97    88    97    83    81    72    76    52    61    39    38    49    18    19    17    15    23    16    13    12    16     6    10     3     3     4     1     1     2     2     2     1     0     1     1     0     0     1     0     0
     1     0     0     0     0     0     0     0     0     0     0     0     0     0     0     0     0     0     0     3     3     0     2     4     4     7     5     8     6    10    17     9    17    16    34    30    49    39    53    44    74    69    62    70    91    73    84   101    86    95   102   122   108    99    99   112    89   115   109    98   110   113    88    93    79    86    72    70    54    50    48    26    24    29    23    15    26    17    13    15     9    11     5     6     4     1     2     1     0     2     1     0     2     0     0     0     0     1     0     0
     0     0     0     0     0     0     0     0     0     0     0     0     0     0     0     0     1     0     0     0     2     0     1     4     3     4     9     6     6     8    11    12    24    16    22    37    36    32    44    30    56    64    53    59    77    71    99    94    83    85    92   107   104   113    91   106    99   109   104    99   115   100   103    98   107    65    76    70    53    53    48    49    26    30    30    17    24    14     8    15     7    21     9     7     3     6     2     3     1     0     2     1     5     0     1     0     0     0     0     0
     1     0     0     0     0     0     0     0     0     0     0     0     0     0     1     1     1     1     0     0     1     0     1     2     1     8     4     3     7    10     8     4    22    21    21    31    27    32    37    31    52    32    61    60    75    68    80    82    86    89    92   102   106   121   117   105   106   125    96   104   119   111   118    96   102    82    68    72    57    56    56    41    35    30    30    22    19    26    16    25    15     6     7     8     8     4     1     4     1     3     5     1     1     0     1     1     2     0     0     0
     0     0     0     0     0     0     0     0     0     0     0     0     0     0     1     1     0     0     1     1     1     1     0     2     1     3     3     4     2     5     3    14    11    11    14    24    18    30    24    34    47    50    50    60    74    71    77    75    82    84    89    85   108   116   110   124   112   114   104   111   107   116   102    96    96    83    82    78    71    75    61    40    39    44    27    21    23    37    21    15    27    13    11     5    10     8     3     6     1     3     3     2     1     3     0     1     0     0     0     0
     0     0     0     0     0     0     0     0     0     0     0     0     0     0     0     0     1     0     0     0     2     2     1     2     1     4     2     5     7     6     7     5    10    14    12    21    22    13    39    39    36    43    49    53    62    41    68    61    78    77    81    91    93   107   116    99   120   115   144   136    96   119   105   115    74   111    84    92    68    74    65    44    51    41    40    40    29    23    28    21    12    13    14     9     8     2     3     7     6     3     6     4     2     0     1     1     0     0     0     0
     1     0     0     0     0     0     0     0     0     0     0     0     0     0     0     1     0     0     2     2     1     1     0     1     0     1     1     4     3     4     4     6     9     7    10    15    19    15    27    26    43    33    47    51    58    67    54    51    77    60    70    96   112   106   109   131   118   135   125   108   119   112   118    88    92    85    97    90    69    69    66    65    52    48    43    47    39    28    24    23    20    22    13     9    10     9    12     4     3     5     9     5     2     2     1     0     0     0     1     0
     0     1     0     0     0     0     0     0     0     0     0     0     0     0     0     0     0     0     1     1     1     0     1     1     1     3     1     2     0     3     4     2     5     9     6    12    18    18    36    27    29    26    29    38    53    49    50    58    69    77    74   102    74   105   107   121   114   102   133   111   127    95   105   104   107   112    78    91    81    77    75    70    48    60    40    39    38    32    28    30    20    26    17    15     3     7     6     7    10     4     8     2     2     2     1     1     1     1     0     0
     0     0     0     0     0     0     0     0     0     0     0     0     0     1     0     1     1     0     0     0     0     0     1     0     2     2     4     0     1     1     3     4     4     4     7     8    17    11    30    23    29    33    32    40    36    50    56    57    56    49    73    83    89    89    86    94   106   109    97   121   124   122   106    92   106    96    95    53    92    85    73    54    60    58    59    57    42    28    32    30    20    19    25    21     9     9    11     5     7     2     4     7     4     1     1     2     2     2     2     2
     1     0     0     0     0     0     0     0     0     0     0     0     0     0     0     0     0     0     0     0     0     0     1     1     0     1     0     1     0     1     0     2     3     7     5     5    12    19    14    18    27    30    28    25    45    26    44    42    61    60    68    71    73   104    73   101   110   100   109   136   111   101   115   109   107   109    98    89    79    90    93    78    64    55    51    46    61    34    35    26    30    18    25    14    17     8     5     9     4     9    14     7     4     0     0     2     2     2     1     1
     0     0     0     0     0     0     0     0     0     0     0     0     0     0     0     0     0     0     0     1     0     0     0     0     2     1     0     0     2     1     1     0     2     4     5     8     6    12    14    10    16    22    17    28    29    35    33    61    55    51    79    73    85    71    89    73    86   104    95    96   125   106   104   102   109   108    94    80   103    83    89    75    70    75    49    54    59    49    48    38    28    27    19    24     8    10    13    14     7     5     4     3     1     4     2     4     1     0     0     0
     1     0     0     0     0     0     0     0     0     0     0     0     0     0     0     0     0     0     0     0     0     1     0     1     0     0     2     1     1     2     1     0     2     3     3     6    10     4    14    19    16    17    13    16    28    34    36    41    36    58    50    70    67    70    67    65    87    77   104    89   113    94   109   131    98    87    83    90   107   104    88    80    59    79    61    58    60    40    37    38    33    31    29    33    25    17     9    13    10     5     7     7     5     5     1     4     1     4     2     0
     1     0     0     0     0     1     0     0     0     0     0     0     0     0     0     0     0     0     0     0     0     0     1     1     0     0     0     1     2     0     1     2     3     3     4     5     3     2    14    10     9    25    16    24    24    24    27    43    40    35    45    71    79    83    72    71    92    75    90   110    89   103   102    93    85    90   108    89    93    89    71    81    59    62    67    66    44    63    45    40    31    32    28    30    15    15    12    12     9     6     6     9     6    10     4     6     3     2     1     1
     2     0     0     0     0     0     0     0     0     0     0     0     0     0     0     0     0     0     0     0     0     0     1     2     2     1     0     0     2     0     0     1     3     2     7     6     3    11     8     9    12    15    16    27    27    24    35    21    38    42    43    45    65    71    59    65    84    80    99    90    77   101    88   101    87    92    94    68   100   114    82    82    62    75    68    66    55    72    52    54    39    25    32    31    13    15    26    20     8    12    11     7     6     2     6     2     4     1     0     0
     1     2     0     0     0     0     0     0     0     0     0     0     0     0     0     0     0     0     0     0     0     0     0     0     1     0     0     0     0     1     1     0     5     2     3     5     4     3     5     3     7     7    15    19    19    10    21    29    29    31    45    42    63    58    67    67    57    83    86    83    84    87    90    88    91    99   105    94    87   110    84    60    74    63    71    58    63    57    71    51    35    33    36    40    33    24    18    25    11    11    13     9     7     5     5     3     3     2     3     1
     2     0     2     0     0     1     0     0     0     0     0     0     0     0     0     0     0     0     0     0     0     0     0     0     0     2     1     1     0     1     0     2     5     1     5     1     3     6     5     6     6     4    10    18    23    25    26    20    18    30    32    46    49    44    56    50    66    65    74    88    78    88    89    85    95    77    80    97    91    90   113    84    86    72    70    68    67    70    65    63    52    34    44    34    28    24    18    12    22    15    10     9    10     7     6     1     8     2     4     3
     2     2     0     1     1     1     0     0     0     0     0     0     0     0     0     0     0     0     0     0     0     0     0     1     0     0     1     0     0     3     1     0     1     2     2     2     4     2     5     7     7     7    11     9    18    23    26    34    29    33    36    37    34    60    54    48    54    77    75    81    83    83    74    81    91    74    87   105    95   115    88    91    93    86    85    95    66    79    62    60    52    44    37    44    26    21    23    21    23    30    19    10    11    12    11     2     4     8     6     2
     2     0     1     1     2     1     1     0     0     0     0     0     0     0     0     0     0     0     1     0     0     0     2     1     0     1     0     1     1     0     1     0     1     1     0     3     7     1     3     7     8     6     8     9    14    16    22    27    20    26    31    35    31    39    42    36    49    48    64    65    83    74    64    73    70    69    83   101    79   110    93    92    90    76    94    78    90    66    67    70    55    47    38    38    41    40    31    32    28    23    23     9    11    11    12    12     7     6     6     5
     7     1     6     0     1     1     2     0     0     1     0     0     0     0     0     0     0     0     0     0     0     0     0     0     0     0     0     1     0     1     0     0     1     0     0     1     0     2     6     1     1     8     5     9     8    10    18    21    19    24    24    27    37    38    30    29    44    49    60    68    69    60    67    73    73    71    73   103   104    76    76    84    69    72    86    80    65    78    53    63    73    63    50    43    46    41    25    31    41    34    23    26    20    13     9     8     4     7     5     4
     4     5     2     2     0     3     1     1     0     0     0     0     0     0     0     0     0     0     0     0     0     0     0     0     0     0     0     0     1     0     1     0     0     0     0     0     0     2     1     2     3     2     4     3     4    11    12    11    14    25    12    29    24    24    46    33    41    42    50    51    61    57    61    70    59    66    72    90    98   102    84    82    83    62    79    74    69    62    59    62    59    51    46    52    30    45    36    39    28    20    16    24    16    14    10     9     7     3     6     7
    11     6     4     2     2     2     2     0     0     1     0     0     0     0     0     0     0     0     0     0     0     0     0     0     0     0     0     0     0     0     0     0     0     0     1     1     1     0     2     1     0     0     4     3     4     8     5    15     9    21    19    16    15    23    30    30    30    41    42    53    40    62    49    54    56    70    62    70    62    77    80    61    83    85    73    81    75    72    71    82    52    58    67    46    44    36    37    35    34    32    22    23    15    15    10    10    10    15     8     3
     9     5     5     3     1     8     1     0     1     1     0     0     0     0     0     0     0     0     0     0     0     0     0     0     0     0     0     0     0     0     0     0     0     0     0     2     1     5     2     1     2     1     3     2     7     4     6     7    12    16    17    19    13    16    15    27    25    36    34    37    49    51    62    56    43    64    44    67    83    87    89    95    95    72    81    78    71    64    52    66    68    59    55    51    67    37    47    38    29    30    33    30    18    20    12    15     8    11     6     8
     7     6     3     6     1     3     0     2     2     0     0     0     1     1     0     0     0     0     0     0     0     0     0     0     0     0     0     0     0     0     0     0     0     0     0     2     1     2     0     2     1     1     2     3     1     7     4     7     7    12     9    18     8    15    24    37    19    19    35    43    55    48    44    54    55    44    56    57    66    73    80    82    66    74    74    68    72    59    77    65    54    63    52    68    46    56    38    42    41    45    38    31    21    10    20     5    15     4    11     9
     3     5     7     5     2     3     1     2     1     0     0     0     0     0     0     0     0     0     0     0     0     0     0     0     0     0     0     0     0     0     0     0     1     0     0     0     0     0     1     1     1     1     1     0     1     2     4     4     4    10     8     7    22    14    18    19    31    31    36    36    34    37    53    46    45    64    50    59    60    69    77    79    72    70    61    51    75    82    62    73    76    67    63    63    46    65    47    44    34    43    31    25    31    27    13    13    11    11    12     8
     9     8     5     5     4     2     0     0     1     1     0     2     0     0     0     0     0     0     0     0     0     0     0     0     0     0     0     0     0     0     0     0     0     0     0     0     0     1     0     0     0     0     0     0     0     2     2     0    10    10     2    16    18    24    21    16    20    24    30    25    32    28    34    41    51    49    46    69    47    61    56    73    80    52    63    61    64    77    72    72    83    75    74    87    65    63    56    50    48    45    37    36    37    28    17    19    14    11    11    13
     9    10    10     5     2     1     2     1     0     2     1     0     0     0     0     0     0     0     0     0     0     0     0     0     0     0     0     0     0     0     0     0     0     0     0     0     0     0     0     0     1     2     2     1     1     3     2     2     5     8     3     9     5    10     9    23    22    27    35    25    19    32    26    42    50    49    62    54    64    67    70    71    73    68    66    59    62    71    69    66    73    51    69    61    59    70    56    58    46    48    40    38    39    28    29    11    22    21    16    14
    12     6    11     7     6     6     2     4     3     4     3     1     0     1     0     0     0     1     0     0     0     0     0     0     0     0     0     0     0     0     0     0     0     0     0     0     0     0     0     0     1     2     1     0     1     0     3     3     3     2    12     5    10     7     8    13    23    13    18    20    26    28    35    25    35    46    46    34    61    60    47    63    77    71    71    77    77    64    70    83    74    79    72    67    80    58    68    68    55    44    61    30    31    39    24    19    23    17    13    14
    12     5    13     5     6     4     0     2     5     3     3     1     3     0     0     0     0     0     2     0     0     0     0     0     0     0     0     0     0     0     0     0     0     0     0     0     0     0     0     1     1     0     0     0     1     0     1     3     7     6     3     5    11     7    16    20    15    13    18    25    26    16    22    36    31    37    47    31    43    54    61    64    65    69    79    55    64    60    66    57    83    75    85    78    66    68    62    61    42    52    39    32    30    31    36    30    19    20    13    14
    15     7    10    12     5     5     5     4     4     3     5     2     3     0     0     2     0     2     0     0     0     1     1     0     0     0     0     0     0     0     0     0     0     0     0     0     0     0     0     0     0     0     0     1     0     3     1     2     2     4     6     4     1     6     7     9    14    11    21    14    18    21    21    34    33    37    41    49    44    52    54    53    59    59    56    55    48    63    74    70    63    69    72    77    61    62    72    66    60    55    53    41    38    31    25    34    22    19    19    14
    19    18     9     6     9     9     9     5     5     7     5     6     2     1     1     1     3     1     4     1     1     0     0     0     0     0     0     0     0     0     0     0     0     0     0     0     0     0     0     0     0     1     1     0     0     1     1     4     4     5     6     4     4     8     6    10     9    11    14    12    16    11    29    32    27    32    27    37    37    38    50    50    51    57    49    55    57    69    71    56    65    68    68    76    72    69    81    60    60    46    49    37    35    43    45    37    26    23    15    19
    21    21    17    12    17     4     8     7     8     4     3     3     5     0     3     1     2     3     4     0     2     0     1     0     0     0     0     0     0     0     0     0     0     0     0     0     0     0     0     0     0     0     0     0     1     0     1     4     3     1     3     2     2     1    12     7    13    10    11    11    15    20    20    18    23    21    31    24    46    48    41    52    49    50    43    61    62    53    64    75    62    77    63    66    86    59    73    66    68    60    56    56    40    34    32    43    21    25    26    22
    25    25    24    12    23    11    12     8    11     4     6     3     3     5     2     1     0     2     3     1     3     1     1     1     1     0     0     0     0     0     0     0     0     0     0     0     0     0     0     0     0     0     0     0     1     0     3     2     2     1     1     1     1     4     2     3    13     4    13    12    15    11    14    21    21    26    23    24    25    41    41    53    41    39    50    46    44    50    67    56    53    67    61    60    68    57    74    45    53    65    57    60    45    42    32    28    33    30    25    28
    27    24    16    16    17    14    15     7     4     6     6     0     6     3     7     2     0     1     0     0     0     2     1     1     0     0     0     0     0     0     0     0     0     0     0     0     0     0     0     0     0     0     0     0     1     0     0     1     0     1     1     1     0     2     2     5     7     5     7    11    11     8    16    13    12    25    16    26    16    46    42    53    37    40    34    39    39    45    47    67    75    60    51    58    68    62    61    74    65    68    51    54    54    49    44    52    29    28    41    20
    32    37    22    17    18    15    19     7    12     2     9     2     8     5     1     5     3     3     2     1     3     0     1     0     0     0     0     0     0     0     1     0     0     0     0     0     0     0     0     0     0     1     0     2     0     0     0     0     0     1     1     2     4     2     2     6    10     5     7    11     8    11    14    12    12    17    20    16    21    23    23    26    32    29    30    45    37    52    58    61    66    54    70    73    62    62    62    49    71    51    54    53    58    64    54    45    52    36    39    32
    33    16    24    17    20    18    13    12    14    10     6     8    11     9     3     6     5     4     4     0     0     0     2     0     0     0     0     0     0     0     0     0     0     0     0     0     1     0     0     0     0     0     0     0     0     0     0     0     0     4     0     0     1     2     4     5     4     9     7     7     5     9    12    16    15    15    16    14    23    23    28    18    27    25    31    38    35    41    60    51    65    63    65    58    65    66    63    53    53    57    68    59    45    56    59    45    50    33    34    37
    25    31    29    34    23    17    15     7    19    11    14    12     6     4     3     7     5     3     1     1     2     3     0     0     0     0     0     0     0     0     0     0     0     0     0     0     0     1     0     0     0     0     0     0     0     1     0     0     0     3     0     0     0     2     1     2     2     3     5     3     2     7    10    12    12    11    15    13    18    19    19    30    29    29    25    27    39    51    57    54    53    53    58    55    56    72    57    51    63    47    49    56    63    47    46    47    34    40    31    42
    24    20    20    19    19    20    19    10    13    10    11     6     8    12     9     5    10     3     3     0     3     1     0     1     1     1     0     0     0     0     0     0     0     0     0     0     0     1     0     0     0     0     0     0     0     0     0     0     1     0     0     0     3     0     1     1     4     5     2     1     1     5     5     5    15    10    15     9    12    13    11    18    28    23    28    31    31    44    47    43    41    50    42    64    54    59    63    77    66    73    65    68    56    54    57    58    51    44    41    27
    32    25    20    24    16    15    22    14    18    20    13    12    10     9     8    11     5     3     1     3     2     1     0     2     0     1     1     0     0     0     0     0     0     0     0     0     0     0     1     0     0     0     0     0     0     0     0     0     0     0     1     0     1     1     3     1     1     1     3     2     1     7     5     9     9    12    15    15    16    12    17    21    17    18    36    23    32    29    43    47    39    54    62    43    56    57    60    50    47    40    54    53    62    73    62    50    45    40    34    32
    31    29    25    21    25    23    18    21    27    21    18    12    14    13     8    14     8     9     4     7     3     4     2     4     0     1     1     0     0     1     0     0     0     1     0     0     0     2     0     0     0     0     0     0     0     0     0     0     0     0     2     0     1     0     0     0     1     3     2     2     5     1     8     3     6    10     7    17    11     3    16    17    16    25    29    31    30    34    32    34    43    44    46    51    35    51    59    48    52    48    55    54    54    61    50    52    51    39    35    32
    26    26    35    27    32    25    27    16    18    18    25    20    14     8    20    10    16     5     4     3     9     1     5     3     1     2     0     0     0     0     0     0     0     0     0     0     0     0     0     0     0     0     0     0     0     0     0     0     0     1     0     0     0     2     0     0     0     3     1     1     3     5     2     1     7    14     7    11    11    12     9     9    11    11    23    21    22    37    24    32    45    41    43    44    41    46    48    51    48    56    48    55    58    58    57    54    53    38    35    28
    46    44    30    28    33    19    27    19    22    22    20    15    13    14    15     6     6     6     9     3     1     2     5     2     2     3     1     0     0     0     0     0     0     0     0     1     0     0     0     0     0     0     0     0     0     0     0     0     0     0     0     0     0     0     1     2     1     0     2     1     3     3     1     5     4     7    13    11     7     9    15    20    16    13    17    26    27    24    27    31    28    43    42    45    44    35    63    45    68    60    62    67    47    54    55    41    41    54    45    38
    50    36    35    36    21    19    23    27    28    19    19    21    26    19    13     9     7     7     9    10     2     3     3     3     2     2     1     0     2     1     0     0     0     0     0     0     0     0     0     1     1     0     0     0     0     0     0     0     0     0     0     0     1     0     0     0     0     1     1     2     1     1     2     2     2     6     9    10     9     7    13     9    11    15    16    18    22    23    29    34    35    35    37    46    40    40    49    40    67    48    55    50    45    45    54    51    53    53    52    36
    37    35    43    37    31    19    29    27    17    23    19    21    12    20    18    22    16     8    12     7     8     3     3     2     1     0     0     4     1     0     0     0     0     0     0     0     0     0     0     0     0     0     0     0     0     0     0     0     0     0     0     0     0     0     0     0     0     0     1     1     2     0     5     3     3     2     7     2     6     5     6     7     7    11    14    11    20    26    16    21    33    43    37    38    39    48    54    51    38    44    51    52    48    58    42    54    47    46    46    44
    48    35    34    39    27    30    21    24    26    23    21    26    20    29    13    18    19    13     6    10     5     8     3     3     2     5     4     2     1     1     0     2     2     0     0     0     0     0     1     1     0     0     0     0     0     1     0     0     0     0     0     0     0     0     0     0     0     2     0     1     0     0     3     2     2     3     4     3     5     4     3     5    11     9    13    11    13    22    27    24    19    26    33    33    36    29    44    40    37    50    36    41    43    54    48    43    41    46    39    35
    43    42    37    28    33    28    29    25    25    20    37    42    25    22    12    14    15    14    15    12    14     1     9     6     2     3     2     2     2     1     2     0     1     0     1     0     0     0     1     1     0     1     1     0     0     0     0     0     0     0     0     0     0     0     0     0     0     0     1     0     0     0     1     2     2     3     3     1     3     5     7     5    10    13     8    11    15    11    20    22    25    25    31    23    37    30    27    41    30    39    29    44    41    40    43    44    43    34    44    44
    41    33    31    34    38    26    38    22    20    23    39    38    31    28    25    17    18    18    17    12    11     6     9     7     4     2     4     1     3     3     1     0     0     1     0     0     1     2     0     0     0     0     0     0     0     0     0     0     0     0     0     0     0     0     0     0     0     0     0     0     1     2     1     0     3     0     2     5     6     4     6     3     7    15     6    13    10    13    10    10    17    24    22    23    29    41    34    37    35    41    31    38    33    43    41    46    43    40    44    42
    44    42    46    28    57    36    32    28    27    34    21    31    19    33    27    25    22    20    11    19    19    11    14     4     8    14     5     7     9     0     5     1     1     0     1     2     1     0     1     0     0     0     0     0     0     0     0     0     0     0     0     0     0     0     0     0     0     1     0     1     0     0     1     2     3     2     1     4     4     8     1     5     2     7     9    11     6     7    11    14    12    13    13    23    23    32    32    31    27    31    32    36    42    37    40    44    53    45    40    49
