#lt      50.0
#count pbc
#dt      1.0
#dn      50
#edges  -27.1557089 -26.6125947 -26.0694805 -25.5263664 -24.9832522 -24.4401380 -23.8970238 -23.3539097 -22.8107955 -22.2676813 -21.7245671 -21.1814529 -20.6383388 -20.0952246 -19.5521104 -19.0089962 -18.4658821 -17.9227679 -17.3796537 -16.8365395 -16.2934253 -15.7503112 -15.2071970 -14.6640828 -14.1209686 -13.5778545 -13.0347403 -12.4916261 -11.9485119 -11.4053977 -10.8622836 -10.3191694  -9.7760552  -9.2329410  -8.6898268  -8.1467127  -7.6035985  -7.0604843  -6.5173701  -5.9742560  -5.4311418  -4.8880276  -4.3449134  -3.8017992  -3.2586851  -2.7155709  -2.1724567  -1.6293425  -1.0862284  -0.5431142   0.0000000   0.5431142   1.0862284   1.6293425   2.1724567   2.7155709   3.2586851   3.8017992   4.3449134   4.8880276   5.4311418   5.9742560   6.5173701   7.0604843   7.6035985   8.1467127   8.6898268   9.2329410   9.7760552  10.3191694  10.8622836  11.4053977  11.9485119  12.4916261  13.0347403  13.5778545  14.1209686  14.6640828  15.2071970  15.7503112  16.2934253  16.8365395  17.3796537  17.9227679  18.4658821  19.0089962  19.5521104  20.0952246  20.6383388  21.1814529  21.7245671  22.2676813  22.8107955  23.3539097  23.8970238  24.4401380  24.9832522  25.5263664  26.0694805  26.6125947  27.1557089
    44    58    46    39    47    43    37    35    35    40    41    38    30    40    29    26    26    13    19    16    16    11     7    15     9    10    12     6     6     5     3     6     2     1     4     2     1     3     2     4     0     0     0     0     0     0     0     0     0     0     0     0     0     0     0     0     0     2     3     0     3     3     1     2     1     1     5     3     6     8     5     7     6     3    13    12    10    16    14    26    20    21    23    30    36    34    29    21    41    33    32    36    42    46    36    36    40    59    52    45
    48    56    43    56    48    42    62    50    39    55    41    37    40    32    40    30    25    22    16    17    13    15    16    15     9    12    13    11     7     7     8     5     2     8     3     1     3     6     3     2     2     2     2     1     0     0     0     0     0     0     0     0     0     0     0     0     0     0     1     2     0     1     6     1     2     2     2     2     5     9     3     8     3     4     9    12    10    10    13     7    14    22    21    26    24    20    32    29    39    23    36    42    38    33    42    50    52    42    48    46
    45    45    60    51    47    59    45    32    36    30    42    38    43    38    28    38    30    31    16    18    11    13    23    11    12    15    14     8    10     2    10     5     3     3     0     5     3     2     6     2     1     2     0     0     0     0     0     0     0     0     0     0     0     0     0     0     1     0     1     1     0     2     0     3     1     0     0     4     1     4     3     3     6     6    20    10     9    10     7    13    23    19    20    21    20    21    21    26    21    23    36    26    26    28    37    41    54    34    46    54
    50    54    79    59    44    43    47    47    44    54    57    40    32    32    36    19    41    22    25    21    23    22    24    18     8     9    10    10    11     9     9     2     4     3     4     3     5     2     4     4     0     2     2     1     0     0     1     0     0     0     0     0     0     1     0     0     1     1     2     2     2     0     1     0     1     2     1     1     2     2     3     4    10     8     1     3     8     8    13     6    10    13    18    14    23    20    10    28    24    23    27    42    32    30    39    38    32    42    53    47
    55    36    47    62    63    39    60    54    48    33    35    41    32    36    39    26    34    32    28    27    24    25    26    13    16    14    18     7     7    13    10    11     2     7     4     3     1     2     4     0     4     3     1     1     2     0     2     0     0     0     1     0     0     0     0     2     0     0     0     0     0     3     1     2     0     2     1     3     3     1     3     2     7     3     8    15    12    10     8     5     8    12    21     9    16    15    24    19    31    25    32    28    26    33    37    45    43    40    42    59
    50    42    31    41    57    62    54    49    35    36    38    46    46    40    28    32    36    40    40    34    14    25    30    29    18    15    14    13    17    17    16    12     7     7     3     5     5     0     3     0     3     3     3     0     1     0     0     1     2     0     1     0     0     0     0     0     0     0     0     0     0     1     0     0     1     0     0     0     2     1     0     3     3     7    10     8     6     7     9     7    11     9    12    13    15    13    12    23    19    19    28    33    18    29    36    42    38    40    44    44
    42    42    43    47    38    57    46    44    48    59    51    41    45    40    36    34    31    38    31    26    35    22    25    26    20    21    17    23     9    11    13     6     3    10     7     3     2     5     0     5     2     3     1     2     0     0     2     1     0     1     1     0     0     0     1     0     1     1     0     0     1     0     0     0     0     1     0     0     0     3     0     4     1     1     2     3     1     4     9     4     7    17     7    14    11    17    19    23    17    24    26    19    26    21    36    37    41    39    41    41
    40    31    31    38    41    49    50    53    41    47    53    33    38    42    34    41    48    61    39    30    35    33    31    20    17    15    18    24    17    15    12    16    14    14    12     5     4     4     7     4     2     2     0     0     2     2     1     0     0     0     0     0     1     0     1     0     0     1     1     0     0     0     1     0     0     1     1     1     2     0     1     1     1     4     7     7    14     5     8     6     7     8     8     9     9    17    10    16    21    22    22    18    20    25    25    32    35    40    34    42
    30    48    48    41    50    55    55    53    46    51    39    40    35    42    48    35    42    40    34    29    35    37    28    34    30    15    11    16    13    20    15    18    10    11    20     5     9    10     5     4     2     0     2     2     1     0     0     1     1     1     0     0     0     0     1     0     0     0     0     0     2     1     0     1     1     0     0     0     2     1     3     0     0     5     2     8     6     7     4     3     5     8    11     4     7    13    16    10    16    19    15    24    18    15    26    34    35    36    39    34
    48    40    39    40    30    51    53    45    49    38    61    48    43    47    49    63    42    49    36    40    49    24    33    28    24    26    19    32    24    26    17    18    18    22    13    11     8     7    10     8     6     3     5     2     2     0     2     0     1     0     0     0     2     0     0     0     1     0     0     2     0     0     0     1     0     2     0     0     1     1     0     1     1     1     4     4     5     3     5     4     5     6    13     7     8    10    10    15    24    24    20    22    23    10    18    23    31    28    40    32
    37    51    32    48    37    52    41    54    48    48    51    51    43    52    40    47    52    36    46    47    31    43    34    38    25    34    40    19    20    18    20    19    15    11    20    15    16    11    10     7     6     1     8     2     4     6     4     2     5     1     4     0     0     2     0     0     0     0     0     0     0     0     0     0     1     1     0     1     1     1     0     0     5     3     1     1     4     2     4     1     5     2     4    11    15    10     9    11    17    23    17    15    23    18    18    25    29    22    23    45
    36    36    36    42    43    44    41    52    49    53    47    53    41    53    46    50    57    44    50    41    48    28    36    48    36    33    31    27    21    27    24    14    21    19    18    15    16    11     3     9    14     8     2     6     1     2     7     3     3     2     0     2     1     1     2     0     0     0     0     0     2     0     0     0     0     0     0     0     0     0     1     2     0     2     4     2     6     0     2     9     4     6     7     8     9     4     7    13    11     7    14    16    19    23    27    20    29    30    31    31
    27    24    29    37    37    47    48    44    39    50    55    49    51    54    53    63    48    56    44    57    38    53    34    43    30    33    33    33    33    29    24    25    28    29    23    14    14     9     8    12     7     6     6     6     4     2     5     1     5     4     3     3     2     0     1     0     2     0     0     0     0     0     1     0     0     1     0     0     0     1     1     1     2     2     2     5     4     4     4     2     1     3     7     8     9    10     8    11     9    10    12    12    22    19    17    22    25    22    24    26
    39    35    30    40    43    40    42    57    46    45    48    59    53    58    52    53    48    51    53    40    36    50    41    46    45    33    51    41    43    34    30    24    26    21    15    25    21    11    11    16    11    13     7     9     5     3     1     7     4     5     1     1     1     1     0     1     0     0     0     1     1     0     0     1     0     0     0     0     0     1     1     2     1     0     3     1     3     1     5     0     8     6     2     5     8     8     5    11     9     6    13    12    13    13    20    22    18    21    26    18
    25    25    34    34    34    33    30    32    36    41    49    57    54    56    41    61    49    55    60    44    50    43    44    39    52    50    31    48    40    32    33    23    29    24    18    25    15    13    18    14    13     3    11     5     7     4     3     3     3     3     1     2     0     0     2     4     2     1     0     0     1     0     0     0     0     0     0     1     0     0     0     0     0     2     1     0     0     3     1     6     1     3     4     6     7     3     9    10     9    11     3    10    15    15    15    23    18    14    25    25
    26    31    25    38    28    28    33    40    42    53    57    55    43    49    44    50    46    62    52    39    38    43    48    54    53    50    42    36    49    40    41    38    36    32    17    17    28    18    23     9     6    10    10     6     8     6     4     3     3     4     0     2     0     3     5     2     5     1     1     2     0     2     3     0     0     0     0     0     0     0     0     2     1     2     1     0     1     2     1     2     2     1     3     2     4     0     8     4     6    10     4    10    11     6    15    10    14    25    21    20
    34    22    26    22    44    29    35    24    44    52    56    56    64    63    52    60    57    59    63    52    55    57    67    59    41    46    48    42    36    49    48    38    42    34    22    25    28    25    21    16    14    10    13     4     3     5     5     5     3     4     4     1     5     5     1     2     2     2     2     0     1     0     0     1     0     0     0     0     0     0     0     1     3     1     1     0     0     3     3     3     5     1     1     1     5     4     9     2     3     5    12     7     9    12     7    10    15    14    24    28
    24    23    31    28    40    38    44    39    44    51    64    43    47    55    57    48    54    55    62    59    47    56    59    55    48    50    43    47    40    38    34    48    43    31    24    25    24    28    22    29    16    11    10     5     7     5     3     2     5     5     4     2     4     2     2     6     0     4     2     3     2     1     0     1     1     0     0     0     0     0     0     1     0     0     2     1     3     0     2     2     2     3     1     3     8     2     2     3    12     7    11     6     3     7     9     8    15    14    13    29
    24    30    22    38    34    36    32    44    37    39    34    52    62    53    48    54    51    64    59    56    74    59    77    65    59    52    52    47    60    58    45    42    29    43    33    26    34    23    22    26    18    18    25     9     8     9     5     5     9     8     2     5     6     5     4     3     3     2     2     2     2     1     1     0     1     0     0     0     1     1     0     0     0     2     3     0     0     1     0     0     0     2     1     7     3     1     1     1     6    11    10     5    11     4     8     7    12    18    16    12
    17    28    21    29    37    31    40    30    42    38    34    40    46    70    57    58    59    61    57    57    44    57    72    56    53    49    38    43    52    40    59    42    40    44    25    32    42    29    18    21    29    18    20    26    17     8     8     8     6     8     6     6     1     5     1     4     2     1     1     2     1     2     0     4     1     1     1     0     1     0     0     0     0     0     0     0     0     0     1     0     2     1     3     2     1     3     2     3     3     7    11     3     8     7    12     8     8    10    15    21
    20    20    28    23    27    21    25    37    45    36    39    42    53    48    50    43    57    53    63    58    58    65    62    59    52    62    50    46    60    63    49    45    56    27    41    40    26    30    30    29    19    16    29    17    17    15     9    12    12    10     5     3     2     5     3     3     1     3     1     2     4     1     1     1     2     0     0     0     0     0     0     0     0     0     0     0     0     0     0     0     1     0     0     1     1     1     0     2     1     5     7     9     4     5     6     7     7    13    16    14
    16    22    28    25    20    28    30    36    39    36    40    41    47    47    52    49    63    50    59    56    62    65    76    72    64    48    50    54    58    55    59    49    58    47    43    45    32    36    36    26    36    32    17    23    12    13     8    13     7     7     8     5    11     6     4     2     7     3     3     4     4     2     1     3     1     3     0     0     0     0     0     1     0     0     0     0     0     0     0     0     1     0     1     0     0     2     2     4     4     1     8     4     2     3     4     7     4     8    15    20
    22    18    21    24    20    36    33    33    39    40    40    41    34    50    39    55    56    66    81    57    63    66    53    62    53    69    67    49    55    56    76    68    48    52    44    46    53    41    43    39    34    30    28    28    27    18    17     6     6    10     4     7     5    10     4     6     1     4     5     4     9     6     2     0     2     0     1     1     0     0     0     0     1     0     0     0     0     0     1     0     0     0     1     5     2     1     1     1     3     5     1     5     4     5     6     9     8    11     6     7
    11    16    12    20    21    25    30    39    33    42    34    40    48    41    41    50    58    46    60    64    68    74    58    57    66    76    67    58    57    54    61    66    52    53    50    45    36    43    31    42    28    37    18    33    26    29    13    17    10    17     8    10    12     4     2     7     4     4     6     4     3     3     7     0     2     0     1     2     0     0     1     0     0     0     0     0     0     0     0     0     2     0     1     2     1     0     1     3     4     6     1     4     3     6     6     2     5     3    12     8
     9    10    12    17    26    26    31    30    31    31    45    35    50    40    41    50    59    43    61    83    63    64    57    49    68    56    56    66    60    75    79    77    66    60    53    53    54    58    39    37    36    42    23    18    20    15    21    12    15    16    15    10     9    10     6     9     6     4     3     0     1     2     3     1     4     2     1     0     0     0     0     2     0     0     0     0     0     1     0     2     0     0     1     1     0     1     0     2     1     4     2     3     2     6     4     8     1     1    10     8
     5    14     5    14    14    18    23    22    35    35    31    31    41    39    56    30    62    52    57    80    65    82    68    67    57    57    92    62    60    56    64    67    68    66    67    48    42    65    42    45    43    34    28    39    23    22    24    16    15    14    16    15    14    11     8     7     9     6     3     3     2     6     1     1     0     1     0     2     1     1     1     0     1     0     0     1     1     1     1     0     0     0     0     1     2     1     1     1     0     0     4     2     2     3     4     4     2    10     6    11
     9    12    11    18    17    20    15    14    25    22    36    35    33    48    37    36    61    53    67    63    50    61    56    73    64    60    69    97    78    70    66    75    86    56    64    66    52    56    60    47    46    48    38    45    32    32    22    17    16    14    16    17    12     9    10    12     7     7     7     8     4     2     6     3     1     2     4     0     0     0     1     0     0     0     0     0     0     0     0     0     1     0     1     0     1     1     1     1     0     0     1     1     6     3     2     9     2     5     5     8
     6    10     7    11    17    16    19    17    20    34    28    34    30    32    37    47    52    53    62    67    67    61    56    68    63    78    54    87    92    70    77    78    60    67    69    69    74    59    68    55    41    47    50    51    29    41    29    31    28    17    16    17    20    16    15     7    12    10     5     6    13     5     3     3     5     4     2     0     1     0     2     1     0     0     0     1     1     0     1     2     0     1     0     1     0     1     0     0     2     0     1     4     0     1     4     2     2     1     8     5
     5     4     5     8    11    11    21    18    18    22    20    31    25    41    35    39    45    42    52    73    66    68    64    54    67    81    77    90    74    75    91    72    82    63    71    68    69    61    64    33    54    48    60    36    48    56    46    32    32    31    18    18    19    10    15    14    16    17     7    10     6     4     2     2     4     2     4     1     2     1     0     0     0     1     0     0     1     1     0     1     1     0     1     0     1     0     1     1     0     0     0     1     1     2     1     1     3     1     4     6
     6     3     4    11    12    12     9    15    13    15    23    19    29    25    27    32    41    49    39    55    36    58    82    66    69    64    75    81    62    69    90    75    81    70    82    70    60    54    63    70    60    56    61    46    55    45    41    49    47    43    30    27    29    32    26    18    11     9    12    10    10    12     1     3     5     3     4     1     0     3     1     1     3     1     1     1     2     0     0     4     3     2     0     1     1     0     0     0     0     0     0     0     1     0     0     5     4     3     3     3
     2     4     2     4    12     7    10    13    12    16    19    32    33    32    34    20    49    39    60    41    51    63    53    70    94    63    97    89    80    76    58    71    82    68    78    83    67    65    59    79    52    73    63    71    57    55    30    39    40    36    38    34    23    23    28    19    23     6    17    11     5     6    10     3     1     3     6     6     2     1     2     1     1     1     2     3     1     2     1     0     1     0     2     2     1     2     1     0     0     1     0     0     0     0     0     0     1     4     4     5
     4     7     5     3     5    11     9     6    11    19    27    20    35    24    22    26    45    36    49    47    62    58    72    61    75    74    72    70    90    70    56    82    62    78    91    95    94    84    69    85    79    79    59    54    55    49    35    39    41    48    37    34    37    28    23    24    24    21    10     8    14     7    14     6     4     5     4     5     7     1     2     2     1     0     2     3     1     0     1     0     0     1     0     0     0     0     0     0     0     0     0     0     1     0     2     1     3     2     3     6
     2     1     3     2     7    13    14    10     9    22    14    23    15    21    21    25    29    36    49    47    45    60    64    57    67    75    69    90    59    70    91    79    74    61    80    84    78    84    81    88    70    82    63    67    68    57    45    47    52    37    41    32    29    34    28    34    29    14    12    14    16    12    13     9     5     9     7     4     3     2     0     0     2     1     2     2     1     2     2     1     0     0     0     0     0     0     0     0     0     0     1     0     2     0     2     1     4     1     1     1
     1     3     5     3    13     5     9     7     4    15    20    24    18    17    25    23    29    32    35    34    46    47    58    67    73    79    72    86    70    70    82    84    68    84    91    83    91    94    96    92    76    81    80    75    64    59    67    54    59    50    31    41    30    32    27    21    36    13    14    12    13    11    11     9     8     8     8     3     3     5     2     2     4     3     1     2     2     2     1     0     0     0     0     0     0     0     0     0     0     0     2     1     1     0     0     0     1     2     2     4
     1     4     2     5     8     4     6     8    12     9    14    14    22    15    25    19    34    38    41    45    41    59    57    56    65    81    73    75    95    80    71    80    83    92    85   100    94    86    74    64    60    83    80    85    69    60    73    43    62    47    41    35    44    41    26    28    19    29    15    14    21     6    16     7    12    11     9     6     7     7     3     2     6     0     3     1     1     5     2     0     0     0     0     0     1     0     0     0     0     0     0     0     0     0     1     0     2     0     0     0
     3     5     2     2     4     2     8     5     6    13     8    15    14    18    16    22    23    22    29    39    35    51    52    52    55    66    85    69    68    86    65    82    73    90    89    80    90    77    92    66    75    84    90    76    79    74    59    65    69    39    44    44    46    44    26    22    32    22    29    23    15    13    15    10     7     5     4     8    11     6     3     2     0     2     1     0     0     3     0     0     2     0     0     0     0     0     1     0     0     0     1     0     0     0     0     1     0     2     2     2
     4     2     2     2     2     3     5     5     5     4     6    13    18    10    17    16    19    16    27    34    40    45    52    60    60    76    78    76    68    92    74    82    92    84    83    76    79   100    68    87    90    90    90    73    80    77    71    69    78    49    52    45    41    46    51    29    35    22    23    29    23    23    18    18    14    16     9     9     7     5     6     5     2     3     1     2     3     0     3     2     1     0     0     0     0     0     0     0     0     0     1     0     0     0     1     0     0     1     1     2
     1     2     2     0     2     3     3     9     7     2    11    17    15    13    18    17    21    28    28    31    33    34    49    36    50    42    49    77    68    78    87    72    95   101    99   109    88    96    78    83    84    75    82    81    81    78    84    64    47    69    58    67    54    39    46    44    36    39    30    24    21    20    21    11    13    13    14     6     5     7     6     4     5     2     3     0     0     0     3     2     3     3     0     0     3     0     0     2     0     2     0     0     0     0     1     0     0     0     1     0
     0     3     0     0     1     3     4     4     2     6     3     5     6    16    17    15    16    19    27    25    29    35    37    41    53    43    57    68    63    84    74    85    81    93   118   100    74    79    91    93    85    97   103    94    73    91    85    79    59    73    62    56    44    47    36    41    38    32    29    33    19    23    29    17    14    18    21    16     7    12     5     5     3     6     4     3     4     1     3     4     1     1     0     0     0     0     2     0     0     1     1     0     0     0     0     0     0     0     1     0
     1     0     1     1     1     2     1     2     4     7     4     8     6    11     9    16    13    17    21    17    30    32    25    37    44    50    65    60    74    63    68    88    89    96   112    79   108    93   104    92    99    98    83    94    77    80    74    76    85    51    70    68    69    43    39    40    41    44    19    25    34    36    33    21    24    16    14    15    10     7    10     8     6     6     3     3     2     3     3     0     0     0     0     0     0     0     0     1     0     2     0     0     0     1     0     1     1     1     0     0
     0     1     0     0     1     2     2     2     3     5     3     8     7     8     9     8    15    11    17    15    29    20    45    37    40    40    58    54    54    66    68    93    81    91    81    67    95    95    97    77    90    98    95   101    73    77    86    75    81    76    65    63    57    48    54    39    43    39    31    25    24    27    38    31    17    13    15    13    12    11    11     4     2     3     2     3     1     3     1     6     0     3     2     3     0     2     0     1     0     2     2     1     0     0     0     0     0     0     0     1
     1     0     1     0     2     3     2     0     2     8     3     6     5     3     6     9    14    20    15    19    22    28    39    34    41    29    35    57    65    62    57    85    70    96    79    87    92    92    97    97   110    90    95    89    85   102    86    86    74    77    64    52    63    63    51    52    41    46    46    46    41    34    29    28    21    23    27    13    19    13    10    10     9     6     5     3     4     4     2     4     2     4     4     3     1     1     2     1     1     0     0     0     0     2     0     0     0     1     0     0
     0     0     0     0     0     2     0     3     1     4     2     2     3     5     7    13    11    12    16    21    13    21    26    30    43    45    37    42    50    66    68    49    66    80    82    83    79   100    95    93    86    96   100    96    86    84    94    83    94    68    78    62    67    66    61    63    61    54    40    42    51    47    35    26    38    22    25    20    25    14    14     8    12     4     4     5     4     3     2     4     3     3     0     2     1     2     1     1     2     0     0     0     0     1     0     0     0     0     0     0
     0     0     2     0     0     3     0     1     3     1     0     1     3     5     5     6    10     8    13    17    16    20    27    27    35    36    45    42    52    43    61    62    56    73    92    87   104   102    88    88    98    94    78    91   105    94    73    87   101    89    90    78    67    65    71    71    52    58    56    57    39    30    37    34    30    18    35    23    13    11    12    10    11     6     9     4     2     6     2     3     6     1     1     1     2     4     0     2     0     0     0     1     0     0     1     1     0     0     0     0
     1     0     0     1     1     1     0     0     2     1     3     5     5     4     4     7    16    14    12    10    16    17    26    17    27    25    30    32    39    62    57    61    65    77    75    63    84    83    93    74    90    79    75    96    87    80    86    81    88    90    87    82    70    68    63    71    59    54    57    52    44    40    35    46    30    26    40    17    25    21    18    21     8     7     8    13     4     8     1     5     2     0     0     1     2     1     0     0     1     0     0     0     0     1     0     0     0     0     0     0
     1     2     1     0     1     1     2     1     0     2     0     2     2     4     4     5     6    13    12    11    10    13    16    14    19    27    19    37    45    43    52    56    56    54    70    60    93    85    86    90    72    85    75    93    76    82    92    80    92    77    87    83    90    84    74    75    62    59    44    46    57    47    37    37    38    42    26    23    24    20    21    12     9    14     9    19     8     3     3     4     2     2     4     3     4     4     1     3     0     1     3     0     2     0     0     0     0     0     0     0
     1     0     0     0     0     0     0     1     1     0     1     1     4     4     1     1     3    10     8     8    11    11    13    12    19    20    29    35    33    35    43    54    51    64    48    68    71    61    73    81    81    97    91    87    87    73    87    95    92    74    89    76    74    82    89    71    78    66    60    59    62    61    40    32    38    29    33    38    18    19    15    18    17     6    19    13     5     3     5     3     5     4     3     0     2     0     3     2     1     1     2     0     1     1     1     0     0     0     0     0
     0     0     0     0     0     1     1     0     2     0     3     0     5     2     6     3     7     6     7    10     9     9    12    19    15    21    34    37    35    30    36    34    57    60    46    45    78    68    87    97    98    83    81    87    81   100    93   101    97    85    88   103    92    96    86    85    77    64    68    56    57    44    61    46    39    39    38    30    20    16    15    16     6     9    10    10    12     7     8     8     7     2     3     2     3     2     0     3     1     0     0     0     2     0     1     1     0     0     0     0
     0     0     0     0     0     0     0     0     0     1     3     1     3     2     1     2     3     4    11     5    10     5    13    15    19    28    17    19    29    27    35    48    44    62    45    52    56    63    62    95    74    69    86   108    89   103    99    90    87    82    74    99   102    93    88    93    70    67    70    58    67    62    64    50    42    33    40    36    17    26    13    16    15    11    15    13    11    11     2     7    10     4     3     2     1     3     0     3     0     4     2     0     1     0     0     1     2     0     2     0
     0     0     0     1     0     0     1     0     0     0     0     3     1     2     7     6     1     2     5     3    13     5     5    10     9    19    25    13    24    30    35    32    45    36    53    56    46    62    94    84    77    74    96    81    94    88    83   110    99   103    88    74    90    84   112    89    81    69    69    62    76    65    62    48    49    35    39    35    21    18    17    13    20    18    13    11    11     9     8     9     7     5     6     4     2     2     1     3     1     0     3     0     2     2     2     0     0     1     0     0
     0     0     0     0     0     0     0     1     0     1     1     1     1     2     1     1     6     5     4     7    10     4    14    14    11    13    20    21    19    24    30    24    40    39    35    64    50    54    62    71    74    77    93    86    73    92    91   118    92   103   100    93    80    95    91    80    68    75    74    84    63    63    57    49    41    40    46    29    39    25    18    14    16     9    14    13    13    10     6    14     4     2     3     3     4     2     1     1     3     1     2     0     0     0     2     1     1     0     0     0
     0     1     1     0     0     0     0     0     0     1     0     0     1     2     3     1     1     1     3     8    11     5     7     4    10    12    17    12    19    26    28    24    41    32    47    39    47    50    52    66    49    63    60    82    95    90    80    93    71   105    83   101   102   107   105   100    91    89    85    72    70    63    61    54    52    35    41    45    31    37    20    25    18    17    22    16     7    19    21     8     7     5     4     6     4     0     2     5     1     0     2     2     1     2     1     2     0     1     0     0
     0     0     0     0     0     0     0     0     0     0     1     0     0     2     2     2     3     5     3     5     4     8     7     9    10    14    17    13    23    18    19    32    21    36    49    41    49    53    67    56    62    56    72    87    99    81    99    92   106    89    83   108    95   107    96    77    80    82    78    91    68    54    66    54    63    36    41    44    41    30    33    27    27    21    20    17    20    14    17    11    14     4     1     6     6     2     4     2     3     1     1     0     0     3     1     1     0     1     1     0
     1     0     0     0     0     0     0     0     0     0     1     0     0     1     0     3     2     4     3     3     5     7     5     4     9    12    19    17    12    13    21    34    34    43    45    48    56    51    60    54    48    64    70    77    59    67   110    91   109    93   108    96   110   100    98    84   106    75    70    94    70    59    67    59    49    60    46    54    39    54    31    39    43    17    13    16    23    18    14    24     8     6     7     1     3     9     5     5     1     0     0     1     2     0     3     0     1     1     0     1
     0     0     0     0     0     0     0     0     1     0     1     0     1     0     0     5     2     2     1     2     4     7     5     7    13    15    16     5    17    21    18    23    27    37    48    46    40    41    50    60    50    54    64    63    77    68    62    83    71    83    92    96    99    87    65    93   102    85    76    93    94    71    72    60    60    55    64    47    60    44    48    45    32    33    25    22    23    27    14    14     9     9     4     6     3     3     4     6     7     4     3     1     1     0     1     0     3     0     0     0
     0     0     0     1     1     0     0     0     0     0     0     1     0     0     1     2     1     2     5     1     2     2     4     6     8     7     8    17    13    22    19    24    31    36    27    38    40    62    45    50    57    55    57    63    73    79    68    89    78   103    75    84    83    95    92    71    94   100    91    74    71    66    77    66    53    66    63    51    58    43    43    27    36    35    20    29    10    15    25    22    13    14     9     9     7     5     9     3     3     2     0     2     0     3     1     0     2     1     0     0
     0     0     0     1     0     0     0     0     0     0     0     1     0     0     2     2     1     2     1     2     4     2     2     3     5     4     2    11    12    11    18    24    23    25    34    31    37    44    56    55    46    54    48    49    71    62    56    67    68    76    76    69    89   102    74   103    85    80    86    72    82    63    55    79    69    69    65    62    61    63    53    41    48    36    35    31    31    25    25    20    16    10     4    13    18    11    11     8     3     5     3     3     2     0     3     2     1     3     2     1
     0     1     1     0     0     0     0     0     0     0     0     0     0     0     1     1     2     4     2     2     2     2     2     3     3     6     8     5    15    11    23    17    20    17    30    24    40    40    41    54    47    50    44    50    53    50    51    61    64    69    74    69    92    79   101    72    70    68    72    84    73    77    69    65    58    73    63    69    61    68    64    51    45    52    42    39    28    26    22    22    12    17    13     7    12     5     9     3     6     3     6     4     0     2     2     5     0     2     0     0
     0     0     1     0     0     1     0     0     0     0     0     0     0     0     0     0     1     1     2     2     1     2     1     5     5     7    10     8     4    10    24    13    13    24    23    20    41    29    39    37    41    43    40    50    58    47    69    63    59    78    73    75    83    66    81    80    74    81    79    80    86    73    81    62    60    69    80    70    62    51    49    53    45    45    51    45    30    29    26    28    19    15    10     8    16    10     9     6     9     2     1     7     2     2     3     4     1     0     1     2
     1     0     1     0     0     0     0     0     0     0     0     0     0     0     0     0     0     0     2     2     1     3     2     3     2     2     4     7     6     7     6    16    10    15    13    20    27    27    35    30    34    49    47    55    50    47    56    62    64    75    69    77    77    78    99    82    80    78    81    74    76    73    85    74    72    62    68    79    72    56    61    55    51    50    47    34    39    28    20    29    23    20    14    15    11    18    13    11    13     4     3     4     1     4     2     2     1     0     0     0
     0     0     0     0     0     0     0     0     0     0     0     0     0     0     0     0     0     0     1     0     1     1     2     3     1     4     0     3     9    10     9    11    15    16    14    11    21    28    29    31    42    52    43    46    46    46    53    61    58    80    83    64    60    69    67    66    68    73    97    69    79    74    60    83    79    80    90    67    79    82    72    62    35    57    58    41    28    31    38    34    24    31    20    17    17    18     9     9     4    12     8     7     4     4     4     4     1     0     1     1
     1     2     0     0     0     0     0     0     0     0     0     0     0     0     0     0     0     0     1     0     0     2     2     1     1     1     0     7     6     3     3     7     3    13    13    19    19    17    18    30    32    30    30    39    37    52    44    73    49    57    57    77    60    93    75    69    84    82    88    66    70    90    73    67    75    69    63    83    86    78    73    64    64    46    57    40    48    39    36    19    19    25    20    19    18    21    10    15     6     7     6     5     7     4     2     3     1     0     1     3
     2     1     2     2     1     0     0     0     0     0     0     0     0     0     0     0     0     0     0     0     0     0     0     0     1     1     2     2     6     4     2     3     9     7    13     9    12    19    16    22    21    31    39    44    44    50    54    39    53    57    71    69    57    70    76    84    73    82    83    71    63    62    78    66    63    88    88    96    91    86    76    53    52    55    49    57    40    46    34    36    24    27    15    29    13    13    11    14    12    18     5    13     9     4     2     1     0     0     2     2
     2     0     2     0     0     1     1     0     0     0     1     0     0     0     0     0     1     1     0     0     0     1     0     0     2     1     6     2     4     3     4     7     9    10    11     6    17    13    17    23    22    36    45    47    51    50    43    56    54    44    67    41    61    59    60    58    59    69    74    77    76    69    76    79    76    70    87    84    74    72    88    66    64    58    62    45    44    45    30    30    34    24    19    25    18    21    20    21    18    11     7     8     9     4     4     4     7     0     0     1
     1     0     1     1     0     1     1     0     0     0     0     0     0     0     0     0     0     0     0     0     0     0     0     1     1     2     2     1     6     3     1     9     9     7     7     4     6    11    16    17    21    28    39    26    28    26    36    51    35    48    60    53    47    56    50    66    67    80    75    69    65    62    73    81    84    87    80    87    91    79    75    78    85    55    50    48    41    35    46    38    31    23    37    20    18    26    19    22    19    12    16    15     5     5     5     2     4     1     0     0
     2     0     1     1     5     0     0     0     0     0     0     0     0     0     0     0     0     0     0     0     0     0     0     1     2     4     4     3     2     3     4     1     3     7     3     5     8     9    15    19    28    22    33    31    29    32    40    37    23    36    40    46    37    54    46    64    86    60    70    87    75    86    63    79    77    80    87    93    88    99    87    84    74    52    55    57    43    59    43    50    29    28    29    20    24    26    15    21    10    14     8    12     5     8     6     4     1     4     3     2
     0     0     1     0     0     0     0     0     0     0     0     0     0     0     0     0     0     0     0     0     0     1     0     0     0     4     1     1     4     1     2     3     8     3     4     5     6    13    18    11    19    25    26    20    26    26    24    26    34    38    46    49    50    57    57    80    89    59    67    54    86    83    77    92    82    81    93    81    87    86   102    74    94   100    67    51    65    55    50    49    36    33    33    40    30    34    30    25    17    14    14    10    12     4     8     3    10     2     1     3
     3     1     2     0     0     0     0     0     1     0     0     0     0     0     0     0     0     0     0     0     0     0     0     0     1     0     1     2     4     4     6    11     1     4     3     7     4    10     7    12    16    21    21    23    21    37    21    37    33    27    40    34    44    58    41    69    54    47    62    84    76    89    81    84    86    95    74    67    76   101    87    80    80    79    74    72    64    45    46    40    28    45    35    38    29    34    28    24    20    11    12    14     9     4     6     5     6     5     3     3
     3     1     0     1     2     2     0     0     0     0     1     0     0     0     0     0     0     0     0     0     0     1     0     0     0     1     0     2     4     5     3     2     2     6     2     6     6     8     6    12     5    13    20    16    20    13    18    34    31    27    31    34    40    42    56    45    54    72    62    72    78    83    91    86    98    82    72    77    81    78    87    79   101    88    93    71    61    59    58    45    34    39    44    39    34    30    28    30    23    20    19    16    15    14    10    12     6     6     5     3
     4     3     2     1     1     1     0     0     0     0     0     0     0     0     0     0     0     0     1     1     0     0     1     1     0     3     7     3     3     6     3     6     4     4     1     4     3     2     7     1    12    18    16    24    18    23    16    19    23    32    21    24    37    42    54    44    51    60    60    70    66    84    68    83    81    77    95    89    80    74    78    83    90    94    79    61    70    66    57    44    40    49    48    39    38    32    29    32    26    23    18    33    20    18    17     9     8     9     6     2
     8     6     2     2     4     2     1     1     0     1     0     0     0     0     0     1     0     0     0     0     0     0     1     0     0     0     1     2     1     4     4     4     2     3     2     1     3     3     4     6    12    12    16    10     7    20    11    22    31    25    24    31    37    41    48    51    46    44    60    65    66    65    66   104    80    80    85    49   100    94    96    74    75    77    81    78    71    58    71    58    57    44    44    38    49    37    24    33    29    26    30    25    12    23    10     7     9    10     5     1
     2     5     4     4     3     4     1     2     2     0     1     3     1     0     0     2     1     1     0     4     0     0     1     0     1     1     0     2     1     4     2     4     5     2     5     5     2     7     7     8     8    13    16     2    12    17    21    20    15    16    22    31    39    44    42    41    40    47    48    50    65    52    55    73    65    63    97    74    90    90    82    68    70    99    88    97    79    78    64    60    48    51    55    50    38    38    40    30    27    33    22    21    18    11    16    13     9     9     4     6
     9     1     2     5     5     4     0     1     0     3     2     1     3     2     1     1     0     1     0     4     1     0     0     2     1     1     0     0     3     2     5     2     6     3     1     1     2     4     4     5     5     8     8    13     6     8    10    19    16    21    21    17    30    42    33    39    34    56    48    53    62    54    53    70    72    70    66    85    64    81    80    87    79    77    71    84    66    60    77    53    62    66    67    51    57    52    41    40    30    25    29    17    25    19    18    12     9    13     6     8
     8     5     7     7     5     3     3     3     4     3     2     2     0     2     1     2     0     2     0     0     0     1     0     0     0     1     0     2     0     1     0     3     3     1     0     2     3     2     3     7     5    12    10     8    11    10     5    15    20    17    16    24    27    31    29    31    37    50    42    50    56    54    69    72    60    63    75    67    64    77    75    74    57    74    80    63    73    81    70    75    79    53    69    51    51    54    52    35    41    28    32    31    19    18    17    12    11    14     6     7
    13    17     4     4     2     9     4     4     1     3     1     3     3     1     1     3     1     0     1     0     1     0     0     0     1     0     0     0     0     0     1     1     0     2     4     1     4     5     3     7     3     5     4     7    11     6    14    13    16    16    12    17    19    21    29    31    27    31    46    39    48    48    53    50    58    72    67    72    65    58    81    88    79    84    67    79    75    82    79    73    70    55    68    51    52    53    47    30    41    34    30    20    20    27    10    15    21    17    14    17
    12    14     6    12     8     8     8     4     5     5     2     4     5     1     4     2     1     0     0     0     0     0     0     1     0     0     0     1     1     0     3     2     0     1     4     4     4     6     3     3     3     3     5     4     3     7     7    11    11    15    15    14    21    37    33    28    23    35    32    44    33    32    46    48    46    53    67    66    81    70    70    95    71    82    62    57    79    66    64    66    62    74    59    52    46    62    39    33    39    42    29    31    27    15    16    15    14    16    14    14
    10    16    14     7     7     7    10     2     3     5     4     9     4     1     2     0     0     0     2     0     0     0     0     0     1     2     0     0     0     0     2     0     1     2     0     1     1     2     5     3     2     3     2     4    12     3    11    13    11    13     4    13    19    23    24    25    29    31    38    29    36    39    41    52    43    55    69    48    57    67    81    88    75    75    85    65    66    72    73    73    59    55    44    45    42    46    34    50    42    44    25    27    31    24    22    13    21    22    15    17
    16    14    11    10     6    12    10     9     9    11     4     2     7     6     3     3     0     2     2     0     0     1     0     1     0     0     1     0     1     0     0     0     0     1     1     1     3     1     0     2     4     3     5     4     7     3     7    11     8    10    18    12    10     9    17    23    28    23    32    29    28    52    42    36    41    52    54    48    55    54    57    66    77    71    54    74    58    66    70    78    59    63    60    50    49    41    42    50    43    30    31    27    25    20    22    24    18    27    16    15
    10    19    11    16    13     8     9    10     5    10    11     6     6     8     3     4     4     1     3     1     4     0     0     0     0     0     0     0     1     0     0     0     1     0     1     0     2     3     3     4     1     1     3     2     5     9     7     6     9    13     7    15    16    14    18    14    21    16    30    33    28    31    48    36    37    41    50    43    47    55    71    66    71    67    84    74    64    55    64    69    55    65    51    57    68    53    66    51    44    39    32    24    31    25    29    26    26    20    15    31
    20    16    15    10     6    12     9     6     6    13     7     3     7     2     0     3     1     1     3     0     1     0     1     0     0     0     0     0     0     0     0     0     0     0     1     0     1     1     1     2     1     0     4     6     5     4     3     3     2     6     7    11    13    10    14    15    15    26    22    20    29    40    29    23    36    32    43    46    59    51    57    72    68    66    79    85    77    66    70    65    78    62    58    50    42    67    40    57    48    31    35    38    38    36    23    32    26    27    21    22
    21    20    18    17    15    14     8     6     8     6     7     8     8     4     4     1     1     1     0     1     1     0     0     0     0     0     0     0     1     0     0     0     0     0     0     1     2     0     0     1     1     6     1     2     5     2     3     7     1     5     6     8     8    13    10    23    13    15    15    18    26    19    30    30    27    34    26    43    40    46    48    65    66    72    76    63    57    62    69    61    58    56    50    62    55    48    43    55    43    45    46    36    40    34    28    19    29    22    27    25
    25    18    21    12    13    13     5     9    12     3     3     3     4     7     4     2     5     5     3     1     0     1     0     1     0     0     0     0     0     0     0     0     0     0     0     0     0     0     0     0     0     0     1     1     3     3     3     0     2     6     8    10    11     7    13    10    17    15    18    32    18    25    24    31    31    29    26    50    44    44    55    53    60    59    68    64    42    50    58    71    49    57    53    45    56    62    64    40    56    40    49    36    36    44    33    35    29    41    26    30
    26    23    18    22    12    14    10    12    11     5     4     6     4     3     4     6     5     3     1     1     1     0     0     1     0     0     0     0     0     0     0     1     0     1     1     1     1     0     0     1     1     3     0     0     2     0     1     2     1     6     7     4     9     5     9     5    11    10    12    16    21    20    23    24    28    24    34    34    34    39    61    51    61    47    73    54    58    52    59    48    69    57    55    51    66    61    51    57    47    42    43    59    35    44    26    41    38    33    24    35
    31    29    25    15    12     5    16    11    10     6     4     2     4     7    11     3     4     2     4     3     3     1     2     0     0     0     0     0     0     0     0     0     0     0     0     0     0     0     1     1     2     0     0     0     0     0     1     1     4     3     5     8     5    10     4    14     8    12     9    10    17    14    18    31    27    27    23    33    31    49    39    62    56    60    46    58    58    42    49    42    66    60    50    61    65    40    58    46    56    50    43    45    39    36    51    41    32    38    32    25
    21    24    16    24    18     9    15    13    12     6     9     7     4     5     5     9     3     4     5     2     6     0     3     1     0     0     1     0     0     0     0     1     0     1     0     1     0     0     1     0     1     0     1     1     2     2     3     2     2     6     5     6    10    10     7     9     9     5    12    13    19    14    14    22    24    33    26    34    47    51    47    48    51    56    41    49    65    53    53    69    53    52    64    64    44    62    50    57    53    65    43    44    39    48    36    40    43    34    30    35
    23    35    26    21    28    20    16    16    11    11     7     5    12     7     6     3     4     4     9     0     2     3     2     1     0     0     0     0     0     0     1     0     0     1     0     1     1     0     0     2     1     0     0     0     1     3     4     1     2     3     2     8     6     8     8     6    11    10     8    17    14    22    15    23    21    27    36    30    25    36    40    54    34    46    38    50    54    71    41    62    58    58    63    55    70    54    63    53    55    38    51    44    53    47    37    61    51    32    36    34
    34    25    22    19    25    33    20    15    12    16     6     6     8     8    10     8     4     5     3     2     1     1     0     2     1     0     1     2     2     2     1     0     0     0     0     0     0     0     0     0     0     1     0     0     3     1     1     2     1     4     2     9     4     5     5     8     8     4    10     8    14    19    20    19    19    31    29    28    24    34    27    40    42    37    34    43    45    41    54    43    52    53    38    64    68    64    71    42    57    38    51    34    44    52    47    39    48    47    35    38
    36    31    33    36    22    25    18    11     8    10    11    14     3    10     9     8    12     7     4     2     3     2     0     0     3     0     2     1     0     1     0     1     0     0     0     0     0     0     0     0     0     0     2     0     0     3     2     1     0     2     4     3     6     3     7     5     5     9     8    14    16    11    17    11    20    22    20    32    36    17    24    30    31    26    34    35    43    52    51    35    57    54    53    59    60    66    64    51    73    50    59    53    47    41    43    34    49    42    51    35
    28    33    38    28    32    17    16    16    18    15    13    15    11     5     6    11     8     4     7     3     5     1     3     2     0     1     1     2     0     0     0     0     0     0     0     0     0     0     1     0     1     0     0     0     2     0     1     2     3     0     1    10     3     8     6     3     9     9     8     6     7    13     7    10    21     9    26    27    25    21    26    28    45    31    27    32    37    37    62    47    44    53    51    48    56    80    49    62    66    57    71    54    35    47    54    44    43    45    47    43
    34    29    33    27    29    24    12    19    17    15     5    13    11    15    11     5    10     2     5     3     1     1     3     2     5     0     0     0     0     1     0     1     1     2     0     0     0     0     0     0     1     0     2     0     0     0     1     3     1     1     4     4     2     4     5     5     7     3     9     4     7    11     7     9    11    20    23    17    29    24    18    19    24    28    39    26    36    23    42    47    45    45    49    49    56    62    46    66    55    56    50    47    49    57    37    46    41    37    39    37
    36    39    32    26    23    25    16    11    16    14    13    12    13    13     7    10     8     5     1     3     3     1     3     1     2     3     1     2     0     0     1     1     1     0     1     0     0     0     0     0     0     0     0     1     2     1     0     1     1     1     2     2     2     4     3     3     3     5     6     9    12     8    11     8    14    15    15    12    15    14    19    31    20    30    16    25    32    35    38    40    56    47    39    58    50    50    65    66    65    61    62    53    61    51    44    47    39    44    38    39
    33    42    34    31    34    10    15    20    12    12    16     9    17     9    11     4     5     4     9     5     5     4     6     4     1     1     0     1     3     2     0     0     0     0     0     0     0     0     0     0     1     0     0     0     0     0     0     1     0     0     0     3     3     0     4     1     6     6     4     4     2    12    11     9    12    11    10    13    17    25    20    20    23    29    15    27    24    31    45    37    46    46    51    37    64    60    61    48    55    43    54    52    53    55    50    42    50    34    28    27
    41    32    29    32    26    10    17    19    16    24    19    14    17     8    12    13     6     7     5     5     5     3     2     3     0     3     0     1     2     2     0     1     0     0     1     2     0     0     0     0     0     0     0     0     0     0     0     1     1     0     2     2     2     0     1     1     4     1     3     0     7     7     8     6     4    10     9    10    24    13    17    20    19    20    22    26    29    30    35    29    24    38    41    38    42    53    47    53    57    55    62    46    53    40    50    57    50    36    38    33
    43    35    25    27    29    27    19    17    17    17    16    15    13    13     6    11     6     8     8     5     6     8     4     3     4     5     1     2     3     1     2     2     0     1     2     0     0     0     0     0     0     0     0     0     0     0     0     1     0     1     0     1     2     1     2     4     0     7     3     2     2     2     3    10     9    10    12     7    15    16    11    18    18    20    25    25    26    20    26    33    25    36    49    47    41    53    52    40    48    64    51    48    40    49    50    45    40    42    41    44
    35    37    29    32    38    24    28    24    31    16    20    21    12     8    16     9    10    10    12     7     8     2     8     6    10     3     2     0     4     1     2     1     0     1     1     0     2     2     0     0     0     0     0     0     0     0     0     0     0     0     0     1     0     1     2     0     1     3     3     4     4     3     3     6    10     7    10     9    10    14    11    17    19    17    14    13    28    25    27    18    33    30    37    28    39    37    52    63    61    45    43    51    48    47    46    56    49    37    33    35
    36    47    33    28    44    23    30    30    25    27    23    18    23    17    15    19     8     9     8     8    16     9     6     8     4     2     1     5     3     0     6     1     0     1     2     1     0     0     0     0     0     0     0     0     0     0     0     0     0     0     0     0     0     1     2     1     1     1     1     2     2     1     1     1     7     5     9     8    13     9    17    11    10    28    18    18    23    24    37    39    25    37    50    51    38    51    56    58    43    49    41    42    38    39    40    44    40    54    44    39
    37    45    43    32    30    33    22    34    28    31    29    28    22    20    11    16    16    10    10    10    10     9     8     3     9     2     5     3     2     4     1     5     0     2     2     0     0     1     1     1     1     0     0     0     0     0     0     0     0     0     0     0     0     0     3     0     0     1     2     0     0     5     2     1     4     7     8     8     7     9    12    13    13    17    14    23    26    13    28    40    32    35    29    30    34    37    48    52    49    46    50    36    42    44    48    42    41    58    48    58
    42    54    54    51    38    28    20    30    26    23    22    28    33    24    23    17    15    13    14    11    10    11    11     5     9     7     4     6     1     1     3     4     2     3     0     1     0     0     0     2     0     0     0     0     0     0     0     0     0     0     0     0     1     0     0     1     2     0     1     2     0     1     2     6     2    10     7     9     8    12     6    17    12    16    26    16    27    25    22    30    28    31    41    31    37    28    32    37    48    43    50    39    41    38    29    43    37    41    54    54
    48    49    51    38    25    30    27    34    35    30    25    33    23    29    26    13    12    18    12    14     9    14    11     6     8    10     5     4     5     5     1     6     3     2     2     3     1     1     1     0     2     1     0     0     0     0     0     0     0     0     0     0     0     0     0     2     0     1     3     1     2     2     4     2     4     7     6     6     6    12     8    13    12    13    13    17    19    19    29    24    24    36    28    21    37    49    47    36    37    39    22    45    30    43    37    50    43    52    44    42
    53    57    43    44    42    37    29    33    38    34    36    30    25    36    32    26    20    21    18     9    12    10    16    11    10    10     8     7     3     4     4     1     5     4     1     0     1     1     2     1     0     4     0     0     0     0     0     0     0     0     0     0     0     0     0     1     0     0     0     2     1     5     4     2     2     1     8     3     5     6    11     4    10     6    12    14    20    16    18    31    26    20    30    31    42    33    24    36    30    34    44    42    46    46    37    53    47    49    51    47
