# Permeability/(cm/s): 29.735499975599105    
# ( start_bin=5 <= i < end_bin=95 )
# bin_centers/(A)        free_energy/(kBT)      diffusion/(1e-5cm^2/s) bin_widths/(A)    resistability/(s/cm)
      -33.6231076500         2.9252181168         5.2828439856         0.6792547000         0.0001285775
      -32.9438529500         2.9344335090         5.2716083300         0.6792547000         0.0001300444
      -32.2645982500         2.9504602999         5.2455544729         0.6792547000         0.0001328017
      -31.5853435500         2.9692798218         5.1980308368         0.6792547000         0.0001365619
      -30.9060888500         2.9866258554         5.1203530536         0.6792547000         0.0001410593
      -30.2268341500         2.9995583549         5.0033339960         0.6792547000         0.0001462375
      -29.5475794500         3.0078041991         4.8391694798         0.6792547000         0.0001524504
      -28.8683247500         3.0144660573         4.6233818617         0.6792547000         0.0001606323
      -28.1890700500         3.0258418567         4.3563844942         0.6792547000         0.0001724276
      -27.5098153500         3.0503070896         4.0442079191         0.6792547000         0.0001903376
      -26.8305606500         3.0964413890         3.6980902071         0.6792547000         0.0002179799
      -26.1513059500         3.1707755245         3.3329557153         0.6792547000         0.0002605238
      -25.4720512500         3.2756488941         2.9651634900         0.6792547000         0.0003252177
      -24.7927965500         3.4076728173         2.6101325463         0.6792547000         0.0004215970
      -24.1135418500         3.5571883983         2.2804409118         0.6792547000         0.0005603702
      -23.4342871500         3.7089118811         1.9847695570         0.6792547000         0.0007493357
      -22.7550324500         3.8437179101         1.7277473650         0.6792547000         0.0009850353
      -22.0757777500         3.9412749700         1.5104945252         0.6792547000         0.0012421710
      -21.3965230500         3.9830687604         1.3315425249         0.6792547000         0.0014692521
      -20.7172683500         3.9552663714         1.1878267733         0.6792547000         0.0016018573
      -20.0380136500         3.8509033439         1.0755454003         0.6792547000         0.0015937636
      -19.3587589500         3.6710087793         0.9907902654         0.6792547000         0.0014452524
      -18.6795042500         3.4244901640         0.9299424628         0.6792547000         0.0012033935
      -18.0002495500         3.1268342487         0.8898722657         0.6792547000         0.0009338256
      -17.3209948500         2.7978936737         0.8679990928         0.6792547000         0.0006889966
      -16.6417401500         2.4591783692         0.8622637672         0.6792547000         0.0004943039
      -15.9624854500         2.1311292930         0.8710545415         0.6792547000         0.0003524674
      -15.2832307500         1.8308139746         0.8931170839         0.6792547000         0.0002545837
      -14.6039760500         1.5703638606         0.9274695912         0.6792547000         0.0001889415
      -13.9247213500         1.3563041997         0.9733373816         0.6792547000         0.0001453445
      -13.2454666500         1.1897479925         1.0301154368         0.6792547000         0.0001162630
      -12.5662119500         1.0672748883         1.0973611292         0.6792547000         0.0000965581
      -11.8869572500         0.9822224377         1.1748123576         0.6792547000         0.0000828384
      -11.2077025500         0.9260938020         1.2624192026         0.6792547000         0.0000728820
      -10.5284478500         0.8898285439         1.3603714201         0.6792547000         0.0000652254
       -9.8491931500         0.8647724379         1.4691010100         0.6792547000         0.0000589035
       -9.1699384500         0.8432904065         1.5892393706         0.6792547000         0.0000532934
       -8.4906837500         0.8190645082         1.7215118615         0.6792547000         0.0000480211
       -7.8114290500         0.7871831939         1.8665582977         0.6792547000         0.0000428997
       -7.1321743500         0.7441469690         2.0246758429         0.6792547000         0.0000378835
       -6.4529196500         0.6878906272         2.1954919668         0.6792547000         0.0000330249
       -5.7736649500         0.6178667217         2.3775913961         0.6792547000         0.0000284332
       -5.0944102500         0.5351696113         2.5681434558         0.6792547000         0.0000242342
       -4.4151555500         0.4426262261         2.7626028894         0.6792547000         0.0000205371
       -3.7359008500         0.3447557007         2.9545808465         0.6792547000         0.0000174123
       -3.0566461500         0.2475129300         3.1359900548         0.6792547000         0.0000148849
       -2.3773914500         0.1577774204         3.2975437064         0.6792547000         0.0000129407
       -1.6981367500         0.0826152278         3.4296214696         0.6792547000         0.0000115414
       -1.0188820500         0.0284090506         3.5234146074         0.6792547000         0.0000106414
       -0.3396273500         0.0000000459         3.5721539341         0.6792547000         0.0000102023
        0.3396273500         0.0000000459         3.5721539341         0.6792547000         0.0000102023
        1.0188820500         0.0284090506         3.5234146074         0.6792547000         0.0000106414
        1.6981367500         0.0826152278         3.4296214696         0.6792547000         0.0000115414
        2.3773914500         0.1577774204         3.2975437064         0.6792547000         0.0000129407
        3.0566461500         0.2475129300         3.1359900548         0.6792547000         0.0000148849
        3.7359008500         0.3447557007         2.9545808465         0.6792547000         0.0000174123
        4.4151555500         0.4426262261         2.7626028894         0.6792547000         0.0000205371
        5.0944102500         0.5351696113         2.5681434558         0.6792547000         0.0000242342
        5.7736649500         0.6178667217         2.3775913961         0.6792547000         0.0000284332
        6.4529196500         0.6878906272         2.1954919668         0.6792547000         0.0000330249
        7.1321743500         0.7441469690         2.0246758429         0.6792547000         0.0000378835
        7.8114290500         0.7871831939         1.8665582977         0.6792547000         0.0000428997
        8.4906837500         0.8190645082         1.7215118615         0.6792547000         0.0000480211
        9.1699384500         0.8432904065         1.5892393706         0.6792547000         0.0000532934
        9.8491931500         0.8647724379         1.4691010100         0.6792547000         0.0000589035
       10.5284478500         0.8898285439         1.3603714201         0.6792547000         0.0000652254
       11.2077025500         0.9260938020         1.2624192026         0.6792547000         0.0000728820
       11.8869572500         0.9822224377         1.1748123576         0.6792547000         0.0000828384
       12.5662119500         1.0672748883         1.0973611292         0.6792547000         0.0000965581
       13.2454666500         1.1897479925         1.0301154368         0.6792547000         0.0001162630
       13.9247213500         1.3563041997         0.9733373816         0.6792547000         0.0001453445
       14.6039760500         1.5703638606         0.9274695912         0.6792547000         0.0001889415
       15.2832307500         1.8308139746         0.8931170839         0.6792547000         0.0002545837
       15.9624854500         2.1311292930         0.8710545415         0.6792547000         0.0003524674
       16.6417401500         2.4591783692         0.8622637672         0.6792547000         0.0004943039
       17.3209948500         2.7978936737         0.8679990928         0.6792547000         0.0006889966
       18.0002495500         3.1268342487         0.8898722657         0.6792547000         0.0009338256
       18.6795042500         3.4244901640         0.9299424628         0.6792547000         0.0012033935
       19.3587589500         3.6710087793         0.9907902654         0.6792547000         0.0014452524
       20.0380136500         3.8509033439         1.0755454003         0.6792547000         0.0015937636
       20.7172683500         3.9552663714         1.1878267733         0.6792547000         0.0016018573
       21.3965230500         3.9830687604         1.3315425249         0.6792547000         0.0014692521
       22.0757777500         3.9412749700         1.5104945252         0.6792547000         0.0012421710
       22.7550324500         3.8437179101         1.7277473650         0.6792547000         0.0009850353
       23.4342871500         3.7089118811         1.9847695570         0.6792547000         0.0007493357
       24.1135418500         3.5571883983         2.2804409118         0.6792547000         0.0005603702
       24.7927965500         3.4076728173         2.6101325463         0.6792547000         0.0004215970
       25.4720512500         3.2756488941         2.9651634900         0.6792547000         0.0003252177
       26.1513059500         3.1707755245         3.3329557153         0.6792547000         0.0002605238
       26.8305606500         3.0964413890         3.6980902071         0.6792547000         0.0002179799
       27.5098153500         3.0503070896         4.0442079191         0.6792547000         0.0001903376
       28.1890700500         3.0258418567         4.3563844942         0.6792547000         0.0001724276
       28.8683247500         3.0144660573         4.6233818617         0.6792547000         0.0001606323
       29.5475794500         3.0078041991         4.8391694798         0.6792547000         0.0001524504
       30.2268341500         2.9995583549         5.0033339960         0.6792547000         0.0001462375
       30.9060888500         2.9866258554         5.1203530536         0.6792547000         0.0001410593
       31.5853435500         2.9692798218         5.1980308368         0.6792547000         0.0001365619
       32.2645982500         2.9504602999         5.2455544729         0.6792547000         0.0001328017
       32.9438529500         2.9344335090         5.2716083300         0.6792547000         0.0001300444
       33.6231076500         2.9252181168         5.2828439856         0.6792547000         0.0001285775
