#lt    50.0
#count pbc
#dt    1.0
#dn    50
#edges  -33.962735 -33.2834803 -32.6042256 -31.9249709 -31.2457162 -30.5664615 -29.8872068 -29.2079521 -28.5286974 -27.8494427 -27.170188 -26.4909333 -25.8116786 -25.1324239 -24.4531692 -23.7739145 -23.0946598 -22.4154051 -21.7361504 -21.0568957 -20.377641 -19.6983863 -19.0191316 -18.3398769 -17.6606222 -16.9813675 -16.3021128 -15.6228581 -14.9436034 -14.2643487 -13.585094 -12.9058393 -12.2265846 -11.5473299 -10.8680752 -10.1888205 -9.5095658 -8.8303111 -8.1510564 -7.4718017 -6.792547 -6.1132923 -5.4340376 -4.7547829 -4.0755282 -3.3962735 -2.7170188 -2.0377641 -1.3585094 -0.6792547 6.39488462184e-14 0.6792547 1.3585094 2.0377641 2.7170188 3.3962735 4.0755282 4.7547829 5.4340376 6.1132923 6.792547 7.4718017 8.1510564 8.8303111 9.5095658 10.1888205 10.8680752 11.5473299 12.2265846 12.9058393 13.585094 14.2643487 14.9436034 15.6228581 16.3021128 16.9813675 17.6606222 18.3398769 19.0191316 19.6983863 20.377641 21.0568957 21.7361504 22.4154051 23.0946598 23.7739145 24.4531692 25.1324239 25.8116786 26.4909333 27.170188 27.8494427 28.5286974 29.2079521 29.8872068 30.5664615 31.2457162 31.9249709 32.6042256 33.2834803 33.962735
33 35 51 43 48 56 31 35 37 27 25 23 21 10 4 3 6 2 1 0 1 1 0 1 0 0 0 0 0 0 0 0 0 0 0 0 0 0 0 0 0 0 0 0 0 0 0 0 0 0 0 0 0 0 0 0 0 0 0 0 0 0 0 0 0 0 0 0 0 0 0 0 0 0 0 0 0 0 0 0 0 1 3 2 10 11 15 17 17 26 18 18 25 34 28 20 30 35 31 41
35 45 47 56 46 52 49 46 39 31 30 34 10 12 15 7 1 3 3 0 0 0 1 0 0 0 0 0 0 0 0 0 0 0 0 0 0 0 0 0 0 0 0 0 0 0 0 0 0 0 0 0 0 0 0 0 0 0 0 0 0 0 0 0 0 0 0 0 0 0 0 0 0 0 0 0 0 0 0 0 2 1 3 4 8 9 14 12 8 12 20 22 29 16 32 25 27 34 40 31
47 49 52 47 58 53 39 45 44 35 39 23 20 14 15 7 12 4 4 3 0 0 0 1 0 0 0 0 0 0 0 0 0 0 0 0 0 0 0 0 0 0 0 0 0 0 0 0 0 0 0 0 0 0 0 0 0 0 0 0 0 0 0 0 0 0 0 0 0 0 0 0 0 0 0 0 0 0 0 0 0 1 0 6 7 9 12 18 6 18 22 21 30 20 23 34 37 26 33 33
37 49 39 49 49 37 53 39 44 46 42 37 32 14 20 17 10 6 6 3 0 0 0 1 0 0 0 0 0 0 0 0 0 0 0 0 0 0 0 0 0 0 0 0 0 0 0 0 0 0 0 0 0 0 0 0 0 0 0 0 0 0 0 0 0 0 0 0 0 0 0 0 0 0 0 0 0 0 0 0 0 0 1 6 4 8 9 6 11 15 17 25 21 17 25 33 31 40 29 34
51 48 53 53 40 39 36 41 40 40 37 29 31 20 24 16 10 11 2 4 2 0 2 0 0 0 0 0 0 0 0 0 0 0 0 0 0 0 0 0 0 0 0 0 0 0 0 0 0 0 0 0 0 0 0 0 0 0 0 0 0 0 0 0 0 0 0 0 0 0 0 0 0 0 0 0 0 0 0 0 1 1 1 4 1 6 9 12 18 16 17 19 19 26 23 21 26 18 35 39
39 34 35 32 43 40 41 37 43 40 38 36 31 23 25 15 17 13 6 2 1 1 0 1 0 0 0 0 0 0 0 0 0 0 0 0 0 0 0 0 0 0 0 0 0 0 0 0 0 0 0 0 0 0 0 0 0 0 0 0 0 0 0 0 0 0 0 0 0 0 0 0 0 0 0 0 0 0 0 0 0 0 2 3 6 5 11 10 11 18 16 16 20 22 28 32 28 30 27 39
34 31 45 45 44 31 43 39 41 46 37 32 34 40 40 22 20 16 12 2 1 4 2 2 0 0 0 0 0 0 0 0 0 0 0 0 0 0 0 0 0 0 0 0 0 0 0 0 0 0 0 0 0 0 0 0 0 0 0 0 0 0 0 0 0 0 0 0 0 0 0 0 0 0 0 0 0 0 0 0 0 2 2 2 2 9 7 8 11 15 14 12 12 24 26 26 29 18 28 38
36 38 35 36 27 30 41 42 39 35 42 37 48 38 25 19 14 13 6 3 2 2 2 2 0 0 0 0 0 0 0 0 0 0 0 0 0 0 0 0 0 0 0 0 0 0 0 0 0 0 0 0 0 0 0 0 0 0 0 0 0 0 0 0 0 0 0 0 0 0 0 0 0 0 0 0 0 0 0 0 0 1 1 2 3 3 10 9 9 14 13 15 16 19 23 21 34 31 36 26
21 32 28 39 40 41 37 46 47 49 43 55 46 49 29 19 20 22 8 5 3 1 3 2 0 0 0 0 0 0 0 0 0 0 0 0 0 0 0 0 0 0 0 0 0 0 0 0 0 0 0 0 0 0 0 0 0 0 0 0 0 0 0 0 0 0 0 0 0 0 0 0 0 0 0 0 0 0 0 0 0 1 1 2 3 3 3 6 14 9 9 6 7 19 21 17 19 29 27 37
28 33 25 34 34 27 42 36 62 41 42 46 44 52 34 29 11 13 9 6 5 4 3 1 0 1 1 0 0 0 0 0 0 0 0 0 0 0 0 0 0 0 0 0 0 0 0 0 0 0 0 0 0 0 0 0 0 0 0 0 0 0 0 0 0 0 0 0 0 0 0 0 0 0 0 0 0 0 0 0 0 0 0 0 1 1 2 10 3 8 5 12 14 10 27 15 24 22 27 23
17 24 33 35 31 52 45 40 47 37 35 53 43 51 30 22 20 14 13 6 7 2 2 2 2 4 1 0 0 1 0 0 0 0 0 0 0 0 0 0 0 0 0 0 0 0 0 0 0 0 0 0 0 0 0 0 0 0 0 0 0 0 0 0 0 0 0 0 0 0 0 0 0 0 0 0 0 0 0 0 0 0 0 0 0 0 1 4 7 7 2 8 10 7 15 14 15 14 13 20
18 28 30 30 36 43 57 49 29 43 34 46 34 44 34 32 17 16 12 11 11 9 3 3 1 3 2 0 1 0 0 0 0 1 0 0 0 0 0 0 0 0 0 0 0 0 0 0 0 0 0 0 0 0 0 0 0 0 0 0 0 0 0 0 0 0 0 0 0 0 0 0 0 0 0 0 0 0 0 0 0 0 0 0 0 1 1 0 2 10 6 6 14 7 5 14 18 14 13 18
21 25 29 41 33 41 38 33 22 16 41 40 41 23 33 33 21 18 15 9 14 12 4 3 2 3 3 0 0 0 3 1 0 0 0 0 0 0 0 0 0 0 0 0 0 0 0 0 0 0 0 0 0 0 0 0 0 0 0 0 0 0 0 0 0 0 0 0 0 0 0 0 0 0 0 0 0 0 0 0 0 0 0 0 0 0 4 3 6 8 5 6 3 5 7 6 5 14 14 13
18 14 25 25 37 37 31 34 42 35 30 44 33 53 28 27 20 16 5 14 8 5 1 2 3 3 2 3 3 3 2 1 0 0 0 0 0 0 0 0 0 0 0 0 0 0 0 0 0 0 0 0 0 0 0 0 0 0 0 0 0 0 0 0 0 0 0 0 0 0 0 0 0 0 0 0 0 0 0 0 0 0 0 0 0 0 0 3 2 4 3 2 1 4 3 4 4 11 12 8
3 17 18 16 29 19 22 25 32 25 28 28 38 26 30 26 22 15 13 11 9 8 4 3 2 2 1 3 5 4 2 3 1 0 0 0 0 0 0 0 0 0 0 0 0 0 0 0 0 0 0 0 0 0 0 0 0 0 0 0 0 0 0 0 0 0 0 0 0 0 0 0 0 0 0 0 0 0 0 0 0 0 0 0 0 1 0 1 5 2 0 3 1 7 5 3 7 7 6 6
7 11 8 17 15 9 28 17 29 25 34 24 22 34 17 20 24 20 21 12 11 6 9 5 8 5 4 2 3 2 1 1 0 0 1 0 0 0 0 0 0 0 0 0 0 0 0 0 0 0 0 0 0 0 0 0 0 0 0 0 0 0 0 0 0 0 0 0 0 0 0 0 0 0 0 0 0 0 0 0 0 0 0 0 0 0 0 4 0 0 0 0 1 1 1 0 3 4 1 4
6 6 8 17 11 13 16 20 11 19 30 23 21 26 14 19 28 25 24 14 12 10 9 8 8 10 7 3 2 2 1 1 1 1 0 0 0 0 0 0 0 0 0 0 0 0 0 0 0 0 0 0 0 0 0 0 0 0 0 0 0 0 0 0 0 0 0 0 0 0 0 0 0 0 0 0 0 0 0 0 0 0 0 0 0 0 0 0 0 0 0 1 0 3 0 1 5 3 3 5
1 4 6 8 3 10 10 10 22 20 16 15 12 13 20 25 24 39 33 19 14 21 19 8 8 7 7 4 5 1 0 1 2 0 0 1 0 0 0 0 0 0 0 0 0 0 0 0 0 0 0 0 0 0 0 0 0 0 0 0 0 0 0 0 0 0 0 0 0 0 0 0 0 0 0 0 0 0 0 0 0 0 0 0 0 0 0 0 0 0 0 0 1 4 3 3 5 1 1 1
2 4 4 4 3 5 7 9 12 14 13 18 12 8 11 8 16 25 38 23 28 27 19 20 16 11 10 12 7 6 3 4 1 1 0 0 0 2 0 0 0 0 0 0 0 0 0 0 0 0 0 0 0 0 0 0 0 0 0 0 0 0 0 0 0 0 0 0 0 0 0 0 0 0 0 0 0 0 0 0 0 0 0 0 0 0 0 0 0 0 0 0 0 1 1 1 2 1 0 1
0 2 2 3 3 0 8 5 6 7 16 6 7 14 9 17 15 26 34 35 26 19 10 18 15 17 11 12 5 0 4 2 4 0 0 0 1 1 0 0 0 0 0 0 0 0 0 0 0 1 0 0 0 0 0 0 0 0 0 0 0 0 0 0 0 0 0 0 0 0 0 0 0 0 0 0 0 0 0 0 0 0 0 0 0 0 0 0 0 0 0 0 0 1 1 0 2 1 0 2
2 4 2 2 2 2 1 3 4 5 3 5 8 4 13 21 18 23 36 31 20 27 31 24 12 15 23 23 10 7 5 6 1 1 2 1 0 0 0 0 0 0 0 0 0 0 0 0 0 0 0 0 0 0 0 0 0 0 0 0 0 0 0 0 0 0 0 0 0 0 0 0 0 0 0 0 0 0 0 0 0 0 0 0 0 0 0 0 0 0 0 0 0 0 0 2 1 1 0 1
1 1 1 3 1 3 3 0 1 5 3 7 9 6 6 13 29 25 21 20 37 37 36 39 41 29 29 20 17 10 8 7 5 3 1 3 2 1 1 0 0 0 0 0 0 0 0 0 0 1 0 1 0 0 0 0 0 0 0 0 0 0 0 0 0 0 0 0 0 0 0 0 0 0 0 0 0 0 0 0 0 0 0 0 0 0 0 0 0 0 0 0 0 0 0 2 1 1 2 1
0 1 0 0 1 2 5 1 5 2 2 12 7 8 3 9 16 12 21 34 34 48 46 63 56 55 38 21 27 26 16 12 14 1 3 8 1 1 3 1 0 0 0 1 0 0 0 2 1 1 0 0 0 0 0 0 0 0 0 0 0 0 0 0 0 0 0 0 0 0 0 0 0 0 0 0 0 0 0 0 0 0 0 0 0 0 0 0 0 0 0 0 0 0 0 0 0 2 1 0
0 0 0 1 0 1 0 3 4 3 4 1 4 7 6 9 7 13 19 18 24 38 60 73 72 74 70 62 45 39 37 14 13 13 7 5 5 5 1 2 0 0 0 0 2 1 0 1 1 2 1 0 0 0 0 0 0 0 0 0 0 0 0 0 0 0 0 0 0 0 0 0 0 0 0 0 0 0 0 0 0 0 0 0 0 0 0 0 0 0 0 0 0 0 0 0 0 0 0 0
0 0 1 0 0 0 0 1 1 3 2 7 7 1 3 5 12 15 16 16 18 31 59 70 80 76 104 103 80 77 47 43 28 17 17 10 9 6 4 7 3 2 4 1 0 0 0 2 2 1 2 0 0 0 0 0 0 0 0 0 0 0 0 0 0 0 0 0 0 0 0 0 0 0 0 0 0 0 0 0 0 0 0 0 0 0 0 0 0 0 0 0 0 0 0 0 0 0 1 0
0 0 1 3 0 0 1 0 0 3 2 6 5 6 2 5 5 7 7 13 26 35 59 82 84 119 155 176 160 118 92 71 50 44 28 29 16 13 11 8 8 4 4 6 3 3 3 3 1 4 1 2 3 2 0 0 0 0 0 0 0 0 0 0 0 0 0 0 0 0 0 0 0 0 0 0 0 0 0 0 0 0 0 0 0 0 0 0 0 0 0 0 0 0 0 0 0 0 0 0
1 1 2 2 1 2 3 2 2 2 1 8 2 4 3 3 6 2 4 10 17 38 54 63 89 146 184 245 249 187 169 114 105 69 54 42 34 31 5 8 13 5 8 4 8 6 6 8 2 5 3 1 1 2 2 1 0 0 0 0 1 0 0 0 0 0 0 0 0 0 0 0 0 0 0 0 0 0 0 0 0 0 0 0 0 0 0 0 0 0 0 0 0 0 0 0 0 0 0 0
0 0 1 0 0 0 2 1 1 0 0 2 2 1 1 2 2 3 4 13 19 15 41 56 93 181 275 327 342 351 277 216 165 136 96 70 60 51 21 18 13 24 15 7 9 6 13 11 6 4 2 3 5 1 1 1 1 0 0 1 0 0 1 0 0 0 0 0 0 0 0 0 0 0 0 0 0 0 0 0 0 0 0 0 0 0 0 0 0 0 0 0 0 0 0 0 0 0 0 0
0 0 0 0 1 0 0 0 1 0 3 3 2 1 0 1 1 3 3 8 9 28 43 50 79 112 220 403 454 408 365 369 234 208 145 122 72 51 41 30 33 22 23 13 18 15 15 3 6 6 2 7 3 4 4 1 0 1 0 0 0 0 0 0 0 0 0 0 0 0 0 0 0 0 0 0 0 0 0 0 0 0 0 0 0 0 0 0 0 0 0 0 0 0 0 0 0 0 0 0
0 1 1 2 0 0 0 0 0 0 0 1 3 1 1 0 1 2 4 6 9 28 22 37 62 106 159 327 437 557 476 397 369 290 198 173 113 97 80 49 34 33 24 20 21 25 15 13 16 9 13 7 5 9 4 1 0 0 1 0 4 1 0 0 0 0 0 0 0 0 0 0 0 0 0 0 0 0 0 0 0 0 0 0 0 0 0 0 0 0 0 0 0 0 0 0 0 0 1 0
0 0 1 0 1 0 0 0 0 0 0 1 3 1 1 0 1 0 5 2 6 12 24 22 43 91 157 249 379 454 556 515 449 419 313 236 173 175 105 74 74 61 47 34 32 21 22 29 20 21 11 8 9 9 2 2 1 2 2 0 1 1 0 0 0 0 0 0 0 0 0 0 0 0 0 0 0 0 0 0 0 0 0 0 0 0 0 0 0 0 0 0 0 0 0 0 0 0 0 1
0 2 1 0 0 0 0 0 0 0 1 1 1 2 0 0 0 0 1 2 10 9 12 23 42 81 113 217 284 429 537 522 511 447 395 357 258 196 166 111 91 70 59 55 46 50 35 40 38 29 22 14 11 7 9 7 4 2 2 3 1 2 0 0 0 1 0 0 0 0 0 0 0 0 0 0 0 0 0 0 0 0 0 0 0 0 0 0 0 0 0 0 0 0 0 0 0 0 0 0
1 0 1 0 1 0 0 1 0 0 0 0 0 0 0 0 0 0 0 1 5 4 11 25 23 64 87 159 243 341 448 549 568 579 515 515 369 298 229 175 131 123 77 76 78 45 48 59 58 50 29 23 17 18 16 9 4 2 6 3 2 3 2 0 1 0 0 0 1 0 0 0 0 0 0 0 0 0 0 0 0 0 0 0 0 0 0 0 0 0 0 0 0 0 0 0 0 0 0 0
0 0 0 0 0 0 0 0 0 0 0 0 0 0 0 0 0 0 0 3 4 3 9 16 34 51 71 110 187 282 369 477 620 638 717 625 503 404 318 226 175 122 116 83 91 81 69 94 75 48 47 32 26 23 19 10 10 8 5 1 4 5 4 4 1 1 0 1 0 0 0 0 0 0 0 0 0 0 0 0 0 0 0 0 0 0 0 0 0 0 0 0 0 0 0 0 0 0 0 0
0 0 0 0 0 0 0 0 0 0 0 0 0 0 0 0 0 0 0 0 1 2 8 6 22 43 59 72 146 196 329 408 584 684 758 632 593 514 403 303 250 194 164 132 105 109 115 111 101 66 82 46 37 37 27 18 12 6 4 3 3 10 4 1 3 0 1 0 2 0 0 0 0 0 0 0 0 0 0 0 0 0 0 0 0 0 0 0 0 0 0 0 0 0 0 0 0 0 0 0
0 0 0 0 0 0 0 0 0 0 0 0 0 0 0 0 0 0 0 0 0 0 1 6 18 37 42 89 126 159 243 345 459 603 671 778 656 588 460 417 313 254 215 197 181 157 140 129 139 109 81 84 41 48 43 29 19 14 7 5 7 6 6 9 6 3 0 1 2 0 0 1 0 0 0 0 0 0 0 0 0 0 0 0 0 0 0 0 0 0 0 0 0 0 0 0 0 0 0 0
0 0 0 0 0 0 0 0 0 0 0 0 0 0 0 0 0 0 0 1 0 1 1 5 7 28 30 61 82 139 168 253 363 455 592 731 660 718 521 418 395 295 267 259 221 179 172 168 177 122 124 94 81 65 48 43 24 10 17 8 12 3 5 7 2 3 2 0 1 0 0 0 0 0 0 0 0 0 0 0 0 0 0 0 0 0 0 0 0 0 0 0 0 0 0 0 0 0 0 0
0 0 0 0 0 0 0 0 0 0 0 0 0 0 0 0 0 0 0 0 0 0 0 2 7 17 39 44 70 79 138 185 269 384 541 638 732 649 637 520 471 407 340 276 227 219 228 201 197 180 166 133 102 82 75 50 31 13 16 14 14 9 6 12 5 6 4 3 2 0 0 0 0 0 0 0 0 0 0 0 0 0 0 0 0 0 0 0 0 0 0 0 0 0 0 0 0 0 0 0
0 0 0 0 0 0 0 0 0 0 0 0 0 0 0 0 0 0 0 0 1 0 2 3 8 12 24 41 60 55 100 134 221 257 401 477 561 613 618 561 472 478 395 322 279 292 285 227 250 198 191 166 136 130 95 73 41 32 29 14 22 8 6 11 6 8 4 5 4 4 0 0 0 0 0 0 0 0 0 0 0 0 0 0 0 0 0 0 0 0 0 0 0 0 0 0 0 0 0 0
0 0 0 0 0 0 0 0 0 0 0 0 0 0 0 0 0 0 0 0 0 1 3 5 10 8 14 25 47 45 77 83 148 226 269 364 432 520 559 594 543 514 460 398 372 320 321 296 298 258 229 223 157 141 104 82 54 53 48 32 22 24 8 9 5 6 4 3 2 1 0 0 0 0 0 0 0 0 0 0 0 0 0 0 0 0 0 0 0 0 0 0 0 0 0 0 0 0 0 0
0 0 0 0 0 0 0 0 0 0 0 0 0 0 0 0 0 0 0 0 0 0 1 4 3 5 14 23 22 40 63 86 114 188 236 271 369 443 492 554 567 562 488 459 444 436 432 378 331 332 321 266 217 185 126 113 99 66 49 56 40 29 19 5 10 13 6 5 5 0 0 0 0 0 0 0 0 0 0 0 0 0 0 0 0 0 0 0 0 0 0 0 0 0 0 0 0 0 0 0
0 0 0 0 0 0 0 0 0 0 0 0 0 0 0 0 0 0 0 0 0 0 0 1 5 7 3 20 29 41 47 80 112 145 192 233 304 384 452 498 555 565 627 568 561 539 512 501 428 394 346 318 254 243 174 131 125 88 66 43 37 30 30 15 12 5 6 8 9 4 1 0 0 0 0 0 0 0 0 0 0 0 0 0 0 0 0 0 0 0 0 0 0 0 0 0 0 0 0 0
0 0 0 0 0 0 0 0 0 0 0 0 0 0 0 0 0 0 0 0 0 1 1 2 7 9 8 12 14 39 47 63 89 113 154 191 243 338 407 426 549 605 590 630 665 671 657 599 581 502 425 408 379 290 242 174 113 93 78 75 51 45 34 28 23 11 11 4 8 2 2 2 0 0 0 0 0 0 0 0 0 0 0 0 0 0 0 0 0 0 0 0 0 0 0 0 0 0 0 0
0 0 0 0 0 0 0 0 0 0 0 0 0 0 0 0 0 0 0 0 0 0 0 3 3 11 9 6 15 27 37 63 75 136 171 179 251 306 344 397 473 579 615 675 765 738 682 733 695 569 598 523 452 368 293 233 170 127 112 69 63 56 38 31 27 27 15 5 5 7 2 0 0 0 0 0 0 0 0 0 0 0 0 0 0 0 0 0 0 0 0 0 0 0 0 0 0 0 0 0
0 0 0 0 0 0 0 0 0 0 0 0 0 0 0 0 0 0 0 0 0 1 2 2 6 7 11 14 18 21 39 48 75 124 143 189 191 240 307 383 441 513 633 739 791 873 958 883 819 744 681 664 562 486 391 289 241 183 138 111 103 76 60 46 32 26 18 16 6 4 0 2 0 0 0 0 0 0 0 0 0 0 0 0 0 0 0 0 0 0 0 0 0 0 0 0 0 0 0 0
0 0 0 0 0 0 0 0 0 0 0 0 0 0 0 0 0 0 0 0 0 0 0 0 2 8 7 12 16 18 33 39 82 93 119 155 178 239 327 345 381 498 606 772 868 998 983 999 1019 963 881 768 681 511 448 361 309 255 184 161 123 91 73 47 46 28 23 13 11 7 3 4 0 0 0 0 0 0 0 0 0 0 0 0 0 0 0 0 0 0 0 0 0 0 0 0 0 0 0 0
0 0 0 0 0 0 0 0 0 0 0 0 0 0 0 0 0 0 0 0 0 0 0 0 2 3 8 12 8 23 21 41 54 91 127 142 197 237 256 310 416 495 618 780 923 1015 1136 1189 1122 1110 1018 847 844 709 579 438 386 279 254 203 126 118 96 72 43 32 26 20 17 9 11 1 1 0 0 0 0 0 0 0 0 0 0 0 0 0 0 0 0 0 0 0 0 0 0 0 0 0 0 0
0 0 0 0 0 0 0 0 0 0 0 0 0 0 0 0 0 0 0 0 0 0 0 2 3 1 5 9 9 11 23 44 60 62 105 147 187 202 262 337 396 466 609 715 904 1033 1216 1353 1244 1294 1111 1060 938 813 785 538 432 315 263 223 154 145 90 93 52 38 44 25 15 8 7 4 4 1 1 0 0 0 0 0 0 0 0 0 0 0 0 0 0 0 0 0 0 0 0 0 0 0 0 0
0 0 0 0 0 0 0 0 0 0 0 0 0 0 0 0 0 0 0 0 0 0 0 0 2 3 4 8 9 15 30 24 47 66 86 119 179 199 227 271 336 458 626 668 814 1035 1106 1282 1314 1338 1292 1136 1093 962 788 637 517 412 339 281 225 195 133 101 70 48 40 35 22 9 7 7 0 1 0 0 0 0 0 0 0 0 0 0 0 0 0 0 0 0 0 0 0 0 0 0 0 0 0 0
0 0 0 0 0 0 0 0 0 0 0 0 0 0 0 0 0 0 0 0 0 0 0 0 5 6 8 7 3 17 14 22 42 50 64 100 144 173 182 257 318 405 516 676 814 919 1111 1243 1347 1374 1310 1302 1218 1042 860 712 587 475 378 292 212 182 139 115 70 66 57 29 25 17 14 7 6 2 0 0 0 0 0 0 0 0 0 0 0 0 0 0 0 0 0 0 0 0 0 0 0 0 0 0
0 0 0 0 0 0 0 0 0 0 0 0 0 0 0 0 0 0 0 0 0 0 0 0 3 2 5 8 3 12 12 18 30 59 63 91 134 155 174 246 266 360 476 554 640 831 1010 1209 1287 1359 1402 1395 1314 1148 969 787 676 505 423 340 294 215 159 153 98 84 48 49 33 15 13 9 4 5 2 0 0 0 0 0 0 0 0 0 0 0 0 0 0 0 0 0 0 0 0 0 0 0 0 0
0 0 0 0 0 0 0 0 0 0 0 0 0 0 0 0 0 0 0 0 0 0 0 0 3 1 3 5 3 8 8 10 27 40 63 79 85 135 173 199 277 328 428 514 647 767 911 1113 1185 1321 1384 1451 1293 1239 1058 856 703 552 462 382 296 224 193 144 117 108 83 51 33 25 10 6 6 6 2 1 0 0 0 0 0 0 0 0 0 0 0 0 0 0 0 0 0 0 0 0 0 0 0 0
0 0 0 0 0 0 0 0 0 0 0 0 0 0 0 0 0 0 0 0 0 0 0 0 0 4 0 2 0 1 5 15 25 47 42 66 81 109 138 163 241 322 359 466 601 653 833 963 1080 1216 1288 1386 1341 1194 1025 845 762 629 549 417 305 237 223 165 137 102 74 59 40 24 14 6 12 6 2 2 1 0 0 0 0 0 0 0 0 0 0 0 0 0 0 0 0 0 0 0 0 0 0 0
0 0 0 0 0 0 0 0 0 0 0 0 0 0 0 0 0 0 0 0 0 0 0 0 0 4 3 2 1 5 1 11 15 27 31 46 77 104 101 125 212 237 319 414 507 600 734 835 985 1026 1172 1194 1208 1147 1036 863 768 647 532 433 366 259 247 210 153 100 83 51 45 27 23 5 7 5 3 1 0 0 0 0 0 0 0 0 0 0 0 0 0 0 0 0 0 0 0 0 0 0 0 0
0 0 0 0 0 0 0 0 0 0 0 0 0 0 0 0 0 0 0 0 0 0 0 0 0 2 1 0 4 0 6 6 17 26 30 51 52 75 101 106 137 200 262 303 392 466 599 660 815 913 1001 1072 1085 1097 995 830 794 672 510 423 347 287 223 232 165 122 91 55 47 36 26 13 7 11 4 2 0 0 0 0 0 0 0 0 0 0 0 0 0 0 0 0 0 0 0 0 0 0 0 0
0 0 0 0 0 0 0 0 0 0 0 0 0 0 0 0 0 0 0 0 0 0 0 0 1 1 0 2 4 2 6 12 15 33 21 36 41 56 64 72 108 131 202 256 293 359 439 528 590 682 810 852 901 930 884 789 775 625 542 389 364 331 262 217 167 140 108 65 61 55 30 20 13 8 5 1 1 0 0 0 0 0 0 0 0 0 0 0 0 0 0 0 0 0 0 0 0 0 0 0
0 0 0 0 0 0 0 0 0 0 0 0 0 0 0 0 0 0 0 0 0 0 0 0 0 1 1 0 1 1 2 3 10 16 11 15 33 35 47 52 88 123 151 184 275 293 376 412 522 565 647 689 794 791 750 735 738 663 552 494 453 350 303 247 183 137 113 93 69 57 34 30 15 13 5 7 1 0 0 0 0 0 0 0 0 0 0 0 0 0 0 0 0 0 0 0 0 0 0 0
0 0 0 0 0 0 0 0 0 0 0 0 0 0 0 0 0 0 0 0 0 0 0 0 0 1 1 0 0 1 3 3 8 12 11 14 19 20 31 50 57 77 106 130 166 235 296 350 387 434 514 581 654 643 675 633 596 655 566 463 450 408 345 257 203 174 147 115 69 62 32 23 16 7 11 6 1 0 0 0 0 0 0 0 0 0 0 0 0 0 0 0 0 0 0 0 0 0 0 0
0 0 0 0 0 0 0 0 0 0 0 0 0 0 0 0 0 0 0 0 0 0 0 0 0 2 1 1 1 2 2 1 4 3 8 10 22 13 26 35 55 60 76 105 172 175 234 267 318 327 394 501 521 551 614 583 572 558 579 504 536 448 386 328 252 206 173 142 76 71 55 41 25 10 5 10 2 0 0 0 0 0 0 0 0 0 0 0 0 0 0 0 0 0 0 0 0 0 0 0
0 0 0 0 0 0 0 0 0 0 0 0 0 0 0 0 0 0 0 0 0 0 0 0 0 0 0 3 2 2 1 2 1 1 3 6 8 17 16 12 34 51 63 92 117 162 171 245 261 295 341 353 387 428 503 457 507 522 526 591 572 530 453 390 331 234 187 143 107 75 49 38 38 8 4 7 2 1 0 0 1 0 0 0 0 0 0 0 0 0 0 0 0 0 0 0 0 0 0 0
0 0 0 0 0 0 0 0 0 0 0 0 0 0 0 0 0 0 0 0 0 0 0 0 0 0 2 2 1 0 0 1 0 7 4 5 8 11 11 17 26 40 46 55 82 104 147 132 212 256 269 335 312 360 375 425 431 427 531 595 632 676 576 515 404 340 209 187 126 80 72 54 46 15 9 8 3 1 1 0 0 0 0 0 0 0 0 0 0 0 0 0 0 0 0 0 0 0 0 0
0 0 0 0 0 0 0 0 0 0 0 0 0 0 0 0 0 0 0 0 0 0 0 0 0 0 1 0 0 0 2 0 2 3 1 3 2 10 11 15 19 21 27 36 45 92 111 120 169 193 238 265 273 289 295 329 382 409 475 541 678 763 735 627 540 460 293 219 160 109 76 70 50 15 8 6 4 1 2 0 0 0 0 0 0 0 0 0 0 0 0 0 0 0 0 0 0 0 0 0
0 0 0 0 0 0 0 0 0 0 0 0 0 0 0 0 0 0 0 0 0 0 0 0 1 0 2 3 2 0 0 0 2 0 4 3 4 8 6 19 9 14 25 40 49 65 79 108 132 166 186 180 220 230 243 263 274 329 371 488 610 762 790 755 668 538 390 266 173 146 126 68 60 25 15 15 11 5 1 2 0 0 0 0 0 0 0 0 0 0 0 0 0 0 0 0 0 0 0 0
0 0 0 0 0 0 0 0 0 0 0 0 0 0 0 0 0 0 0 0 0 0 0 0 0 0 1 2 3 0 2 2 2 1 0 0 2 7 6 3 4 5 13 24 37 49 58 85 101 127 138 160 171 179 208 250 236 265 327 409 518 628 817 817 786 691 511 359 254 175 136 113 80 33 19 18 9 6 2 0 0 0 0 0 0 0 0 0 0 0 0 0 0 0 0 0 0 0 0 0
0 0 0 0 0 0 0 0 0 0 0 0 0 0 0 0 0 0 0 0 0 0 0 0 0 0 0 1 2 1 1 2 5 0 1 1 1 2 3 5 5 6 5 20 27 46 37 69 77 75 112 114 140 135 137 186 213 228 285 322 361 556 618 789 927 826 693 467 306 243 151 119 77 58 30 15 13 5 3 0 0 0 0 0 0 0 0 0 0 0 0 0 0 0 0 0 0 0 0 0
0 0 0 0 0 0 0 0 0 0 0 0 0 0 0 0 0 0 0 0 0 0 0 0 1 0 0 2 0 0 0 0 1 2 2 2 0 4 4 5 3 7 5 16 12 26 34 51 57 68 72 96 104 121 123 142 167 156 250 253 334 441 560 634 803 890 774 617 430 317 259 133 99 62 26 25 9 6 1 1 0 0 0 0 0 0 0 0 0 0 0 0 0 0 0 0 0 0 0 0
0 0 0 0 0 0 0 0 0 0 0 0 0 0 0 0 0 0 0 0 0 0 0 0 0 0 0 0 0 0 0 0 0 2 1 0 0 0 2 5 4 4 4 4 11 27 18 39 51 54 54 76 72 108 93 113 119 143 194 215 247 320 408 564 651 747 788 701 561 398 271 167 129 80 60 25 10 6 3 2 1 0 0 0 0 0 0 0 0 0 0 0 0 0 0 0 0 0 0 0
0 0 0 0 0 0 0 0 0 0 0 0 0 0 0 0 0 0 0 0 0 0 0 0 0 0 0 0 0 0 0 0 0 0 0 1 3 0 1 1 0 3 4 6 10 10 21 36 38 40 49 58 54 75 66 73 88 78 119 161 185 234 304 378 515 610 752 768 634 504 349 243 167 78 54 38 10 8 2 3 2 1 0 0 0 0 0 0 0 0 0 0 0 0 0 0 0 0 0 0
0 0 0 0 0 0 0 0 0 0 0 0 0 0 0 0 0 0 0 0 0 0 0 0 0 0 0 0 0 0 0 0 0 0 0 0 0 0 0 0 2 6 3 6 5 13 25 13 25 26 26 21 36 39 59 60 73 76 74 128 120 191 208 269 351 481 567 655 684 534 410 284 193 115 62 38 15 11 6 6 3 4 0 0 0 0 0 0 0 0 0 0 0 0 0 0 0 0 0 0
0 0 0 0 0 0 0 0 0 0 0 0 0 0 0 0 0 0 0 0 0 0 0 0 0 0 0 0 0 0 0 0 0 1 0 1 0 0 1 0 1 5 2 3 8 8 13 20 8 14 17 23 31 33 29 46 44 51 78 75 84 107 136 195 240 320 429 519 591 573 479 411 272 168 97 59 35 19 7 8 1 2 0 0 0 0 0 0 0 0 0 0 0 0 0 0 0 0 0 0
0 0 0 0 0 0 0 0 0 0 0 0 0 0 0 0 0 0 0 0 0 0 0 0 0 0 0 0 0 0 0 0 0 0 0 0 0 0 0 0 1 3 4 2 5 5 5 12 6 13 12 19 21 20 34 31 27 23 41 39 84 65 85 155 173 217 290 390 441 502 505 443 314 196 136 81 40 16 12 7 2 1 1 0 0 0 0 0 0 0 0 0 0 0 0 0 0 0 0 0
0 0 0 0 0 0 0 0 0 0 0 0 0 0 0 0 0 0 0 0 0 0 0 0 0 0 0 0 0 0 0 0 0 0 0 0 0 0 1 0 2 3 0 1 2 7 9 9 5 9 10 13 11 17 19 19 21 28 29 28 46 55 64 89 101 145 186 231 281 419 449 445 370 254 158 93 60 20 15 10 5 0 2 0 0 0 0 0 0 0 0 0 0 0 0 0 0 0 0 0
0 0 0 0 0 0 0 0 0 0 0 0 0 0 0 0 0 0 0 0 0 0 0 0 0 0 0 0 0 0 0 0 0 0 0 0 0 0 0 0 0 1 0 2 2 1 5 6 4 5 9 5 10 9 12 7 15 13 26 27 38 35 50 55 64 90 119 170 212 265 343 379 343 269 208 128 72 45 15 9 4 4 2 1 0 0 0 1 1 0 0 0 0 0 0 0 0 0 0 0
0 0 0 0 0 0 0 0 0 0 0 0 0 0 0 0 0 0 0 0 0 0 0 0 0 0 0 0 0 0 0 0 0 0 0 0 0 0 0 0 0 0 0 0 1 0 1 0 2 2 5 8 10 3 7 8 5 13 9 11 15 17 14 24 37 43 68 116 137 192 208 231 247 228 179 142 100 49 18 11 2 5 1 1 0 0 0 1 1 0 0 0 0 0 0 0 0 0 0 0
0 0 0 0 0 0 0 0 0 0 0 0 0 0 0 0 0 0 0 0 0 0 0 0 0 0 0 0 0 0 0 0 0 0 0 0 0 0 0 0 0 0 0 0 1 1 0 0 2 0 3 6 5 3 4 0 6 8 8 5 8 10 18 14 19 39 52 70 65 97 143 146 182 151 185 162 113 99 25 24 7 5 3 1 4 3 1 4 2 2 0 1 0 0 0 0 0 0 0 0
0 0 0 0 0 0 0 0 0 0 0 0 0 0 0 0 0 0 0 0 0 0 0 0 0 0 0 0 0 0 0 0 0 0 0 0 0 0 0 0 0 0 0 0 1 1 1 0 2 2 0 0 1 3 3 4 2 4 7 7 6 5 9 11 10 17 27 40 53 83 63 89 116 135 157 129 108 78 38 16 16 9 4 3 3 2 1 4 1 1 1 0 0 0 0 0 0 0 0 0
0 0 0 0 0 1 0 0 0 0 0 0 0 0 0 0 0 0 0 0 0 0 0 0 0 0 0 0 0 0 0 0 0 0 0 0 0 0 0 0 0 1 0 1 2 0 0 0 0 2 1 0 0 1 0 2 3 1 4 3 3 1 6 10 5 17 23 23 34 38 33 41 61 94 97 112 89 52 40 31 18 11 2 5 4 0 3 7 2 2 1 1 0 0 0 0 0 0 0 1
0 1 0 0 0 1 0 0 0 0 0 0 0 0 0 0 0 0 0 0 0 0 0 0 0 0 0 0 0 0 0 0 0 0 0 0 0 0 0 0 0 0 0 1 1 1 0 0 0 0 0 0 0 0 0 2 0 0 2 3 2 2 6 5 6 0 8 17 29 24 26 34 39 48 72 54 48 43 27 16 15 13 6 6 3 4 4 4 1 0 1 0 2 0 0 0 0 0 0 0
1 1 0 3 4 1 0 0 0 0 0 0 0 0 0 0 0 0 0 0 0 0 0 0 0 0 0 0 0 0 0 0 0 0 0 0 0 0 0 0 0 0 0 1 1 0 1 0 0 0 0 0 0 0 0 0 3 0 0 1 1 0 0 1 1 2 5 6 6 10 12 18 24 17 28 27 42 23 22 13 11 9 11 11 6 6 4 4 3 3 2 2 1 1 0 0 0 2 0 0
0 0 0 1 0 0 1 0 0 1 1 0 0 0 0 0 0 0 0 0 0 0 0 0 0 0 0 0 0 0 0 0 0 0 0 0 0 0 0 0 0 0 0 0 0 0 0 0 0 0 0 0 0 0 0 0 1 1 0 0 0 2 2 0 2 1 3 4 5 10 4 6 18 14 27 25 17 14 17 19 13 11 19 19 7 4 11 7 3 8 8 4 1 3 1 1 2 1 1 0
1 0 0 0 1 1 3 0 0 1 0 1 0 0 0 0 0 0 0 0 0 0 0 0 0 0 0 0 0 0 0 0 0 0 0 0 0 0 0 0 0 0 0 0 0 0 0 0 0 0 0 0 0 0 0 1 0 1 1 0 0 0 1 0 0 2 0 3 6 4 3 5 6 7 16 8 19 14 17 15 13 15 18 12 10 12 10 13 3 4 5 6 5 4 6 1 4 1 0 0
1 0 1 1 1 4 4 2 1 1 1 0 0 0 0 0 0 0 0 0 0 0 0 0 0 0 0 0 0 0 0 0 0 0 0 0 0 0 0 0 0 0 0 0 0 0 0 0 0 0 0 0 0 0 0 0 0 0 0 3 0 0 0 0 0 1 1 1 1 0 5 4 7 4 3 7 18 9 13 22 29 20 16 20 17 16 11 17 5 12 7 7 9 8 6 6 4 5 2 1
5 4 4 3 4 4 2 0 1 2 0 0 0 1 0 0 0 0 0 0 0 0 0 0 0 0 0 0 0 0 0 0 0 0 0 0 0 0 0 0 0 0 0 0 0 0 0 0 0 0 0 0 0 0 0 0 1 2 0 1 1 0 0 0 0 0 0 0 0 2 3 8 6 5 2 3 10 9 9 19 11 12 20 14 9 16 14 18 17 6 9 11 11 10 11 12 8 1 4 3
5 5 5 14 3 2 3 4 3 0 1 1 0 1 0 0 0 0 0 0 0 0 0 0 0 0 0 0 0 0 0 0 0 0 0 0 0 0 0 0 0 0 0 0 0 0 0 0 0 0 0 0 0 0 0 0 0 0 0 2 0 0 0 0 0 0 0 1 0 4 5 4 7 4 3 1 2 6 5 11 19 16 11 19 12 17 18 15 18 10 11 13 11 10 11 11 10 6 4 4
3 6 9 5 3 3 2 3 2 1 2 0 0 1 0 0 0 0 0 0 0 0 0 0 0 0 0 0 0 0 0 0 0 0 0 0 0 0 0 0 0 0 0 0 0 0 0 0 0 0 0 0 0 0 0 0 0 0 0 0 0 0 0 0 0 0 0 0 3 0 2 1 1 2 3 1 6 5 5 12 11 14 14 11 21 22 26 30 22 21 11 11 12 9 12 17 12 10 7 5
14 15 4 6 6 6 2 1 4 3 1 3 0 1 0 0 0 0 0 0 0 0 0 0 0 0 0 0 0 0 0 0 0 0 0 0 0 0 0 0 0 0 0 0 0 0 0 0 0 0 0 0 0 0 0 0 0 0 0 0 0 0 0 0 0 2 0 1 1 2 3 1 0 0 2 1 3 2 5 10 16 20 14 13 20 28 22 19 16 23 22 26 23 21 15 16 20 18 14 16
20 11 9 8 6 6 6 2 2 1 3 3 1 0 0 0 0 0 0 0 0 0 0 0 0 0 0 0 0 0 0 0 0 0 0 0 0 0 0 0 0 0 0 0 0 0 0 0 0 0 0 0 0 0 0 0 0 0 0 0 0 0 1 0 0 0 0 0 1 0 1 1 3 3 1 0 1 1 5 9 7 18 11 20 29 46 35 26 28 28 30 37 12 15 26 28 26 17 24 16
17 17 12 9 11 4 0 2 5 3 4 3 1 2 0 0 0 0 0 0 0 0 0 0 0 0 0 0 0 0 0 0 0 0 0 0 0 0 0 0 0 0 0 0 0 0 0 0 0 0 0 0 0 0 0 0 0 0 0 0 0 0 0 0 0 1 0 0 0 0 3 1 4 2 1 1 0 4 2 6 10 18 20 26 35 49 35 36 39 31 18 34 27 17 22 27 23 18 28 19
16 18 15 15 12 8 4 5 5 2 1 2 3 1 1 0 0 0 0 0 0 0 0 0 0 0 0 0 0 0 0 0 0 0 0 0 0 0 0 0 0 0 0 0 0 0 0 0 0 0 0 0 0 0 0 0 0 0 0 0 0 0 0 0 0 1 0 0 2 0 1 2 3 3 3 2 1 0 0 5 5 19 21 24 23 24 36 42 42 22 33 32 38 29 20 35 24 21 29 20
27 18 21 21 12 10 8 10 7 8 2 4 2 1 1 0 0 0 0 0 0 0 0 0 0 0 0 0 0 0 0 0 0 0 0 0 0 0 0 0 0 0 0 0 0 0 0 0 0 0 0 0 0 0 0 0 0 0 0 0 0 0 0 0 0 0 1 1 0 2 1 2 3 3 1 0 2 0 2 4 5 8 25 30 23 29 42 35 43 25 32 19 38 38 25 27 20 26 26 26
16 18 29 16 20 16 13 8 12 6 3 5 4 1 1 0 0 1 0 0 0 0 0 0 0 0 0 0 0 0 0 0 0 0 0 0 0 0 0 0 0 0 0 0 0 0 0 0 0 0 0 0 0 0 0 0 0 0 0 0 0 0 0 0 0 2 3 0 2 1 0 1 2 2 0 2 1 0 4 5 8 17 10 18 14 16 35 36 35 27 39 22 26 31 30 27 36 29 23 24
34 29 24 14 15 18 11 10 8 15 1 5 4 1 0 0 0 0 0 0 0 0 0 0 0 0 0 0 0 0 0 0 0 0 0 0 0 0 0 0 0 0 0 0 0 0 0 0 0 0 0 0 0 0 0 0 0 0 0 0 0 0 0 0 0 0 0 0 2 0 2 0 0 1 0 4 1 3 4 5 4 12 17 15 11 16 33 26 25 38 33 38 27 32 25 34 26 23 25 21
31 27 21 21 15 15 7 10 12 10 4 2 3 4 2 0 0 0 1 1 1 0 0 0 0 0 0 0 0 0 0 0 0 0 0 0 0 0 0 0 0 0 0 0 0 0 0 0 0 0 0 0 0 0 0 0 0 0 0 0 0 0 0 0 0 0 0 0 0 1 0 0 0 0 2 2 4 1 2 6 3 19 18 11 18 23 19 36 42 32 43 39 36 38 32 38 28 17 16 24
36 33 19 23 17 14 17 15 10 14 3 5 4 9 4 1 5 0 0 0 0 0 0 0 0 0 0 0 0 0 0 0 0 0 0 0 0 0 0 0 0 0 0 0 0 0 0 0 0 0 0 0 0 0 0 0 0 0 0 0 0 0 0 0 0 0 0 0 0 0 1 0 1 0 0 2 1 4 5 3 11 8 12 5 18 18 27 25 37 36 41 24 42 34 34 24 32 28 25 23
27 20 29 15 27 13 26 14 20 19 15 9 2 3 3 1 3 1 1 0 2 1 1 0 0 0 0 0 0 0 0 0 0 0 0 0 0 0 0 0 0 0 0 0 0 0 0 0 0 0 0 0 0 0 0 0 0 0 0 0 0 0 0 0 0 0 0 0 0 0 0 0 0 0 0 0 4 5 4 0 7 12 10 10 8 10 22 27 39 36 29 35 27 29 29 32 32 32 46 37
32 28 25 24 23 27 22 23 30 17 6 11 6 4 4 4 1 1 0 2 3 0 0 0 0 0 0 0 0 0 0 0 0 0 0 0 0 0 0 0 0 0 0 0 0 0 0 0 0 0 0 0 0 0 0 0 0 0 0 0 0 0 0 0 0 0 0 0 0 0 0 1 0 0 0 2 0 2 4 3 2 8 5 3 7 10 17 25 28 41 36 33 33 37 24 37 43 39 40 20
29 25 32 32 24 20 28 28 25 25 23 11 7 3 1 1 2 0 0 4 1 0 3 0 0 0 0 0 0 0 0 0 0 0 0 0 0 0 0 0 0 0 0 0 0 0 0 0 0 0 0 0 0 0 0 0 0 0 0 0 0 0 0 0 0 0 0 0 0 0 0 0 0 0 0 0 0 1 6 3 5 6 6 7 8 9 18 16 29 35 29 21 28 36 35 51 36 44 44 33
36 41 33 30 31 23 29 26 17 17 18 19 13 3 7 0 2 2 0 1 0 1 0 0 0 0 0 0 0 0 0 0 0 0 0 0 0 0 0 0 0 0 0 0 0 0 0 0 0 0 0 0 0 0 0 0 0 0 0 0 0 0 0 0 0 0 0 0 0 0 0 0 0 0 0 0 0 1 1 3 2 4 4 6 10 8 16 19 16 25 21 28 36 34 44 27 32 55 30 37
33 20 39 29 25 35 30 33 15 32 22 9 19 13 11 5 5 0 2 0 0 0 0 0 0 0 0 0 0 0 0 0 0 0 0 0 0 0 0 0 0 0 0 0 0 0 0 0 0 0 0 0 0 0 0 0 0 0 0 0 0 0 0 0 0 0 0 0 0 0 0 0 0 0 0 0 0 2 0 1 6 3 6 6 9 13 14 15 22 24 27 33 31 33 37 33 42 37 38 37
28 30 47 26 41 40 41 42 32 35 22 10 15 10 13 8 3 0 0 0 0 0 0 0 0 0 0 0 0 0 0 0 0 0 0 0 0 0 0 0 0 0 0 0 0 0 0 0 0 0 0 0 0 0 0 0 0 0 0 0 0 0 0 0 0 0 0 0 0 0 0 0 0 0 0 0 0 0 1 0 1 2 7 3 6 15 15 16 17 29 24 16 27 30 29 19 24 25 40 31
