#lt    40.0
#count pbc
#dt    1.0
#dn    40
#edges  -33.962735 -33.2834803 -32.6042256 -31.9249709 -31.2457162 -30.5664615 -29.8872068 -29.2079521 -28.5286974 -27.8494427 -27.170188 -26.4909333 -25.8116786 -25.1324239 -24.4531692 -23.7739145 -23.0946598 -22.4154051 -21.7361504 -21.0568957 -20.377641 -19.6983863 -19.0191316 -18.3398769 -17.6606222 -16.9813675 -16.3021128 -15.6228581 -14.9436034 -14.2643487 -13.585094 -12.9058393 -12.2265846 -11.5473299 -10.8680752 -10.1888205 -9.5095658 -8.8303111 -8.1510564 -7.4718017 -6.792547 -6.1132923 -5.4340376 -4.7547829 -4.0755282 -3.3962735 -2.7170188 -2.0377641 -1.3585094 -0.6792547 6.39488462184e-14 0.6792547 1.3585094 2.0377641 2.7170188 3.3962735 4.0755282 4.7547829 5.4340376 6.1132923 6.792547 7.4718017 8.1510564 8.8303111 9.5095658 10.1888205 10.8680752 11.5473299 12.2265846 12.9058393 13.585094 14.2643487 14.9436034 15.6228581 16.3021128 16.9813675 17.6606222 18.3398769 19.0191316 19.6983863 20.377641 21.0568957 21.7361504 22.4154051 23.0946598 23.7739145 24.4531692 25.1324239 25.8116786 26.4909333 27.170188 27.8494427 28.5286974 29.2079521 29.8872068 30.5664615 31.2457162 31.9249709 32.6042256 33.2834803 33.962735
30 55 53 58 40 60 44 48 29 33 27 25 17 10 11 8 6 3 3 1 1 0 0 0 0 0 0 0 0 0 0 0 0 0 0 0 0 0 0 0 0 0 0 0 0 0 0 0 0 0 0 0 0 0 0 0 0 0 0 0 0 0 0 0 0 0 0 0 0 0 0 0 0 0 0 0 0 0 0 2 2 2 3 1 3 13 11 24 25 22 23 27 27 35 36 30 46 57 44 38
53 66 52 50 53 47 56 39 46 27 25 12 18 10 8 10 9 10 4 0 0 0 0 0 0 0 0 0 0 0 0 0 0 0 0 0 0 0 0 0 0 0 0 0 0 0 0 0 0 0 0 0 0 0 0 0 0 0 0 0 0 0 0 0 0 0 0 0 0 0 0 0 0 0 0 0 0 0 0 1 0 2 6 4 6 8 19 13 14 28 22 28 30 22 42 44 40 55 56 48
45 51 47 57 43 57 57 53 52 38 48 20 23 16 10 15 9 6 5 1 0 0 0 0 0 0 0 0 0 0 0 0 0 0 0 0 0 0 0 0 0 0 0 0 0 0 0 0 0 0 0 0 0 0 0 0 0 0 0 0 0 0 0 0 0 0 0 0 0 0 0 0 0 0 0 0 0 0 0 0 0 1 2 4 6 4 7 11 15 22 16 20 29 26 27 38 52 48 45 49
40 44 39 52 48 63 69 53 43 38 35 39 23 19 18 10 11 6 3 3 0 1 0 0 0 0 0 0 0 0 0 0 0 0 0 0 0 0 0 0 0 0 0 0 0 0 0 0 0 0 0 0 0 0 0 0 0 0 0 0 0 0 0 0 0 0 0 0 0 0 0 0 0 0 0 0 0 0 0 0 1 1 2 2 1 2 1 9 12 13 14 15 25 30 31 34 41 51 43 56
43 44 50 51 64 59 72 54 37 39 36 32 34 30 21 17 9 6 3 0 0 1 0 0 1 0 0 0 0 0 0 0 0 0 0 0 0 0 0 0 0 0 0 0 0 0 0 0 0 0 0 0 0 0 0 0 0 0 0 0 0 0 0 0 0 0 0 0 0 0 0 0 0 0 0 0 0 0 0 2 0 0 1 1 0 3 3 2 10 13 21 26 16 28 34 44 25 38 45 47
39 50 49 66 65 63 66 58 45 37 43 41 35 33 25 16 10 10 2 1 1 1 0 1 1 0 0 0 0 0 0 0 0 0 0 0 0 0 0 0 0 0 0 0 0 0 0 0 0 0 0 0 0 0 0 0 0 0 0 0 0 0 0 0 0 0 0 0 0 0 0 0 0 0 0 0 0 0 0 0 0 1 0 0 0 4 0 7 5 13 13 13 15 20 34 25 29 40 44 57
40 44 47 61 77 54 80 65 56 38 42 45 54 21 29 20 15 10 6 1 2 0 0 0 1 0 1 0 0 0 0 0 0 0 0 0 0 0 0 0 0 0 0 0 0 0 0 0 0 0 0 0 0 0 0 0 0 0 0 0 0 0 0 0 0 0 0 0 0 0 0 0 0 0 0 0 0 0 0 0 0 0 0 1 1 0 1 3 5 8 13 9 21 14 26 33 27 48 45 56
45 52 48 46 56 60 71 53 54 55 42 34 30 35 26 14 14 14 10 4 2 1 0 0 1 0 0 0 0 0 0 0 0 0 0 0 0 0 0 0 0 0 0 0 0 0 0 0 0 0 0 0 0 0 0 0 0 0 0 0 0 0 0 0 0 0 0 0 0 0 0 0 0 0 0 0 0 0 0 0 0 0 0 0 0 2 1 2 5 8 8 13 16 15 21 24 40 27 33 32
39 35 49 41 52 44 53 59 58 36 44 37 38 38 14 24 17 14 2 2 2 1 0 0 0 0 0 0 0 0 0 0 0 0 0 0 0 0 0 0 0 0 0 0 0 0 0 0 0 0 0 0 0 0 0 0 0 0 0 0 0 0 0 0 0 0 0 0 0 0 0 0 0 0 0 0 0 0 0 0 0 0 0 0 2 2 2 3 3 5 6 6 11 8 14 13 23 21 42 37
36 43 46 37 34 38 38 40 44 39 31 48 28 38 32 30 16 22 9 2 2 2 1 1 1 0 0 0 0 0 0 0 1 1 0 0 0 0 1 0 0 0 0 0 0 0 0 0 0 0 0 0 0 0 0 0 0 0 0 0 0 0 0 0 0 0 0 0 0 0 0 0 0 0 0 0 0 0 0 0 0 0 0 0 0 1 3 2 6 1 5 6 6 5 10 16 24 23 28 31
21 26 35 44 31 49 46 51 40 39 32 42 34 51 34 38 17 16 8 8 4 3 3 3 2 3 1 2 0 0 1 0 1 0 0 1 0 0 0 0 0 0 0 0 0 0 0 0 0 0 0 0 0 0 0 0 0 0 0 0 0 0 0 0 0 0 0 0 0 0 0 0 0 0 0 0 0 0 0 0 0 0 0 0 0 0 1 4 5 2 0 3 7 6 7 7 11 15 22 17
24 33 34 38 42 29 34 19 37 38 31 37 35 50 45 38 30 31 6 9 5 4 1 3 1 1 2 0 0 0 1 0 0 0 1 1 2 2 0 1 0 0 0 0 0 0 0 0 0 0 0 0 0 0 0 0 0 0 0 0 0 0 0 0 0 0 0 0 0 0 0 0 0 0 0 0 0 0 0 0 0 0 0 1 0 1 2 1 2 3 1 6 4 6 11 6 8 8 25 15
17 16 28 30 24 23 27 36 31 43 39 51 51 60 50 34 18 23 10 4 4 5 1 2 3 1 0 0 0 0 0 0 0 1 1 1 1 0 1 0 0 0 0 0 0 0 0 0 0 0 0 0 0 0 0 0 0 0 0 0 0 0 0 0 0 0 0 0 0 0 0 0 0 0 0 0 0 0 0 0 0 0 0 0 0 1 1 3 2 2 1 6 4 5 9 7 9 11 17 18
16 16 19 18 20 28 39 27 27 38 38 48 52 44 44 46 28 16 19 6 7 6 4 4 1 0 0 1 0 1 0 1 0 1 0 0 2 0 3 2 0 0 0 0 0 0 0 0 0 0 0 0 0 0 0 0 0 0 0 0 0 0 0 0 0 0 0 0 0 0 0 0 0 0 0 0 0 0 0 0 0 0 0 0 0 0 2 1 1 2 3 2 5 2 4 6 6 7 8 19
12 15 20 17 17 23 29 27 25 18 42 35 45 50 33 49 23 24 10 9 7 3 1 6 1 2 0 0 0 0 3 0 0 0 0 0 1 0 1 0 0 0 0 0 0 0 0 0 0 0 0 0 0 0 0 0 0 0 0 0 0 0 0 0 0 0 0 0 0 0 0 0 0 0 0 0 0 0 0 0 0 0 0 0 0 0 1 0 3 1 2 0 4 2 6 5 3 5 11 11
9 7 12 13 12 15 22 17 30 26 37 44 39 24 39 29 18 11 18 16 10 8 1 7 5 5 4 2 4 0 2 0 0 0 0 0 1 0 0 0 1 0 0 0 0 1 0 0 0 0 0 0 0 0 0 0 0 0 0 0 0 0 0 0 0 0 0 0 0 0 0 0 0 0 0 0 0 0 0 0 0 0 0 0 0 0 0 0 0 2 1 1 1 0 1 6 4 6 14 11
3 3 1 10 6 9 12 17 8 19 29 28 34 30 29 17 18 10 11 14 7 10 5 3 4 1 1 2 1 3 2 2 0 0 0 0 1 0 3 0 3 0 0 0 0 0 0 0 0 0 0 0 0 0 0 0 0 0 0 0 0 0 0 0 0 0 0 0 0 0 0 0 0 0 0 0 0 0 0 0 0 0 0 0 0 0 0 0 1 0 0 0 0 1 1 1 4 3 2 0
5 5 3 5 5 8 7 3 11 15 15 13 26 30 21 33 13 10 11 14 9 3 9 5 8 1 5 3 6 3 2 3 0 0 0 0 0 1 0 1 1 1 0 1 0 0 0 0 1 0 0 0 0 0 0 0 0 0 0 0 0 0 0 0 0 0 0 0 0 0 0 0 0 0 0 0 0 0 0 0 0 0 0 0 0 0 0 0 2 2 0 1 0 0 0 1 0 0 1 5
0 3 2 1 2 3 0 10 2 8 11 18 14 10 24 15 8 9 20 20 16 5 9 7 6 2 6 9 4 7 4 1 0 0 0 0 0 1 0 4 0 6 0 0 0 0 0 0 0 0 0 0 0 0 0 0 0 0 0 0 0 0 0 0 0 0 0 0 0 0 0 0 0 0 0 0 0 0 0 0 0 0 0 0 0 0 0 0 0 2 1 1 0 0 0 0 1 0 0 2
0 1 1 2 1 3 1 7 3 5 4 4 8 7 12 13 11 12 18 23 23 14 16 7 3 7 7 2 6 4 4 2 0 0 0 0 0 0 0 0 0 0 0 0 0 0 0 0 0 0 0 0 0 0 0 0 0 0 0 0 0 0 0 0 0 0 0 0 0 0 0 0 0 0 0 0 0 0 0 0 0 0 0 0 0 0 0 0 0 1 2 1 0 0 0 0 0 0 0 0
0 1 1 2 1 1 1 0 6 4 6 2 4 6 7 3 5 9 18 25 27 20 16 17 16 5 11 9 8 8 6 2 1 0 2 0 0 1 0 0 0 0 0 0 0 0 0 0 0 0 0 0 0 0 0 0 0 0 0 0 0 0 0 0 0 0 0 0 0 0 0 0 0 0 0 0 0 0 0 0 0 0 0 0 0 0 0 0 0 0 0 0 0 0 0 0 0 0 0 0
1 2 0 2 0 1 0 1 1 4 1 5 9 5 7 6 11 15 14 13 22 23 13 19 10 5 13 10 16 16 6 8 5 1 1 0 0 0 0 1 0 1 0 0 0 0 0 0 0 0 0 0 0 0 0 0 0 0 0 0 0 0 0 0 0 0 0 0 0 0 0 0 0 0 0 0 0 0 0 0 0 0 0 0 0 0 0 0 0 0 0 0 0 0 0 0 0 0 0 0
0 0 0 0 1 0 1 0 0 1 0 1 0 2 0 1 11 8 11 17 18 28 21 12 22 14 21 19 22 14 15 11 9 2 1 1 4 1 0 0 0 2 0 0 0 0 0 0 0 0 0 0 0 0 0 0 0 0 0 0 0 0 0 0 0 0 0 0 0 0 0 0 0 0 0 0 0 0 0 0 0 0 0 0 0 0 0 0 0 0 0 0 0 0 0 0 0 0 0 0
1 0 0 0 0 0 0 1 1 0 1 5 3 5 1 4 3 5 10 12 16 27 26 27 23 48 50 42 43 40 35 27 16 9 4 8 6 3 0 3 2 1 0 0 0 0 1 0 0 0 0 0 0 0 0 0 0 0 0 0 0 0 0 0 0 0 0 0 0 0 0 0 0 0 0 0 0 0 0 0 0 0 0 0 0 0 0 0 0 0 0 0 0 0 0 0 0 0 0 1
0 0 0 0 0 2 0 0 0 2 2 1 3 3 2 1 6 1 10 8 19 12 20 39 58 103 101 83 78 58 43 29 32 21 17 8 4 6 2 2 1 1 0 0 0 1 0 0 0 0 0 0 0 0 0 0 0 0 0 0 0 0 0 0 0 0 0 0 0 0 0 0 0 0 0 0 0 0 0 0 0 0 0 0 0 0 0 0 0 0 0 0 0 0 0 0 0 0 0 0
0 0 0 0 0 0 0 0 0 2 3 1 4 1 2 2 2 5 6 4 10 17 13 52 105 150 187 171 136 116 86 66 33 39 18 11 8 5 2 4 3 7 2 2 2 0 0 2 0 1 0 0 0 0 1 0 0 0 0 0 0 0 0 0 0 0 0 0 0 0 0 0 0 0 0 0 0 0 0 0 0 0 0 0 0 0 0 0 0 0 0 0 0 0 0 0 0 0 0 0
0 0 0 0 1 1 0 2 1 2 2 1 1 1 1 1 5 4 9 5 6 15 21 63 100 168 302 307 283 220 158 107 78 57 29 26 21 16 11 2 4 3 4 1 3 0 0 0 3 2 0 3 1 0 1 1 1 0 0 0 0 0 0 0 0 0 0 0 0 0 0 0 0 0 0 0 0 0 0 0 0 0 0 0 0 0 0 0 0 0 0 0 0 0 0 0 0 0 0 0
0 0 1 1 1 1 1 1 1 1 0 1 1 0 0 3 4 4 4 2 5 11 21 55 108 167 283 369 394 316 277 222 158 99 54 49 37 32 16 13 9 4 3 2 10 4 4 4 3 3 2 0 2 2 0 0 0 0 0 0 0 0 0 0 0 0 0 0 0 0 0 0 0 0 0 0 0 0 0 0 0 0 0 0 0 0 0 0 0 0 0 0 0 0 0 0 0 0 0 0
0 0 0 3 3 1 2 0 2 2 0 0 1 0 3 2 7 5 5 3 7 9 20 38 73 168 259 338 450 519 459 371 282 178 145 116 71 54 41 30 14 10 14 13 6 8 8 5 6 6 2 8 2 2 3 1 0 1 0 0 0 0 0 0 0 0 0 0 0 0 0 0 0 0 0 0 0 0 0 0 0 0 0 0 0 0 0 0 0 0 0 0 0 0 0 0 0 0 0 0
0 0 0 0 0 0 1 1 0 0 0 0 0 1 0 1 1 0 2 3 0 3 10 20 65 124 204 340 478 639 692 528 384 293 227 160 140 81 72 43 26 33 18 26 15 13 7 10 11 9 6 4 0 1 1 1 0 0 0 0 0 0 0 0 0 0 0 0 0 0 0 0 0 0 0 0 0 0 0 0 0 0 0 0 0 0 0 0 0 0 0 0 0 0 0 0 0 0 0 0
0 0 0 0 0 0 0 0 0 0 0 0 0 0 0 1 0 0 1 1 1 7 7 22 51 77 161 255 445 643 752 759 606 424 339 233 208 125 102 81 55 50 45 39 31 26 17 16 12 12 7 3 11 7 0 2 0 0 0 1 0 0 0 0 0 0 0 0 0 0 0 0 0 0 0 0 0 0 0 0 0 0 0 0 0 0 0 0 0 0 0 0 0 0 0 0 0 0 0 0
0 0 0 0 0 0 0 0 0 0 0 0 0 0 0 0 0 0 0 1 1 4 9 25 34 52 110 213 358 504 701 730 705 614 456 340 268 220 151 109 102 62 55 52 45 36 36 17 23 22 15 13 8 13 4 1 1 2 0 1 0 0 0 0 0 0 0 0 0 0 0 0 0 0 0 0 0 0 0 0 0 0 0 0 0 0 0 0 0 0 0 0 0 0 0 0 0 0 0 0
0 0 0 0 0 0 0 0 0 0 0 0 0 0 0 0 0 0 0 0 2 6 7 6 27 38 76 138 269 383 560 699 825 822 718 505 349 262 200 197 133 105 92 65 62 48 56 30 29 37 26 15 9 11 5 6 3 0 0 1 0 0 1 4 0 1 0 0 0 0 0 0 0 0 0 0 0 0 0 0 0 0 0 0 0 0 0 0 0 0 0 0 0 0 0 0 0 0 0 0
0 0 0 0 0 0 0 0 0 0 0 0 0 0 0 0 0 0 0 0 2 2 3 24 14 31 44 106 182 278 454 581 812 869 879 630 480 364 278 190 143 128 117 99 79 67 55 48 43 42 38 29 31 17 8 5 8 2 0 0 2 2 2 3 1 0 0 0 0 0 0 0 0 0 0 0 0 0 0 0 0 0 0 0 0 0 0 0 0 0 0 0 0 0 0 0 0 0 0 0
0 0 0 0 0 0 0 0 0 0 0 0 0 0 0 0 0 0 0 0 0 7 7 15 7 23 58 73 141 201 308 438 658 837 929 792 627 500 391 293 233 198 164 127 96 95 77 63 63 57 57 45 39 17 22 9 8 6 7 4 4 0 1 1 1 0 0 0 0 0 0 0 0 0 0 0 0 0 0 0 0 0 0 0 0 0 0 0 0 0 0 0 0 0 0 0 0 0 0 0
0 0 0 0 0 0 0 0 0 0 0 0 0 0 0 0 0 0 0 1 7 3 4 6 11 22 34 65 95 147 221 296 492 628 786 850 781 605 454 378 286 224 211 159 150 111 123 111 86 90 84 62 47 30 26 12 15 12 9 2 0 3 1 2 0 0 0 0 0 0 0 0 0 0 0 0 0 0 0 0 0 0 0 0 0 0 0 0 0 0 0 0 0 0 0 0 0 0 0 0
0 0 0 0 0 0 0 0 0 0 0 0 0 0 0 0 0 0 1 1 3 0 5 5 4 16 29 39 57 140 158 215 309 498 630 761 771 733 546 497 346 291 233 236 185 204 165 161 137 112 90 68 55 45 36 25 18 10 13 6 5 5 5 0 3 1 0 0 0 0 0 0 0 0 0 0 0 0 0 0 0 0 0 0 0 0 0 0 0 0 0 0 0 0 0 0 0 0 0 0
0 0 0 0 0 0 0 0 0 0 0 0 0 0 0 0 0 0 1 0 1 0 8 2 2 8 17 32 50 93 124 180 282 329 499 619 703 639 624 549 448 388 318 254 243 248 220 196 168 171 123 108 82 63 54 21 22 25 23 14 2 5 7 2 1 0 1 0 0 0 0 0 0 0 0 0 0 0 0 0 0 0 0 0 0 0 0 0 0 0 0 0 0 0 0 0 0 0 0 0
0 0 0 0 0 0 0 0 0 0 0 0 0 0 0 0 0 0 0 0 1 0 2 3 2 6 13 26 42 51 111 137 186 261 334 423 522 612 642 618 542 489 387 335 307 292 261 268 228 197 163 148 111 81 68 48 34 31 14 11 11 6 1 2 2 1 1 1 1 0 0 0 0 0 0 0 0 0 0 0 0 0 0 0 0 0 0 0 0 0 0 0 0 0 0 0 0 0 0 0
0 0 0 0 0 0 0 0 0 0 0 0 0 0 0 0 0 0 0 0 1 3 5 3 0 10 8 20 29 55 63 109 172 218 290 343 427 524 583 663 564 553 514 399 409 353 325 306 260 265 212 163 119 120 87 62 65 49 27 22 19 14 12 4 5 4 1 1 0 0 0 0 0 0 0 0 0 0 0 0 0 0 0 0 0 0 0 0 0 0 0 0 0 0 0 0 0 0 0 0
0 0 0 0 0 0 0 0 0 0 0 0 0 0 0 0 0 0 0 0 0 1 1 2 3 3 7 16 25 34 56 89 107 143 207 280 351 499 503 578 626 655 555 492 459 458 370 363 340 315 278 223 188 149 109 87 75 55 36 29 24 19 12 9 4 2 3 1 2 0 0 0 0 0 0 0 0 0 0 0 0 0 0 0 0 0 0 0 0 0 0 0 0 0 0 0 0 0 0 0
0 0 0 0 0 0 0 0 0 0 0 0 0 0 0 0 0 0 0 0 0 1 0 1 2 2 5 15 21 39 44 82 96 119 183 206 258 337 457 539 588 697 656 613 605 528 517 481 446 439 351 333 273 192 182 138 131 69 59 33 31 27 21 7 6 3 1 3 2 1 0 0 0 0 0 0 0 0 0 0 0 0 0 0 0 0 0 0 0 0 0 0 0 0 0 0 0 0 0 0
0 0 0 0 0 0 0 0 0 0 0 0 0 0 0 0 0 0 0 0 0 0 0 0 0 3 5 9 22 28 46 64 86 98 130 203 234 300 360 495 615 711 766 759 696 674 605 593 527 538 425 367 300 233 200 162 133 105 80 63 31 33 29 14 11 3 4 4 1 0 0 0 0 0 0 0 0 0 0 0 0 0 0 0 0 0 0 0 0 0 0 0 0 0 0 0 0 0 0 0
0 0 0 0 0 0 0 0 0 0 0 0 0 0 0 0 0 0 0 0 0 1 0 0 0 2 0 9 19 24 48 50 79 87 134 148 237 278 328 406 500 615 745 737 810 849 719 753 669 602 562 516 422 314 284 188 169 139 110 74 54 39 30 24 11 6 2 3 3 0 1 2 1 0 0 0 0 0 0 0 0 0 0 0 0 0 0 0 0 0 0 0 0 0 0 0 0 0 0 0
0 0 0 0 0 0 0 0 0 0 0 0 0 0 0 0 0 0 0 0 0 0 0 2 1 1 5 7 12 18 29 48 60 90 104 181 205 271 304 379 508 572 723 809 914 938 896 890 860 775 724 627 515 465 311 282 202 171 121 95 75 49 37 23 16 12 6 8 5 1 0 2 0 0 0 0 0 0 0 0 0 0 0 0 0 0 0 0 0 0 0 0 0 0 0 0 0 0 0 0
0 0 0 0 0 0 0 0 0 0 0 0 0 0 0 0 0 0 0 0 0 0 1 1 0 2 1 3 13 13 26 49 54 81 128 152 173 237 305 342 400 535 642 750 980 1024 1067 1047 1023 965 931 756 618 539 416 324 274 213 176 112 116 55 24 23 16 20 12 5 6 2 5 4 0 0 0 0 0 0 0 0 0 0 0 0 0 0 0 0 0 0 0 0 0 0 0 0 0 0 0 0
0 0 0 0 0 0 0 0 0 0 0 0 0 0 0 0 0 0 0 0 0 0 0 0 0 1 3 7 12 15 16 33 46 73 88 133 168 235 265 332 416 478 632 755 937 1054 1149 1120 1122 1068 1015 905 812 663 568 435 339 268 202 158 121 83 58 39 25 14 13 6 5 11 4 1 1 2 0 0 0 0 0 0 0 0 0 0 0 0 0 0 0 0 0 0 0 0 0 0 0 0 0 0
0 0 0 0 0 0 0 0 0 0 0 0 0 0 0 0 0 0 0 0 0 0 0 1 0 2 6 8 10 11 18 38 50 52 75 104 164 208 257 295 353 445 561 777 934 1042 1139 1230 1294 1255 1193 1097 1032 776 651 513 411 310 237 193 173 99 84 65 35 31 16 4 15 5 5 3 2 0 0 0 0 0 0 0 0 0 0 0 0 0 0 0 0 0 0 0 0 0 0 0 0 0 0 0
0 0 0 0 0 0 0 0 0 0 0 0 0 0 0 0 0 0 0 0 0 0 0 0 2 4 2 4 10 8 14 33 45 58 68 122 164 171 225 257 336 459 540 664 809 1007 1200 1310 1354 1361 1284 1151 1028 931 752 620 470 389 317 259 192 135 115 71 60 42 21 15 12 9 7 6 0 0 0 0 0 0 0 0 0 0 0 0 0 0 0 0 0 0 0 0 0 0 0 0 0 0 0 0
0 0 0 0 0 0 0 0 0 0 0 0 0 0 0 0 0 0 0 0 0 0 0 1 0 1 2 2 5 9 6 19 34 46 60 97 108 142 210 221 282 392 504 658 723 964 1118 1247 1320 1542 1478 1376 1276 1070 903 725 550 449 391 332 234 198 124 81 53 42 39 25 19 9 10 5 1 0 2 1 0 0 0 0 0 0 0 0 0 0 0 0 0 0 0 0 0 0 0 0 0 0 0 0
0 0 0 0 0 0 0 0 0 0 0 0 0 0 0 0 0 0 0 0 0 0 0 0 0 2 4 2 5 5 12 6 31 37 46 57 105 127 161 211 244 282 429 569 672 849 1088 1242 1345 1474 1557 1505 1311 1155 953 828 648 528 458 344 257 216 149 121 49 45 36 25 21 24 20 6 6 3 1 0 0 0 0 0 0 0 0 0 0 0 0 0 0 0 0 0 0 0 0 0 0 0 0 0
0 0 0 0 0 0 0 0 0 0 0 0 0 0 0 0 0 0 0 0 0 0 0 0 0 0 0 2 3 9 12 10 28 32 41 56 65 84 132 157 209 301 384 502 660 726 885 1107 1233 1364 1458 1445 1386 1219 1129 886 740 590 474 373 329 225 145 112 70 50 41 29 29 23 18 7 8 1 2 0 0 0 0 0 0 0 0 0 0 0 0 0 0 0 0 0 0 0 0 0 0 0 0 0
0 0 0 0 0 0 0 0 0 0 0 0 0 0 0 0 0 0 0 0 0 0 0 0 0 0 2 1 4 5 14 10 13 24 24 36 62 83 85 143 196 254 292 429 529 675 802 969 1124 1242 1335 1354 1408 1323 1077 890 786 642 499 396 314 250 182 144 93 65 43 35 23 19 15 11 3 4 1 0 1 0 0 0 0 0 0 0 0 0 0 0 0 0 0 0 0 0 0 0 0 0 0 0
0 0 0 0 0 0 0 0 0 0 0 0 0 0 0 0 0 0 0 0 0 0 0 0 0 0 2 1 10 2 5 14 15 10 23 29 43 52 81 104 139 230 272 335 459 520 660 806 878 1052 1132 1254 1297 1209 1163 951 853 666 522 416 298 263 205 137 109 85 53 43 28 23 18 15 6 9 1 0 0 0 0 0 0 0 0 0 0 0 0 0 0 0 0 0 0 0 0 0 0 0 0 0
0 0 0 0 0 0 0 0 0 0 0 0 0 0 0 0 0 0 0 0 0 0 0 0 0 0 2 1 0 1 6 6 7 14 4 22 36 46 58 81 124 158 222 282 331 421 527 691 800 912 989 1020 1064 1136 1133 994 903 750 551 477 380 308 250 175 144 99 71 50 41 26 15 8 7 4 5 2 1 0 1 0 0 0 0 0 0 0 0 0 0 0 0 0 0 0 0 0 0 0 0 0
0 0 0 0 0 0 0 0 0 0 0 0 0 0 0 0 0 0 0 0 0 0 0 0 0 0 0 1 1 0 3 8 12 6 13 10 25 34 38 61 101 134 164 226 314 351 442 517 613 753 838 906 938 955 944 914 812 719 631 543 384 321 226 166 151 107 84 70 48 28 19 11 9 4 3 0 0 1 0 1 0 0 0 0 0 0 0 0 0 0 0 0 0 0 0 0 0 0 0 0
0 0 0 0 0 0 0 0 0 0 0 0 0 0 0 0 0 0 0 0 0 0 0 0 0 0 0 0 0 1 3 0 1 3 5 13 13 22 43 41 74 91 137 155 229 293 368 430 531 581 651 731 779 795 881 939 852 725 661 565 438 352 275 222 161 152 100 69 45 34 25 21 18 6 0 3 1 2 0 0 0 0 0 0 0 0 0 0 0 0 0 0 0 0 0 0 0 0 0 0
0 0 0 0 0 0 0 0 0 0 0 0 0 0 0 0 0 0 0 0 0 0 0 0 0 0 0 0 0 1 3 4 1 3 5 8 15 16 22 39 64 64 112 128 193 193 241 304 393 456 559 566 638 694 781 743 802 774 707 587 526 393 318 241 173 160 104 75 55 43 29 27 19 9 6 5 3 0 4 0 0 0 0 0 0 0 0 0 0 0 0 0 0 0 0 0 0 0 0 0
0 0 0 0 0 0 0 0 0 0 0 0 0 0 0 0 0 0 0 0 0 0 0 0 0 0 0 0 0 1 2 4 3 2 2 5 3 11 19 27 45 65 62 107 150 152 198 243 311 359 407 521 504 554 584 609 625 690 681 691 615 484 415 299 219 184 134 100 81 33 33 28 26 8 6 8 5 1 3 0 0 0 0 0 0 0 0 0 0 0 0 0 0 0 0 0 0 0 0 0
0 0 0 0 0 0 0 0 0 0 0 0 0 0 0 0 0 0 0 0 0 0 0 0 0 0 0 0 0 0 1 2 2 3 0 2 8 11 22 19 32 37 66 73 95 118 161 218 245 244 337 385 467 472 482 494 558 616 675 779 662 610 514 403 276 209 184 131 79 48 43 37 19 6 3 4 5 4 0 0 0 0 0 0 0 0 0 0 0 0 0 0 0 0 0 0 0 0 0 0
0 0 0 0 0 0 0 0 0 0 0 0 0 0 0 0 0 0 0 0 0 0 0 0 0 0 0 0 0 0 0 0 1 2 0 1 3 4 11 22 27 41 37 58 54 107 133 133 174 232 266 291 321 364 394 461 457 545 557 707 725 727 620 494 359 262 190 162 110 81 55 38 21 9 8 6 5 1 1 0 0 0 0 0 0 0 0 0 0 0 0 0 0 0 0 0 0 0 0 0
0 0 0 0 0 0 0 0 0 0 0 0 0 0 0 0 0 0 0 0 0 0 0 0 0 0 0 0 0 0 0 1 0 1 1 1 0 5 9 11 17 23 29 47 64 78 86 110 123 152 197 240 269 273 298 362 409 411 489 565 671 809 766 601 504 351 280 194 139 97 73 41 23 19 4 7 9 6 2 0 0 0 0 0 0 0 0 0 0 0 0 0 0 0 0 0 0 0 0 0
0 0 0 0 0 0 0 0 0 0 0 0 0 0 0 0 0 0 0 0 0 0 0 0 0 0 0 0 0 0 0 0 0 0 0 0 1 2 7 11 13 16 29 32 29 38 57 77 117 122 148 167 180 204 278 252 323 340 420 492 620 774 788 759 607 458 366 270 178 97 68 40 33 11 8 8 7 5 1 0 0 0 0 0 0 0 0 0 0 0 0 0 0 0 0 0 0 0 0 0
0 0 0 0 0 0 0 0 0 0 0 0 0 0 0 0 0 0 0 0 0 0 0 0 0 0 0 0 0 0 0 0 0 0 0 0 0 0 2 1 5 12 11 13 19 25 34 49 68 95 107 139 150 123 195 197 220 250 311 376 465 611 760 832 718 608 525 380 254 175 94 66 34 21 12 11 8 3 4 1 1 0 0 0 0 0 0 0 0 0 0 0 0 0 0 0 0 0 0 0
0 0 0 0 0 0 0 0 0 0 0 0 0 0 0 0 0 0 0 0 0 0 0 0 0 0 0 0 0 0 0 0 0 0 0 0 0 1 0 2 2 5 14 11 13 22 27 34 31 60 62 80 84 95 96 138 162 196 195 296 392 485 620 729 727 717 592 490 339 217 134 95 50 26 12 14 6 1 2 1 0 0 0 0 0 0 0 0 0 0 0 0 0 0 0 0 0 0 0 0
0 0 0 0 0 0 0 0 0 0 0 0 0 0 0 0 0 0 0 0 0 0 0 0 0 0 0 0 0 0 0 0 0 0 0 0 0 0 1 1 0 3 2 4 4 14 16 19 35 46 54 57 52 88 88 100 137 128 171 202 312 356 517 611 671 837 801 726 480 344 202 134 72 56 27 14 5 7 3 0 0 0 0 0 0 0 0 0 0 0 0 0 0 0 0 0 0 0 0 0
0 0 0 0 0 0 0 0 0 0 0 0 0 0 0 0 0 0 0 0 0 0 0 0 0 0 0 0 0 0 0 0 0 0 0 0 0 0 0 0 2 1 0 3 4 7 11 17 25 35 57 41 45 49 84 80 109 133 138 179 235 269 295 450 608 798 829 806 646 481 268 179 116 66 48 19 23 3 0 0 0 0 0 0 0 0 0 0 0 0 0 0 0 0 0 0 0 0 0 0
0 0 0 0 0 0 0 0 0 0 0 0 0 0 0 0 0 0 0 0 0 0 0 0 0 0 0 0 0 0 0 0 0 0 0 0 0 0 0 0 2 2 2 3 3 10 12 15 21 30 24 31 39 28 46 61 80 100 114 151 169 212 286 349 491 653 865 910 764 570 375 245 138 94 43 28 17 9 9 1 1 0 0 0 0 0 0 0 0 0 0 0 0 0 0 0 0 0 0 0
0 0 0 0 0 0 0 0 0 0 0 0 0 0 0 0 0 0 0 0 0 0 0 0 0 0 0 0 0 0 0 0 0 0 0 0 0 0 0 0 0 2 2 1 2 3 11 12 20 20 21 25 16 20 33 36 49 70 82 95 143 150 191 272 314 496 592 734 793 691 442 309 193 124 79 50 28 17 13 3 1 0 0 0 0 0 0 0 0 0 0 0 0 0 0 0 0 0 0 0
0 0 0 0 0 0 0 0 0 0 0 0 0 0 0 0 0 0 0 0 0 0 0 0 0 0 0 0 0 0 0 0 0 0 0 0 0 0 0 1 3 2 5 1 5 6 6 2 6 7 4 8 9 13 19 24 38 52 55 67 95 103 124 196 207 321 419 584 619 610 516 386 226 169 81 70 61 32 8 6 3 0 0 0 0 0 0 0 0 0 0 0 0 0 0 0 0 0 0 0
0 0 0 0 0 0 0 0 0 0 0 0 0 0 0 0 0 0 0 0 0 0 0 0 0 0 0 0 0 0 0 0 0 0 0 0 0 0 0 1 1 1 2 1 1 1 4 3 2 1 3 2 3 4 15 15 15 26 45 55 50 62 92 101 122 223 256 396 498 465 464 432 317 193 126 74 37 30 14 4 3 2 0 0 0 0 0 0 0 0 0 0 0 0 0 0 0 0 0 0
0 0 0 0 0 0 0 0 0 0 0 0 0 0 0 0 0 0 0 0 0 0 0 0 0 0 0 0 0 0 0 0 0 0 0 0 0 0 0 0 0 0 0 0 4 0 1 0 3 0 1 1 2 5 8 15 19 23 33 35 38 31 56 68 88 125 181 243 312 351 402 384 354 299 187 113 68 33 20 11 3 2 0 0 1 1 0 0 0 0 0 0 0 0 0 0 0 0 0 0
0 0 0 0 0 0 0 0 0 0 0 0 0 0 0 0 0 0 0 0 0 0 0 0 0 0 0 0 0 0 0 0 0 0 0 0 0 0 0 0 0 0 0 0 0 0 0 0 1 0 0 2 5 3 4 7 8 11 13 15 28 25 30 43 56 77 103 138 184 238 307 347 404 323 242 125 73 43 26 11 5 8 4 0 2 0 1 2 0 0 0 0 0 0 0 0 0 0 0 0
0 0 0 0 0 0 0 0 0 0 0 0 0 0 0 0 0 0 0 0 0 0 0 0 0 0 0 0 0 0 0 0 0 0 0 0 0 0 0 0 0 0 0 0 0 0 0 2 0 0 3 2 4 4 2 7 13 9 8 19 11 23 24 28 40 54 66 104 112 151 202 243 326 343 267 164 88 50 31 18 5 8 2 0 2 5 1 1 2 0 0 0 0 0 0 0 0 0 0 0
0 0 0 0 0 0 0 0 0 0 0 0 0 0 0 0 0 0 0 0 0 0 0 0 0 0 0 0 0 0 0 0 0 0 0 0 0 0 0 0 0 0 0 0 0 0 0 0 0 1 0 1 1 1 4 8 4 6 8 10 9 11 9 23 23 21 53 73 83 122 121 148 195 254 235 159 92 54 44 14 6 6 5 4 5 1 3 1 1 0 0 0 0 0 0 0 0 0 0 0
0 0 0 0 0 0 0 0 0 0 0 0 0 0 0 0 0 0 0 0 0 0 0 0 0 0 0 0 0 0 0 0 0 0 0 0 0 0 0 0 0 0 0 0 0 0 0 0 1 1 0 0 0 0 2 1 4 7 5 6 5 4 12 9 12 22 25 35 49 55 76 112 142 169 154 130 78 58 50 18 12 10 3 2 6 5 3 1 1 0 0 0 0 0 0 0 0 0 0 0
0 0 0 0 0 0 0 0 0 0 0 0 0 0 0 0 0 0 0 0 0 0 0 0 0 0 0 0 0 0 0 0 0 0 0 0 0 0 0 0 0 0 0 0 0 0 1 0 1 1 0 0 0 0 0 0 2 5 2 4 2 4 3 9 11 8 14 21 23 33 31 60 61 91 102 104 66 52 32 36 17 13 10 4 11 6 5 6 1 1 0 0 0 0 0 0 0 0 0 0
0 0 0 0 0 0 0 0 0 0 0 0 0 0 0 0 0 0 0 0 0 0 0 0 0 0 0 0 0 0 0 0 0 0 0 0 0 0 0 0 0 0 0 0 0 0 0 0 0 0 0 0 0 0 0 1 2 2 2 0 0 0 2 3 2 8 12 14 19 22 22 28 45 44 59 68 43 47 36 35 27 15 12 13 14 4 6 4 1 3 1 1 0 0 0 0 0 0 0 0
0 0 0 0 0 0 0 0 0 0 0 0 0 0 0 0 0 0 0 0 0 0 0 0 0 0 0 0 0 0 0 0 0 0 0 0 0 0 0 0 0 0 0 0 0 0 0 0 0 0 0 0 0 1 0 0 1 0 2 1 1 0 2 0 1 1 5 8 9 9 17 19 13 33 39 33 30 39 36 27 30 25 16 21 16 10 11 4 2 3 4 3 3 1 0 0 0 0 0 0
1 0 0 0 0 0 0 0 0 0 0 0 0 0 0 0 0 0 0 0 0 0 0 0 0 0 0 0 0 0 0 0 0 0 0 0 0 0 0 0 0 0 0 0 0 0 0 0 0 0 0 0 0 0 0 1 0 0 0 0 0 1 0 0 1 2 2 3 3 10 7 4 10 15 14 16 13 27 27 32 30 21 21 20 19 11 13 8 5 10 5 7 3 1 0 0 1 1 0 1
3 0 0 0 0 0 0 0 0 0 0 0 0 0 0 0 0 0 0 0 0 0 0 0 0 0 0 0 0 0 0 0 0 0 0 0 0 0 0 0 0 0 0 0 0 0 0 0 0 0 0 0 0 0 0 1 1 1 0 0 0 0 0 1 2 0 2 1 5 3 3 1 4 7 9 11 10 19 17 13 23 24 20 12 21 12 13 8 6 10 19 8 7 5 0 1 2 0 2 1
5 1 0 0 0 0 0 0 0 0 0 0 0 0 0 0 0 0 0 0 0 0 0 0 0 0 0 0 0 0 0 0 0 0 0 0 0 0 0 0 0 0 0 0 0 0 0 0 0 0 0 0 0 0 0 0 0 0 0 0 0 0 0 1 0 1 0 0 2 1 1 0 1 5 5 4 4 8 11 17 21 18 19 14 16 12 9 21 21 24 11 8 5 6 4 1 4 1 4 3
5 1 0 0 0 0 0 0 0 0 0 0 0 0 0 0 0 0 0 0 0 0 0 0 0 0 0 0 0 0 0 0 0 0 0 0 0 0 0 0 0 0 0 0 0 0 0 0 0 0 0 0 0 0 0 0 0 0 0 0 0 0 2 0 0 0 1 0 2 1 3 1 3 6 8 6 11 18 12 18 12 12 15 19 16 13 14 15 21 17 4 11 11 8 10 3 5 4 2 1
2 4 0 2 1 0 1 0 0 0 0 0 0 0 0 0 0 0 0 0 0 0 0 0 0 0 0 0 0 0 0 0 0 0 0 0 0 0 0 0 0 0 0 0 0 0 0 0 0 0 0 0 0 0 0 0 0 0 0 0 0 1 0 2 2 1 1 0 2 0 0 1 0 4 8 5 9 5 10 8 7 9 9 15 9 24 22 26 19 27 18 19 9 15 6 7 12 8 6 3
17 6 6 2 4 5 3 1 0 0 0 0 0 0 0 0 0 0 0 0 0 0 0 0 0 0 0 0 0 0 0 0 0 0 0 0 0 0 0 0 0 0 0 0 0 0 0 0 0 0 0 0 0 0 0 0 0 0 0 0 0 0 0 1 1 2 1 0 0 0 0 1 1 3 3 6 3 5 6 9 12 18 16 12 23 35 31 35 28 31 24 30 12 21 15 10 5 8 8 7
11 10 10 6 3 4 3 1 0 1 0 0 0 0 0 0 0 0 0 0 0 0 0 0 0 0 0 0 0 0 0 0 0 0 0 0 0 0 0 0 0 0 0 0 0 0 0 0 0 0 0 0 0 0 0 0 0 0 0 0 0 0 0 0 1 0 0 0 0 0 2 1 0 0 3 2 3 5 8 7 13 11 13 11 24 28 27 32 36 28 30 25 23 36 21 8 18 8 21 14
8 18 16 6 6 7 5 4 0 1 2 0 0 0 0 1 0 0 0 0 0 0 0 0 0 0 0 0 0 0 0 0 0 0 0 0 0 0 0 0 0 0 0 0 0 0 0 0 0 0 0 0 0 0 0 0 0 0 0 0 0 0 0 1 0 0 0 1 0 0 1 2 1 0 3 4 4 4 4 15 7 6 15 18 24 25 36 39 29 35 31 35 37 31 35 31 16 20 25 20
21 16 14 6 12 7 5 10 1 1 0 0 0 2 0 0 0 0 0 0 0 0 0 0 0 0 0 0 0 0 0 0 0 0 0 0 0 0 0 0 0 0 0 0 0 0 0 0 0 0 0 0 0 0 0 0 0 0 0 0 0 0 1 1 0 0 0 0 0 0 1 0 0 0 1 2 3 4 5 11 7 16 16 21 30 43 33 41 43 43 26 47 30 42 28 38 29 25 19 16
21 17 15 9 14 5 4 4 1 4 2 0 0 2 3 1 0 0 0 0 0 0 0 0 0 0 0 0 0 0 0 0 0 0 0 0 0 0 0 0 0 0 0 0 0 0 0 0 0 0 0 0 0 0 0 0 0 0 0 0 0 0 0 0 2 0 1 1 0 0 2 0 0 1 1 1 7 3 4 9 11 4 9 18 26 37 42 50 57 54 51 47 40 44 39 43 25 27 24 31
27 16 18 9 11 12 9 4 4 6 2 2 0 1 3 0 0 0 0 0 0 0 0 0 0 0 0 0 0 0 0 0 0 0 0 0 0 0 0 0 0 0 0 0 0 0 0 0 0 0 0 0 0 0 0 0 0 0 0 0 0 0 0 0 0 0 0 0 0 1 0 3 0 0 0 1 6 4 8 9 5 12 15 20 35 29 40 56 60 64 50 49 55 50 39 45 34 36 23 40
19 31 15 12 22 6 13 11 5 3 0 2 2 1 2 1 0 1 0 0 0 0 0 0 0 0 0 0 0 0 0 0 0 0 0 0 0 0 0 0 0 0 0 0 0 0 0 0 0 0 0 0 0 0 0 0 0 0 0 0 0 0 0 0 0 0 0 0 0 0 0 1 0 2 0 0 2 2 4 5 6 3 12 21 24 36 50 51 53 47 49 42 64 62 48 41 48 22 39 22
28 29 23 22 22 18 10 17 9 8 2 2 2 0 0 0 0 0 1 0 0 0 0 0 0 0 0 0 0 0 0 0 0 0 0 0 0 0 0 0 0 0 0 0 0 0 0 0 0 0 0 0 0 0 0 0 0 0 0 0 0 0 0 0 0 0 0 0 0 0 0 0 0 0 0 0 3 0 5 2 5 6 5 10 20 28 40 36 35 49 63 56 57 60 37 49 38 45 43 34
30 26 27 22 24 28 17 11 6 6 3 4 2 1 0 1 0 0 1 0 0 0 0 0 0 0 0 0 0 0 0 0 0 0 0 0 0 0 0 0 0 0 0 0 0 0 0 0 0 0 0 0 0 0 0 0 0 0 0 0 0 0 0 0 0 0 0 0 1 0 1 0 0 0 0 0 3 3 4 4 4 5 13 13 14 16 33 37 46 46 51 48 48 67 55 44 50 42 39 43
30 34 38 21 30 23 12 19 14 10 6 4 2 1 1 0 2 1 1 0 0 0 0 0 0 0 0 0 0 0 0 0 0 0 0 0 0 0 0 0 0 0 0 0 0 0 0 0 0 0 0 0 0 0 0 0 0 0 0 0 0 0 0 0 0 0 0 0 0 0 1 0 2 0 0 1 1 4 2 1 4 2 11 16 27 11 26 27 47 44 41 51 49 61 61 64 55 60 43 36
44 35 32 37 30 22 16 26 28 13 13 3 7 4 2 3 0 1 0 0 0 0 0 0 0 0 0 0 0 0 0 0 0 0 0 0 0 0 0 0 0 0 0 0 0 0 0 0 0 0 0 0 0 0 0 0 0 0 0 0 0 0 0 0 0 0 0 0 0 0 0 1 0 0 0 2 3 0 0 2 6 6 10 11 9 18 23 26 34 47 42 42 52 52 56 52 61 62 55 36
54 42 40 20 27 35 34 29 25 17 18 12 5 7 6 6 1 1 0 0 0 0 0 0 0 0 0 0 0 0 0 0 0 0 0 0 0 0 0 0 0 0 0 0 0 0 0 0 0 0 0 0 0 0 0 0 0 0 0 0 0 0 0 0 0 0 0 0 0 0 0 0 0 0 0 2 5 1 2 0 3 9 5 6 14 11 30 23 29 31 49 38 45 49 62 41 51 50 55 45
47 44 45 35 41 36 35 19 25 24 16 12 11 5 3 2 1 0 0 0 0 0 0 0 0 0 0 0 0 0 0 0 0 0 0 0 0 0 0 0 0 0 0 0 0 0 0 0 0 0 0 0 0 0 0 0 0 0 0 0 0 0 0 0 0 0 0 0 0 0 0 0 0 0 0 1 0 1 1 3 4 3 6 10 15 10 19 18 38 38 54 35 44 45 58 51 55 41 46 52
41 46 39 37 31 37 50 22 24 34 25 12 6 9 6 6 1 1 0 1 0 0 0 0 0 0 0 0 0 0 0 0 0 0 0 0 0 0 0 0 0 0 0 0 0 0 0 0 0 0 0 0 0 0 0 0 0 0 0 0 0 0 0 0 0 0 0 0 0 0 0 0 0 0 0 1 2 2 0 3 4 2 8 5 7 14 13 19 30 33 37 55 53 43 54 50 50 40 54 49
51 42 51 44 40 49 35 44 32 22 22 18 14 13 12 7 4 2 0 0 0 0 0 0 0 0 0 0 0 0 0 0 0 0 0 0 0 0 0 0 0 0 0 0 0 0 0 0 0 0 0 0 0 0 0 0 0 0 0 0 0 0 0 0 0 0 0 0 0 1 0 0 2 0 1 0 1 3 4 5 5 4 5 7 9 12 14 25 26 44 52 46 43 38 47 55 48 44 51 38
49 53 49 46 45 42 39 50 33 31 16 24 17 14 16 7 5 2 1 0 0 0 0 0 0 0 0 0 0 0 0 0 0 0 0 0 0 0 0 0 0 0 0 0 0 0 0 0 0 0 0 0 0 0 0 0 0 0 0 0 0 0 0 0 0 0 0 0 0 0 0 0 0 1 0 0 0 1 2 1 2 2 2 2 9 10 16 20 26 34 38 32 28 35 35 61 49 49 48 51
