#lt    50.0
#count pbc
#dt    1.0
#dn    50
#edges  -33.962735 -33.2834803 -32.6042256 -31.9249709 -31.2457162 -30.5664615 -29.8872068 -29.2079521 -28.5286974 -27.8494427 -27.170188 -26.4909333 -25.8116786 -25.1324239 -24.4531692 -23.7739145 -23.0946598 -22.4154051 -21.7361504 -21.0568957 -20.377641 -19.6983863 -19.0191316 -18.3398769 -17.6606222 -16.9813675 -16.3021128 -15.6228581 -14.9436034 -14.2643487 -13.585094 -12.9058393 -12.2265846 -11.5473299 -10.8680752 -10.1888205 -9.5095658 -8.8303111 -8.1510564 -7.4718017 -6.792547 -6.1132923 -5.4340376 -4.7547829 -4.0755282 -3.3962735 -2.7170188 -2.0377641 -1.3585094 -0.6792547 6.39488462184e-14 0.6792547 1.3585094 2.0377641 2.7170188 3.3962735 4.0755282 4.7547829 5.4340376 6.1132923 6.792547 7.4718017 8.1510564 8.8303111 9.5095658 10.1888205 10.8680752 11.5473299 12.2265846 12.9058393 13.585094 14.2643487 14.9436034 15.6228581 16.3021128 16.9813675 17.6606222 18.3398769 19.0191316 19.6983863 20.377641 21.0568957 21.7361504 22.4154051 23.0946598 23.7739145 24.4531692 25.1324239 25.8116786 26.4909333 27.170188 27.8494427 28.5286974 29.2079521 29.8872068 30.5664615 31.2457162 31.9249709 32.6042256 33.2834803 33.962735
46 59 41 52 48 40 34 43 35 32 28 19 15 20 13 16 11 7 10 5 2 4 0 2 0 0 0 0 0 0 0 0 0 0 0 0 0 0 0 0 0 0 0 0 0 0 0 0 0 0 0 0 0 0 0 0 0 0 0 0 0 0 0 0 0 0 0 0 0 0 0 0 0 0 0 0 1 1 7 1 2 2 5 2 4 6 12 19 22 21 26 33 38 39 58 41 44 48 49 37
55 50 40 42 43 40 37 37 33 29 31 23 21 24 13 15 8 10 8 7 4 2 4 5 1 0 0 0 0 0 0 0 0 0 0 0 0 0 0 0 0 0 0 0 0 0 0 0 0 0 0 0 0 0 0 0 0 0 0 0 0 0 0 0 0 0 0 0 0 0 0 0 0 0 0 0 0 4 2 2 4 5 8 8 10 15 11 21 14 26 29 36 32 38 46 38 51 38 63 69
40 52 49 47 33 34 31 38 23 34 36 33 18 17 23 16 19 8 6 5 4 3 2 5 2 1 0 1 0 0 0 0 0 0 0 0 0 0 0 0 0 0 0 0 0 0 0 0 0 0 0 0 0 0 0 0 0 0 0 0 0 0 0 0 0 0 0 0 0 0 0 0 0 0 0 0 0 0 3 0 4 6 8 7 9 14 15 22 14 32 26 20 26 38 22 37 31 35 52 45
43 51 49 41 40 29 35 36 47 28 39 22 28 26 13 11 14 8 11 7 5 1 1 2 0 0 2 1 0 0 0 0 0 0 0 0 0 0 0 0 0 0 0 0 0 0 0 0 0 0 0 0 0 0 0 0 0 0 0 0 0 0 0 0 0 0 0 0 0 0 0 0 0 0 0 0 0 1 3 2 4 2 3 6 7 13 9 14 14 23 21 25 27 22 17 23 45 30 31 48
58 38 55 30 36 35 33 34 36 30 34 37 33 27 16 12 14 10 6 6 5 4 1 0 0 1 1 0 0 1 0 0 0 0 0 0 0 0 0 0 0 0 0 0 0 0 0 0 0 0 0 0 0 0 0 0 0 0 0 0 0 0 0 0 0 0 0 0 0 0 0 0 0 0 0 0 0 2 0 0 1 0 5 7 12 5 7 10 12 15 30 25 17 16 15 30 33 37 42 44
42 48 32 45 33 37 42 42 40 37 39 31 29 35 21 27 16 16 5 6 2 7 3 0 0 0 0 0 0 0 0 0 0 0 0 0 0 0 0 0 0 0 0 0 0 0 0 0 0 0 0 0 0 0 0 0 0 0 0 0 0 0 0 0 0 0 0 0 0 0 0 0 0 0 0 0 0 0 0 0 2 1 4 7 9 6 7 6 9 15 17 18 19 22 17 23 28 46 36 32
34 45 22 35 35 41 40 41 40 53 30 45 27 27 23 23 18 11 10 4 4 3 4 0 0 0 0 1 0 0 0 0 0 0 0 0 0 0 0 0 0 0 0 0 0 0 0 0 0 0 0 0 0 0 0 0 0 0 0 0 0 0 0 0 0 0 0 0 0 0 0 0 0 0 0 0 0 0 0 0 0 2 5 3 7 8 7 9 13 7 17 19 11 23 21 18 24 31 42 38
33 34 36 30 28 40 44 46 48 66 48 49 40 41 28 21 14 8 9 3 3 4 1 0 0 0 0 0 0 0 0 0 0 0 0 0 0 0 0 0 0 0 0 0 0 0 0 0 0 0 0 0 0 0 0 0 0 0 0 0 0 0 0 0 0 0 0 0 0 0 0 0 0 0 0 0 0 0 0 0 0 0 2 4 0 3 9 8 8 7 14 10 15 25 13 22 18 20 25 36
42 44 34 39 32 40 40 24 52 61 36 40 33 34 34 18 17 14 8 5 4 4 6 3 1 0 1 1 0 0 0 0 0 0 0 0 0 0 0 0 0 0 0 0 0 0 0 0 0 0 0 0 0 0 0 0 0 0 0 0 0 0 0 0 0 0 0 0 0 0 0 0 0 0 0 0 0 0 0 0 0 0 0 1 0 5 5 3 9 8 13 9 14 11 13 14 18 34 25 34
38 43 25 37 44 49 42 41 52 51 49 47 35 32 32 33 23 21 12 6 4 2 6 5 1 0 0 0 2 0 0 0 0 0 0 0 0 0 0 0 0 0 0 0 0 0 0 0 0 0 0 0 0 0 0 0 0 0 0 0 0 0 0 0 0 0 0 0 0 0 0 0 0 0 0 0 0 0 0 0 0 0 0 0 2 3 3 4 9 13 6 14 14 13 19 19 27 33 23 34
46 40 40 24 51 36 36 40 38 44 52 66 44 57 34 38 23 10 6 6 2 3 8 5 1 0 0 0 0 0 0 0 0 0 0 0 0 0 0 0 0 0 0 0 0 0 0 0 0 0 0 0 0 0 0 0 0 0 0 0 0 0 0 0 0 0 0 0 0 0 0 0 0 0 0 0 0 0 0 0 0 0 1 0 2 3 4 4 7 9 8 7 10 10 15 20 17 22 25 42
25 44 43 50 45 34 47 41 35 59 57 54 42 48 33 28 19 16 18 9 6 8 3 6 0 2 1 1 0 0 0 0 0 0 0 0 0 0 0 0 0 0 0 0 0 0 0 0 0 0 0 0 0 0 0 0 0 0 0 0 0 0 0 0 0 0 0 0 0 0 0 0 0 0 0 0 0 0 0 0 0 0 0 0 1 0 2 4 6 4 8 5 9 10 9 21 16 14 26 28
24 37 33 42 29 39 33 34 36 39 45 43 38 44 34 29 22 14 15 7 8 5 9 5 2 1 2 0 0 0 0 0 0 0 0 0 0 0 0 0 0 0 0 0 0 0 0 0 0 0 0 0 0 0 0 0 0 0 0 0 0 0 0 0 0 0 0 0 0 0 0 0 0 0 0 0 0 0 0 0 0 0 0 0 1 1 1 0 3 0 5 1 4 13 10 3 11 22 17 25
23 30 29 36 33 28 34 42 40 59 53 48 50 38 35 22 20 31 18 14 8 9 7 6 2 1 0 0 0 0 1 0 0 0 0 0 0 0 0 0 0 0 0 0 0 0 0 0 0 0 0 0 0 0 0 0 0 0 0 0 0 0 0 0 0 0 0 0 0 0 0 0 0 0 0 0 0 0 0 0 0 0 0 0 0 0 7 3 2 1 3 2 1 3 6 9 15 10 13 10
16 24 28 22 31 24 30 37 31 33 46 42 26 33 27 14 22 18 15 13 12 13 8 6 4 3 1 1 0 0 0 1 0 0 0 0 0 0 0 0 0 0 0 0 0 0 0 0 0 0 0 0 0 0 0 0 0 0 0 0 0 0 0 0 0 0 0 0 0 0 0 0 0 0 0 0 0 0 0 0 0 0 0 0 0 0 0 0 1 2 3 2 0 0 4 9 5 8 6 14
14 17 22 25 25 27 28 20 28 37 36 26 32 29 21 22 20 24 17 9 11 10 6 10 0 5 0 3 3 1 2 2 0 0 0 0 0 0 0 0 0 0 0 0 0 0 0 0 0 0 0 0 0 0 0 0 0 0 0 0 0 0 0 0 0 0 0 0 0 0 0 0 0 0 0 0 0 0 0 0 0 0 0 0 0 2 0 0 0 1 1 2 2 2 4 5 4 5 2 4
16 14 13 15 17 14 20 22 20 28 34 36 24 23 23 18 24 20 23 14 19 19 5 5 3 5 8 2 2 3 6 5 0 0 0 0 0 0 0 0 0 0 0 0 0 0 0 0 0 0 0 0 0 0 0 0 0 0 0 0 0 0 0 0 0 0 0 0 0 0 0 0 0 0 0 0 0 0 0 0 0 0 0 0 0 1 1 0 0 1 1 1 2 0 3 4 5 8 7 9
11 10 18 7 9 18 10 16 13 16 17 26 21 20 15 21 25 18 17 20 18 13 6 7 4 3 3 4 2 5 5 2 1 1 1 0 0 0 0 0 0 0 0 0 0 0 0 0 0 0 0 0 0 0 0 0 0 0 0 0 0 0 0 0 0 0 0 0 0 0 0 0 0 0 0 0 0 0 0 0 0 0 0 0 1 1 0 1 1 0 0 0 0 2 1 8 4 3 8 3
4 7 6 5 10 11 7 10 11 15 10 20 24 21 25 20 28 20 23 27 22 8 14 10 12 7 5 3 2 2 7 4 5 0 1 1 0 0 0 0 0 0 0 0 0 0 0 0 0 0 0 0 0 0 0 0 0 0 0 0 0 0 0 0 0 0 0 0 0 0 0 0 0 0 0 0 0 0 0 0 0 0 0 0 0 0 0 0 0 0 0 0 0 1 1 2 1 4 4 3
2 3 4 2 6 7 3 6 4 7 11 21 15 29 20 21 24 24 23 19 33 26 21 21 13 10 9 1 4 3 6 7 2 1 1 0 1 0 0 0 0 0 0 0 0 0 0 0 0 0 0 0 0 0 0 0 0 0 0 0 0 0 0 0 0 0 0 0 0 0 0 0 0 0 0 0 0 0 0 0 0 0 0 0 0 0 0 0 0 0 2 1 0 0 0 0 0 0 1 3
1 2 0 1 2 3 2 2 3 3 8 14 8 21 19 16 35 19 27 37 49 52 36 19 25 15 16 16 16 9 8 4 9 0 2 2 2 0 0 0 0 0 0 0 0 0 0 0 0 0 0 0 0 0 0 0 0 0 0 0 0 0 0 0 0 0 0 0 0 0 0 0 0 0 0 0 0 0 0 0 0 0 0 0 0 1 0 0 0 0 0 0 0 0 0 1 0 0 2 1
1 2 0 1 0 1 4 4 4 7 7 12 15 21 25 17 30 19 27 38 47 62 52 48 37 28 19 18 19 15 5 7 7 2 5 3 5 0 0 1 0 0 1 0 0 0 0 0 0 0 0 0 0 0 0 0 0 0 0 0 0 0 0 0 0 0 0 0 0 0 0 0 0 0 0 0 0 0 0 0 0 0 0 0 0 0 0 0 0 0 0 1 1 0 0 1 0 0 0 0
0 0 0 2 2 3 3 3 1 3 3 6 8 9 9 9 7 12 19 26 48 70 60 59 48 36 36 29 30 27 27 20 17 11 10 10 3 4 2 0 0 0 0 0 0 0 0 0 2 0 1 0 0 0 0 0 0 0 0 0 0 0 0 0 0 0 0 0 0 0 0 0 0 0 0 0 0 0 0 0 0 0 0 0 0 0 0 0 0 1 0 1 1 2 0 1 1 0 0 0
0 0 0 0 0 0 0 1 0 1 5 2 9 5 4 10 7 7 12 20 40 48 58 65 73 55 44 56 53 60 55 37 24 22 13 19 8 2 1 0 1 0 0 0 0 0 1 1 1 1 0 1 0 0 0 0 0 0 0 0 0 0 0 0 0 0 0 0 0 0 0 0 0 0 0 0 0 0 0 0 0 0 0 0 0 0 0 0 1 1 1 0 1 0 0 0 0 0 0 0
0 0 0 0 0 0 2 0 1 0 8 2 4 2 3 1 4 2 7 13 22 43 61 64 68 103 107 103 80 92 77 62 39 23 18 17 9 9 2 1 2 6 1 2 0 2 2 2 4 2 1 0 1 0 0 0 0 0 0 0 0 0 0 0 0 0 0 0 0 0 0 0 0 0 0 0 0 0 0 0 0 0 0 0 0 0 0 0 0 0 0 0 0 0 0 0 0 0 0 0
0 0 0 0 0 0 0 1 1 5 4 6 3 1 1 0 0 3 4 21 22 37 48 70 100 180 147 179 169 154 108 101 78 43 20 23 18 13 7 2 10 7 7 1 1 4 0 6 3 3 0 1 0 0 0 0 0 0 0 0 0 0 0 0 0 0 0 0 0 0 0 0 0 0 0 0 0 0 0 0 0 0 0 0 0 0 0 0 0 0 0 0 1 0 0 0 0 0 0 0
0 0 0 0 0 0 0 0 2 1 6 0 1 2 0 2 0 0 5 9 15 42 48 62 128 172 195 190 219 193 183 163 118 86 63 40 31 29 24 12 13 10 16 8 3 4 5 5 1 2 6 1 1 0 0 0 0 0 0 0 0 0 0 0 0 0 0 0 0 0 0 0 0 0 0 0 0 0 0 0 0 0 0 0 0 0 0 0 0 0 0 0 0 0 0 0 0 0 0 0
0 0 0 0 0 0 0 0 0 0 0 2 1 1 0 3 6 2 9 9 12 16 32 60 112 187 233 273 297 287 300 236 172 124 94 76 49 54 50 25 25 20 20 9 11 7 6 8 1 3 7 4 1 2 0 1 0 0 0 0 0 0 0 0 0 0 0 0 0 0 0 0 0 0 0 0 0 0 0 0 0 0 0 0 0 0 0 0 0 0 0 0 0 0 0 0 0 0 0 0
0 0 0 0 0 0 0 0 0 0 0 1 1 0 1 1 3 1 2 5 12 19 30 59 71 138 248 347 431 465 426 368 272 199 149 107 88 65 67 48 39 36 34 21 11 18 11 8 5 5 5 11 4 5 6 1 2 0 0 0 0 0 0 0 0 0 0 0 0 0 0 0 0 0 0 0 0 0 0 0 0 0 0 0 0 0 0 0 0 0 0 0 0 0 0 0 0 0 0 0
0 0 0 0 0 0 0 0 0 0 0 0 0 4 0 1 0 0 0 6 7 7 32 36 85 141 200 295 451 632 661 596 432 351 188 192 130 126 128 97 57 48 27 35 18 16 23 21 16 16 16 15 11 4 4 2 1 0 0 4 2 0 0 0 0 0 0 0 0 0 0 0 0 0 0 0 0 0 0 0 0 0 0 0 0 0 0 0 0 0 0 0 0 0 0 0 0 0 0 0
0 0 0 0 0 0 0 0 0 0 0 0 1 0 0 0 1 0 0 5 5 11 19 36 71 119 167 277 457 652 826 749 630 498 364 271 226 173 147 137 91 75 50 53 34 34 34 27 23 19 25 18 14 12 3 5 0 3 0 2 0 3 0 0 0 0 0 0 0 0 0 0 0 0 0 0 0 0 0 0 0 0 0 0 0 0 0 0 0 0 0 0 0 0 0 0 0 0 0 0
0 0 0 0 0 0 0 0 0 0 0 0 0 0 0 0 0 0 1 1 1 8 12 22 36 78 133 261 371 544 809 753 788 655 509 389 266 234 191 158 101 83 64 75 46 41 40 57 35 41 31 29 13 10 9 5 4 5 2 0 3 1 0 0 0 0 0 0 0 0 0 0 0 0 0 0 0 0 0 0 0 0 0 0 0 0 0 0 0 0 0 0 0 0 0 0 0 0 0 0
0 0 0 0 0 0 0 0 0 0 0 0 0 0 0 0 0 0 0 1 5 4 7 20 22 52 125 178 300 453 584 815 809 754 615 438 333 290 227 226 155 135 100 94 74 64 49 48 60 31 54 32 16 19 13 7 6 4 0 2 1 1 1 0 0 0 0 0 0 0 0 0 0 0 0 0 0 0 0 0 0 0 0 0 0 0 0 0 0 0 0 0 0 0 0 0 0 0 0 0
0 0 0 0 0 0 0 0 0 0 0 0 0 0 0 0 0 0 0 2 1 3 10 8 21 53 96 135 198 388 511 564 726 773 732 616 455 349 299 233 180 170 129 131 102 87 85 75 64 51 45 46 23 23 14 14 5 7 3 5 5 9 2 1 0 0 0 0 0 0 0 0 0 0 0 0 0 0 0 0 0 0 0 0 0 0 0 0 0 0 0 0 0 0 0 0 0 0 0 0
0 0 0 0 0 0 0 0 0 0 0 0 0 0 0 0 0 0 0 0 0 1 5 13 20 44 47 74 145 238 355 462 639 716 750 659 565 481 344 301 244 229 202 167 133 116 138 109 74 59 71 51 44 39 21 14 18 11 7 8 7 4 4 1 1 0 0 0 1 0 0 0 0 0 0 0 0 0 0 0 0 0 0 0 0 0 0 0 0 0 0 0 0 0 0 0 0 0 0 0
0 0 0 0 0 0 0 0 0 0 0 0 0 0 0 0 0 0 0 1 1 4 10 11 14 31 43 79 95 153 218 324 463 583 688 694 627 563 418 359 340 267 258 214 163 146 136 137 105 98 83 70 68 54 43 25 20 12 8 13 13 8 6 3 0 2 1 0 0 0 0 0 0 0 0 0 0 0 0 0 0 0 0 0 0 0 0 0 0 0 0 0 0 0 0 0 0 0 0 0
0 0 0 0 0 0 0 0 0 0 0 0 0 0 0 0 0 0 0 0 2 5 6 7 17 21 37 54 77 134 168 273 361 481 570 637 637 601 524 435 337 284 268 215 218 236 165 155 142 142 103 94 95 65 48 33 35 11 15 7 10 8 8 4 3 1 0 1 0 0 0 0 0 0 0 0 0 0 0 0 0 0 0 0 0 0 0 0 0 0 0 0 0 0 0 0 0 0 0 0
0 0 0 0 0 0 0 0 0 0 0 0 0 0 0 0 0 0 1 0 3 0 3 15 11 23 40 44 49 98 159 220 304 372 441 579 625 571 517 452 449 365 322 294 238 239 197 219 153 168 150 123 90 74 53 48 49 20 28 10 15 5 5 2 2 1 1 0 1 0 0 0 0 0 0 0 0 0 0 0 0 0 0 0 0 0 0 0 0 0 0 0 0 0 0 0 0 0 0 0
0 0 0 0 0 0 0 0 0 0 0 0 0 0 0 0 0 1 0 0 1 1 5 10 15 22 29 41 60 82 132 152 210 256 404 447 513 550 566 591 472 411 375 343 318 325 267 249 254 209 162 150 137 111 97 52 45 39 25 26 6 8 5 5 4 2 0 0 0 0 0 0 0 0 0 0 0 0 0 0 0 0 0 0 0 0 0 0 0 0 0 0 0 0 0 0 0 0 0 0
0 0 0 0 0 0 0 0 0 0 0 0 0 0 0 0 0 0 0 1 2 5 1 2 10 18 22 41 54 59 116 141 193 229 276 358 417 478 537 584 568 479 441 406 394 359 323 321 292 252 218 221 155 132 101 83 73 43 41 28 13 9 9 8 5 2 0 0 0 0 0 0 0 0 0 0 0 0 0 0 0 0 0 0 0 0 0 0 0 0 0 0 0 0 0 0 0 0 0 0
0 0 0 0 0 0 0 0 0 0 0 0 0 0 0 0 0 1 1 3 1 2 6 8 6 14 25 16 50 53 94 122 162 210 250 306 370 413 488 507 620 597 524 486 447 414 409 404 386 334 296 231 197 173 137 107 78 59 42 38 21 21 13 9 2 2 3 1 1 0 0 0 0 0 0 0 0 0 0 0 0 0 0 0 0 0 0 0 0 0 0 0 0 0 0 0 0 0 0 0
0 0 0 0 0 0 0 0 0 0 0 0 0 0 0 0 0 0 1 0 0 0 6 5 5 12 9 22 31 44 76 125 120 176 217 235 345 351 434 503 565 560 611 581 528 479 511 513 440 411 369 305 267 219 207 133 101 78 73 48 42 23 10 9 12 4 7 3 1 0 0 0 0 0 0 0 0 0 0 0 0 0 0 0 0 0 0 0 0 0 0 0 0 0 0 0 0 0 0 0
0 0 0 0 0 0 0 0 0 0 0 0 0 0 0 0 0 1 1 3 1 0 2 1 6 6 18 21 24 41 70 97 102 159 193 223 245 341 417 458 536 587 626 658 617 679 633 558 535 499 474 398 352 300 235 176 135 115 96 82 46 39 24 16 18 8 9 3 0 0 0 0 0 0 0 0 0 0 0 0 0 0 0 0 0 0 0 0 0 0 0 0 0 0 0 0 0 0 0 0
0 0 0 0 0 0 0 0 0 0 0 0 0 0 0 0 0 0 0 1 1 3 1 2 8 4 9 8 35 47 65 83 99 111 170 208 263 291 327 432 516 580 666 660 734 690 729 697 699 638 585 514 453 364 278 249 197 134 140 85 63 31 31 15 16 16 9 6 2 1 1 0 1 0 0 0 0 0 0 0 0 0 0 0 0 0 0 0 0 0 0 0 0 0 0 0 0 0 0 0
0 0 0 0 0 0 0 0 0 0 0 0 0 0 0 0 0 0 1 0 0 0 2 3 4 4 9 11 22 38 47 74 78 95 127 156 212 240 310 363 459 538 674 754 791 814 851 831 834 759 693 612 530 451 374 315 235 211 166 97 76 50 37 36 18 22 14 6 5 0 3 4 0 1 0 0 0 0 0 0 0 0 0 0 0 0 0 0 0 0 0 0 0 0 0 0 0 0 0 0
0 0 0 0 0 0 0 0 0 0 0 0 0 0 0 0 0 0 0 0 0 0 1 2 3 7 9 16 9 28 52 72 60 93 113 158 230 262 292 359 420 490 686 735 840 934 996 1018 938 953 728 746 672 577 423 401 299 219 158 145 75 73 32 37 28 20 14 13 9 7 4 2 0 5 0 0 0 0 0 0 0 0 0 0 0 0 0 0 0 0 0 0 0 0 0 0 0 0 0 0
0 0 0 0 0 0 0 0 0 0 0 0 0 0 0 0 0 0 0 0 0 0 2 2 3 5 5 11 17 21 44 61 62 66 113 145 178 194 257 329 376 497 628 697 945 988 1100 1062 1096 1075 952 882 757 693 559 432 319 280 216 164 125 90 58 45 43 29 23 10 8 7 3 2 2 0 1 0 0 0 0 0 0 0 0 0 0 0 0 0 0 0 0 0 0 0 0 0 0 0 0 0
0 0 0 0 0 0 0 0 0 0 0 0 0 0 0 0 0 0 0 0 0 0 3 3 4 4 5 16 17 20 41 46 45 62 101 127 170 187 261 296 399 475 602 702 871 976 1133 1153 1214 1218 1100 1024 954 754 696 548 450 359 255 195 155 107 82 66 42 44 27 13 16 8 6 8 4 3 1 0 0 0 0 0 0 0 0 0 0 0 0 0 0 0 0 0 0 0 0 0 0 0 0 0
0 0 0 0 0 0 0 0 0 0 0 0 0 0 0 0 0 0 0 0 0 0 0 3 2 1 5 3 21 24 30 40 58 56 101 109 131 173 264 281 359 458 534 637 762 978 1088 1182 1234 1333 1280 1128 1083 947 762 643 494 406 319 262 179 137 111 82 74 44 41 23 16 7 4 1 4 2 1 1 0 0 0 0 0 0 0 0 0 0 0 0 0 0 0 0 0 0 0 0 0 0 0 0
0 0 0 0 0 0 0 0 0 0 0 0 0 0 0 0 0 0 0 0 0 0 0 1 1 0 1 8 10 18 21 28 39 51 77 112 107 157 227 254 325 405 500 643 760 902 964 1204 1296 1333 1335 1253 1114 984 907 719 600 520 342 301 239 175 133 82 75 60 39 37 25 13 5 5 4 4 0 0 0 0 0 0 0 0 0 0 0 0 0 0 0 0 0 0 0 0 0 0 0 0 0 0
0 0 0 0 0 0 0 0 0 0 0 0 0 0 0 0 0 0 0 0 0 0 0 0 0 1 1 1 6 20 24 24 24 52 49 71 91 122 157 195 281 381 470 539 698 807 930 1161 1211 1340 1361 1222 1179 1066 930 756 642 517 406 312 280 201 152 90 77 54 60 29 35 12 10 2 1 5 1 1 2 1 0 0 0 0 0 0 0 0 0 0 0 0 0 0 0 0 0 0 0 0 0 0
0 0 0 0 0 0 0 0 0 0 0 0 0 0 0 0 0 0 0 0 0 0 0 1 0 0 0 3 5 7 16 20 16 32 61 61 84 97 155 171 229 315 381 497 578 801 826 1048 1167 1264 1252 1266 1235 1083 951 846 695 534 489 371 295 226 177 121 98 65 43 29 38 18 9 7 4 4 4 3 3 0 0 0 0 0 0 0 0 0 0 0 0 0 0 0 0 0 0 0 0 0 0 0
0 0 0 0 0 0 0 0 0 0 0 0 0 0 0 0 0 0 0 0 0 0 0 0 0 0 0 1 3 6 9 18 19 25 41 44 81 93 121 177 224 281 329 453 532 671 774 971 1034 1076 1130 1215 1174 1162 965 828 663 559 526 383 319 269 203 154 94 78 72 54 44 22 16 7 3 6 0 3 1 1 0 0 0 0 0 0 0 0 0 0 0 0 0 0 0 0 0 0 0 0 0 0
0 0 0 0 0 0 0 0 0 0 0 0 0 0 0 0 0 0 0 0 0 0 0 0 0 0 0 0 2 6 6 13 11 36 33 34 53 67 88 137 183 228 275 414 450 542 717 782 939 914 1019 1118 1096 997 965 865 731 611 500 465 371 313 201 157 118 75 80 46 51 31 22 5 6 4 2 7 1 1 1 0 0 0 0 0 0 0 0 0 0 0 0 0 0 0 0 0 0 0 0 0
0 0 0 0 0 0 0 0 0 0 0 0 0 0 0 0 0 0 0 0 0 0 0 0 0 0 1 0 2 2 6 7 8 11 20 22 37 64 74 90 142 199 245 292 368 430 537 619 732 864 861 964 1021 1007 926 812 758 613 511 421 380 291 229 196 155 116 91 85 57 35 26 10 6 4 11 5 2 2 0 0 0 0 0 0 0 0 0 0 0 0 0 0 0 0 0 0 0 0 0 0
0 0 0 0 0 0 0 0 0 0 0 0 0 0 0 0 0 0 0 0 0 0 0 0 0 0 1 0 2 4 1 1 8 15 17 20 21 38 57 37 82 145 208 230 317 375 447 510 621 718 735 827 835 873 894 826 709 598 528 442 381 304 264 185 192 135 102 69 66 40 36 15 13 7 7 6 2 1 0 1 0 0 0 0 0 0 0 0 0 0 0 0 0 0 0 0 0 0 0 0
0 0 0 0 0 0 0 0 0 0 0 0 0 0 0 0 0 0 0 0 0 0 0 0 0 0 0 1 0 1 2 4 3 3 14 12 29 34 44 60 69 110 150 211 251 290 360 443 512 587 613 669 723 737 783 714 702 582 576 478 382 332 258 199 180 143 104 90 72 47 33 16 14 7 6 6 4 1 0 0 0 0 0 0 2 0 0 0 0 0 0 0 0 0 0 0 0 0 0 0
0 0 0 0 0 0 0 0 0 0 0 0 0 0 0 0 0 0 0 0 0 0 0 0 0 0 1 0 2 1 3 2 4 7 11 11 25 32 37 44 59 86 111 162 204 240 274 322 425 458 513 514 529 579 627 598 656 600 573 551 476 352 295 263 198 148 141 116 76 66 27 15 15 12 9 10 6 3 0 1 0 2 0 0 0 0 0 0 0 0 0 0 0 0 0 0 0 0 0 0
0 0 0 0 0 0 0 0 0 0 0 0 0 0 0 0 0 0 0 0 0 0 0 0 0 0 0 0 0 2 3 2 3 7 7 11 24 23 36 39 61 67 94 139 170 191 227 269 346 383 438 432 429 475 493 551 576 579 584 594 592 442 381 286 258 175 169 140 75 59 31 28 21 14 10 2 2 0 0 0 0 0 0 1 0 0 0 0 0 0 0 0 0 0 0 0 0 0 0 0
0 0 0 0 0 0 0 0 0 0 0 0 0 0 0 0 0 0 0 0 0 0 0 0 0 0 0 0 1 0 1 3 2 2 4 9 16 18 23 39 42 60 67 112 96 158 159 237 255 269 303 342 380 411 405 453 505 572 597 611 600 553 423 388 299 248 175 139 89 63 45 48 23 21 15 7 6 3 0 1 1 0 0 0 1 0 0 0 0 0 0 0 0 0 0 0 0 0 0 0
0 0 0 0 0 0 0 0 0 0 0 0 0 0 0 0 0 0 0 0 0 0 0 0 0 0 0 0 1 1 1 2 3 3 6 9 8 11 22 18 24 38 40 79 90 130 142 159 198 223 292 277 314 356 349 383 386 457 563 614 675 630 542 420 306 289 211 187 113 87 58 57 33 18 17 4 6 3 5 3 2 2 1 0 0 0 0 0 0 0 0 0 0 0 0 0 0 0 0 0
0 0 0 0 0 0 0 0 0 0 0 0 0 0 0 0 0 0 0 0 0 0 0 0 0 0 0 0 0 0 0 4 1 4 4 7 11 13 7 11 16 27 31 49 68 71 96 124 147 162 204 197 246 292 271 353 355 393 464 525 580 591 649 542 437 374 268 197 151 98 69 62 37 18 18 12 7 2 0 4 1 1 0 0 0 0 0 0 0 0 0 0 0 0 0 0 0 0 0 0
0 0 0 0 0 0 0 0 0 0 0 0 0 0 0 0 0 0 0 0 0 0 0 0 0 0 0 0 0 0 0 2 1 4 2 4 3 9 7 17 15 22 24 50 40 63 83 114 135 147 144 169 190 190 235 279 273 316 379 438 524 614 682 641 561 504 363 261 181 130 100 62 41 19 18 8 1 5 2 0 1 0 1 0 0 0 0 0 0 0 0 0 0 0 0 0 0 0 0 0
0 0 0 0 0 0 0 0 0 0 0 0 0 0 0 0 0 0 0 0 0 0 0 0 0 0 0 0 0 0 0 0 2 1 1 0 2 2 6 4 13 15 21 27 30 35 63 70 84 96 97 129 155 140 152 191 198 271 320 386 428 571 649 718 694 562 472 397 272 203 116 73 49 38 13 14 10 5 7 2 0 1 0 1 1 0 0 0 0 0 0 0 0 0 0 0 0 0 0 0
0 0 0 0 0 0 0 0 0 0 0 0 0 0 0 0 0 0 0 0 0 0 0 0 0 0 0 0 0 0 0 0 0 0 0 2 1 2 4 6 11 5 17 15 27 26 43 43 69 83 94 109 108 113 132 142 173 213 260 282 404 428 573 659 733 681 628 531 349 277 190 110 69 64 28 21 12 5 1 2 2 1 2 1 0 0 0 0 0 0 0 0 0 0 0 0 0 0 0 0
0 0 0 0 0 0 0 0 0 0 0 0 0 0 0 0 0 0 0 0 0 0 0 0 0 0 0 0 0 0 0 0 0 0 0 1 0 1 2 2 7 4 12 12 19 17 28 40 35 60 85 81 87 99 107 117 159 162 204 245 276 332 459 552 667 788 796 725 567 340 242 194 123 63 39 30 15 7 3 1 0 1 0 0 0 0 0 0 0 0 0 0 0 0 0 0 0 0 0 0
0 0 0 0 0 0 0 0 0 0 0 0 0 0 0 0 0 0 0 0 0 0 0 0 0 0 0 0 0 0 0 0 0 0 0 0 0 2 1 7 4 4 6 8 13 9 26 28 41 45 55 81 71 79 81 85 113 122 143 220 244 262 352 484 642 775 838 856 685 476 304 213 164 86 47 37 25 7 2 0 1 2 0 1 0 1 0 0 0 0 0 0 0 0 0 0 0 0 0 0
0 0 0 0 0 0 0 0 0 0 0 0 0 0 0 0 0 0 0 0 0 0 0 0 0 0 0 0 0 0 0 0 0 0 0 0 0 0 1 1 8 8 5 12 13 14 15 20 28 26 35 50 41 65 42 61 80 94 143 137 183 224 303 382 510 693 868 948 853 599 442 279 184 102 70 45 18 11 9 2 0 2 4 2 0 0 0 0 0 0 0 0 0 0 0 0 0 0 0 0
0 0 0 0 0 0 0 0 0 0 0 0 0 0 0 0 0 0 0 0 0 0 0 0 0 0 0 0 0 0 0 0 0 0 0 0 0 0 0 1 3 4 2 5 11 18 11 22 15 25 16 36 37 35 33 40 37 67 91 91 134 163 226 311 403 544 673 782 830 700 523 363 250 162 68 55 28 12 6 1 4 2 1 0 1 0 1 0 0 0 0 0 0 0 0 0 0 0 0 0
0 0 0 0 0 0 0 0 0 0 0 0 0 0 0 0 0 0 0 0 0 0 0 0 0 0 0 0 0 0 0 0 0 0 1 0 0 1 0 1 0 1 4 8 2 6 7 12 8 14 16 12 20 18 18 25 32 36 47 73 80 121 169 213 257 380 505 604 709 640 586 487 272 188 106 71 39 11 4 1 0 2 2 2 3 0 0 0 0 0 0 0 0 0 0 0 0 0 0 0
0 0 0 0 0 0 0 0 0 0 0 0 0 0 0 0 0 0 0 0 0 0 0 0 0 0 0 0 0 0 0 0 0 0 0 0 0 0 0 0 0 1 2 2 2 3 0 1 7 8 6 17 12 13 13 14 23 19 39 51 63 92 107 151 204 268 324 460 523 602 611 489 339 216 134 90 53 21 7 8 2 1 2 4 2 0 0 0 0 0 0 0 0 0 0 0 0 0 0 0
0 0 0 0 0 0 0 0 0 0 0 0 0 0 0 0 0 0 0 0 0 0 0 0 0 0 0 0 0 0 0 0 0 0 0 0 0 0 0 0 1 2 2 5 3 4 2 4 3 3 6 11 5 7 11 16 12 13 26 42 42 71 79 102 127 174 239 315 356 456 505 497 395 256 145 77 48 28 17 10 7 3 4 3 0 2 0 1 1 0 0 0 0 0 0 0 0 0 0 0
0 0 0 0 0 0 0 0 0 0 0 0 0 0 0 0 0 0 0 0 0 0 0 0 0 0 0 0 0 0 0 0 0 0 0 0 0 0 0 0 2 1 1 0 0 0 4 4 6 1 1 4 3 5 2 4 14 14 16 28 36 44 51 60 72 118 147 209 253 317 382 373 352 259 181 113 52 35 15 10 12 11 3 4 4 1 0 3 1 0 0 0 0 0 0 0 0 0 0 0
0 0 0 0 0 0 0 0 0 0 0 0 0 0 0 0 0 0 0 0 0 0 0 0 0 0 0 0 0 0 0 0 0 0 0 0 0 0 0 0 0 0 0 0 1 1 1 2 2 4 3 2 5 5 3 2 6 8 8 14 20 15 31 43 53 69 74 97 139 194 256 298 304 240 191 87 57 29 15 9 15 11 7 6 1 2 6 0 0 0 1 0 0 0 0 0 0 0 0 0
0 0 0 0 0 0 0 0 0 0 0 0 0 0 0 0 0 0 0 0 0 0 0 0 0 0 0 0 0 0 0 0 0 0 0 0 0 0 0 0 0 0 0 0 0 0 0 0 1 1 0 3 1 2 1 1 3 5 7 5 8 13 27 26 33 41 52 56 73 110 162 173 195 207 158 114 76 48 21 14 10 12 8 2 2 1 2 1 2 1 2 0 0 0 0 0 0 0 0 0
0 0 0 0 0 0 0 0 0 0 0 0 0 0 0 0 0 0 0 0 0 0 0 0 0 0 0 0 0 0 0 0 0 0 0 0 0 0 0 0 0 0 0 0 0 0 0 0 0 0 0 0 1 0 0 1 4 4 6 5 4 10 15 23 10 23 29 41 50 69 85 104 137 116 153 126 74 54 34 24 12 3 2 0 4 3 0 2 2 3 1 0 0 0 0 0 0 0 0 0
0 0 0 1 2 0 1 0 0 0 0 0 0 0 0 0 0 0 0 0 0 0 0 0 0 0 0 0 0 0 0 0 0 0 0 0 0 0 0 0 0 0 0 0 0 0 0 0 0 1 0 0 0 0 1 0 1 1 3 3 1 11 7 7 14 13 8 15 28 45 45 66 74 96 85 77 56 21 30 22 15 8 2 4 1 5 5 0 4 2 0 0 0 0 1 1 1 0 1 1
3 4 2 2 1 0 0 0 0 0 0 0 0 0 0 0 0 0 0 0 0 0 0 0 0 0 0 0 0 0 0 0 0 0 0 0 0 0 0 0 0 0 0 0 0 0 0 0 0 0 0 0 0 0 1 1 1 1 2 2 2 5 3 1 1 2 8 10 9 23 28 37 38 54 62 70 27 30 25 26 13 11 7 1 11 2 1 2 6 3 3 2 0 2 0 1 2 1 0 1
2 1 1 0 0 0 0 0 0 0 0 0 0 0 0 0 0 0 0 0 0 0 0 0 0 0 0 0 0 0 0 0 0 0 0 0 0 0 0 0 0 0 0 0 0 0 0 0 0 0 0 0 0 0 0 0 0 0 3 3 3 1 0 0 1 1 3 5 11 3 11 13 26 18 35 27 39 31 30 26 12 8 11 10 6 15 4 5 7 10 6 2 2 2 0 4 2 2 0 1
3 1 2 1 1 0 0 0 0 0 0 0 0 0 0 0 0 0 0 0 0 0 0 0 0 0 0 0 0 0 0 0 0 0 0 0 0 0 0 0 0 0 0 0 0 0 0 0 0 0 0 0 0 0 0 0 0 0 0 0 0 0 0 0 2 2 3 8 5 9 7 4 10 11 17 25 19 18 22 20 24 17 18 15 18 10 15 5 10 6 4 5 2 0 3 5 3 3 1 2
2 1 3 0 3 0 0 0 0 0 0 0 0 0 0 0 0 0 0 0 0 0 0 0 0 0 0 0 0 0 0 0 0 0 0 0 0 0 0 0 0 0 0 0 0 0 0 0 0 0 0 0 0 0 0 0 0 0 0 0 0 0 1 0 1 2 6 5 4 3 6 4 9 6 12 17 15 20 17 23 37 30 25 20 13 17 9 8 11 11 7 5 6 4 3 4 1 1 5 2
3 5 3 0 0 0 1 4 0 0 0 0 0 0 0 0 0 0 0 0 0 0 0 0 0 0 0 0 0 0 0 0 0 0 0 0 0 0 0 0 0 0 0 0 0 0 0 0 0 0 0 0 0 0 0 0 0 0 0 0 0 0 0 0 0 2 5 4 1 2 1 8 8 2 5 11 14 19 15 24 25 31 24 21 20 24 15 11 16 14 21 11 16 12 8 4 1 0 2 0
3 2 3 4 0 3 3 1 0 0 1 1 0 0 0 0 0 0 0 0 0 0 0 0 0 0 0 0 0 0 0 0 0 0 0 0 0 0 0 0 0 0 0 0 0 0 0 0 0 0 0 0 0 0 0 0 0 0 0 0 0 0 0 0 0 0 2 8 5 2 1 6 3 7 4 11 9 15 15 17 18 30 26 16 23 13 17 15 15 22 17 20 20 10 11 12 7 11 6 3
3 5 3 3 2 2 1 0 1 0 1 2 1 0 0 0 0 0 0 0 0 0 0 0 0 0 0 0 0 0 0 0 0 0 0 0 0 0 0 0 0 0 0 0 0 0 0 0 0 0 0 0 0 0 0 0 0 0 0 0 0 0 0 0 0 0 0 3 3 0 1 5 7 1 3 7 12 18 12 4 21 16 31 15 18 23 17 28 17 8 18 18 17 18 19 14 9 12 9 5
11 10 9 3 5 5 3 3 1 1 0 1 0 0 0 0 0 0 0 0 0 0 0 0 0 0 0 0 0 0 0 0 0 0 0 0 0 0 0 0 0 0 0 0 0 0 0 0 0 0 0 0 0 0 0 0 0 0 0 0 0 0 0 0 0 0 1 0 0 0 0 1 1 2 7 14 11 11 7 8 14 19 19 22 21 29 27 31 21 22 27 27 19 17 18 24 17 11 10 15
13 14 9 7 6 9 5 4 3 5 3 0 1 1 0 0 0 0 0 0 0 0 0 0 0 0 0 0 0 0 0 0 0 0 0 0 0 0 0 0 0 0 0 0 0 0 0 0 0 0 0 0 0 0 0 0 0 0 0 0 0 0 0 0 0 0 0 0 0 0 0 0 2 0 2 11 12 10 4 8 11 16 26 25 24 36 38 25 32 32 29 38 30 13 15 25 25 20 25 11
19 14 9 7 5 7 4 8 2 3 3 2 0 1 0 1 0 0 0 0 0 0 0 0 0 0 0 0 0 0 0 0 0 0 0 0 0 0 0 0 0 0 0 0 0 0 0 0 0 0 0 0 0 0 0 0 0 0 0 0 0 0 0 0 0 0 0 0 0 0 0 0 0 2 2 3 7 13 12 13 10 18 17 21 20 42 24 31 56 40 44 33 38 23 34 19 22 23 19 19
15 20 9 3 6 8 12 2 3 3 2 3 1 0 1 1 0 0 0 0 0 0 0 0 0 0 0 0 0 0 0 0 0 0 0 0 0 0 0 0 0 0 0 0 0 0 0 0 0 0 0 0 0 0 0 0 0 0 0 0 0 0 0 0 0 0 0 0 0 0 0 0 0 0 0 2 3 5 8 7 13 23 25 21 24 31 47 41 45 36 47 44 44 35 31 34 23 21 30 19
12 27 13 16 13 15 13 9 5 3 6 4 2 6 0 0 2 0 0 0 0 0 0 0 0 0 0 0 0 0 0 0 0 0 0 0 0 0 0 0 0 0 0 0 0 0 0 0 0 0 0 0 0 0 0 0 0 0 0 0 0 0 0 0 0 0 0 0 0 0 0 0 0 1 0 0 1 4 7 7 16 28 16 20 31 40 47 60 45 48 39 43 44 36 38 33 27 34 16 16
19 15 22 15 9 19 19 9 12 4 8 2 7 1 1 0 1 1 1 0 0 0 0 0 0 0 0 0 0 0 0 0 0 0 0 0 0 0 0 0 0 0 0 0 0 0 0 0 0 0 0 0 0 0 0 0 0 0 0 0 0 0 0 0 0 0 0 0 0 0 0 0 0 0 0 1 1 7 3 8 8 15 19 21 28 42 40 45 52 41 47 39 47 43 45 44 30 29 25 23
20 18 26 27 21 19 14 12 12 4 11 12 10 2 4 2 4 3 2 0 0 0 0 0 0 0 0 0 0 0 0 0 0 0 0 0 0 0 0 0 0 0 0 0 0 0 0 0 0 0 0 0 0 0 0 0 0 0 0 0 0 0 0 0 0 0 0 0 0 0 0 0 0 0 0 2 4 3 4 3 12 14 18 26 34 33 43 56 53 44 79 42 45 38 58 56 36 37 28 35
27 24 19 18 19 18 13 16 14 9 14 9 1 4 2 6 3 3 2 1 1 0 0 0 0 0 0 0 0 0 0 0 0 0 0 0 0 0 0 0 0 0 0 0 0 0 0 0 0 0 0 0 0 0 0 0 0 0 0 0 0 0 0 0 0 0 0 0 0 0 0 0 0 0 0 2 0 7 2 9 6 12 13 21 22 24 30 44 37 51 55 49 51 42 55 50 45 37 32 30
36 35 31 27 21 19 15 13 10 18 5 9 12 10 9 5 5 4 1 0 0 0 0 0 0 0 0 0 0 0 0 0 0 0 0 0 0 0 0 0 0 0 0 0 0 0 0 0 0 0 0 0 0 0 0 0 0 0 0 0 0 0 0 0 0 0 0 0 0 0 0 0 0 0 0 0 4 4 4 4 2 9 10 17 27 22 35 35 40 51 57 47 42 46 52 59 50 48 43 28
30 34 29 27 25 20 20 16 17 14 8 8 9 8 5 6 4 2 2 1 0 0 0 0 0 0 0 0 0 0 0 0 0 0 0 0 0 0 0 0 0 0 0 0 0 0 0 0 0 0 0 0 0 0 0 0 0 0 0 0 0 0 0 0 0 0 0 0 0 0 0 0 0 0 0 0 1 1 2 6 8 8 11 10 24 26 29 30 30 38 42 51 46 48 38 54 41 44 50 37
51 31 33 27 27 27 22 20 17 19 15 10 13 14 4 7 3 5 3 2 0 1 0 0 0 0 0 0 0 0 0 0 0 0 0 0 0 0 0 0 0 0 0 0 0 0 0 0 0 0 0 0 0 0 0 0 0 0 0 0 0 0 0 0 0 0 0 0 0 0 0 0 0 0 0 0 0 0 5 3 3 2 8 13 25 26 26 23 32 36 46 37 44 47 39 67 49 58 48 42
46 46 41 23 31 34 26 23 24 18 14 9 17 11 8 6 9 8 2 1 1 1 0 1 0 0 0 0 0 0 0 0 0 0 0 0 0 0 0 0 0 0 0 0 0 0 0 0 0 0 0 0 0 0 0 0 0 0 0 0 0 0 0 0 0 0 0 0 0 0 0 0 0 0 0 0 1 1 1 2 3 6 10 9 18 24 27 34 43 40 45 42 58 52 61 56 42 53 47 52
40 43 39 24 30 29 24 24 20 20 18 18 13 10 8 15 9 4 10 0 0 1 1 0 0 0 0 0 0 0 0 0 0 0 0 0 0 0 0 0 0 0 0 0 0 0 0 0 0 0 0 0 0 0 0 0 0 0 0 0 0 0 0 0 0 0 0 0 0 0 0 0 0 0 0 0 0 1 3 5 6 4 7 13 4 13 23 25 34 42 36 41 52 46 46 58 52 42 38 38
39 29 28 39 25 29 36 31 20 24 18 19 17 11 15 10 8 5 5 4 3 1 1 0 0 0 0 0 0 0 0 0 0 0 0 0 0 0 0 0 0 0 0 0 0 0 0 0 0 0 0 0 0 0 0 0 0 0 0 0 0 0 0 0 0 0 0 0 0 0 0 0 0 0 0 0 0 3 4 8 10 4 5 7 11 9 13 23 35 28 46 50 55 54 66 45 46 46 39 51
40 42 36 36 32 27 30 24 16 22 27 24 17 17 16 11 7 13 3 3 1 1 0 0 1 0 0 0 0 0 0 0 0 0 0 0 0 0 0 0 0 0 0 0 0 0 0 0 0 0 0 0 0 0 0 0 0 0 0 0 0 0 0 0 0 0 0 0 0 0 0 0 0 0 0 0 0 3 3 3 2 3 9 4 9 11 20 16 29 29 37 35 48 44 56 56 57 47 40 41
49 37 57 40 42 39 22 32 32 22 28 26 17 12 15 10 9 9 6 0 3 4 0 0 1 0 0 0 0 0 0 0 0 0 0 0 0 0 0 0 0 0 0 0 0 0 0 0 0 0 0 0 0 0 0 0 0 0 0 0 0 0 0 0 0 0 0 0 0 0 0 0 0 0 0 0 0 1 4 1 3 6 3 9 7 11 29 20 22 23 39 36 50 38 39 53 43 47 35 48
