#lt    40.0
#count pbc
#dt    1.0
#dn    40
#edges  -33.962735 -33.2834803 -32.6042256 -31.9249709 -31.2457162 -30.5664615 -29.8872068 -29.2079521 -28.5286974 -27.8494427 -27.170188 -26.4909333 -25.8116786 -25.1324239 -24.4531692 -23.7739145 -23.0946598 -22.4154051 -21.7361504 -21.0568957 -20.377641 -19.6983863 -19.0191316 -18.3398769 -17.6606222 -16.9813675 -16.3021128 -15.6228581 -14.9436034 -14.2643487 -13.585094 -12.9058393 -12.2265846 -11.5473299 -10.8680752 -10.1888205 -9.5095658 -8.8303111 -8.1510564 -7.4718017 -6.792547 -6.1132923 -5.4340376 -4.7547829 -4.0755282 -3.3962735 -2.7170188 -2.0377641 -1.3585094 -0.6792547 6.39488462184e-14 0.6792547 1.3585094 2.0377641 2.7170188 3.3962735 4.0755282 4.7547829 5.4340376 6.1132923 6.792547 7.4718017 8.1510564 8.8303111 9.5095658 10.1888205 10.8680752 11.5473299 12.2265846 12.9058393 13.585094 14.2643487 14.9436034 15.6228581 16.3021128 16.9813675 17.6606222 18.3398769 19.0191316 19.6983863 20.377641 21.0568957 21.7361504 22.4154051 23.0946598 23.7739145 24.4531692 25.1324239 25.8116786 26.4909333 27.170188 27.8494427 28.5286974 29.2079521 29.8872068 30.5664615 31.2457162 31.9249709 32.6042256 33.2834803 33.962735
54 43 45 49 41 54 51 30 21 27 37 20 24 19 9 13 9 7 7 3 4 1 0 0 0 0 0 0 0 0 0 0 0 0 0 0 0 0 0 0 0 0 0 0 0 0 0 0 0 0 0 0 0 0 0 0 0 0 0 0 0 0 0 0 0 0 0 0 0 0 0 0 0 0 0 0 0 2 3 0 2 0 4 7 4 4 17 19 18 27 25 39 33 50 47 44 40 53 47 47
56 61 49 54 51 44 39 27 35 31 26 22 18 22 14 8 16 12 5 5 2 1 1 0 0 0 0 0 0 0 0 0 0 0 0 0 0 0 0 0 0 0 0 0 0 0 0 0 0 0 0 0 0 0 0 0 0 0 0 0 0 0 0 0 0 0 0 0 0 0 0 0 0 0 0 0 0 1 2 1 0 3 6 3 7 12 24 14 16 19 24 32 44 40 46 45 56 45 56 57
47 50 51 37 43 38 34 39 37 32 27 24 20 19 17 20 14 6 5 4 3 3 1 1 2 0 0 0 0 0 0 0 0 0 0 0 0 0 0 0 0 0 0 0 0 0 0 0 0 0 0 0 0 0 0 0 0 0 0 0 0 0 0 0 0 0 0 0 0 0 0 0 0 0 0 0 0 0 2 0 1 1 2 4 9 16 11 23 12 17 16 26 38 38 42 28 29 44 50 63
41 53 55 43 40 45 40 50 43 29 31 25 28 22 13 11 7 10 8 5 1 2 1 0 0 0 0 0 0 0 0 0 0 0 0 0 0 0 0 0 0 0 0 0 0 0 0 0 0 0 0 0 0 0 0 0 0 0 0 0 0 0 0 0 0 0 0 0 0 0 0 0 0 0 0 0 0 0 2 0 1 1 1 1 6 15 6 13 13 6 15 18 20 32 22 37 30 47 43 48
36 46 34 42 37 51 45 43 37 39 32 29 32 24 18 14 7 6 10 4 1 4 1 3 0 0 0 0 0 0 0 0 0 0 0 0 0 0 0 0 0 0 0 0 0 0 0 0 0 0 0 0 0 0 0 0 0 0 0 0 0 0 0 0 0 0 0 0 0 0 0 0 0 0 0 0 0 0 1 1 0 0 3 4 9 8 14 10 8 14 16 15 11 11 31 33 37 37 52 48
49 48 38 39 38 40 41 45 37 39 31 40 25 24 26 16 18 10 13 9 8 1 3 0 0 0 0 0 0 0 0 0 0 0 0 0 0 0 0 0 0 0 0 0 0 0 0 0 0 0 0 0 0 0 0 0 0 0 0 0 0 0 0 0 0 0 0 0 0 0 0 0 0 0 0 0 0 0 0 0 0 0 1 5 7 2 5 7 10 11 12 15 22 17 14 24 36 42 45 46
45 56 30 37 37 26 33 53 49 46 40 47 41 28 23 19 10 17 7 4 4 3 1 2 1 0 0 0 0 0 0 0 0 0 0 0 0 0 0 0 0 0 0 0 0 0 0 0 0 0 0 0 0 0 0 0 0 0 0 0 0 0 0 0 0 0 0 0 0 0 0 0 0 0 0 0 0 0 0 0 0 1 1 1 3 2 2 7 10 17 14 11 17 10 24 31 18 27 31 35
30 29 32 37 32 50 45 44 61 62 46 42 34 44 36 19 17 11 5 1 3 4 0 2 1 0 0 0 0 0 0 0 0 0 0 0 0 0 0 0 0 0 0 0 0 0 0 0 0 0 0 0 0 0 0 0 0 0 0 0 0 0 0 0 0 0 0 0 0 0 0 0 0 0 0 0 0 0 0 0 0 0 0 0 2 3 2 8 8 11 11 13 11 14 15 23 28 22 24 31
34 43 52 30 34 42 34 35 53 52 47 40 24 43 22 26 32 15 9 3 4 4 5 2 0 1 0 1 0 1 0 0 0 0 0 0 0 0 0 0 0 0 0 0 0 0 0 0 0 0 0 0 0 0 0 0 0 0 0 0 0 0 0 0 0 0 0 0 0 0 0 0 0 0 0 0 0 0 0 0 0 0 0 0 1 1 4 3 6 9 10 7 9 12 13 18 13 19 25 45
36 47 47 38 45 47 48 43 45 56 49 42 35 55 40 38 23 19 16 7 7 4 3 1 0 0 0 1 0 0 0 0 0 0 0 0 0 0 0 0 0 0 0 0 0 0 0 0 0 0 0 0 0 0 0 0 0 0 0 0 0 0 0 0 0 0 0 0 0 0 0 0 0 0 0 0 0 0 0 0 0 0 1 1 0 2 5 2 13 12 8 9 6 9 10 9 15 23 24 27
49 49 41 44 46 43 35 37 36 54 53 61 45 56 45 33 28 18 11 9 5 5 2 1 1 0 0 0 0 0 0 0 0 0 0 0 0 0 0 0 0 0 0 0 0 0 0 0 0 0 0 0 0 0 0 0 0 0 0 0 0 0 0 0 0 0 0 0 0 0 0 0 0 0 0 0 0 0 0 0 0 0 0 0 3 2 1 4 3 10 9 2 5 4 8 5 13 29 22 29
27 47 39 50 44 35 45 36 40 60 65 57 42 49 48 42 26 20 13 6 11 8 6 3 0 1 1 0 0 0 0 0 0 0 0 0 0 0 0 0 0 0 0 0 0 0 0 0 0 0 0 0 0 0 0 0 0 0 0 0 0 0 0 0 0 0 0 0 0 0 0 0 0 0 0 0 0 0 0 0 0 0 0 0 1 1 3 1 0 1 3 4 6 10 7 5 15 20 9 30
30 37 27 27 32 25 41 31 32 43 50 59 45 34 53 31 25 19 18 10 9 10 8 0 0 2 2 0 0 0 0 0 0 0 0 0 0 0 0 0 0 0 0 0 0 0 0 0 0 0 0 0 0 0 0 0 0 0 0 0 0 0 0 0 0 0 0 0 0 0 0 0 0 0 0 0 0 0 0 0 0 0 0 0 0 0 1 0 2 2 1 3 1 4 5 7 10 10 17 23
17 29 19 42 30 26 26 31 40 51 56 69 56 49 35 29 26 26 20 19 7 13 10 8 3 1 0 0 0 0 0 1 0 0 0 0 0 0 0 0 0 0 0 0 0 0 0 0 0 0 0 0 0 0 0 0 0 0 0 0 0 0 0 0 0 0 0 0 0 0 0 0 0 0 0 0 0 0 0 0 0 0 0 0 0 2 3 0 0 1 3 2 5 3 5 7 4 6 13 9
15 14 20 21 19 25 32 35 27 43 54 45 46 28 30 29 26 23 16 9 10 12 5 9 1 4 0 0 1 1 0 0 0 0 0 0 0 0 0 0 0 0 0 0 0 0 0 0 0 0 0 0 0 0 0 0 0 0 0 0 0 0 0 0 0 0 0 0 0 0 0 0 0 0 0 0 0 0 0 0 0 0 0 0 0 0 0 1 0 0 1 1 1 0 1 8 6 5 5 6
7 6 16 15 27 16 22 25 26 44 46 46 41 41 25 25 29 14 18 12 7 5 9 7 2 2 4 2 3 1 3 0 0 0 0 0 0 0 0 0 0 0 0 0 0 0 0 0 0 0 0 0 0 0 0 0 0 0 0 0 0 0 0 0 0 0 0 0 0 0 0 0 0 0 0 0 0 0 0 0 0 0 0 0 0 0 0 0 0 0 2 0 0 1 1 1 5 4 4 2
7 12 13 10 19 15 23 29 21 42 38 30 28 30 16 21 22 23 22 25 18 16 8 6 1 2 7 2 2 3 4 1 1 0 0 0 0 0 0 0 0 0 0 0 0 0 0 0 0 0 0 0 0 0 0 0 0 0 0 0 0 0 0 0 0 0 0 0 0 0 0 0 0 0 0 0 0 0 0 0 0 0 0 0 0 0 0 0 0 0 1 0 1 1 1 6 4 2 3 7
10 9 9 11 15 16 9 12 16 18 15 29 9 18 20 32 24 27 26 15 17 17 8 5 5 3 3 5 1 3 4 0 0 0 0 0 0 0 0 0 0 0 0 0 0 0 0 0 0 0 0 0 0 0 0 0 0 0 0 0 0 0 0 0 0 0 0 0 0 0 0 0 0 0 0 0 0 0 0 0 0 0 0 0 0 0 0 0 0 0 0 0 1 2 2 4 1 4 6 5
7 3 6 6 9 11 8 9 10 16 22 12 30 20 26 24 25 27 25 25 21 14 13 10 8 8 1 6 2 2 5 5 1 1 1 0 0 0 0 0 0 0 0 0 0 0 0 0 0 0 0 0 0 0 0 0 0 0 0 0 0 0 0 0 0 0 0 0 0 0 0 0 0 0 0 0 0 0 0 0 0 0 0 0 0 0 0 0 0 0 0 0 0 1 0 0 0 1 1 1
2 0 3 4 7 6 2 6 4 6 11 16 19 25 21 16 38 25 21 24 33 32 27 20 11 6 10 2 2 5 4 3 1 0 2 0 0 0 1 0 0 0 0 0 0 0 0 0 0 0 0 0 0 0 0 0 0 0 0 0 0 0 0 0 0 0 0 0 0 0 0 0 0 0 0 0 0 0 0 0 0 0 0 0 0 0 0 0 0 0 0 0 0 0 0 1 0 0 0 1
0 1 0 2 0 3 6 2 5 3 9 15 11 16 15 17 21 17 33 41 50 50 45 39 29 15 11 10 13 6 7 5 6 1 1 1 1 0 0 0 0 0 0 0 0 0 0 0 0 0 0 0 0 0 0 0 0 0 0 0 0 0 0 0 0 0 0 0 0 0 0 0 0 0 0 0 0 0 0 0 0 0 0 0 0 0 0 0 0 0 0 1 0 0 0 0 0 0 0 0
0 0 1 0 1 3 2 0 1 4 6 10 12 20 20 17 20 23 37 47 61 79 57 42 42 21 25 15 10 9 11 6 4 1 5 2 3 0 0 0 0 0 0 0 0 0 0 0 0 0 0 0 0 0 0 0 0 0 0 0 0 0 0 0 0 0 0 0 0 0 0 0 0 0 0 0 0 0 0 0 0 0 0 0 0 0 0 0 0 0 0 0 0 0 0 0 1 0 1 0
0 1 0 0 0 1 0 2 2 1 3 7 6 8 7 8 11 10 14 27 53 68 67 58 56 40 30 38 27 36 30 24 13 7 4 9 3 3 0 0 0 0 1 0 0 0 0 1 1 0 1 0 0 0 0 0 0 0 0 0 0 0 0 0 0 0 0 0 0 0 0 0 0 0 0 0 0 0 0 0 0 0 0 0 0 0 0 0 0 0 0 1 0 1 0 1 0 0 1 0
0 1 0 0 0 0 0 0 0 1 2 1 3 3 6 5 11 6 10 21 41 54 62 56 69 77 53 59 62 59 51 39 27 14 7 7 7 3 1 0 1 0 1 0 0 1 0 0 1 0 0 1 0 0 0 0 0 0 0 0 0 0 0 0 0 0 0 0 0 0 0 0 0 0 0 0 0 0 0 0 0 0 0 0 0 0 0 0 0 0 1 1 1 0 0 0 0 0 0 0
0 0 0 0 0 1 0 0 1 3 4 1 2 2 1 3 3 5 7 19 20 39 57 60 94 122 117 109 110 88 59 42 31 11 17 15 2 3 4 4 4 3 0 0 1 3 1 1 1 2 1 0 1 0 0 0 0 0 0 0 0 0 0 0 0 0 0 0 0 0 0 0 0 0 0 0 0 0 0 0 0 0 0 0 0 0 0 0 0 0 0 0 0 0 0 0 0 0 0 0
0 0 0 0 0 0 0 0 0 1 1 3 7 4 2 1 3 1 5 13 24 33 44 74 146 205 177 167 150 143 118 89 67 34 24 25 10 8 5 5 7 7 3 2 0 1 0 2 1 0 0 0 0 0 0 0 0 0 0 0 0 0 0 0 0 0 0 0 0 0 0 0 0 0 0 0 0 0 0 0 0 0 0 0 0 0 0 0 0 0 0 0 0 0 0 1 0 0 0 0
0 0 0 0 0 0 0 0 0 0 2 4 0 3 0 1 2 1 3 7 18 29 49 92 106 193 221 244 218 220 169 142 107 69 53 39 31 14 16 8 11 12 4 6 2 3 6 2 0 0 3 4 2 0 0 0 0 0 0 0 0 0 0 0 0 0 0 0 0 0 0 0 0 0 0 0 0 0 0 0 0 0 0 0 0 0 0 0 0 0 0 0 0 0 0 0 0 0 0 0
0 0 0 0 0 0 0 0 0 0 0 0 1 0 0 1 3 1 5 6 13 19 36 71 93 201 293 275 319 314 261 244 161 142 83 63 46 33 33 24 30 22 12 14 7 2 2 7 2 2 3 2 0 1 0 0 0 0 0 0 0 0 0 0 0 0 0 0 0 0 0 0 0 0 0 0 0 0 0 0 0 0 0 0 0 0 0 0 0 0 0 0 0 0 0 0 0 0 0 0
0 0 0 0 0 0 0 0 0 0 0 0 1 0 0 3 0 1 1 8 11 12 33 50 81 139 230 359 454 489 507 356 288 191 130 98 81 72 58 47 27 25 27 16 12 10 6 4 6 3 4 1 2 2 1 0 0 0 0 0 0 0 0 0 0 0 0 0 0 0 0 0 0 0 0 0 0 0 0 0 0 0 0 0 0 0 0 0 0 0 0 0 0 0 0 0 0 0 0 0
0 0 0 0 0 0 0 0 0 0 0 0 0 1 0 0 0 0 2 2 2 14 28 52 73 126 201 364 498 635 717 560 455 343 204 179 119 123 108 65 54 28 30 33 18 9 13 14 12 8 9 13 7 7 4 0 1 0 2 0 0 1 0 0 0 0 0 0 0 0 0 0 0 0 0 0 0 0 0 0 0 0 0 0 0 0 0 0 0 0 0 0 0 0 0 0 0 0 0 0
0 0 0 0 0 0 0 0 0 0 0 0 0 0 0 0 1 0 1 1 8 8 23 32 63 106 174 289 459 692 877 855 647 500 368 280 184 159 132 104 60 65 52 44 34 25 19 22 16 14 12 17 6 8 6 2 1 0 0 0 1 0 0 0 0 0 0 0 0 0 0 0 0 0 0 0 0 0 0 0 0 0 0 0 0 0 0 0 0 0 0 0 0 0 0 0 0 0 0 0
0 0 0 0 0 0 0 0 0 0 0 0 0 0 0 0 0 0 1 0 2 9 8 20 35 76 122 249 371 565 815 836 888 661 545 337 280 223 190 146 99 82 44 45 38 36 30 37 28 22 25 21 5 11 5 3 2 2 0 1 0 1 0 1 0 0 0 0 0 0 0 0 0 0 0 0 0 0 0 0 0 0 0 0 0 0 0 0 0 0 0 0 0 0 0 0 0 0 0 0
0 0 0 0 0 0 0 0 0 0 0 0 0 0 0 0 0 1 0 0 0 6 5 9 31 60 89 166 293 476 625 828 914 808 620 446 342 253 219 205 161 123 105 77 51 57 55 46 39 30 27 21 14 5 4 7 2 1 2 1 0 1 0 0 0 0 0 0 0 0 0 0 0 0 0 0 0 0 0 0 0 0 0 0 0 0 0 0 0 0 0 0 0 0 0 0 0 0 0 0
0 0 0 0 0 0 0 0 0 0 0 0 0 0 0 0 0 0 0 0 1 3 5 19 23 43 89 116 210 387 527 657 735 814 748 619 477 368 277 239 198 142 110 107 80 79 70 65 54 41 49 29 16 16 5 7 9 1 2 6 2 3 2 0 0 0 0 0 0 0 0 0 0 0 0 0 0 0 0 0 0 0 0 0 0 0 0 0 0 0 0 0 0 0 0 0 0 0 0 0
0 0 0 0 0 0 0 0 0 0 0 0 0 0 0 0 0 0 0 4 1 3 9 5 15 30 50 69 132 236 349 490 629 787 822 811 565 465 354 309 246 197 158 134 130 103 84 91 69 54 47 48 36 25 15 10 17 11 8 8 3 4 1 1 0 0 0 0 0 0 0 0 0 0 0 0 0 0 0 0 0 0 0 0 0 0 0 0 0 0 0 0 0 0 0 0 0 0 0 0
0 0 0 0 0 0 0 0 0 0 0 0 0 0 0 0 0 0 0 1 1 2 5 7 11 27 45 62 82 146 218 351 471 629 733 704 740 638 474 390 279 240 221 198 148 141 130 94 85 83 78 52 40 40 31 12 27 9 10 4 4 5 4 0 1 0 0 0 0 0 0 0 0 0 0 0 0 0 0 0 0 0 0 0 0 0 0 0 0 0 0 0 0 0 0 0 0 0 0 0
0 0 0 0 0 0 0 0 0 0 0 0 0 0 0 0 0 0 0 0 1 0 7 9 9 22 35 43 62 119 177 248 386 502 585 698 752 661 568 427 329 298 257 216 213 183 159 154 136 113 80 65 60 49 33 22 25 14 10 8 7 4 2 1 1 0 0 0 0 0 0 0 0 0 0 0 0 0 0 0 0 0 0 0 0 0 0 0 0 0 0 0 0 0 0 0 0 0 0 0
0 0 0 0 0 0 0 0 0 0 0 0 0 0 0 0 0 0 0 1 1 0 8 10 15 15 27 33 72 74 137 183 269 361 488 636 684 664 616 531 453 355 302 284 233 235 198 183 136 136 131 76 83 56 41 30 28 18 14 10 10 5 4 3 1 0 0 0 0 0 0 0 0 0 0 0 0 0 0 0 0 0 0 0 0 0 0 0 0 0 0 0 0 0 0 0 0 0 0 0
0 0 0 0 0 0 0 0 0 0 0 0 0 0 0 0 0 1 1 2 1 0 1 5 16 15 21 37 60 65 110 148 199 273 370 489 591 639 631 610 543 459 405 356 326 288 225 262 200 172 134 119 94 89 77 54 34 20 15 9 6 3 7 1 0 2 0 0 0 0 0 0 0 0 0 0 0 0 0 0 0 0 0 0 0 0 0 0 0 0 0 0 0 0 0 0 0 0 0 0
0 0 0 0 0 0 0 0 0 0 0 0 0 0 0 0 0 0 2 1 2 6 1 6 5 13 18 32 45 65 90 134 167 203 321 390 461 537 570 649 632 495 484 421 396 358 360 291 269 207 179 163 136 98 79 72 50 36 31 22 10 5 3 2 3 0 0 0 0 0 0 0 0 0 0 0 0 0 0 0 0 0 0 0 0 0 0 0 0 0 0 0 0 0 0 0 0 0 0 0
0 0 0 0 0 0 0 0 0 0 0 0 0 0 0 0 0 1 0 3 2 3 4 3 4 13 14 32 34 53 77 120 130 190 257 327 367 435 518 626 646 656 611 557 451 456 387 372 333 298 237 221 193 136 96 75 73 48 40 21 19 8 5 5 2 0 0 1 0 0 0 0 0 0 0 0 0 0 0 0 0 0 0 0 0 0 0 0 0 0 0 0 0 0 0 0 0 0 0 0
0 0 0 0 0 0 0 0 0 0 0 0 0 0 0 0 0 0 1 0 0 1 3 5 3 9 12 11 37 42 59 98 113 173 231 224 311 347 483 538 677 644 707 598 577 532 502 476 424 412 325 308 241 181 145 102 75 60 49 37 22 14 11 0 5 1 0 1 0 0 0 0 0 0 0 0 0 0 0 0 0 0 0 0 0 0 0 0 0 0 0 0 0 0 0 0 0 0 0 0
0 0 0 0 0 0 0 0 0 0 0 0 0 0 0 0 0 0 0 0 0 0 1 2 5 5 8 6 21 33 63 95 92 153 170 211 231 280 380 518 615 697 748 741 699 646 613 609 557 506 431 388 325 238 215 142 112 98 81 50 28 30 12 7 10 1 9 2 0 0 0 0 0 0 0 0 0 0 0 0 0 0 0 0 0 0 0 0 0 0 0 0 0 0 0 0 0 0 0 0
0 0 0 0 0 0 0 0 0 0 0 0 0 0 0 0 0 0 1 0 0 0 0 0 4 1 8 15 18 28 56 64 92 119 154 177 251 290 360 434 542 674 813 821 766 769 718 729 640 601 582 504 404 303 259 211 158 112 80 78 42 34 24 14 4 7 4 3 0 0 0 0 0 0 0 0 0 0 0 0 0 0 0 0 0 0 0 0 0 0 0 0 0 0 0 0 0 0 0 0
0 0 0 0 0 0 0 0 0 0 0 0 0 0 0 0 0 0 0 0 0 0 1 2 1 0 5 5 17 30 50 66 61 78 111 156 151 255 308 388 505 625 740 831 905 922 856 844 775 720 670 599 536 426 350 286 204 162 129 100 81 32 30 23 7 3 5 4 1 1 1 0 0 0 0 0 0 0 0 0 0 0 0 0 0 0 0 0 0 0 0 0 0 0 0 0 0 0 0 0
0 0 0 0 0 0 0 0 0 0 0 0 0 0 0 0 0 0 0 0 0 0 0 2 1 2 1 5 18 27 44 37 72 75 108 124 171 225 309 370 444 540 678 781 907 1062 1066 1012 988 934 861 731 631 515 408 334 255 187 164 122 73 58 33 23 20 15 14 5 3 6 4 1 1 0 0 0 0 0 0 0 0 0 0 0 0 0 0 0 0 0 0 0 0 0 0 0 0 0 0 0
0 0 0 0 0 0 0 0 0 0 0 0 0 0 0 0 0 0 0 0 0 0 0 1 2 0 2 4 10 19 38 43 50 52 97 105 151 165 267 331 438 531 655 734 942 999 1146 1151 1174 1101 982 946 752 657 531 407 308 243 171 142 119 70 41 37 20 19 13 4 5 1 3 1 1 0 0 0 0 0 0 0 0 0 0 0 0 0 0 0 0 0 0 0 0 0 0 0 0 0 0 0
0 0 0 0 0 0 0 0 0 0 0 0 0 0 0 0 0 0 0 0 0 0 0 2 1 2 1 7 13 19 32 30 35 58 80 95 141 191 236 290 360 471 576 682 916 1028 1189 1233 1335 1305 1125 1066 977 796 640 531 372 304 248 195 144 89 77 48 36 36 20 13 12 5 5 3 1 0 0 0 0 0 0 0 0 0 0 0 0 0 0 0 0 0 0 0 0 0 0 0 0 0 0 0
0 0 0 0 0 0 0 0 0 0 0 0 0 0 0 0 0 0 0 0 0 0 0 2 0 2 3 4 6 12 21 37 20 53 77 105 129 159 243 221 337 430 512 669 818 981 1176 1323 1350 1428 1312 1212 1027 905 762 621 501 385 306 215 158 104 86 53 51 37 36 9 14 4 1 1 0 1 0 0 0 0 0 0 0 0 0 0 0 0 0 0 0 0 0 0 0 0 0 0 0 0 0 0
0 0 0 0 0 0 0 0 0 0 0 0 0 0 0 0 0 0 0 0 0 0 1 1 3 1 1 3 4 9 14 14 19 42 51 70 100 136 165 204 272 407 475 635 757 968 1159 1280 1344 1444 1326 1289 1201 1076 864 698 585 469 378 267 198 152 77 60 54 46 37 25 17 7 7 2 1 1 0 0 0 0 0 0 0 0 0 0 0 0 0 0 0 0 0 0 0 0 0 0 0 0 0 0
0 0 0 0 0 0 0 0 0 0 0 0 0 0 0 0 0 0 0 0 0 0 0 1 0 2 1 0 3 6 11 20 23 27 50 54 88 90 158 173 239 308 436 567 635 858 948 1198 1318 1441 1368 1339 1278 1106 946 801 588 523 359 276 231 191 87 90 76 41 48 14 21 10 7 5 4 2 0 0 0 0 0 0 0 0 0 0 0 0 0 0 0 0 0 0 0 0 0 0 0 0 0 0
0 0 0 0 0 0 0 0 0 0 0 0 0 0 0 0 0 0 0 0 0 0 0 0 1 0 1 0 2 7 9 6 14 18 28 47 61 80 107 151 216 270 308 463 605 757 897 1087 1255 1290 1374 1341 1289 1181 991 826 668 597 419 344 281 208 154 101 78 62 32 24 23 12 7 3 3 1 4 2 1 0 0 0 0 0 0 0 0 0 0 0 0 0 0 0 0 0 0 0 0 0 0 0
0 0 0 0 0 0 0 0 0 0 0 0 0 0 0 0 0 0 0 0 0 0 0 0 0 0 0 0 1 2 9 12 18 24 30 33 56 75 95 105 178 233 330 440 520 637 789 895 1118 1171 1208 1261 1232 1182 1077 859 733 589 441 400 322 235 181 127 92 63 55 37 33 18 8 8 3 0 2 2 1 0 0 0 0 0 0 0 0 0 0 0 0 0 0 0 0 0 0 0 0 0 0 0
0 0 0 0 0 0 0 0 0 0 0 0 0 0 0 0 0 0 0 0 0 0 0 0 0 0 1 0 2 2 3 11 10 17 22 14 42 59 77 99 123 203 239 358 406 521 602 789 907 1027 1072 1150 1221 1134 1105 945 821 590 511 397 316 279 193 138 140 71 48 46 37 13 15 9 2 5 2 2 1 1 0 0 0 0 0 0 0 0 0 0 0 0 0 0 0 0 0 0 0 0 0 0
0 0 0 0 0 0 0 0 0 0 0 0 0 0 0 0 0 0 0 0 0 0 0 0 0 0 1 0 0 2 4 5 6 5 10 20 27 40 49 77 93 147 200 260 348 416 488 627 760 814 914 1034 1073 1100 1035 921 806 652 505 423 375 275 219 152 138 99 83 56 46 22 18 9 6 10 2 3 0 1 0 0 0 0 0 0 0 0 0 0 0 0 0 0 0 0 0 0 0 0 0 0
0 0 0 0 0 0 0 0 0 0 0 0 0 0 0 0 0 0 0 0 0 0 0 0 0 0 1 0 1 2 1 2 1 4 14 17 22 30 34 46 80 116 161 204 295 304 422 511 609 711 798 775 810 952 960 880 792 672 590 462 404 314 219 193 127 101 103 70 70 26 22 19 6 9 3 5 1 2 0 0 0 0 0 0 0 0 0 0 0 0 0 0 0 0 0 0 0 0 0 0
0 0 0 0 0 0 0 0 0 0 0 0 0 0 0 0 0 0 0 0 0 0 0 0 0 0 0 0 1 0 0 2 3 6 5 15 13 34 29 44 55 73 119 175 212 275 350 422 490 576 632 640 733 782 815 735 785 669 642 503 415 319 272 201 173 133 89 80 50 47 19 8 10 5 3 4 2 3 0 1 0 1 0 0 0 0 0 0 0 0 0 0 0 0 0 0 0 0 0 0
0 0 0 0 0 0 0 0 0 0 0 0 0 0 0 0 0 0 0 0 0 0 0 0 0 0 0 0 0 0 0 2 1 3 8 8 17 24 29 27 42 68 90 118 155 210 252 322 364 413 503 499 587 621 596 732 684 644 697 603 490 389 318 253 185 156 116 90 61 35 26 11 14 17 7 3 2 3 0 0 0 0 0 0 0 0 0 0 0 0 0 0 0 0 0 0 0 0 0 0
0 0 0 0 0 0 0 0 0 0 0 0 0 0 0 0 0 0 0 0 0 0 0 0 0 0 0 0 0 0 0 2 0 6 11 8 18 14 21 26 39 54 76 92 120 164 210 226 322 339 425 422 445 486 498 591 637 656 668 702 588 488 381 316 249 165 130 139 81 42 26 23 17 9 5 4 1 1 0 0 0 0 0 0 0 0 0 0 0 0 0 0 0 0 0 0 0 0 0 0
0 0 0 0 0 0 0 0 0 0 0 0 0 0 0 0 0 0 0 0 0 0 0 0 0 0 0 0 0 0 0 1 1 2 0 8 13 18 10 21 26 34 55 70 91 126 147 194 236 263 276 323 359 405 445 485 522 567 644 726 666 629 464 362 281 213 182 144 90 67 35 36 29 11 9 3 7 4 1 0 0 0 0 0 0 0 0 0 0 0 0 0 0 0 0 0 0 0 0 0
0 0 0 0 0 0 0 0 0 0 0 0 0 0 0 0 0 0 0 0 0 0 0 0 0 0 0 0 0 0 0 2 1 1 1 4 5 11 15 18 17 24 37 70 80 90 104 148 156 205 259 278 289 299 332 364 451 493 575 685 747 668 588 512 348 266 213 160 110 77 52 44 19 18 13 6 5 3 2 2 1 0 0 0 0 0 0 0 0 0 0 0 0 0 0 0 0 0 0 0
0 0 0 0 0 0 0 0 0 0 0 0 0 0 0 0 0 0 0 0 0 0 0 0 0 0 0 0 0 0 0 1 0 1 1 2 1 4 7 9 22 22 22 37 44 63 86 88 115 156 155 197 233 274 294 339 335 358 516 545 637 662 685 577 471 400 279 198 144 115 69 36 21 13 16 8 4 5 1 3 0 1 0 0 0 0 0 0 0 0 0 0 0 0 0 0 0 0 0 0
0 0 0 0 0 0 0 0 0 0 0 0 0 0 0 0 0 0 0 0 0 0 0 0 0 0 0 0 0 0 0 1 0 2 0 2 1 6 6 12 15 9 20 28 37 38 63 78 108 117 135 157 172 186 196 257 273 315 395 460 576 666 794 732 599 462 376 252 185 114 95 39 31 33 22 3 3 4 2 0 0 0 1 0 0 0 0 0 0 0 0 0 0 0 0 0 0 0 0 0
0 0 0 0 0 0 0 0 0 0 0 0 0 0 0 0 0 0 0 0 0 0 0 0 0 0 0 0 0 1 1 0 0 0 0 0 1 2 6 3 4 11 17 17 21 31 41 48 50 89 89 99 129 120 133 186 191 265 356 368 483 586 710 768 727 619 506 358 267 176 123 79 43 35 22 10 6 6 1 1 0 1 1 0 0 0 0 0 0 0 0 0 0 0 0 0 0 0 0 0
0 0 0 0 0 0 0 0 0 0 0 0 0 0 0 0 0 0 0 0 0 0 0 0 0 0 0 0 0 0 0 0 0 0 0 0 0 1 2 3 13 7 5 12 10 22 30 47 44 62 65 102 83 106 122 136 157 221 247 319 379 450 614 677 749 752 669 555 404 256 162 101 67 39 17 24 9 4 1 2 0 1 0 1 1 0 1 0 0 0 0 0 0 0 0 0 0 0 0 0
0 0 0 0 0 0 0 0 0 0 0 0 0 0 0 0 0 0 0 0 0 0 0 0 0 0 0 0 0 0 0 0 0 0 0 1 1 0 0 4 0 4 7 6 8 12 24 28 31 31 49 63 76 83 96 107 131 154 196 222 299 345 455 618 741 852 829 801 514 372 239 166 99 56 44 21 13 5 4 0 0 0 0 1 0 0 0 0 0 0 0 0 0 0 0 0 0 0 0 0
0 0 0 0 0 0 0 0 0 0 0 0 0 0 0 0 0 0 0 0 0 0 0 0 0 0 0 0 0 0 0 0 0 0 0 0 0 0 1 2 2 3 3 5 14 7 17 23 21 30 38 49 62 69 64 66 85 134 146 171 256 260 398 465 675 825 908 880 730 501 307 208 136 80 52 31 12 7 1 3 2 0 0 1 0 0 0 0 0 0 0 0 0 0 0 0 0 0 0 0
0 0 0 0 0 0 0 0 0 0 0 0 0 0 0 0 0 0 0 0 0 0 0 0 0 0 0 0 0 0 0 0 0 0 0 0 0 0 0 1 7 3 3 9 8 6 13 8 21 21 23 29 39 42 39 52 69 85 105 154 158 219 316 404 534 741 891 975 843 638 434 287 203 111 66 35 24 5 6 0 2 1 0 2 1 0 0 0 0 0 0 0 0 0 0 0 0 0 0 0
0 0 0 0 0 0 0 0 0 0 0 0 0 0 0 0 0 0 0 0 0 0 0 0 0 0 0 0 0 0 0 0 0 0 0 0 0 0 0 1 3 1 2 3 4 12 8 13 13 18 22 23 21 17 22 29 46 47 75 96 113 166 202 260 382 557 711 911 872 724 548 365 244 130 79 55 31 6 4 2 2 0 0 1 2 0 0 0 0 0 0 0 0 0 0 0 0 0 0 0
0 0 0 0 0 0 0 0 0 0 0 0 0 0 0 0 0 0 0 0 0 0 0 0 0 0 0 0 0 0 0 0 0 0 0 0 0 0 0 0 0 1 1 3 3 5 5 13 7 8 13 12 10 8 20 18 24 28 42 50 75 107 146 190 284 400 506 657 708 659 647 464 308 176 103 61 28 12 6 2 2 0 4 0 0 1 0 0 0 0 0 0 0 0 0 0 0 0 0 0
0 0 0 0 0 0 0 0 0 0 0 0 0 0 0 0 0 0 0 0 0 0 0 0 0 0 0 0 0 0 0 0 0 0 0 0 0 0 0 0 0 0 1 0 1 3 2 1 2 6 6 6 11 11 9 11 11 20 28 42 55 82 101 155 189 233 331 426 547 650 632 581 327 214 122 91 50 21 10 7 1 8 1 1 2 0 0 0 0 0 0 0 0 0 0 0 0 0 0 0
0 0 0 0 0 0 0 0 0 0 0 0 0 0 0 0 0 0 0 0 0 0 0 0 0 0 0 0 0 0 0 0 0 0 0 0 0 0 0 0 0 0 1 2 1 2 0 2 4 1 7 7 5 7 5 6 11 18 20 22 42 55 64 103 120 159 218 302 391 470 538 496 418 287 167 78 48 26 14 7 6 5 4 2 1 0 1 0 0 0 0 0 0 0 0 0 0 0 0 0
0 0 0 0 0 0 0 0 0 0 0 0 0 0 0 0 0 0 0 0 0 0 0 0 0 0 0 0 0 0 0 0 0 0 0 0 0 0 0 0 0 0 1 1 0 0 2 2 0 1 4 1 3 3 4 5 9 12 15 23 21 28 42 54 70 119 112 171 269 330 360 435 395 275 185 127 60 30 19 16 11 4 7 2 1 0 1 0 0 0 0 0 0 0 0 0 0 0 0 0
0 0 0 0 0 0 0 0 0 0 0 0 0 0 0 0 0 0 0 0 0 0 0 0 0 0 0 0 0 0 0 0 0 0 0 0 0 0 0 0 0 0 0 0 0 1 0 2 2 3 2 4 0 5 5 2 4 5 6 8 15 12 22 31 48 62 68 84 133 192 279 289 311 281 194 108 59 40 19 10 14 10 4 4 0 0 1 0 0 0 0 0 0 0 0 0 0 0 0 0
0 0 0 0 0 0 0 0 0 0 0 0 0 0 0 0 0 0 0 0 0 0 0 0 0 0 0 0 0 0 0 0 0 0 0 0 0 0 0 0 0 0 0 0 0 0 1 0 0 0 0 3 1 2 0 1 3 2 7 11 4 12 11 15 32 35 53 61 81 110 149 188 213 193 171 121 76 48 30 14 10 10 1 2 4 2 1 1 0 0 1 0 0 0 0 0 0 0 0 0
0 0 0 0 0 0 0 0 0 0 0 0 0 0 0 0 0 0 0 0 0 0 0 0 0 0 0 0 0 0 0 0 0 0 0 0 0 0 0 0 0 0 0 0 0 0 0 0 0 0 0 0 0 0 1 0 0 2 8 5 3 7 16 16 8 20 21 33 52 56 84 104 132 151 157 143 88 42 33 19 8 6 8 2 2 2 2 1 2 1 0 0 0 0 0 0 0 0 0 0
0 0 3 1 0 0 0 0 0 0 0 0 0 0 0 0 0 0 0 0 0 0 0 0 0 0 0 0 0 0 0 0 0 0 0 0 0 0 0 0 0 0 0 0 0 0 0 0 0 0 0 1 0 0 0 1 1 1 2 1 0 4 8 3 5 15 15 11 23 29 55 57 82 85 98 88 70 40 23 14 20 7 6 5 2 2 1 1 1 1 0 2 0 0 0 1 0 1 0 0
0 2 0 1 2 0 0 0 0 0 0 0 0 0 0 0 0 0 0 0 0 0 0 0 0 0 0 0 0 0 0 0 0 0 0 0 0 0 0 0 0 0 0 0 0 0 0 0 0 0 0 0 0 0 1 0 0 2 0 1 1 2 1 5 3 3 3 8 7 17 20 37 44 52 52 68 53 35 32 33 14 8 4 7 7 3 2 3 4 1 1 3 0 1 1 1 3 2 0 0
0 1 0 1 0 0 0 0 0 0 0 0 0 0 0 0 0 0 0 0 0 0 0 0 0 0 0 0 0 0 0 0 0 0 0 0 0 0 0 0 0 0 0 0 0 0 0 0 0 0 0 0 0 0 0 0 0 0 0 1 0 2 0 2 1 3 4 5 1 8 6 15 21 19 30 45 28 41 32 32 19 15 6 3 15 6 5 7 4 5 3 2 4 3 3 2 2 1 0 0
1 1 1 0 0 0 0 0 0 0 0 0 0 0 0 0 0 0 0 0 0 0 0 0 0 0 0 0 0 0 0 0 0 0 0 0 0 0 0 0 0 0 0 0 0 0 0 0 0 0 0 0 0 0 0 0 0 0 0 0 0 0 0 0 2 3 5 5 1 4 5 7 10 9 16 23 27 18 30 24 26 25 18 11 11 17 8 3 16 9 2 5 2 4 1 3 1 0 2 0
3 1 1 0 0 0 0 0 0 0 0 0 0 0 0 0 0 0 0 0 0 0 0 0 0 0 0 0 0 0 0 0 0 0 0 0 0 0 0 0 0 0 0 0 0 0 0 0 0 0 0 0 0 0 0 0 0 0 0 0 0 0 0 1 0 2 3 4 5 4 2 5 8 8 7 15 19 26 17 23 29 41 28 22 21 18 11 5 10 9 5 2 5 2 4 2 2 5 2 2
3 3 3 1 1 0 0 0 0 0 0 0 0 0 0 0 0 0 0 0 0 0 0 0 0 0 0 0 0 0 0 0 0 0 0 0 0 0 0 0 0 0 0 0 0 0 0 0 0 0 0 0 0 0 0 0 0 0 0 0 0 0 0 0 0 0 2 6 2 3 2 6 4 3 5 3 13 21 16 22 31 32 38 29 24 28 19 15 11 14 12 8 5 5 6 7 3 3 2 2
5 2 5 2 1 3 2 0 0 0 0 0 0 0 0 0 0 0 0 0 0 0 0 0 0 0 0 0 0 0 0 0 0 0 0 0 0 0 0 0 0 0 0 0 0 0 0 0 0 0 0 0 0 0 0 0 0 0 0 0 0 0 0 0 0 0 2 5 4 0 0 3 5 1 2 8 8 14 14 18 22 37 35 33 14 29 18 20 13 13 23 19 16 8 9 7 5 4 7 2
5 2 3 3 3 0 2 2 0 0 0 0 0 0 0 0 0 0 0 0 0 0 0 0 0 0 0 0 0 0 0 0 0 0 0 0 0 0 0 0 0 0 0 0 0 0 0 0 0 0 0 0 0 0 0 0 0 0 0 0 0 0 0 0 0 1 0 1 1 0 0 2 2 6 2 10 10 12 14 8 19 32 24 23 30 31 23 14 16 18 22 14 13 13 13 12 7 8 5 7
9 8 5 1 3 0 0 1 0 0 0 1 0 0 0 0 0 0 0 0 0 0 0 0 0 0 0 0 0 0 0 0 0 0 0 0 0 0 0 0 0 0 0 0 0 0 0 0 0 0 0 0 0 0 0 0 0 0 0 0 0 0 0 0 0 0 0 1 0 0 0 0 2 2 4 9 9 10 9 14 14 23 25 26 34 34 20 29 37 29 28 25 18 11 20 20 9 13 10 12
17 12 8 5 1 5 3 3 3 0 0 0 1 0 0 0 0 0 0 0 0 0 0 0 0 0 0 0 0 0 0 0 0 0 0 0 0 0 0 0 0 0 0 0 0 0 0 0 0 0 0 0 0 0 0 0 0 0 0 0 0 0 0 0 0 0 0 0 0 0 0 0 0 2 4 6 5 8 9 11 16 11 22 26 38 25 35 42 38 37 30 38 44 24 20 13 20 17 14 12
13 3 6 7 3 3 1 5 3 1 0 1 0 0 0 0 0 0 0 0 0 0 0 0 0 0 0 0 0 0 0 0 0 0 0 0 0 0 0 0 0 0 0 0 0 0 0 0 0 0 0 0 0 0 0 0 0 0 0 0 0 0 0 0 0 0 0 0 0 0 0 0 0 1 0 3 3 11 12 12 19 22 16 12 27 40 43 46 46 45 47 40 33 25 29 29 27 20 21 15
10 20 11 3 8 4 6 8 2 1 3 2 0 0 0 0 0 0 0 0 0 0 0 0 0 0 0 0 0 0 0 0 0 0 0 0 0 0 0 0 0 0 0 0 0 0 0 0 0 0 0 0 0 0 0 0 0 0 0 0 0 0 0 0 0 0 0 0 0 0 0 0 0 0 1 1 3 6 4 13 13 11 21 22 26 46 49 41 49 51 57 33 43 35 28 39 26 26 18 8
14 16 6 8 9 13 5 9 7 4 4 1 1 0 1 0 0 1 0 0 0 0 0 0 0 0 0 0 0 0 0 0 0 0 0 0 0 0 0 0 0 0 0 0 0 0 0 0 0 0 0 0 0 0 0 0 0 0 0 0 0 0 0 0 0 0 0 0 0 0 0 0 0 0 0 3 1 5 3 10 13 17 35 17 26 35 49 55 54 32 55 45 54 31 43 61 24 27 27 22
14 16 11 16 9 17 21 4 6 3 5 4 1 1 0 1 3 0 0 0 0 0 0 0 0 0 0 0 0 0 0 0 0 0 0 0 0 0 0 0 0 0 0 0 0 0 0 0 0 0 0 0 0 0 0 0 0 0 0 0 0 0 0 0 0 0 0 0 0 0 0 0 0 0 0 1 3 5 6 7 8 16 18 19 28 44 34 51 61 54 55 47 35 41 48 39 42 35 16 23
24 24 31 19 20 13 16 11 9 7 4 2 4 4 2 3 0 1 0 0 0 0 0 0 0 0 0 0 0 0 0 0 0 0 0 0 0 0 0 0 0 0 0 0 0 0 0 0 0 0 0 0 0 0 0 0 0 0 0 0 0 0 0 0 0 0 0 0 0 0 0 0 0 0 0 1 0 5 5 6 10 11 14 15 38 34 47 45 57 59 62 48 57 40 47 56 46 48 40 41
35 27 22 19 16 14 10 9 9 10 5 7 0 3 0 2 3 3 1 0 0 0 0 0 0 0 0 0 0 0 0 0 0 0 0 0 0 0 0 0 0 0 0 0 0 0 0 0 0 0 0 0 0 0 0 0 0 0 0 0 0 0 0 0 0 0 0 0 0 0 0 0 0 0 0 1 1 4 1 4 11 7 15 23 15 26 28 39 54 57 67 54 50 46 51 46 36 44 38 36
23 25 27 37 29 18 13 14 13 7 8 7 10 3 1 1 1 4 1 0 0 0 0 0 0 0 0 0 0 0 0 0 0 0 0 0 0 0 0 0 0 0 0 0 0 0 0 0 0 0 0 0 0 0 0 0 0 0 0 0 0 0 0 0 0 0 0 0 0 0 0 0 0 0 0 0 1 1 1 1 7 8 14 21 17 20 33 42 51 44 70 50 54 46 55 64 50 40 44 45
44 33 20 25 15 30 21 12 14 10 10 4 6 2 2 3 4 0 0 0 0 0 0 0 0 0 0 0 0 0 0 0 0 0 0 0 0 0 0 0 0 0 0 0 0 0 0 0 0 0 0 0 0 0 0 0 0 0 0 0 0 0 0 0 0 0 0 0 0 0 0 0 0 0 0 0 0 0 1 3 7 7 6 14 9 25 31 31 44 40 47 42 70 48 55 51 54 41 39 40
54 44 36 35 24 29 29 24 23 15 11 10 9 9 3 2 2 2 4 0 0 1 0 0 0 0 0 0 0 0 0 0 0 0 0 0 0 0 0 0 0 0 0 0 0 0 0 0 0 0 0 0 0 0 0 0 0 0 0 0 0 0 0 0 0 0 0 0 0 0 0 0 0 0 0 0 0 1 1 1 4 4 10 14 16 20 20 32 30 32 48 54 56 40 48 58 56 43 48 28
40 44 48 31 40 29 28 20 24 24 14 16 12 6 5 5 3 0 1 0 1 0 1 1 1 0 0 0 0 0 0 0 0 0 0 0 0 0 0 0 0 0 0 0 0 0 0 0 0 0 0 0 0 0 0 0 0 0 0 0 0 0 0 0 0 0 0 0 0 0 0 0 0 0 0 0 0 0 2 2 5 7 8 8 14 14 24 36 38 33 55 59 47 73 59 56 45 65 35 48
39 47 42 28 30 24 16 38 20 20 19 23 10 12 7 5 5 2 4 1 0 3 0 1 0 0 0 0 0 0 0 0 0 0 0 0 0 0 0 0 0 0 0 0 0 0 0 0 0 0 0 0 0 0 0 0 0 0 0 0 0 0 0 0 0 0 0 0 0 0 0 0 0 0 0 0 0 0 3 2 3 6 7 8 16 17 26 23 19 41 42 42 48 44 40 56 45 50 50 45
55 38 43 29 35 27 26 25 27 11 20 19 14 12 5 8 7 8 2 1 0 0 2 2 0 0 0 0 0 0 0 0 0 0 0 0 0 0 0 0 0 0 0 0 0 0 0 0 0 0 0 0 0 0 0 0 0 0 0 0 0 0 0 0 0 0 0 0 0 0 0 0 0 0 0 0 0 2 1 4 4 2 10 12 12 9 20 22 21 31 41 43 53 58 53 54 67 50 46 44
48 47 37 25 29 29 31 24 23 28 24 18 14 20 15 6 12 3 2 2 0 0 0 0 0 0 0 0 0 0 0 0 0 0 0 0 0 0 0 0 0 0 0 0 0 0 0 0 0 0 0 0 0 0 0 0 0 0 0 0 0 0 0 0 0 0 0 0 0 0 0 0 0 0 0 0 0 3 1 1 2 4 1 10 9 13 17 20 23 28 35 41 46 44 54 63 55 46 52 43
45 51 50 45 33 38 30 39 21 23 24 21 17 20 5 8 3 7 4 1 3 0 0 0 0 0 0 0 0 0 0 0 0 0 0 0 0 0 0 0 0 0 0 0 0 0 0 0 0 0 0 0 0 0 0 0 0 0 0 0 0 0 0 0 0 0 0 0 0 0 0 0 0 0 0 0 1 0 2 0 0 6 7 8 10 14 22 12 25 27 46 33 36 58 49 49 43 46 53 44
