#lt    30.0
#count pbc
#dt    1.0
#dn    30
#edges  -33.962735 -33.2834803 -32.6042256 -31.9249709 -31.2457162 -30.5664615 -29.8872068 -29.2079521 -28.5286974 -27.8494427 -27.170188 -26.4909333 -25.8116786 -25.1324239 -24.4531692 -23.7739145 -23.0946598 -22.4154051 -21.7361504 -21.0568957 -20.377641 -19.6983863 -19.0191316 -18.3398769 -17.6606222 -16.9813675 -16.3021128 -15.6228581 -14.9436034 -14.2643487 -13.585094 -12.9058393 -12.2265846 -11.5473299 -10.8680752 -10.1888205 -9.5095658 -8.8303111 -8.1510564 -7.4718017 -6.792547 -6.1132923 -5.4340376 -4.7547829 -4.0755282 -3.3962735 -2.7170188 -2.0377641 -1.3585094 -0.6792547 6.39488462184e-14 0.6792547 1.3585094 2.0377641 2.7170188 3.3962735 4.0755282 4.7547829 5.4340376 6.1132923 6.792547 7.4718017 8.1510564 8.8303111 9.5095658 10.1888205 10.8680752 11.5473299 12.2265846 12.9058393 13.585094 14.2643487 14.9436034 15.6228581 16.3021128 16.9813675 17.6606222 18.3398769 19.0191316 19.6983863 20.377641 21.0568957 21.7361504 22.4154051 23.0946598 23.7739145 24.4531692 25.1324239 25.8116786 26.4909333 27.170188 27.8494427 28.5286974 29.2079521 29.8872068 30.5664615 31.2457162 31.9249709 32.6042256 33.2834803 33.962735
56 41 63 52 37 40 38 41 32 28 20 15 9 4 4 0 4 2 0 1 2 0 0 0 0 0 0 0 0 0 0 0 0 0 0 0 0 0 0 0 0 0 0 0 0 0 0 0 0 0 0 0 0 0 0 0 0 0 0 0 0 0 0 0 0 0 0 0 0 0 0 0 0 0 0 0 0 0 0 0 0 2 0 4 5 5 1 12 22 22 19 23 21 21 29 22 38 41 48 52
64 54 46 53 53 44 36 34 37 42 33 15 9 2 8 7 4 3 1 0 1 0 0 0 0 0 0 0 0 0 0 0 0 0 0 0 0 0 0 0 0 0 0 0 0 0 0 0 0 0 0 0 0 0 0 0 0 0 0 0 0 0 0 0 0 0 0 0 0 0 0 0 0 0 0 0 0 0 0 0 0 1 2 3 2 7 5 10 17 12 12 24 27 24 23 30 54 26 45 41
52 61 53 59 52 45 54 49 45 39 30 25 23 17 11 5 6 3 1 1 0 0 0 0 0 0 0 0 0 0 0 0 0 0 0 0 0 0 0 0 0 0 0 0 0 0 0 0 0 0 0 0 0 0 0 0 0 0 0 0 0 0 0 0 0 0 0 0 0 0 0 0 0 0 0 0 0 0 0 0 0 1 1 6 5 2 7 8 9 13 15 17 23 25 24 23 39 39 38 41
41 50 53 54 65 41 41 53 44 50 45 32 27 12 14 8 7 5 3 0 2 0 0 0 0 0 0 0 0 0 0 0 0 0 0 0 0 0 0 0 0 0 0 0 0 0 0 0 0 0 0 0 0 0 0 0 0 0 0 0 0 0 0 0 0 0 0 0 0 0 0 0 0 0 0 0 0 0 0 0 0 0 0 0 1 1 4 5 4 13 15 13 22 28 33 37 32 36 36 35
38 46 51 57 43 55 55 43 33 57 34 39 27 21 18 8 7 11 3 1 1 0 1 0 0 0 0 0 0 0 0 0 0 0 0 0 0 0 0 0 0 0 0 0 0 0 0 0 0 0 0 0 0 0 0 0 0 0 0 0 0 0 0 0 0 0 0 0 0 0 0 0 0 0 0 0 0 0 0 0 0 0 0 0 0 2 4 7 9 9 12 11 12 16 26 29 36 32 46 41
27 36 50 64 52 60 50 45 43 41 41 28 36 20 27 15 11 3 3 4 0 0 0 0 0 0 0 0 0 0 0 0 0 0 0 0 0 0 0 0 0 0 0 0 0 0 0 0 0 0 0 0 0 0 0 0 0 0 0 0 0 0 0 0 0 0 0 0 0 0 0 0 0 0 0 0 0 0 0 0 0 0 0 1 0 1 5 3 1 9 6 11 15 16 18 25 30 34 48 38
34 43 45 41 46 51 52 60 55 61 56 50 30 29 25 11 13 13 7 6 1 1 0 0 0 0 0 0 0 0 0 0 0 0 0 0 0 0 0 0 0 0 0 0 0 0 0 0 0 0 0 0 0 0 0 0 0 0 0 0 0 0 0 0 0 0 0 0 0 0 0 0 0 0 0 0 0 0 0 0 0 0 0 0 1 2 0 3 6 7 8 8 14 15 18 16 20 29 32 39
31 35 49 53 56 44 57 57 62 48 42 37 48 32 31 15 14 7 4 3 2 1 0 0 0 0 0 0 0 0 0 0 0 0 0 0 0 0 0 0 0 0 0 0 0 0 0 0 0 0 0 0 0 0 0 0 0 0 0 0 0 0 0 0 0 0 0 0 0 0 0 0 0 0 0 0 0 0 0 0 0 0 0 0 1 1 4 1 3 4 7 8 5 16 20 11 14 22 22 31
25 30 42 40 64 49 68 68 60 41 61 59 37 39 27 25 19 10 10 5 2 1 0 0 0 0 0 0 0 0 0 0 0 0 0 0 0 0 0 0 0 0 0 0 0 0 0 0 0 0 0 0 0 0 0 0 0 0 0 0 0 0 0 0 0 0 0 0 0 0 0 0 0 0 0 0 0 0 0 0 0 0 0 0 0 2 1 2 1 4 5 10 9 8 12 13 22 17 16 14
25 27 38 48 45 53 59 48 49 55 43 42 47 46 31 29 16 18 7 5 4 3 0 0 0 0 0 0 0 0 0 0 0 0 0 0 0 0 0 0 0 0 0 0 0 0 0 0 0 0 0 0 0 0 0 0 0 0 0 0 0 0 0 0 0 0 0 0 0 0 0 0 0 0 0 0 0 0 0 0 0 0 0 0 0 1 0 2 1 6 3 4 7 8 11 11 14 23 16 22
20 36 30 36 38 46 56 38 51 44 49 53 38 56 38 27 27 16 14 9 4 0 1 2 0 0 1 0 0 0 0 0 0 0 0 0 0 0 0 0 0 0 0 0 0 0 0 0 0 0 0 0 0 0 0 0 0 0 0 0 0 0 0 0 0 0 0 0 0 0 0 0 0 0 0 0 0 0 0 0 0 0 0 0 0 0 0 1 0 1 1 3 2 5 10 6 6 13 10 18
18 24 34 34 38 42 48 40 44 37 54 60 61 61 34 37 16 24 9 13 7 3 1 0 0 0 0 0 1 0 0 0 0 0 0 0 0 0 0 0 0 0 0 0 0 0 0 0 0 0 0 0 0 0 0 0 0 0 0 0 0 0 0 0 0 0 0 0 0 0 0 0 0 0 0 0 0 0 0 0 0 0 0 0 0 0 0 1 4 0 0 1 1 5 3 10 5 5 11 20
10 22 19 14 20 26 27 34 46 56 53 53 55 57 44 28 34 29 17 12 9 3 2 1 2 0 0 0 0 0 0 0 0 0 0 0 0 0 0 0 0 0 0 0 0 0 0 0 0 0 0 0 0 0 0 0 0 0 0 0 0 0 0 0 0 0 0 0 0 0 0 0 0 0 0 0 0 0 0 0 0 0 0 0 0 0 0 0 2 1 1 3 2 4 4 6 5 5 5 6
8 15 17 17 19 27 35 42 42 34 38 58 52 70 47 33 23 19 17 7 3 6 1 1 1 1 0 0 1 3 0 1 0 0 0 0 0 0 0 0 0 0 0 0 0 0 0 0 0 0 0 0 0 0 0 0 0 0 0 0 0 0 0 0 0 0 0 0 0 0 0 0 0 0 0 0 0 0 0 0 0 0 0 0 0 0 0 0 0 2 3 0 0 3 0 5 2 2 4 6
8 6 14 11 14 15 14 22 30 18 36 44 46 43 43 40 32 18 17 11 9 7 2 2 2 1 0 1 3 3 4 1 1 1 0 0 0 0 0 0 0 0 0 0 0 0 0 0 0 0 0 0 0 0 0 0 0 0 0 0 0 0 0 0 0 0 0 0 0 0 0 0 0 0 0 0 0 0 0 0 0 0 0 0 0 0 0 0 0 0 2 0 1 2 2 1 4 2 5 6
4 5 7 9 11 8 13 11 19 27 26 32 47 37 35 31 21 21 29 11 9 10 7 10 4 5 6 2 1 1 0 0 0 0 0 0 0 0 0 0 0 0 0 0 0 0 0 0 0 0 0 0 0 0 0 0 0 0 0 0 0 0 0 0 0 0 0 0 0 0 0 0 0 0 0 0 0 0 0 0 0 0 0 0 0 0 0 0 0 0 0 1 0 3 2 0 2 2 1 1
0 3 1 7 5 12 10 19 20 28 24 27 17 40 21 29 27 30 29 18 20 6 12 5 6 7 6 0 1 0 0 1 0 0 0 0 0 0 0 0 0 0 0 0 0 0 0 0 0 0 0 0 0 0 0 0 0 0 0 0 0 0 0 0 0 0 0 0 0 0 0 0 0 0 0 0 0 0 0 0 0 0 0 0 0 0 0 0 0 0 0 0 0 1 2 7 1 4 1 0
0 1 6 5 6 9 13 14 23 19 12 17 14 13 26 39 31 34 36 21 24 15 19 8 4 11 0 0 0 1 1 0 1 0 0 0 0 0 0 0 0 0 0 0 0 0 0 0 0 0 0 0 0 0 0 0 0 0 0 0 0 0 0 0 0 0 0 0 0 0 0 0 0 0 0 0 0 0 0 0 0 0 0 0 0 0 0 0 0 0 0 0 0 0 0 0 1 1 2 0
2 2 2 5 4 4 10 6 14 3 13 21 14 14 13 15 27 29 39 45 30 18 22 13 8 15 3 4 6 2 2 0 1 1 0 0 0 0 0 0 0 0 0 0 0 0 0 0 0 0 0 0 0 0 0 0 0 0 0 0 0 0 0 0 0 0 0 0 0 0 0 0 0 0 0 0 0 0 0 0 0 0 0 0 0 0 0 0 0 0 0 0 0 0 1 0 0 0 1 1
1 2 4 3 2 0 2 3 5 8 4 8 10 7 11 14 24 42 38 29 32 36 20 13 9 8 10 7 5 1 0 3 1 0 0 0 0 0 0 0 0 0 0 0 0 0 0 0 0 0 1 0 0 0 0 0 0 0 0 0 0 0 0 0 0 0 0 0 0 0 0 0 0 0 0 0 0 0 0 0 0 0 0 0 0 0 0 0 0 0 0 0 0 0 0 0 0 1 1 3
0 0 1 3 1 2 2 0 1 3 8 4 6 6 7 10 20 29 36 31 38 39 28 30 26 13 15 12 9 5 5 3 4 1 1 1 0 0 0 0 0 0 0 0 0 0 0 0 0 0 0 0 0 0 0 0 0 0 0 0 0 0 0 0 0 0 0 0 0 0 0 0 0 0 0 0 0 0 0 0 0 0 0 0 0 0 0 0 0 0 0 0 0 0 0 0 0 0 1 1
0 1 0 0 2 0 1 1 1 4 5 6 6 5 3 6 20 15 25 29 44 63 69 41 31 36 27 21 11 7 2 3 3 1 0 2 1 0 0 0 0 0 0 0 0 0 0 0 0 1 0 0 0 0 0 0 0 0 0 0 0 0 0 0 0 0 0 0 0 0 0 0 0 0 0 0 0 0 0 0 0 0 0 0 0 0 0 0 0 0 0 0 0 0 0 0 0 0 0 0
1 0 0 0 1 0 0 0 1 1 2 8 7 5 6 8 9 16 22 27 36 41 86 79 61 58 42 28 17 18 12 9 4 8 0 2 0 1 0 0 2 0 0 0 0 0 1 0 0 1 1 2 0 0 0 0 0 0 0 0 0 0 0 0 0 0 0 0 0 0 0 0 0 0 0 0 0 0 0 0 0 0 0 0 0 0 0 0 0 0 0 0 0 0 0 0 0 0 0 0
0 0 1 0 0 0 0 0 0 2 5 3 2 2 1 6 11 4 10 20 29 52 64 117 75 74 71 60 36 35 29 22 12 7 4 2 1 4 1 0 2 0 0 0 1 0 0 0 0 1 1 0 0 0 0 0 0 0 0 0 0 0 0 0 0 0 0 0 0 0 0 0 0 0 0 0 0 0 0 0 0 0 0 0 0 0 0 0 0 0 0 0 0 0 0 0 0 0 0 0
0 0 1 0 0 0 0 0 0 0 2 3 1 3 0 5 5 6 11 20 19 45 55 84 110 104 113 108 76 69 52 36 14 15 8 9 5 6 2 2 0 1 0 1 1 0 1 0 0 0 0 0 0 0 1 0 0 0 0 0 0 0 0 0 0 0 0 0 0 0 0 0 0 0 0 0 0 0 0 0 0 0 0 0 0 0 0 0 0 0 0 0 0 0 0 0 0 0 0 0
0 0 0 0 0 0 0 1 0 2 0 0 4 1 3 3 2 8 5 9 21 33 59 75 120 156 194 190 172 133 77 53 47 26 28 20 12 8 7 6 3 1 1 1 0 2 1 2 1 1 0 0 0 1 0 0 0 0 0 0 0 0 0 0 0 0 0 0 0 0 0 0 0 0 0 0 0 0 0 0 0 0 0 0 0 0 0 0 0 0 0 0 0 0 0 0 0 0 0 0
0 0 0 1 0 1 1 2 1 0 1 2 2 0 3 4 7 5 5 7 11 28 39 65 121 173 245 325 256 184 164 90 73 51 40 35 25 21 10 3 4 7 7 5 5 2 2 1 1 2 2 0 0 1 0 0 0 0 0 0 0 0 0 0 0 0 0 0 0 0 0 0 0 0 0 0 0 0 0 0 0 0 0 0 0 0 0 0 0 0 0 0 0 0 0 0 0 0 0 0
0 0 0 0 0 0 1 1 1 0 0 0 1 2 0 1 1 1 4 9 11 25 30 64 86 190 288 433 432 343 273 220 151 110 72 60 43 23 19 12 11 13 10 4 4 8 3 2 3 3 0 0 1 0 0 0 0 0 0 0 0 0 0 0 0 0 0 0 0 0 0 0 0 0 0 0 0 0 0 0 0 0 0 0 0 0 0 0 0 0 0 0 0 0 0 0 0 0 0 0
0 0 0 0 0 0 0 0 0 0 0 0 1 0 0 2 1 0 3 4 11 17 41 39 82 156 282 417 523 458 420 324 227 171 131 93 62 50 30 25 23 9 8 7 8 2 7 6 1 1 1 2 0 1 0 0 0 0 0 0 0 0 0 0 0 0 0 0 0 0 0 0 0 0 0 0 0 0 0 0 0 0 0 0 0 0 0 0 0 0 0 0 0 0 0 0 0 0 0 0
0 0 0 0 0 0 0 0 0 0 0 1 1 2 0 0 0 0 3 2 7 17 24 32 56 112 210 348 523 617 545 454 352 250 178 156 80 67 50 28 34 19 29 13 17 10 5 3 5 3 4 2 0 4 0 0 1 0 0 0 0 1 0 0 0 0 0 0 0 0 0 0 0 0 0 0 0 0 0 0 0 0 0 0 0 0 0 0 0 0 0 0 0 0 0 0 0 0 0 0
0 0 0 0 0 0 0 0 0 0 1 0 1 1 0 0 0 0 0 3 2 11 13 33 45 87 155 279 406 572 641 620 495 380 265 225 160 116 87 70 53 28 28 19 14 10 9 17 9 6 6 3 2 3 2 1 0 0 0 0 0 0 0 0 0 0 0 0 0 0 0 0 0 0 0 0 0 0 0 0 0 0 0 0 0 0 0 0 0 0 0 0 0 0 0 0 0 0 0 0
0 0 0 0 0 0 0 0 0 0 0 0 1 1 0 0 0 1 0 2 8 5 9 11 45 67 97 167 320 473 582 621 648 560 418 304 234 186 136 77 80 62 39 33 31 18 19 13 19 13 13 4 2 3 0 5 1 0 0 0 1 0 0 0 0 0 0 0 0 0 0 0 0 0 0 0 0 0 0 0 0 0 0 0 0 0 0 0 0 0 0 0 0 0 0 0 0 0 0 0
0 0 0 0 0 0 0 0 0 0 0 1 2 0 0 0 0 0 1 1 2 1 7 14 25 61 65 108 208 353 531 624 723 708 595 494 360 279 212 147 111 89 63 53 44 35 37 41 27 15 14 8 16 6 6 1 3 0 0 0 1 0 1 0 0 0 0 0 0 0 0 0 0 0 0 0 0 0 0 0 0 0 0 0 0 0 0 0 0 0 0 0 0 0 0 0 0 0 0 0
0 0 0 0 0 0 0 0 0 0 0 0 0 0 0 0 0 0 0 0 0 3 4 7 23 37 40 88 159 257 408 516 707 855 807 710 505 399 280 212 162 111 106 79 66 66 44 39 40 21 16 11 13 9 5 5 6 2 1 2 0 0 1 0 0 0 0 0 0 0 0 0 0 0 0 0 0 0 0 0 0 0 0 0 0 0 0 0 0 0 0 0 0 0 0 0 0 0 0 0
0 0 0 0 0 0 0 0 0 0 0 0 0 0 0 0 0 0 0 0 1 0 2 4 9 34 30 86 115 166 272 454 610 787 921 899 711 538 411 276 207 177 104 97 79 85 73 48 50 39 34 24 21 15 10 3 9 6 0 1 2 1 0 1 0 0 0 0 1 0 0 0 0 0 0 0 0 0 0 0 0 0 0 0 0 0 0 0 0 0 0 0 0 0 0 0 0 0 0 0
0 0 0 0 0 0 0 0 0 0 0 0 0 0 0 0 0 0 0 0 0 1 0 5 4 15 42 60 84 163 206 314 451 715 874 863 871 729 500 399 301 227 181 160 133 127 101 102 73 72 62 47 18 19 15 9 4 3 0 2 2 0 2 3 1 0 0 0 0 0 0 0 0 0 0 0 0 0 0 0 0 0 0 0 0 0 0 0 0 0 0 0 0 0 0 0 0 0 0 0
0 0 0 0 0 0 0 0 0 0 0 0 0 0 0 0 0 0 0 0 0 0 0 2 8 14 17 58 62 84 162 229 390 489 689 868 844 781 645 498 393 328 250 194 167 139 127 139 112 75 82 62 42 31 23 10 15 4 6 2 1 1 1 2 0 0 0 0 0 0 0 0 0 0 0 0 0 0 0 0 0 0 0 0 0 0 0 0 0 0 0 0 0 0 0 0 0 0 0 0
0 0 0 0 0 0 0 0 0 0 0 0 0 0 0 0 0 0 0 0 0 0 0 1 3 12 13 42 55 76 97 158 260 413 560 680 805 887 804 643 518 451 329 277 200 179 173 155 131 127 88 86 61 48 39 19 16 13 6 10 2 5 3 1 0 1 0 0 0 0 0 0 0 0 0 0 0 0 0 0 0 0 0 0 0 0 0 0 0 0 0 0 0 0 0 0 0 0 0 0
0 0 0 0 0 0 0 0 0 0 0 0 0 0 0 0 0 0 0 0 0 0 1 1 3 7 10 27 36 56 110 120 175 251 391 538 614 765 756 718 656 550 426 305 255 265 243 202 193 149 125 111 71 63 50 34 17 14 6 9 3 5 6 3 0 0 0 0 2 0 0 0 0 0 0 0 0 0 0 0 0 0 0 0 0 0 0 0 0 0 0 0 0 0 0 0 0 0 0 0
0 0 0 0 0 0 0 0 0 0 0 0 0 0 0 0 0 0 0 0 0 0 0 1 2 7 14 20 20 28 68 96 143 179 239 378 496 678 687 722 711 646 534 406 371 343 275 251 250 194 159 142 89 75 54 40 21 30 16 13 14 7 1 1 2 1 0 1 1 0 0 0 0 0 0 0 0 0 0 0 0 0 0 0 0 0 0 0 0 0 0 0 0 0 0 0 0 0 0 0
0 0 0 0 0 0 0 0 0 0 0 0 0 0 0 0 0 0 0 0 0 0 0 3 4 6 7 15 20 27 47 61 109 142 201 300 381 511 619 718 710 676 674 545 489 430 402 395 290 233 237 192 136 111 84 61 49 29 20 21 17 5 6 4 3 1 0 3 1 1 0 1 0 0 0 0 0 0 0 0 0 0 0 0 0 0 0 0 0 0 0 0 0 0 0 0 0 0 0 0
0 0 0 0 0 0 0 0 0 0 0 0 0 0 0 0 0 0 0 0 0 2 3 2 6 4 5 10 11 24 25 62 75 108 164 223 332 416 530 617 705 803 761 724 679 573 488 448 382 338 252 231 194 138 130 67 64 55 38 18 19 9 9 9 3 1 1 0 1 0 0 0 0 0 0 0 0 0 0 0 0 0 0 0 0 0 0 0 0 0 0 0 0 0 0 0 0 0 0 0
0 0 0 0 0 0 0 0 0 0 0 0 0 0 0 0 0 0 0 0 0 0 1 1 2 3 3 9 11 17 25 43 70 94 139 165 250 319 427 505 693 745 845 806 825 736 648 585 542 448 385 333 258 202 160 128 79 60 53 27 18 20 17 9 5 2 2 2 1 0 1 0 0 0 0 0 0 0 0 0 0 0 0 0 0 0 0 0 0 0 0 0 0 0 0 0 0 0 0 0
0 0 0 0 0 0 0 0 0 0 0 0 0 0 0 0 0 0 0 0 0 0 0 0 1 5 8 7 15 19 22 45 60 77 104 154 222 283 352 451 543 680 822 907 950 881 810 795 695 573 507 452 293 288 215 154 118 75 59 41 31 26 19 7 7 7 2 1 0 1 0 0 0 0 0 0 0 0 0 0 0 0 0 0 0 0 0 0 0 0 0 0 0 0 0 0 0 0 0 0
0 0 0 0 0 0 0 0 0 0 0 0 0 0 0 0 0 0 0 0 0 0 0 0 4 2 5 8 9 11 23 25 53 74 94 166 168 222 290 353 425 657 747 888 1025 1082 1055 996 940 783 675 557 482 403 281 245 177 109 92 68 45 40 27 18 11 9 3 4 1 2 0 0 0 0 0 0 0 0 0 0 0 0 0 0 0 0 0 0 0 0 0 0 0 0 0 0 0 0 0 0
0 0 0 0 0 0 0 0 0 0 0 0 0 0 0 0 0 0 0 0 0 0 0 0 2 2 4 7 12 12 18 20 45 71 90 112 171 193 250 306 377 544 731 898 1088 1159 1228 1141 1089 989 826 712 658 503 389 303 247 172 108 94 85 42 29 26 18 16 1 3 1 3 0 1 0 0 0 0 0 0 0 0 0 0 0 0 0 0 0 0 0 0 0 0 0 0 0 0 0 0 0 0
0 0 0 0 0 0 0 0 0 0 0 0 0 0 0 0 0 0 0 0 0 0 0 0 1 3 4 4 4 11 10 17 52 54 79 104 140 164 210 286 354 462 648 876 1060 1212 1422 1441 1299 1168 1047 925 775 638 534 391 298 190 169 137 90 69 41 33 18 13 8 5 6 2 1 0 0 0 0 0 0 0 0 0 0 0 0 0 0 0 0 0 0 0 0 0 0 0 0 0 0 0 0 0
0 0 0 0 0 0 0 0 0 0 0 0 0 0 0 0 0 0 0 0 0 0 0 1 0 0 2 0 5 10 12 15 28 49 73 84 122 153 230 276 347 453 615 761 970 1208 1419 1508 1507 1372 1290 1145 1000 792 641 479 313 262 199 156 105 79 61 38 24 21 11 6 11 4 4 0 0 0 0 0 0 0 0 0 0 0 0 0 0 0 0 0 0 0 0 0 0 0 0 0 0 0 0 0
0 0 0 0 0 0 0 0 0 0 0 0 0 0 0 0 0 0 0 0 0 0 0 0 0 0 0 4 3 7 6 12 31 41 62 70 99 155 165 249 333 388 555 721 902 1088 1306 1530 1522 1555 1460 1275 1122 959 692 559 493 333 277 200 134 89 73 58 32 17 19 6 8 9 3 1 0 0 0 0 0 0 0 0 0 0 0 0 0 0 0 0 0 0 0 0 0 0 0 0 0 0 0 0
0 0 0 0 0 0 0 0 0 0 0 0 0 0 0 0 0 0 0 0 0 0 0 0 1 1 2 2 0 4 3 14 11 25 39 50 75 104 157 176 288 334 450 649 763 957 1247 1434 1570 1645 1569 1500 1298 1048 869 659 488 387 298 234 189 133 85 64 49 28 22 9 11 1 1 0 0 0 0 0 0 0 0 0 0 0 0 0 0 0 0 0 0 0 0 0 0 0 0 0 0 0 0 0
0 0 0 0 0 0 0 0 0 0 0 0 0 0 0 0 0 0 0 0 0 0 0 0 0 0 0 2 3 2 7 9 10 25 42 51 85 83 118 132 228 279 337 510 705 874 1050 1286 1484 1565 1644 1563 1506 1275 1008 747 649 482 372 264 211 159 103 94 60 31 45 25 13 9 3 4 2 0 0 0 0 0 0 0 0 0 0 0 0 0 0 0 0 0 0 0 0 0 0 0 0 0 0 0
0 0 0 0 0 0 0 0 0 0 0 0 0 0 0 0 0 0 0 0 0 0 0 0 0 1 1 6 2 3 5 9 16 20 31 51 52 79 105 129 171 278 334 469 562 697 915 1089 1296 1514 1602 1661 1617 1406 1225 834 703 503 423 354 223 189 120 99 81 52 39 29 15 6 3 3 0 0 0 0 0 0 0 0 0 0 0 0 0 0 0 0 0 0 0 0 0 0 0 0 0 0 0 0
0 0 0 0 0 0 0 0 0 0 0 0 0 0 0 0 0 0 0 0 0 0 0 0 0 1 0 0 3 5 2 7 7 16 23 24 43 72 66 111 145 202 321 341 449 590 806 964 1152 1327 1488 1563 1637 1546 1238 964 806 552 480 341 254 204 142 119 85 65 42 28 21 17 9 2 1 0 1 0 0 0 0 0 0 0 0 0 0 0 0 0 0 0 0 0 0 0 0 0 0 0 0 0
0 0 0 0 0 0 0 0 0 0 0 0 0 0 0 0 0 0 0 0 0 0 0 0 0 0 0 0 5 1 2 3 12 10 15 22 20 55 62 84 95 153 223 278 391 526 621 837 959 1141 1224 1378 1501 1434 1265 1058 847 670 553 413 286 230 159 162 93 70 51 37 21 15 13 9 4 0 1 0 0 0 0 0 0 0 0 0 0 0 0 0 0 0 0 0 0 0 0 0 0 0 0 0
0 0 0 0 0 0 0 0 0 0 0 0 0 0 0 0 0 0 0 0 0 0 0 0 0 0 0 0 0 0 3 6 6 8 13 22 32 46 43 49 106 136 162 231 283 415 503 636 774 863 1090 1226 1246 1261 1227 1057 895 736 567 429 329 249 188 156 114 91 60 45 24 19 4 11 7 2 2 0 0 0 0 0 0 0 0 0 0 0 0 0 0 0 0 0 0 0 0 0 0 0 0 0
0 0 0 0 0 0 0 0 0 0 0 0 0 0 0 0 0 0 0 0 0 0 0 0 0 0 0 0 2 3 1 2 11 11 12 13 17 18 42 57 62 72 114 150 254 266 390 494 555 622 795 918 959 1043 1077 990 880 782 632 475 398 289 243 210 135 92 64 48 44 27 10 5 10 4 2 1 0 0 0 0 0 0 0 0 0 0 0 0 0 0 0 0 0 0 0 0 0 0 0 0
0 0 0 0 0 0 0 0 0 0 0 0 0 0 0 0 0 0 0 0 0 0 0 0 0 0 0 0 0 0 0 2 1 9 5 8 11 19 20 27 57 56 95 121 156 230 292 292 424 514 570 691 746 867 924 980 977 911 741 577 447 337 282 235 153 123 97 74 35 22 28 10 7 7 3 0 0 0 0 0 0 0 0 0 0 0 0 0 0 0 0 0 0 0 0 0 0 0 0 0
0 0 0 0 0 0 0 0 0 0 0 0 0 0 0 0 0 0 0 0 0 0 0 0 0 0 0 0 0 0 0 2 4 5 3 7 5 9 9 22 25 30 61 79 118 143 195 274 324 377 451 524 587 675 727 798 844 798 771 627 553 407 349 237 209 163 97 75 51 35 16 12 8 9 2 2 0 0 0 0 0 0 0 0 0 0 0 0 0 0 0 0 0 0 0 0 0 0 0 0
0 0 0 0 0 0 0 0 0 0 0 0 0 0 0 0 0 0 0 0 0 0 0 0 0 0 0 0 0 0 1 1 2 5 3 5 5 5 6 13 16 21 36 50 79 118 164 189 245 294 349 369 455 542 602 653 758 801 805 686 637 537 422 307 256 207 143 103 64 38 21 20 13 8 3 6 0 0 0 0 0 0 0 0 0 0 0 0 0 0 0 0 0 0 0 0 0 0 0 0
0 0 0 0 0 0 0 0 0 0 0 0 0 0 0 0 0 0 0 0 0 0 0 0 0 0 0 0 0 0 0 0 0 0 4 3 3 7 5 8 13 21 26 48 59 88 111 135 192 207 286 341 392 382 476 474 577 683 693 719 755 684 556 378 311 228 171 103 75 54 38 17 16 5 1 5 0 0 0 0 0 0 0 0 0 0 0 0 0 0 0 0 0 0 0 0 0 0 0 0
0 0 0 0 0 0 0 0 0 0 0 0 0 0 0 0 0 0 0 0 0 0 0 0 0 0 0 1 0 0 0 2 2 2 0 0 0 3 5 9 11 14 17 28 38 79 77 107 128 180 207 248 268 313 348 394 480 486 614 728 853 860 751 556 429 301 212 143 103 69 48 25 19 10 6 8 1 0 0 0 0 0 0 0 0 0 0 0 0 0 0 0 0 0 0 0 0 0 0 0
0 0 0 0 0 0 0 0 0 0 0 0 0 0 0 0 0 0 0 0 0 0 0 0 0 0 1 0 0 0 1 0 0 0 0 0 2 0 4 5 10 11 21 20 31 42 49 72 106 132 152 180 198 236 292 304 363 402 499 710 858 995 898 743 607 414 288 204 108 95 63 35 22 11 8 3 2 0 0 0 0 0 0 0 0 0 0 0 0 0 0 0 0 0 0 0 0 0 0 0
0 0 0 0 0 0 0 0 0 0 0 0 0 0 0 0 0 0 0 0 0 0 0 0 0 0 0 2 0 1 2 1 1 0 0 0 0 1 2 4 7 10 4 13 25 26 39 49 62 114 127 153 146 173 217 234 273 301 393 503 679 925 1037 894 778 576 409 264 182 116 75 45 47 24 7 11 3 0 0 0 0 0 0 0 0 0 0 0 0 0 0 0 0 0 0 0 0 0 0 0
0 0 0 0 0 0 0 0 0 0 0 0 0 0 0 0 0 0 0 0 0 0 0 0 2 0 1 0 0 0 0 0 0 0 0 0 0 0 1 0 1 5 3 13 19 25 40 38 42 74 108 107 127 141 162 199 202 215 323 417 568 763 912 1009 977 782 558 350 232 160 114 66 48 27 11 8 3 0 0 0 0 0 0 0 0 0 0 0 0 0 0 0 0 0 0 0 0 0 0 0
0 0 0 0 0 0 0 0 0 0 0 0 0 0 0 0 0 0 0 0 0 0 0 0 0 0 0 1 2 0 0 0 0 0 0 0 0 0 1 3 6 6 1 11 13 25 24 31 38 48 47 75 99 102 128 146 146 175 255 322 413 580 728 967 1025 965 760 520 322 219 113 90 64 29 12 6 4 0 0 0 0 0 0 0 0 0 0 0 0 0 0 0 0 0 0 0 0 0 0 0
0 0 0 0 0 0 0 0 0 0 0 0 0 0 0 0 0 0 0 0 0 0 0 0 0 0 1 0 1 0 0 0 0 0 0 0 0 1 0 1 2 5 5 4 5 15 9 28 34 39 57 51 62 71 81 101 109 156 190 230 327 414 569 780 953 1016 913 705 488 284 204 128 92 28 32 6 9 1 0 0 0 0 0 0 0 0 0 0 0 0 0 0 0 0 0 0 0 0 0 0
0 0 0 0 0 0 0 0 0 0 0 0 0 0 0 0 0 0 0 0 0 0 0 0 0 0 0 0 0 0 0 0 0 0 0 0 0 0 0 0 1 2 1 2 7 3 10 19 16 31 34 50 64 58 47 70 87 118 129 199 220 269 395 563 702 988 973 818 615 382 260 171 134 56 22 23 9 4 0 0 0 0 0 0 0 0 0 0 0 0 0 0 0 0 0 0 0 0 0 0
0 0 0 0 0 0 0 0 0 0 0 0 0 0 0 0 0 0 0 0 0 0 0 0 0 0 0 0 0 0 0 0 0 0 0 0 0 0 0 0 0 0 1 1 8 8 7 7 15 19 32 26 35 43 36 43 53 84 92 117 147 222 293 395 528 675 839 844 749 561 409 223 142 88 47 25 10 7 3 0 1 0 0 0 0 0 0 0 0 0 0 0 0 0 0 0 0 0 0 0
0 0 0 0 0 0 0 0 0 0 0 0 0 0 0 0 0 0 0 0 0 0 0 0 0 0 0 0 0 0 0 0 0 0 0 0 1 0 0 0 0 0 1 1 2 1 2 4 9 18 13 27 29 24 33 25 55 40 74 83 103 131 141 275 331 500 646 794 739 648 472 296 197 88 61 27 18 10 2 4 1 2 0 0 0 0 0 0 0 0 0 0 0 0 0 0 0 0 0 0
0 0 0 0 0 0 0 0 0 0 0 0 0 0 0 0 0 0 0 0 0 0 0 0 0 0 0 0 0 0 0 0 0 0 0 0 0 0 0 1 0 0 0 0 2 1 3 3 4 11 8 11 18 21 18 20 26 32 46 39 64 83 100 159 216 310 435 580 678 745 567 427 295 165 86 53 19 7 6 2 2 0 1 0 0 0 0 0 0 0 0 0 0 0 0 0 0 0 0 0
0 0 0 0 0 0 0 0 0 0 0 0 0 0 0 0 0 0 0 0 0 0 0 0 0 0 0 0 0 0 0 0 0 0 0 0 0 0 0 0 0 0 0 2 1 0 1 1 1 8 3 6 8 14 12 13 9 15 24 34 40 65 78 103 143 190 256 416 488 601 597 528 352 222 124 72 34 15 1 2 0 0 1 0 0 0 0 0 0 0 0 0 0 0 0 0 0 0 0 0
0 0 0 0 0 0 0 0 0 0 0 0 0 0 0 0 0 0 0 0 0 0 0 0 0 0 0 0 0 0 0 0 0 0 0 0 0 0 0 0 0 0 0 1 0 2 1 1 1 0 7 9 4 5 13 7 11 16 16 17 26 35 54 64 90 108 174 250 310 425 532 558 411 249 161 102 43 26 5 6 1 0 1 0 0 0 0 0 0 0 0 0 0 0 0 0 0 0 0 0
0 0 0 0 0 0 0 0 0 0 0 0 0 0 0 0 0 0 0 0 0 0 0 0 0 0 0 0 0 0 0 0 0 0 0 0 0 0 0 0 0 0 0 0 1 2 2 0 1 0 3 5 4 4 8 11 5 9 8 15 13 20 32 37 33 62 105 147 227 307 375 443 405 322 192 135 77 40 18 12 1 1 0 0 0 0 0 0 0 0 0 0 0 0 0 0 0 0 0 0
0 0 0 0 0 0 0 0 0 0 0 0 0 0 0 0 0 0 0 0 0 0 0 0 0 0 0 0 0 0 0 0 0 0 0 0 0 0 0 0 0 0 0 0 0 0 0 1 0 1 0 0 2 0 1 0 5 7 11 8 12 4 5 15 18 39 52 83 116 187 221 259 303 245 226 155 103 53 27 6 3 2 2 0 0 0 0 0 0 0 0 0 0 0 0 0 0 0 0 0
0 0 0 0 0 0 0 0 0 0 0 0 0 0 0 0 0 0 0 0 0 0 0 0 0 0 0 0 0 0 0 0 0 0 0 0 0 0 0 0 0 0 0 0 0 0 3 0 0 0 0 1 1 1 0 0 2 1 7 2 3 10 7 7 13 19 24 52 65 87 138 158 214 221 222 193 100 91 25 21 10 5 0 0 2 1 0 1 0 0 0 0 0 0 0 0 0 0 0 0
0 0 0 0 0 0 0 0 0 0 0 0 0 0 0 0 0 0 0 0 0 0 0 0 0 0 0 0 0 0 0 0 0 0 0 0 0 0 0 0 0 0 0 0 1 0 2 0 0 2 0 0 0 0 0 1 2 1 2 4 2 3 7 9 6 13 16 21 32 45 71 84 114 160 192 166 150 75 41 25 12 7 1 1 1 2 0 0 0 2 0 0 0 0 0 0 0 0 0 0
0 0 0 1 0 0 0 0 0 0 0 0 0 0 0 0 0 0 0 0 0 0 0 0 0 0 0 0 0 0 0 0 0 0 0 0 0 0 0 0 0 0 0 0 0 0 0 0 0 0 0 0 0 1 0 0 1 1 2 1 0 1 3 3 4 8 7 12 22 23 18 48 70 98 141 123 99 75 47 34 11 11 3 6 2 3 3 5 0 1 0 0 0 1 0 0 0 0 0 0
0 0 0 0 0 0 0 0 0 0 0 0 0 0 0 0 0 0 0 0 0 0 0 0 0 0 0 0 0 0 0 0 0 0 0 0 0 0 0 0 0 0 0 0 0 0 0 0 0 0 0 0 0 0 0 1 0 0 0 2 0 1 0 3 1 3 5 10 8 17 17 22 46 45 79 66 85 46 37 31 14 11 6 6 3 2 1 4 2 1 0 0 0 0 0 0 1 0 0 1
1 1 0 0 0 0 0 0 0 0 0 0 0 0 0 0 0 0 0 0 0 0 0 0 0 0 0 0 0 0 0 0 0 0 0 0 0 0 0 0 0 0 0 0 0 0 0 0 0 0 0 0 0 0 0 0 0 0 0 0 3 0 0 0 1 1 3 3 12 6 9 17 15 21 30 29 48 40 22 17 17 11 12 5 3 3 2 2 2 4 0 3 1 0 1 2 2 2 0 0
0 0 0 1 1 0 0 1 0 0 0 0 0 0 0 0 0 0 0 0 0 0 0 0 0 0 0 0 0 0 0 0 0 0 0 0 0 0 0 0 0 0 0 0 0 0 0 0 0 0 0 0 0 0 0 0 0 0 0 0 0 0 0 0 0 1 2 2 6 6 5 6 7 12 19 19 29 33 28 27 22 18 17 11 9 11 3 5 5 4 2 3 1 2 1 0 1 0 0 0
0 0 1 1 0 3 1 0 0 0 0 0 0 0 0 0 0 0 0 0 0 0 0 0 0 0 0 0 0 0 0 0 0 0 0 0 0 0 0 0 0 0 0 0 0 0 0 0 0 0 0 0 0 0 0 0 0 0 0 0 0 0 0 0 0 0 4 3 2 7 7 5 0 6 7 9 12 16 28 22 27 23 16 17 9 13 10 14 8 1 3 1 0 2 0 1 0 0 0 0
3 0 1 2 3 1 1 0 0 0 0 0 0 0 0 0 0 0 0 0 0 0 0 0 0 0 0 0 0 0 0 0 0 0 0 0 0 0 0 0 0 0 0 0 0 0 0 0 0 0 0 0 0 0 0 0 0 0 0 0 0 0 0 0 0 0 2 1 4 1 4 4 6 1 2 3 11 7 14 29 35 33 24 28 16 17 18 21 8 6 6 6 3 3 2 2 3 0 2 1
5 2 1 2 1 3 0 1 0 0 0 0 0 0 0 0 0 0 0 0 0 0 0 0 0 0 0 0 0 0 0 0 0 0 0 0 0 0 0 0 0 0 0 0 0 0 0 0 0 0 0 0 0 0 0 0 0 0 0 0 0 0 0 0 0 2 0 1 2 1 0 5 3 3 2 4 2 9 11 20 16 16 21 24 19 21 22 24 16 14 10 9 12 5 6 6 5 1 2 1
7 2 2 4 3 0 1 0 0 0 0 0 0 0 0 0 0 0 0 0 0 0 0 0 0 0 0 0 0 0 0 0 0 0 0 0 0 0 0 0 0 0 0 0 0 0 0 0 0 0 0 0 0 0 0 0 0 0 0 0 0 0 0 0 0 0 0 0 3 1 1 2 6 2 0 4 5 2 4 11 19 32 21 16 19 25 24 23 11 14 19 12 12 8 11 7 8 1 7 2
2 7 3 4 0 0 0 0 0 0 0 0 0 0 0 0 0 0 0 0 0 0 0 0 0 0 0 0 0 0 0 0 0 0 0 0 0 0 0 0 0 0 0 0 0 0 0 0 0 0 0 0 0 0 0 0 0 0 0 0 0 0 0 0 0 0 0 0 0 2 2 1 1 1 1 1 1 1 6 8 19 19 21 25 35 23 29 24 29 25 18 14 12 8 8 10 8 5 4 3
6 3 5 5 2 0 1 0 0 0 0 0 0 0 0 0 0 0 0 0 0 0 0 0 0 0 0 0 0 0 0 0 0 0 0 0 0 0 0 0 0 0 0 0 0 0 0 0 0 0 0 0 0 0 0 0 0 0 0 0 0 0 0 0 0 0 0 1 0 1 1 1 0 0 0 2 5 2 4 5 14 20 15 23 25 37 33 21 39 35 37 30 17 12 14 17 15 8 20 6
10 6 7 4 4 3 0 0 0 0 0 0 0 0 0 0 0 0 0 0 0 0 0 0 0 0 0 0 0 0 0 0 0 0 0 0 0 0 0 0 0 0 0 0 0 0 0 0 0 0 0 0 0 0 0 0 0 0 0 0 0 0 0 0 0 0 0 0 0 1 1 1 0 0 1 2 1 0 3 6 6 26 25 26 31 46 44 42 35 44 35 35 27 23 18 21 15 13 13 12
6 8 6 10 6 2 0 3 2 0 0 0 0 0 0 0 0 0 0 0 0 0 0 0 0 0 0 0 0 0 0 0 0 0 0 0 0 0 0 0 0 0 0 0 0 0 0 0 0 0 0 0 0 0 0 0 0 0 0 0 0 0 0 0 0 0 0 0 0 0 0 1 1 3 1 2 0 4 3 10 8 12 27 30 27 39 47 52 53 39 33 41 29 32 21 19 21 28 14 12
12 13 7 7 6 8 2 5 4 0 1 1 0 0 0 0 0 0 0 0 0 0 0 0 0 0 0 0 0 0 0 0 0 0 0 0 0 0 0 0 0 0 0 0 0 0 0 0 0 0 0 0 0 0 0 0 0 0 0 0 0 0 0 0 0 0 0 0 0 0 0 0 2 1 1 0 1 5 2 1 8 8 16 17 36 37 51 64 53 32 31 34 37 33 33 25 32 22 18 8
13 14 15 11 9 10 8 6 0 1 1 0 0 0 0 0 0 0 0 0 0 0 0 0 0 0 0 0 0 0 0 0 0 0 0 0 0 0 0 0 0 0 0 0 0 0 0 0 0 0 0 0 0 0 0 0 0 0 0 0 0 0 0 0 0 0 0 0 0 0 0 0 0 0 0 0 1 3 3 2 5 8 18 14 30 31 49 55 42 44 57 32 39 33 34 36 26 25 29 12
21 22 13 15 8 11 7 1 5 3 2 2 1 0 0 0 0 0 0 0 0 0 0 0 0 0 0 0 0 0 0 0 0 0 0 0 0 0 0 0 0 0 0 0 0 0 0 0 0 0 0 0 0 0 0 0 0 0 0 0 0 0 0 0 0 0 0 0 0 0 0 0 0 1 0 2 1 1 6 2 5 8 17 16 18 30 51 40 42 47 34 36 31 41 29 33 34 26 15 20
28 19 17 7 8 7 5 5 3 1 5 1 1 0 0 0 0 0 0 0 0 0 0 0 0 0 0 0 0 0 0 0 0 0 0 0 0 0 0 0 0 0 0 0 0 0 0 0 0 0 0 0 0 0 0 0 0 0 0 0 0 0 0 0 0 0 0 0 0 0 0 0 0 0 0 0 1 2 0 2 6 9 10 15 21 37 28 27 40 35 44 40 34 41 39 36 30 30 24 34
15 22 15 14 7 5 3 8 9 8 5 4 1 0 0 0 0 0 0 0 0 0 0 0 0 0 0 0 0 0 0 0 0 0 0 0 0 0 0 0 0 0 0 0 0 0 0 0 0 0 0 0 0 0 0 0 0 0 0 0 0 0 0 0 0 0 0 0 0 0 0 0 0 0 0 0 0 1 1 2 5 12 10 12 18 19 40 34 43 47 42 35 39 43 43 29 44 36 31 36
33 19 26 13 20 13 8 7 10 7 2 3 3 0 3 0 0 0 0 0 0 0 0 0 0 0 0 0 0 0 0 0 0 0 0 0 0 0 0 0 0 0 0 0 0 0 0 0 0 0 0 0 0 0 0 0 0 0 0 0 0 0 0 0 0 0 0 0 0 0 0 0 0 0 0 0 0 0 2 4 7 10 10 10 15 16 27 29 34 32 39 41 51 55 33 46 40 24 33 25
25 33 21 22 31 21 20 10 14 10 3 1 2 2 0 2 2 0 0 0 0 0 0 0 0 0 0 0 0 0 0 0 0 0 0 0 0 0 0 0 0 0 0 0 0 0 0 0 0 0 0 0 0 0 0 0 0 0 0 0 0 0 0 0 0 0 0 0 0 0 0 0 0 0 0 0 0 0 1 2 1 13 10 9 7 6 21 23 25 32 41 35 55 36 38 46 36 51 41 26
36 26 27 18 20 28 17 15 15 17 8 9 6 2 1 2 1 0 0 0 0 0 0 0 0 0 0 0 0 0 0 0 0 0 0 0 0 0 0 0 0 0 0 0 0 0 0 0 0 0 0 0 0 0 0 0 0 0 0 0 0 0 0 0 0 0 0 0 0 0 0 0 0 0 0 0 1 0 0 3 2 5 7 4 8 10 13 15 27 36 31 40 42 46 37 42 42 50 43 41
48 41 31 28 26 21 28 18 16 19 7 5 6 2 2 1 2 2 0 2 0 0 0 0 0 0 0 0 0 0 0 0 0 0 0 0 0 0 0 0 0 0 0 0 0 0 0 0 0 0 0 0 0 0 0 0 0 0 0 0 0 0 0 0 0 0 0 0 0 0 0 0 0 0 0 0 0 0 0 0 0 3 5 9 1 12 14 19 25 28 24 31 38 37 42 59 37 48 43 50
47 31 36 39 35 30 29 21 18 14 6 13 3 3 2 1 2 0 1 0 0 0 0 0 0 0 0 0 0 0 0 0 0 0 0 0 0 0 0 0 0 0 0 0 0 0 0 0 0 0 0 0 0 0 0 0 0 0 0 0 0 0 0 0 0 0 0 0 0 0 0 0 0 0 0 0 1 1 1 2 0 2 4 4 2 7 11 15 26 23 24 32 37 36 52 39 36 43 43 36
48 58 48 35 34 35 38 29 24 12 10 9 5 4 1 2 0 1 0 0 0 0 0 0 0 0 0 0 0 0 0 0 0 0 0 0 0 0 0 0 0 0 0 0 0 0 0 0 0 0 0 0 0 0 0 0 0 0 0 0 0 0 0 0 0 0 0 0 0 0 0 0 0 0 0 0 0 0 0 2 1 3 3 5 4 6 6 19 15 27 30 27 42 28 44 40 37 39 33 42
40 39 54 50 41 42 36 36 39 27 18 15 7 4 4 2 1 2 0 0 0 0 0 0 0 0 0 0 0 0 0 0 0 0 0 0 0 0 0 0 0 0 0 0 0 0 0 0 0 0 0 0 0 0 0 0 0 0 0 0 0 0 0 0 0 0 0 0 0 0 0 0 0 0 0 0 0 0 0 0 0 0 3 4 4 4 9 15 11 32 20 17 14 25 31 30 39 26 43 36
