#lt    30.0
#count pbc
#dt    1.0
#dn    30
#edges  -33.962735 -33.2834803 -32.6042256 -31.9249709 -31.2457162 -30.5664615 -29.8872068 -29.2079521 -28.5286974 -27.8494427 -27.170188 -26.4909333 -25.8116786 -25.1324239 -24.4531692 -23.7739145 -23.0946598 -22.4154051 -21.7361504 -21.0568957 -20.377641 -19.6983863 -19.0191316 -18.3398769 -17.6606222 -16.9813675 -16.3021128 -15.6228581 -14.9436034 -14.2643487 -13.585094 -12.9058393 -12.2265846 -11.5473299 -10.8680752 -10.1888205 -9.5095658 -8.8303111 -8.1510564 -7.4718017 -6.792547 -6.1132923 -5.4340376 -4.7547829 -4.0755282 -3.3962735 -2.7170188 -2.0377641 -1.3585094 -0.6792547 6.39488462184e-14 0.6792547 1.3585094 2.0377641 2.7170188 3.3962735 4.0755282 4.7547829 5.4340376 6.1132923 6.792547 7.4718017 8.1510564 8.8303111 9.5095658 10.1888205 10.8680752 11.5473299 12.2265846 12.9058393 13.585094 14.2643487 14.9436034 15.6228581 16.3021128 16.9813675 17.6606222 18.3398769 19.0191316 19.6983863 20.377641 21.0568957 21.7361504 22.4154051 23.0946598 23.7739145 24.4531692 25.1324239 25.8116786 26.4909333 27.170188 27.8494427 28.5286974 29.2079521 29.8872068 30.5664615 31.2457162 31.9249709 32.6042256 33.2834803 33.962735
48 38 40 44 26 29 30 42 28 25 18 13 7 7 6 4 3 1 1 0 0 0 0 0 0 0 0 0 0 1 0 0 0 0 0 0 0 0 0 0 0 0 0 0 0 0 0 0 0 0 0 0 0 0 0 0 0 0 0 0 0 0 0 0 0 0 0 0 0 0 0 0 0 0 0 0 0 0 0 0 0 0 0 1 1 2 4 11 14 15 17 25 38 35 52 42 58 39 39 49
42 45 39 39 35 43 36 28 31 32 18 19 15 9 7 2 2 0 0 0 0 0 0 0 0 2 0 1 0 0 0 0 0 0 0 0 0 0 0 0 0 0 0 0 0 0 0 0 0 0 0 0 0 0 0 0 0 0 0 0 0 0 0 0 0 0 0 0 0 0 0 0 0 0 0 0 0 0 0 0 0 0 0 0 1 3 4 9 16 20 20 22 22 26 40 32 32 37 45 52
50 39 32 37 46 41 54 41 33 24 31 26 12 12 7 6 1 2 1 2 2 2 0 1 1 2 1 0 0 0 0 0 0 0 0 0 0 0 0 0 0 0 0 0 0 0 0 0 0 0 0 0 0 0 0 0 0 0 0 0 0 0 0 0 0 0 0 0 0 0 0 0 0 0 0 0 0 0 0 0 0 0 0 0 0 3 4 2 8 14 20 15 21 33 34 27 30 28 38 32
36 40 37 39 36 47 33 45 44 32 28 24 24 15 9 5 7 3 1 2 2 0 1 0 0 1 0 1 0 0 0 0 0 0 0 0 0 0 0 0 0 0 0 0 0 0 0 0 0 0 0 0 0 0 0 0 0 0 0 0 0 0 0 0 0 0 0 0 0 0 0 0 0 0 0 0 0 0 0 0 0 0 0 1 0 2 3 4 9 6 19 12 19 17 25 24 26 32 36 36
32 36 36 44 36 42 49 42 41 34 39 25 32 15 14 13 6 6 1 2 3 0 0 0 0 0 1 0 0 0 0 0 0 0 0 0 0 0 0 0 0 0 0 0 0 0 0 0 0 0 0 0 0 0 0 0 0 0 0 0 0 0 0 0 0 0 0 0 0 0 0 0 0 0 0 0 0 0 0 0 0 1 1 0 1 1 2 2 6 6 15 13 15 17 29 25 33 28 33 34
36 41 50 40 42 49 48 54 35 45 36 25 33 19 18 15 11 5 3 1 2 0 0 0 0 1 1 0 0 0 0 0 0 0 0 0 0 0 0 0 0 0 0 0 0 0 0 0 0 0 0 0 0 0 0 0 0 0 0 0 0 0 0 0 0 0 0 0 0 0 0 0 0 0 0 0 0 0 0 0 1 0 0 0 0 0 3 1 4 15 3 11 9 15 17 21 26 18 31 29
28 28 38 33 44 44 51 41 42 44 42 46 28 23 20 18 6 5 5 3 3 0 0 0 0 1 0 1 0 0 0 0 0 0 0 0 0 0 0 0 0 0 0 0 0 0 0 0 0 0 0 0 0 0 0 0 0 0 0 0 0 0 0 0 0 0 0 0 0 0 0 0 0 0 0 0 0 0 0 0 0 0 0 0 0 0 2 0 3 6 2 6 9 13 11 15 15 24 33 38
30 35 33 46 52 42 49 59 52 44 38 37 34 22 19 11 11 8 7 4 4 1 1 1 0 2 0 2 0 0 0 0 0 0 0 0 0 0 0 0 0 0 0 0 0 0 0 0 0 0 0 0 0 0 0 0 0 0 0 0 0 0 0 0 0 0 0 0 0 0 0 0 0 0 0 0 0 0 0 0 0 0 1 0 1 0 1 4 2 1 7 7 10 13 16 17 21 23 25 32
28 24 43 42 47 55 44 48 53 54 42 45 30 31 24 17 14 10 3 3 2 0 0 0 0 0 0 0 0 0 0 0 0 0 0 0 0 0 0 0 0 0 0 0 0 0 0 0 0 0 0 0 0 0 0 0 0 0 0 0 0 0 0 0 0 0 0 0 0 0 0 0 0 0 0 0 0 0 0 0 0 0 0 1 0 0 1 4 3 3 6 7 9 16 14 14 20 20 27 32
21 21 32 41 35 41 36 43 55 42 35 31 30 38 25 21 11 9 5 4 1 0 0 2 3 0 0 0 0 1 0 0 0 0 0 0 0 0 0 0 0 0 0 0 0 0 0 0 0 0 0 0 0 0 0 0 0 0 0 0 0 0 0 0 0 0 0 0 0 0 0 0 0 0 0 0 0 0 0 1 1 1 0 1 0 2 0 2 4 7 2 7 4 6 10 17 17 18 21 25
15 24 28 30 31 34 33 35 47 37 41 36 43 31 25 19 12 5 3 3 6 1 0 1 0 1 0 2 0 0 0 1 0 0 0 0 0 0 0 0 0 0 0 0 0 0 0 0 0 0 0 0 0 0 0 0 0 0 0 0 0 0 0 0 0 0 0 0 0 0 0 0 0 0 0 0 0 0 0 0 0 0 0 0 1 0 1 2 0 5 3 5 9 5 6 11 11 6 17 16
16 16 24 19 40 34 18 32 35 28 40 32 23 34 38 30 18 5 4 3 4 2 2 1 3 1 0 0 0 0 0 0 0 0 0 0 0 0 0 0 0 0 0 0 0 0 0 0 0 0 0 0 0 0 0 0 0 0 0 0 0 0 0 0 0 0 0 0 0 0 0 0 0 0 0 0 0 0 0 0 0 0 0 0 0 0 1 0 0 2 6 3 3 5 6 7 6 6 12 15
10 11 18 17 18 23 20 34 32 44 26 26 55 36 40 36 17 13 7 9 6 2 2 2 1 3 0 0 1 1 0 0 0 0 0 0 0 0 0 0 0 0 0 0 0 0 0 0 0 0 0 0 0 0 0 0 0 0 0 0 0 0 0 0 0 0 0 0 0 0 0 0 0 0 0 0 0 0 0 0 1 0 0 0 0 0 0 0 0 1 0 1 4 2 4 6 8 6 6 10
8 11 12 17 20 19 23 31 40 40 29 31 29 37 38 17 21 20 14 13 4 1 2 2 1 1 4 0 0 1 0 1 0 0 0 0 0 0 0 0 0 0 0 0 0 0 0 0 0 0 0 0 0 0 0 0 0 0 0 0 0 0 0 0 0 0 0 0 0 0 0 0 0 0 0 0 0 0 0 0 0 0 0 0 0 0 0 1 0 0 0 1 1 1 4 7 2 0 3 6
5 4 11 11 15 18 19 22 35 28 29 36 31 35 21 29 23 19 12 16 7 3 1 4 1 3 2 3 2 1 0 1 0 0 0 0 0 0 0 0 0 0 0 0 0 0 0 0 0 0 0 0 0 0 0 0 0 0 0 0 0 0 0 0 0 0 0 0 0 0 0 0 0 0 0 0 0 0 0 0 0 0 0 0 0 0 0 0 0 0 1 2 1 1 1 1 1 1 3 8
4 2 7 11 17 16 17 17 20 17 25 14 19 23 28 35 31 21 13 15 7 7 5 6 3 0 1 2 1 3 0 0 0 0 0 0 0 0 0 0 0 0 0 0 0 0 0 0 0 0 0 0 0 0 0 0 0 0 0 0 0 0 0 0 0 0 0 0 0 0 0 0 0 0 0 0 0 0 0 0 0 0 0 0 0 0 0 0 0 0 0 0 0 1 0 1 0 1 4 1
1 4 4 7 11 11 6 13 19 12 13 18 19 27 23 27 28 24 12 17 21 9 11 7 5 2 4 1 1 1 2 0 0 0 0 0 0 0 0 0 0 0 0 0 0 0 0 0 0 0 0 0 0 0 0 0 0 0 0 0 0 0 0 0 0 0 0 0 0 0 0 0 0 0 0 0 0 0 0 0 0 0 0 0 0 0 0 0 0 0 0 0 0 0 0 0 0 0 1 0
1 3 6 7 5 9 4 12 11 17 10 12 11 19 13 17 28 20 22 26 14 7 11 10 4 4 3 1 4 2 1 1 0 0 0 0 0 0 0 0 0 0 0 0 0 0 0 0 0 0 0 0 0 0 0 0 0 0 0 0 0 0 0 0 0 0 0 0 0 0 0 0 0 0 0 0 0 0 0 0 0 0 0 0 0 0 0 0 0 0 0 0 0 0 0 0 0 0 0 3
0 2 1 2 8 1 4 4 9 6 6 7 11 11 15 12 19 19 28 24 24 18 19 11 7 6 4 6 3 3 2 0 2 0 0 0 0 0 0 0 0 0 0 0 0 0 0 0 0 0 0 0 0 0 0 0 0 0 0 0 0 0 0 0 0 0 0 0 0 0 0 0 0 0 0 0 0 0 0 0 0 0 0 0 0 0 0 0 0 0 0 0 0 0 0 0 0 0 0 0
0 0 0 1 1 3 1 5 4 7 4 3 7 5 22 11 25 33 25 35 36 37 24 12 11 5 8 9 9 5 6 3 1 1 0 0 0 0 0 0 0 0 0 0 0 0 0 0 0 0 0 0 0 0 0 0 0 0 0 0 0 0 0 0 0 0 0 0 0 0 0 0 0 0 0 0 0 0 0 0 0 0 0 0 0 0 0 0 0 0 0 0 0 0 0 0 0 0 0 0
0 0 0 0 0 1 1 4 3 2 6 5 7 11 8 9 16 24 36 36 49 51 37 28 33 21 18 15 12 6 4 3 3 2 0 0 0 0 0 0 0 0 0 0 0 0 0 0 0 0 0 0 0 0 0 0 0 0 0 0 0 0 0 0 0 0 0 0 0 0 0 0 0 0 0 0 0 0 0 0 0 0 0 0 0 0 0 0 0 0 0 0 0 0 0 0 0 0 0 0
0 0 0 1 0 1 0 1 1 1 2 4 6 8 5 5 6 16 16 35 47 54 59 51 46 34 28 29 21 12 7 12 3 5 0 0 0 0 1 0 0 0 0 1 0 0 0 0 0 0 0 0 0 0 0 0 0 0 0 0 0 0 0 0 0 0 0 0 0 0 0 0 0 0 0 0 0 0 0 0 0 0 0 0 0 0 0 0 0 0 0 0 0 0 0 0 0 0 0 0
0 0 0 0 0 0 2 1 0 2 1 2 6 6 6 7 6 8 20 25 44 40 62 79 78 58 41 46 33 14 17 12 7 9 4 2 2 1 2 0 0 1 0 0 0 0 0 0 0 0 0 0 0 0 0 0 0 0 0 0 0 0 0 0 0 0 0 0 0 0 0 0 0 0 0 0 0 0 0 0 0 0 0 0 0 0 0 0 0 0 0 0 0 0 0 0 0 0 0 0
0 0 0 0 0 0 0 0 0 0 1 3 0 6 7 5 7 5 11 14 26 45 70 89 118 97 85 57 35 34 29 19 20 15 6 10 3 3 3 1 2 1 0 0 0 0 0 0 0 0 0 0 0 0 0 0 0 1 0 0 0 0 0 0 0 0 0 0 0 0 0 0 0 0 0 0 0 0 0 0 0 0 0 0 0 0 0 0 0 0 0 0 0 0 0 0 0 0 0 0
0 0 0 0 1 1 0 1 0 0 3 1 1 1 4 1 5 11 7 10 23 46 78 108 135 136 123 101 98 59 46 40 23 23 18 9 8 6 5 5 5 3 1 1 0 0 2 1 0 0 0 0 0 0 0 0 0 0 0 0 0 0 0 0 0 0 0 0 0 0 0 0 0 0 0 0 0 0 0 0 0 0 0 0 0 0 0 0 0 0 0 0 0 0 0 0 0 0 0 0
0 0 0 0 0 0 0 1 1 0 0 0 0 1 1 6 6 5 7 8 20 44 49 97 131 176 180 161 180 115 83 60 51 37 27 14 11 14 10 10 8 4 3 2 0 0 3 2 2 1 0 0 0 0 0 0 1 0 0 0 0 0 0 0 0 0 0 0 0 0 0 0 0 0 0 0 0 0 0 0 0 0 0 0 0 0 0 0 0 0 0 0 0 0 0 0 0 0 0 0
0 0 0 0 0 0 0 0 0 0 0 0 0 0 1 4 3 9 8 9 18 40 61 93 136 181 223 255 247 216 131 117 102 74 34 29 20 14 10 12 14 8 4 4 4 4 2 3 2 1 0 2 0 3 1 0 0 0 0 0 0 0 0 0 0 0 0 0 0 0 0 0 0 0 0 0 0 0 0 0 0 0 0 0 0 0 0 0 0 0 0 0 0 0 0 0 0 0 0 0
0 0 0 0 0 0 0 0 0 0 1 0 0 0 1 1 3 2 3 8 20 37 36 54 102 169 252 330 361 355 284 206 152 104 62 48 34 28 20 22 16 14 11 4 3 6 10 5 3 3 1 3 1 0 1 0 0 0 1 0 0 0 0 0 0 0 0 0 0 0 0 0 0 0 0 0 0 0 0 0 0 0 0 0 0 0 0 0 0 0 0 0 0 0 0 0 0 0 0 0
0 0 0 0 0 0 0 0 0 0 0 0 0 0 0 0 1 1 8 9 17 25 33 41 96 165 275 366 461 487 501 353 269 198 114 76 44 51 34 20 26 20 18 14 12 9 13 4 5 3 5 3 0 2 2 0 0 0 0 0 0 0 0 0 0 0 0 0 0 0 0 0 0 0 0 0 0 0 0 0 0 0 0 0 0 0 0 0 0 0 0 0 0 0 0 0 0 0 0 0
0 0 0 0 0 0 0 0 0 0 0 0 0 0 3 0 4 2 2 5 8 12 19 32 65 118 243 363 522 677 677 597 399 287 195 133 105 82 74 47 35 22 20 11 15 10 4 14 13 7 3 3 3 3 2 3 1 0 0 0 0 0 0 0 0 0 0 0 0 0 0 0 0 0 0 0 0 0 0 0 0 0 0 0 0 0 0 0 0 0 0 0 0 0 0 0 0 0 0 0
0 0 0 0 0 0 0 0 0 0 0 0 0 0 0 2 1 3 1 5 14 8 17 22 43 89 169 270 486 679 788 833 652 471 315 203 145 105 77 62 43 37 42 19 17 16 15 12 10 5 9 6 5 3 4 3 1 0 0 0 0 0 0 0 0 0 0 0 0 0 0 0 0 0 0 0 0 0 0 0 0 0 0 0 0 0 0 0 0 0 0 0 0 0 0 0 0 0 0 0
0 0 0 0 0 0 0 0 0 0 0 0 0 0 0 0 0 2 1 8 8 3 8 21 39 59 128 195 337 565 804 977 909 699 480 290 242 176 153 111 71 65 58 39 36 24 18 15 13 15 8 6 6 4 7 2 0 0 0 0 0 1 0 0 0 0 0 0 0 0 0 0 0 0 0 0 0 0 0 0 0 0 0 0 0 0 0 0 0 0 0 0 0 0 0 0 0 0 0 0
0 0 0 0 0 0 0 0 0 0 0 0 0 0 0 1 0 0 2 3 5 3 6 12 27 60 85 169 270 504 677 860 919 861 634 497 364 233 175 140 120 84 77 70 45 32 25 22 14 12 8 8 4 5 2 8 1 1 0 0 0 0 0 0 0 0 0 0 0 0 0 0 0 0 0 0 0 0 0 0 0 0 0 0 0 0 0 0 0 0 0 0 0 0 0 0 0 0 0 0
0 0 0 0 0 0 0 0 0 0 0 0 0 0 0 0 0 0 1 1 1 8 7 12 25 32 64 110 191 328 483 698 878 875 754 604 504 360 264 200 175 117 111 86 70 54 41 28 23 16 12 11 9 9 2 6 4 4 1 1 0 1 0 0 0 0 0 0 0 0 0 0 0 0 0 0 0 0 0 0 0 0 0 0 0 0 0 0 0 0 0 0 0 0 0 0 0 0 0 0
0 0 0 0 0 0 0 0 0 0 0 0 0 0 0 0 0 0 2 0 1 1 9 5 8 30 46 71 132 168 337 448 658 810 788 749 646 491 364 236 178 189 117 120 86 70 59 51 44 29 23 24 10 6 9 8 9 2 1 1 0 0 1 0 0 0 0 0 0 0 0 0 0 0 0 0 0 0 0 0 0 0 0 0 0 0 0 0 0 0 0 0 0 0 0 0 0 0 0 0
0 0 0 0 0 0 0 0 0 0 0 0 0 0 0 0 0 0 0 0 0 4 2 11 9 20 31 55 98 158 196 342 482 612 712 811 737 587 452 365 278 242 184 135 145 111 83 67 58 34 37 25 20 14 18 14 9 4 2 2 0 1 2 0 0 0 0 0 0 0 0 0 0 0 0 0 0 0 0 0 0 0 0 0 0 0 0 0 0 0 0 0 0 0 0 0 0 0 0 0
0 0 0 0 0 0 0 0 0 0 0 0 0 0 0 0 0 0 0 1 1 1 3 2 3 19 16 36 69 91 133 216 329 472 665 770 784 725 607 442 309 290 247 213 183 162 119 112 94 69 68 39 38 20 18 12 8 10 5 2 1 0 0 0 1 0 0 0 0 0 0 0 0 0 0 0 0 0 0 0 0 0 0 0 0 0 0 0 0 0 0 0 0 0 0 0 0 0 0 0
0 0 0 0 0 0 0 0 0 0 0 0 0 0 0 0 0 0 0 0 1 0 1 3 3 11 16 31 40 75 108 183 236 357 491 603 717 732 659 576 429 380 331 251 225 200 179 139 124 99 81 68 49 38 30 24 11 15 10 7 3 6 1 0 2 1 1 0 0 0 0 0 0 0 0 0 0 0 0 0 0 0 0 0 0 0 0 0 0 0 0 0 0 0 0 0 0 0 0 0
0 0 0 0 0 0 0 0 0 0 0 0 0 0 0 0 0 0 0 0 0 0 5 3 4 8 13 13 32 60 81 132 197 302 346 434 597 716 737 672 546 470 386 339 276 242 197 184 148 164 118 98 74 44 41 27 23 19 9 11 9 3 0 4 5 0 0 1 0 0 0 0 0 0 0 0 0 0 0 0 0 0 0 0 0 0 0 0 0 0 0 0 0 0 0 0 0 0 0 0
0 0 0 0 0 0 0 0 0 0 0 0 0 0 0 0 0 0 0 0 0 0 0 3 3 3 8 25 32 46 58 104 175 174 278 346 476 574 661 728 665 567 511 402 366 346 280 253 190 193 139 135 106 87 44 37 27 21 10 10 11 3 0 2 3 3 0 0 0 0 0 0 0 0 0 0 0 0 0 0 0 0 0 0 0 0 0 0 0 0 0 0 0 0 0 0 0 0 0 0
0 0 0 0 0 0 0 0 0 0 0 0 0 0 0 0 0 0 0 0 0 1 0 1 3 3 7 14 23 50 61 85 106 159 187 236 357 499 547 676 716 706 668 533 500 433 395 343 265 250 208 147 140 92 71 66 43 28 24 12 23 9 8 0 4 2 3 1 0 0 0 0 0 0 0 1 0 0 0 0 0 0 0 0 0 0 0 0 0 0 0 0 0 0 0 0 0 0 0 0
0 0 0 0 0 0 0 0 0 0 0 0 0 0 0 0 0 0 0 0 0 3 1 1 0 2 5 5 22 24 37 49 104 132 167 196 292 370 466 554 722 761 751 706 647 568 478 438 413 327 288 250 201 154 128 95 50 44 29 30 12 16 4 4 4 2 0 1 1 0 0 0 0 0 0 0 0 0 0 0 0 0 0 0 0 0 0 0 0 0 0 0 0 0 0 0 0 0 0 0
0 0 0 0 0 0 0 0 0 0 0 0 0 0 0 0 0 0 0 0 0 1 1 0 1 0 3 8 15 21 25 47 57 93 143 176 215 280 391 488 650 738 857 885 809 726 669 563 517 482 416 380 265 217 166 135 93 63 60 33 22 12 11 4 6 2 4 2 1 0 1 0 0 1 0 0 0 0 0 0 0 0 0 0 0 0 0 0 0 0 0 0 0 0 0 0 0 0 0 0
0 0 0 0 0 0 0 0 0 0 0 0 0 0 0 0 0 0 0 0 0 1 0 0 0 0 1 4 12 19 18 35 58 78 132 134 196 228 338 420 541 670 866 953 936 912 819 742 615 570 531 416 361 301 243 182 136 101 51 61 29 22 14 12 6 1 0 1 1 1 0 0 1 3 0 0 0 0 0 0 0 0 0 0 0 0 0 0 0 0 0 0 0 0 0 0 0 0 0 0
0 0 0 0 0 0 0 0 0 0 0 0 0 0 0 0 0 0 0 0 0 0 0 0 1 4 2 4 5 12 20 28 50 63 100 155 157 202 268 372 519 625 779 955 1003 1017 981 876 828 772 703 588 459 368 299 232 154 117 78 50 49 29 16 22 10 8 6 2 0 1 0 1 1 1 0 0 0 0 2 0 0 0 0 0 0 0 0 0 0 0 0 0 0 0 0 0 0 0 0 0
0 0 0 0 0 0 0 0 0 0 0 0 0 0 0 0 0 0 0 0 0 0 1 0 1 1 4 4 6 10 14 29 42 52 67 118 121 177 298 335 429 569 732 873 1021 1105 1140 1129 1006 907 828 723 590 444 361 285 172 182 108 93 68 36 33 20 18 8 9 6 2 1 1 0 0 0 0 0 0 0 0 0 0 0 0 0 0 0 0 0 0 0 0 0 0 0 0 0 0 0 0 0
0 0 0 0 0 0 0 0 0 0 0 0 0 0 0 0 0 0 0 0 0 0 0 0 0 0 0 2 2 3 12 22 28 47 78 93 101 176 230 285 398 516 603 773 976 1145 1270 1272 1251 1136 1030 857 725 593 482 362 286 199 155 121 80 59 41 24 17 8 9 3 4 4 1 1 2 1 0 0 0 0 0 0 0 0 0 0 0 0 0 0 0 0 0 0 0 0 0 0 0 0 0 0
0 0 0 0 0 0 0 0 0 0 0 0 0 0 0 0 0 0 0 0 0 0 0 0 0 0 2 3 3 10 14 29 29 37 42 83 123 140 172 288 344 428 578 715 888 1097 1236 1351 1450 1319 1207 1038 921 765 578 377 331 251 201 146 97 75 68 26 21 16 6 5 3 1 3 1 1 0 0 1 0 0 0 0 0 0 0 0 0 0 0 0 0 0 0 0 0 0 0 0 0 0 0 0
0 0 0 0 0 0 0 0 0 0 0 0 0 0 0 0 0 0 0 0 0 0 0 0 0 0 1 1 4 1 5 13 31 31 40 83 77 110 168 229 280 397 510 653 875 1024 1239 1384 1422 1396 1354 1290 1026 843 647 514 415 372 256 184 118 82 63 47 32 15 18 8 2 1 1 2 0 1 2 0 0 0 0 0 0 0 0 0 0 0 0 0 0 0 0 0 0 0 0 0 0 0 0 0
0 0 0 0 0 0 0 0 0 0 0 0 0 0 0 0 0 0 0 0 0 0 0 0 0 0 0 3 2 7 15 15 15 32 37 62 71 114 120 191 284 351 471 594 750 895 1157 1267 1413 1490 1473 1324 1154 1008 798 677 492 388 288 229 167 101 100 61 32 23 15 8 7 7 5 3 5 1 1 1 0 0 0 0 0 0 0 0 0 0 0 0 0 0 0 0 0 0 0 0 0 0 0 0
0 0 0 0 0 0 0 0 0 0 0 0 0 0 0 0 0 0 0 0 0 0 0 0 0 0 1 0 1 4 6 10 14 27 33 48 67 83 132 152 226 272 411 534 669 757 1068 1194 1332 1497 1530 1481 1330 1113 943 692 543 463 351 281 217 158 119 56 50 36 26 9 6 8 6 4 1 1 0 0 0 0 0 0 0 0 0 0 0 0 0 0 0 0 0 0 0 0 0 0 0 0 0 0
0 0 0 0 0 0 0 0 0 0 0 0 0 0 0 0 0 0 0 0 0 0 0 0 0 0 0 0 1 2 8 6 11 14 28 41 61 77 96 123 174 244 345 485 590 686 879 1022 1232 1326 1495 1557 1409 1272 1091 859 671 536 423 276 258 189 114 98 65 44 29 21 10 8 7 5 5 2 0 0 0 0 0 0 0 0 0 0 0 0 0 0 0 0 0 0 0 0 0 0 0 0 0 0
0 0 0 0 0 0 0 0 0 0 0 0 0 0 0 0 0 0 0 0 0 0 0 0 0 0 0 0 2 1 7 4 5 5 16 35 35 49 65 92 125 204 283 342 465 605 708 860 1029 1213 1265 1342 1294 1295 1075 945 815 561 444 363 285 230 176 134 73 76 50 27 14 11 7 6 3 0 3 1 0 0 0 0 0 0 0 0 0 0 0 0 0 0 0 0 0 0 0 0 0 0 0 0
0 0 0 0 0 0 0 0 0 0 0 0 0 0 0 0 0 0 0 0 0 0 0 0 0 0 0 1 2 2 2 0 6 6 11 15 22 42 46 65 105 135 193 267 366 443 583 771 822 944 1136 1275 1241 1277 1207 1029 856 691 521 411 330 258 160 136 102 95 56 32 19 23 8 7 1 2 1 0 1 0 0 0 0 0 0 0 0 0 0 0 0 0 0 0 0 0 0 0 0 0 0 0
0 0 0 0 0 0 0 0 0 0 0 0 0 0 0 0 0 0 0 0 0 0 0 0 0 0 0 0 1 1 2 2 4 8 10 21 16 28 42 50 76 108 175 195 276 371 457 635 724 827 878 1050 1122 1119 1158 1054 927 768 641 513 400 274 169 139 122 102 80 51 29 29 12 5 6 1 1 1 0 0 0 0 0 0 0 0 0 0 0 0 0 0 0 0 0 0 0 0 0 0 0 0
0 0 0 0 0 0 0 0 0 0 0 0 0 0 0 0 0 0 0 0 0 0 0 0 0 0 0 0 0 0 1 2 4 3 10 13 16 22 27 38 48 95 124 158 174 277 356 477 554 614 712 840 865 985 1059 1091 938 813 718 599 478 352 241 201 128 122 85 64 48 11 27 10 4 4 2 1 0 0 0 0 0 0 0 0 0 0 0 0 0 0 0 0 0 0 0 0 0 0 0 0
0 0 0 0 0 0 0 0 0 0 0 0 0 0 0 0 0 0 0 0 0 0 0 0 0 0 0 1 0 1 1 1 2 0 5 5 7 12 23 31 42 60 84 140 152 235 242 312 446 493 594 709 739 815 900 927 904 938 788 658 512 381 300 207 181 134 109 68 44 33 24 3 6 5 1 0 0 0 0 0 0 0 0 0 0 0 0 0 0 0 0 0 0 0 0 0 0 0 0 0
0 0 0 0 0 0 0 0 0 0 0 0 0 0 0 0 0 0 0 0 0 0 0 0 0 0 0 0 1 1 2 2 3 5 3 6 6 13 23 19 34 48 61 113 119 193 204 263 326 383 476 541 630 647 773 855 877 943 893 713 638 505 336 275 199 169 127 91 64 41 21 14 11 6 3 1 1 0 0 0 0 0 0 0 0 0 0 0 0 0 0 0 0 0 0 0 0 0 0 0
0 0 0 0 0 0 0 0 0 0 0 0 0 0 0 0 0 0 0 0 0 0 0 0 0 0 0 0 1 1 2 1 2 2 3 4 9 9 9 10 27 44 57 68 81 114 158 193 256 315 359 444 447 505 585 715 771 885 959 895 723 559 466 291 266 203 142 119 68 48 33 16 8 7 0 1 0 0 0 0 0 0 0 0 0 0 0 0 0 0 0 0 0 0 0 0 0 0 0 0
0 0 0 0 0 0 0 0 0 0 0 0 0 0 0 0 0 0 0 0 0 0 0 0 0 0 0 0 0 1 0 2 2 0 1 1 3 2 3 14 13 18 27 41 58 81 108 147 158 232 285 341 370 394 468 521 639 815 925 911 871 714 551 423 333 226 189 133 88 56 44 20 15 4 3 1 0 1 0 0 0 0 0 0 0 0 0 0 0 0 0 0 0 0 0 0 0 0 0 0
0 0 0 0 0 0 0 0 0 0 0 0 0 0 0 0 0 0 0 0 0 0 0 0 0 0 0 0 0 0 1 2 1 1 0 1 3 4 7 10 9 15 18 24 34 58 68 109 127 165 194 234 281 333 346 392 524 621 732 888 855 832 725 538 420 322 264 165 108 83 66 39 14 17 9 11 4 2 0 0 0 0 0 1 0 1 0 0 0 0 0 0 0 0 0 0 0 0 0 0
0 0 0 0 0 0 0 0 0 0 0 0 0 0 0 0 0 0 0 0 0 0 0 0 0 0 0 0 0 0 0 1 0 0 0 0 2 2 2 5 10 7 9 15 36 41 67 70 103 134 147 191 222 278 300 329 401 459 562 687 780 914 878 704 540 388 310 217 156 90 71 36 20 15 6 6 2 2 0 0 0 0 3 1 0 0 0 0 0 0 0 0 0 0 0 0 0 0 0 0
0 0 0 0 0 0 0 0 0 0 0 0 0 0 0 0 0 0 0 0 0 0 0 0 0 0 0 0 0 0 0 0 0 0 0 0 0 3 4 0 1 6 9 13 23 28 38 40 72 79 97 134 167 201 225 248 307 341 427 547 675 858 892 845 702 579 371 326 193 166 76 75 46 17 11 9 2 0 0 1 0 0 1 0 0 0 0 0 0 0 0 0 0 0 0 0 0 0 0 0
0 0 0 0 0 0 0 0 0 0 0 0 0 0 0 0 0 0 0 0 0 0 0 0 0 0 0 0 0 0 0 0 0 0 0 0 0 1 2 1 0 2 6 7 15 21 36 35 45 64 76 90 98 152 177 184 225 265 303 401 550 723 803 995 882 731 568 419 281 230 112 83 48 34 13 11 3 6 1 1 0 1 0 1 0 0 0 0 0 0 0 0 0 0 0 0 0 0 0 0
0 0 0 0 0 0 0 0 0 0 0 0 0 0 0 0 0 0 0 0 0 0 0 0 0 0 0 0 0 0 0 0 0 0 0 0 0 0 3 2 0 5 5 10 12 19 17 27 28 41 62 56 85 100 118 125 167 194 251 317 363 535 752 910 970 962 762 561 385 281 174 108 83 24 28 12 11 1 0 0 0 2 1 1 0 0 0 0 0 0 0 0 0 0 0 0 0 0 0 0
0 0 0 0 0 0 0 0 0 0 0 0 0 0 0 0 0 0 0 0 0 0 0 0 0 0 0 0 0 0 0 0 0 0 0 0 1 1 2 2 3 1 1 3 13 20 28 30 28 28 32 51 46 69 98 114 140 159 193 255 313 368 556 783 949 1051 961 748 552 368 228 131 79 54 24 13 7 4 1 2 1 0 1 3 1 0 0 0 0 0 0 0 0 0 0 0 0 0 0 0
0 0 0 0 0 0 0 0 0 0 0 0 0 0 0 0 0 0 0 0 0 0 0 0 0 0 0 0 0 0 0 0 0 0 0 0 0 0 0 0 2 3 6 3 9 7 14 16 25 27 31 33 31 39 57 80 82 123 139 170 228 286 422 587 788 959 996 888 775 513 343 195 104 60 35 30 10 3 0 1 2 2 4 0 0 0 0 0 0 0 0 0 0 0 0 0 0 0 0 0
0 0 0 0 0 0 0 0 0 0 0 0 0 0 0 0 0 0 0 0 0 0 0 0 0 0 0 0 0 0 0 0 0 0 0 0 0 0 0 1 0 2 3 3 9 5 9 12 16 17 20 29 32 32 37 61 65 74 79 106 179 195 280 385 577 736 897 1001 973 751 467 321 188 94 59 23 19 7 4 1 2 1 0 2 0 0 0 0 0 0 0 0 0 0 0 0 0 0 0 0
0 0 0 0 0 0 0 0 0 0 0 0 0 0 0 0 0 0 0 0 0 0 0 0 0 0 0 0 0 0 0 0 0 0 0 0 0 1 0 1 0 4 2 4 7 5 8 9 7 9 5 17 20 24 41 38 51 78 85 92 102 141 205 277 382 551 733 922 1043 924 682 447 286 139 74 42 18 10 10 3 4 4 2 1 0 0 0 0 0 0 0 0 0 0 0 0 0 0 0 0
0 0 0 0 0 0 0 0 0 0 0 0 0 0 0 0 0 0 0 0 0 0 0 0 0 0 0 0 0 0 0 0 0 0 0 0 0 0 0 0 1 1 1 1 2 5 4 5 10 8 10 17 13 21 28 39 40 59 53 57 86 111 132 198 239 348 511 737 905 1020 823 586 364 180 104 55 31 15 7 7 3 1 1 0 0 0 0 0 0 0 0 0 0 0 0 0 0 0 0 0
0 0 0 0 0 0 0 0 0 0 0 0 0 0 0 0 0 0 0 0 0 0 0 0 0 0 0 0 0 0 0 0 0 0 0 0 0 0 0 0 0 0 0 0 0 0 2 3 1 7 11 10 14 8 19 13 27 36 43 47 56 65 82 120 166 230 310 460 708 846 806 638 446 237 118 61 49 11 15 3 2 1 1 1 0 0 0 0 0 0 0 0 0 0 0 0 0 0 0 0
0 0 0 0 0 0 0 0 0 0 0 0 0 0 0 0 0 0 0 0 0 0 0 0 0 0 0 0 0 0 0 0 0 0 0 0 0 0 0 0 0 0 0 1 1 2 0 2 5 1 1 2 4 10 13 10 15 13 33 23 34 57 50 67 109 122 225 280 469 560 674 626 503 286 175 93 51 29 19 8 5 4 5 1 0 0 0 0 0 0 0 0 0 0 0 0 0 0 0 0
0 0 0 0 0 0 0 0 0 0 0 0 0 0 0 0 0 0 0 0 0 0 0 0 0 0 0 0 0 0 0 0 0 0 0 0 0 0 0 0 0 0 0 0 0 1 0 1 2 0 1 3 5 4 4 8 9 12 5 29 19 23 39 41 75 116 134 205 254 370 461 511 448 303 195 103 87 45 24 11 14 3 2 1 1 0 0 0 0 0 0 0 0 0 0 0 0 0 0 0
0 0 0 0 0 0 0 0 0 0 0 0 0 0 0 0 0 0 0 0 0 0 0 0 0 0 0 0 0 0 0 0 0 0 0 0 0 0 0 0 0 0 0 0 0 0 0 0 0 1 0 1 0 0 2 7 4 3 9 10 14 13 22 19 43 67 60 113 161 172 237 280 309 261 234 157 103 55 43 11 11 6 4 3 1 1 0 0 0 0 0 0 0 0 0 0 0 0 0 0
0 0 0 0 0 0 0 0 0 0 0 0 0 0 0 0 0 0 0 0 0 0 0 0 0 0 0 0 0 0 0 0 0 0 0 0 0 0 0 0 0 0 0 0 0 0 0 0 0 1 0 1 0 1 3 4 2 1 5 3 9 5 5 16 16 22 29 46 69 80 114 199 233 246 223 189 141 65 45 17 20 10 3 2 5 0 0 0 0 0 0 0 0 0 0 0 0 0 0 0
0 0 0 0 0 0 0 0 0 0 0 0 0 0 0 0 0 0 0 0 0 0 0 0 0 0 0 0 0 0 0 0 0 0 0 0 0 0 0 0 0 0 0 0 0 0 0 0 0 0 0 0 0 0 0 1 0 2 2 2 3 7 3 6 11 14 17 21 31 47 70 109 136 175 192 167 137 99 46 33 16 9 8 4 3 0 1 0 0 0 0 0 0 0 0 0 0 0 0 1
0 0 0 0 0 0 0 0 0 0 0 0 0 0 0 0 0 0 0 0 0 0 0 0 0 0 0 0 0 0 0 0 0 0 0 0 0 0 0 0 0 0 0 0 0 0 0 0 0 0 0 0 0 0 0 1 1 1 0 0 1 1 2 9 7 6 8 9 23 28 38 54 94 134 136 156 140 103 58 28 25 15 7 4 3 0 0 1 1 0 0 0 1 0 0 0 0 1 0 0
0 0 1 0 0 0 0 0 0 0 0 0 0 0 0 0 0 0 0 0 0 0 0 0 0 0 0 0 0 0 0 0 0 0 0 0 0 0 0 0 0 0 0 0 0 0 0 0 0 0 0 0 0 0 0 0 0 0 0 0 0 1 3 8 2 5 3 5 9 21 14 25 42 61 88 104 101 82 47 39 22 18 2 3 3 2 2 1 1 1 3 1 0 1 1 0 3 0 0 1
0 0 0 0 0 0 0 0 0 0 0 0 0 0 0 0 0 0 0 0 0 0 0 0 0 0 0 0 0 0 0 0 0 0 0 0 0 0 0 0 0 0 0 0 0 0 0 0 0 0 0 0 0 0 0 0 0 0 0 0 0 1 2 0 7 3 4 3 11 7 9 15 33 34 39 59 62 57 38 35 24 13 10 8 8 5 6 2 6 1 4 3 0 1 0 0 0 1 2 1
1 0 0 0 0 0 0 0 0 0 0 0 0 0 0 0 0 0 0 0 0 0 0 0 0 0 0 0 0 0 0 0 0 0 0 0 0 0 0 0 0 0 0 0 0 0 0 0 0 0 0 0 0 0 0 0 0 0 0 0 0 1 0 3 2 3 0 1 0 4 4 5 8 8 25 24 42 37 39 35 28 16 16 15 12 10 15 5 10 4 1 3 1 1 0 0 0 1 0 1
0 0 0 0 0 0 0 0 0 0 0 0 0 0 0 0 0 0 0 0 0 0 0 0 0 0 0 0 0 0 0 0 0 0 0 0 0 0 0 0 0 0 0 0 0 0 0 0 0 0 0 0 0 0 0 0 0 0 0 0 0 0 0 2 0 0 0 3 0 2 1 6 4 6 13 18 28 30 32 30 35 33 24 20 10 18 14 8 5 8 5 2 6 0 2 1 4 0 4 0
0 1 0 0 0 0 0 0 0 0 0 0 0 0 0 0 0 0 0 0 0 0 0 0 0 0 0 0 0 0 0 0 0 0 0 0 0 0 0 0 0 0 0 0 0 0 0 0 0 0 0 0 0 0 0 0 0 0 0 0 0 0 0 0 0 0 0 0 1 0 1 1 3 4 7 13 13 21 23 23 37 28 25 25 27 23 11 23 12 12 6 5 6 4 3 0 0 3 3 2
2 2 0 0 0 0 0 0 0 0 0 0 0 0 0 0 0 0 0 0 0 0 0 0 0 0 0 0 0 0 0 0 0 0 0 0 0 0 0 0 0 0 0 0 0 0 0 0 0 0 0 0 0 0 0 0 0 0 0 0 0 0 0 1 1 3 0 1 0 1 1 2 7 4 1 2 15 4 10 20 20 41 30 34 23 28 31 15 13 13 6 7 10 6 3 2 5 4 5 1
2 2 1 0 0 0 0 0 0 0 0 0 0 0 0 0 0 0 0 0 0 0 0 0 0 0 0 0 0 0 0 0 0 0 0 0 0 0 0 0 0 0 0 0 0 0 0 0 0 0 0 0 0 0 0 0 0 0 0 0 0 0 1 1 1 0 1 1 1 3 1 2 4 2 1 3 6 6 11 9 19 30 42 36 28 26 21 18 23 20 11 9 5 14 5 9 7 4 6 0
6 4 1 0 0 0 0 0 0 0 0 0 0 0 0 0 0 0 0 0 0 0 0 0 0 0 0 0 0 0 0 0 0 0 0 0 0 0 0 0 0 0 0 0 0 0 0 0 0 0 0 0 0 0 0 0 0 0 0 0 0 0 0 0 1 0 1 2 2 1 3 1 2 2 1 0 3 5 8 13 15 23 22 34 21 24 25 18 21 18 12 13 10 12 5 8 4 6 3 5
3 3 4 1 4 1 0 0 0 0 0 0 0 0 0 0 0 0 0 0 0 0 0 0 0 0 0 0 0 0 0 0 0 0 0 0 0 0 0 0 0 0 0 0 0 0 0 0 0 0 0 0 0 0 0 0 0 0 0 0 0 0 0 0 0 0 0 0 1 0 0 0 2 1 1 0 3 4 7 7 17 14 26 35 28 29 21 30 22 28 29 27 24 21 16 14 8 7 7 7
4 7 6 5 2 1 1 0 1 0 0 0 0 0 0 0 0 0 0 0 0 0 0 0 0 0 0 0 0 0 0 0 0 0 0 0 0 0 0 0 0 0 0 0 0 0 0 0 0 0 0 0 0 0 0 0 0 0 0 0 0 0 0 0 0 0 0 0 0 0 1 1 0 0 0 1 1 3 4 6 15 21 19 32 26 43 35 33 33 44 35 30 30 27 23 30 12 14 11 8
10 10 3 2 3 2 1 1 2 1 0 0 0 0 0 0 0 0 0 0 0 0 0 0 0 0 0 0 0 0 0 0 0 0 0 0 0 0 0 0 0 0 0 0 0 0 0 0 0 0 0 0 0 0 0 0 0 0 0 0 0 0 0 0 0 0 0 0 0 0 0 0 1 0 1 1 3 6 1 11 8 17 32 22 16 33 38 31 37 46 48 39 24 32 34 22 28 22 17 12
22 18 16 2 5 4 3 2 2 0 4 2 1 0 0 0 0 0 0 0 0 0 0 0 0 0 0 0 0 0 0 0 0 0 0 0 0 0 0 0 0 0 0 0 0 0 0 0 0 0 0 0 0 0 0 0 0 0 0 0 0 0 0 0 0 0 0 0 0 0 0 0 1 0 0 0 0 4 5 7 4 16 15 25 23 24 26 33 53 41 39 50 35 40 43 30 42 37 34 14
27 12 12 12 9 3 5 1 2 3 0 0 0 0 0 0 0 0 0 0 0 0 0 0 0 0 0 0 0 0 0 0 0 0 0 0 0 0 0 0 0 0 0 0 0 0 0 0 0 0 0 0 0 0 0 0 0 0 0 0 0 0 0 0 0 0 0 0 0 0 0 0 0 0 0 0 0 3 3 3 7 8 11 14 21 37 42 31 46 41 51 56 44 46 47 43 44 44 29 31
18 24 18 7 12 8 6 5 6 3 0 2 0 1 0 0 0 0 0 0 0 0 0 0 0 0 0 0 0 0 0 0 0 0 0 0 0 0 0 0 0 0 0 0 0 0 0 0 0 0 0 0 0 0 0 0 0 0 0 0 0 0 0 0 0 0 0 0 0 0 0 0 0 0 0 1 0 3 5 2 4 5 13 17 21 26 39 40 39 66 63 51 62 55 53 49 45 48 41 23
38 21 14 5 11 7 6 3 13 3 0 1 0 0 1 0 0 0 0 0 0 0 0 0 0 0 0 0 0 0 0 0 0 0 0 0 0 0 0 0 0 0 0 0 0 0 0 0 0 0 0 0 0 0 0 0 0 0 0 0 0 0 0 0 0 0 0 0 0 0 0 0 0 0 0 0 1 2 3 5 2 10 8 15 15 18 37 46 52 42 53 74 60 55 73 58 44 62 36 28
28 28 13 12 10 11 11 9 10 3 1 2 1 1 0 0 0 0 0 0 0 0 0 0 0 0 0 0 0 0 0 0 0 0 0 0 0 0 0 0 0 0 0 0 0 0 0 0 0 0 0 0 0 0 0 0 0 0 0 0 0 0 0 0 0 0 0 0 0 0 0 0 0 0 0 0 0 0 3 3 3 1 8 6 13 22 37 43 47 56 62 63 56 49 71 63 73 61 38 37
33 29 34 19 17 20 14 10 5 6 1 3 1 1 3 0 0 0 0 0 0 0 0 0 0 0 0 0 0 0 0 0 0 0 0 0 0 0 0 0 0 0 0 0 0 0 0 0 0 0 0 0 0 0 0 0 0 0 0 0 0 0 0 0 0 0 0 0 0 0 0 0 0 0 0 0 0 1 0 1 3 2 2 4 8 14 29 50 37 55 69 52 71 58 62 60 62 46 42 36
42 39 35 24 30 17 13 8 7 4 1 2 6 3 2 0 1 0 0 0 0 0 0 0 0 0 0 0 0 0 0 0 0 0 0 0 0 0 0 0 0 0 0 0 0 0 0 0 0 0 0 0 0 0 0 0 0 0 0 0 0 0 0 0 0 0 0 0 0 0 0 0 0 0 0 0 1 0 0 2 1 1 5 3 6 21 18 38 53 45 61 59 69 70 70 78 60 51 54 38
44 42 29 28 26 21 16 20 20 8 10 1 5 5 0 0 0 0 0 0 0 0 0 0 0 0 0 0 0 0 0 0 0 0 0 0 0 0 0 0 0 0 0 0 0 0 0 0 0 0 0 0 0 0 0 0 0 0 0 0 0 0 0 0 0 0 0 0 0 0 0 0 0 0 0 0 0 0 0 1 1 2 3 3 5 12 21 43 31 33 50 59 71 67 55 66 58 50 51 54
31 32 28 24 17 11 21 27 22 15 12 5 8 3 4 2 0 0 0 0 0 0 0 0 0 0 0 0 0 0 0 0 0 0 0 0 0 0 0 0 0 0 0 0 0 0 0 0 0 0 0 0 0 0 0 0 0 0 0 0 0 0 0 0 0 0 0 0 0 0 0 0 0 0 0 0 0 0 0 1 0 1 6 5 8 8 21 24 39 33 53 58 60 60 68 57 48 68 58 52
43 33 33 29 31 38 31 26 22 18 12 12 5 3 4 0 3 1 1 0 0 0 0 0 0 0 0 0 0 0 0 0 0 0 0 0 0 0 0 0 0 0 0 0 0 0 0 0 0 0 0 0 0 0 0 0 0 0 0 0 0 0 0 0 0 0 0 0 0 0 0 0 0 0 0 0 0 0 0 0 1 4 5 2 7 5 21 21 25 37 36 47 65 46 51 59 49 55 41 51
50 38 37 44 39 34 30 24 21 30 20 8 9 8 0 4 1 1 0 0 0 0 0 0 0 0 0 0 0 0 0 0 0 0 0 0 0 0 0 0 0 0 0 0 0 0 0 0 0 0 0 0 0 0 0 0 0 0 0 0 0 0 0 0 0 0 0 0 0 0 0 0 0 0 0 0 0 0 0 0 0 1 4 1 4 5 16 16 22 25 38 45 37 53 44 44 43 53 52 53
38 57 40 44 36 36 40 37 32 19 17 15 10 6 5 3 4 0 1 0 0 0 0 0 0 1 0 0 0 0 0 0 0 0 0 0 0 0 0 0 0 0 0 0 0 0 0 0 0 0 0 0 0 0 0 0 0 0 0 0 0 0 0 0 0 0 0 0 0 0 0 0 0 0 0 0 0 0 0 0 0 0 1 3 3 4 12 5 25 18 25 32 34 36 40 51 45 48 49 49
