#lt      20.0
#count pbc
#dt      1.0
#dn      20
#edges  -27.1557089 -26.6125947 -26.0694805 -25.5263664 -24.9832522 -24.4401380 -23.8970238 -23.3539097 -22.8107955 -22.2676813 -21.7245671 -21.1814529 -20.6383388 -20.0952246 -19.5521104 -19.0089962 -18.4658821 -17.9227679 -17.3796537 -16.8365395 -16.2934253 -15.7503112 -15.2071970 -14.6640828 -14.1209686 -13.5778545 -13.0347403 -12.4916261 -11.9485119 -11.4053977 -10.8622836 -10.3191694  -9.7760552  -9.2329410  -8.6898268  -8.1467127  -7.6035985  -7.0604843  -6.5173701  -5.9742560  -5.4311418  -4.8880276  -4.3449134  -3.8017992  -3.2586851  -2.7155709  -2.1724567  -1.6293425  -1.0862284  -0.5431142   0.0000000   0.5431142   1.0862284   1.6293425   2.1724567   2.7155709   3.2586851   3.8017992   4.3449134   4.8880276   5.4311418   5.9742560   6.5173701   7.0604843   7.6035985   8.1467127   8.6898268   9.2329410   9.7760552  10.3191694  10.8622836  11.4053977  11.9485119  12.4916261  13.0347403  13.5778545  14.1209686  14.6640828  15.2071970  15.7503112  16.2934253  16.8365395  17.3796537  17.9227679  18.4658821  19.0089962  19.5521104  20.0952246  20.6383388  21.1814529  21.7245671  22.2676813  22.8107955  23.3539097  23.8970238  24.4401380  24.9832522  25.5263664  26.0694805  26.6125947  27.1557089
   103   125   121   102   110    97   101    90    89    72    57    47    49    40    27    12    23    12    10     5     3     5     1     2     2     0     1     0     2     1     0     0     0     0     0     0     0     0     0     0     0     0     0     0     0     0     0     0     0     0     0     0     0     0     0     0     0     0     0     0     0     0     1     1     1     0     0     0     0     0     0     0     1     2     1     1     2     2     4     2     8     4    15    13    19    20    27    38    45    70    72    69    66    62    97    94   105   109   116   118
   109   121    99   118   119   103    96    90    78    73    75    56    45    33    39    19    29    22    15    10     6     3     3     7     4     1     1     2     2     1     0     2     0     0     1     0     0     0     0     0     0     0     0     0     0     0     0     0     0     0     0     0     0     0     0     0     0     0     0     0     0     0     0     1     0     0     0     0     0     0     0     0     0     0     0     2     1     3     3     3     8     6    11     6    11     6    23    36    39    41    52    53    63    75    89    87    92   114   117   116
   110   118   122   115   110    93    99    89    94    65    76    64    60    36    36    28    25    15    10    17    10     6     6     2     4     4     4     1     2     1     0     0     2     0     0     0     0     0     0     0     0     0     0     0     0     0     0     0     0     0     0     0     0     0     0     0     0     0     0     0     0     0     0     0     0     0     0     0     1     0     0     0     0     0     1     0     0     2     4     3     3     5     7     8     9     8    20    25    25    42    48    45    70    65    72    88    87   113   100   107
   113   113    92    99   114   133   116    98   102    85    98    72    60    52    46    46    28    18    16    15    18     7    10     6     7     6     3     4     3     2     0     0     0     0     1     0     2     0     0     0     0     0     0     0     0     0     0     0     0     0     0     0     0     0     0     0     0     0     0     0     0     0     0     1     1     0     0     0     0     0     0     0     0     0     0     0     0     5     1     2     7     6     6     5    18     9    13    30    21    23    30    42    52    62    79    71    70    90    94    87
   104    92   108   121   124   116   112   119    95    99    89    84    71    68    48    53    36    31    22    20    17     7    11     4     5     7     6     4     2     1     1     1     1     1     1     1     0     0     0     0     0     0     0     0     0     0     0     0     0     0     0     0     0     0     0     0     0     0     0     0     0     0     0     0     0     0     0     0     0     0     0     0     0     0     0     1     0     1     2     3     0     2     0     4     7     9    17    19    13    37    32    47    52    60    71    65    76    84    89    99
   103    90   127   119   117   129   112   110    89   105   109    88    74    72    65    54    44    30    23    29    18    17    15    10     6     6    10     9     5     2     0     1     0     1     1     0     1     0     0     0     0     0     0     0     0     0     0     0     0     0     0     0     0     0     0     0     0     0     0     0     0     0     0     0     0     0     0     0     0     0     1     0     0     0     1     0     1     0     0     0     1     3     1     6     4     7    12    14    12    20    26    25    44    46    43    61    62    84    90    89
    89   112    94   125   111   115    90   118   115   105   114   108    68    71    79    67    48    47    41    34    25    16    13    11    11     9     9     6     3     1     0     0     0     1     0     1     0     0     0     0     0     0     0     0     0     0     0     0     0     0     0     0     0     0     0     0     0     0     0     0     0     0     0     0     0     0     0     0     0     0     0     0     0     0     0     0     0     0     0     0     0     1     3     0     4     7     8    10    15    15    19    15    24    23    45    51    57    67    82    86
    83    97   109   107   110   103   123   118   115   119   114    88    92    70    78    75    58    65    47    42    28    22    25    20    17    13    13     8     5     4     0     2     2     2     0     0     1     0     0     0     0     0     0     0     0     0     0     0     0     0     0     0     0     0     0     0     0     0     0     0     0     0     0     0     0     0     0     0     0     0     0     0     0     0     0     0     0     1     0     1     0     1     2     3     3     4     7     9     9    18    20    16    25    30    39    40    42    48    71    86
    75    90    87    93   106    91    90   104   123   116   125   113    96    86    76    83    79    63    51    44    33    31    23    14    18    18    12    11    10     9     6     4     5     1     2     0     3     0     1     0     0     0     0     0     0     0     0     0     0     0     0     0     0     0     0     0     0     0     0     0     0     0     0     0     0     0     0     0     0     0     0     0     0     1     0     0     0     0     2     1     2     3     1     2     4     4     5     4     6    17    11    19    31    32    18    34    51    47    50    55
    48    73    80    64    95    96   114   132   106   122   125   124   106   105   102    92    90    73    52    62    41    45    41    34    19    14    21    15    17     8     6     0     2     5     2     1     0     2     1     0     0     0     0     0     0     0     0     0     0     0     0     0     0     0     0     0     0     0     0     0     0     0     0     0     0     0     0     0     0     0     0     1     0     0     0     0     0     0     0     1     1     1     0     0     3     4     3     9     7    12    14    23    16    26    22    29    34    43    52    67
    76    65    76    74    89    79    94   109    99   140   124   122   113   115   101   124    89    77    59    70    58    37    42    38    20    21    20    24     9     6     9     4     3     1     0     6     2     0     1     0     0     0     0     0     0     0     0     0     0     0     0     0     0     0     0     0     0     0     0     0     0     0     0     0     0     0     0     0     0     0     0     0     0     0     0     0     0     0     0     2     0     2     3     2     1     1     2     5     5     8     8     9    12    21    20    33    37    28    42    54
    57    55    84    69    76    92    95    88   110   118   110   124   120    96   102   112   101    84    78    75    75    53    48    41    39    25    22    15    17    10    11    10     9     5     2     1     1     3     0     0     0     0     0     0     0     0     0     0     0     0     0     0     0     0     0     0     0     0     0     0     0     0     0     0     0     0     0     0     0     0     0     0     0     0     0     0     0     1     0     0     0     0     1     1     0     1     1     2     5     2     7     4    12    12    12    19    19    19    36    48
    39    48    54    59    71    77    93    77    96    94    86   110   103   126   105   102    96    84    87    77    69    71    63    46    37    42    26    25    22    19    20     9     8     7     3     6     2     1     2     2     0     0     0     0     0     0     0     0     0     0     0     0     0     0     0     0     0     0     0     0     0     0     0     0     0     0     0     0     0     0     0     0     0     0     0     0     0     0     0     0     0     0     1     2     0     0     0     2     3     2     6     3    13     6    16     7    19    25    23    30
    30    38    42    60    53    80    66    82    94   105   106   110   112   102   120    97    90    67    96    92    82    55    57    61    48    40    25    33    25    19    15    12     7    10     7     4     4     1     2     1     0     0     0     0     0     0     0     0     0     0     0     0     0     0     0     0     0     0     0     0     0     0     0     0     0     0     0     0     0     0     0     0     0     0     0     0     0     0     0     0     0     0     0     0     0     0     2     2     0     1     1     6    11     5     9    14    19    22    18    33
    25    21    38    51    43    77    75    77    90   102    95    92   109   114   114   102    84    92    95    81   102    73    51    59    46    52    36    21    23    25    21    19    14    12     9    13    10     1     1     1     0     2     0     1     0     0     0     0     0     0     0     0     0     0     0     0     0     0     0     0     0     0     0     0     0     0     0     0     0     0     0     0     0     0     0     0     0     0     0     0     0     0     0     0     0     1     1     0     1     1     6     6     3     6    11    12    20    15    13    23
    28    29    31    40    49    50    62    74    66   102    96   104   106    91   117   105   100    92    99    84    90    75    84    63    78    54    42    47    40    24    29    22    14    15    15    12     5     4     4     2     1     0     0     0     0     0     0     0     0     0     0     0     0     0     0     0     0     0     0     0     0     0     0     0     0     0     0     0     0     0     0     0     0     0     0     0     0     0     0     0     0     0     0     0     0     1     0     1     2     1     2     7     3     5     6    10    15     9    19    18
     7    17    20    25    33    37    59    59    55    78    73    86    92    95    84   100    93   109   108   104    89   104    79   109    65    55    66    37    43    24    21    23    26    24    19     8    12     8     4     3     3     2     3     0     3     0     0     0     0     0     0     0     0     0     0     0     0     0     0     0     0     0     0     0     0     0     0     0     0     0     0     0     0     0     0     0     0     0     0     0     0     0     0     0     0     0     1     2     0     4     4     0     1     6     7     9     5     7    10    14
    11    21    16    26    27    31    40    49    58    66    84    95    80    92    85    92   105    82   103    83    80   108    92    86    76    77    59    45    47    40    31    18    18    24    16    11     7     9     4     1     0     5     2     2     0     0     1     0     0     0     0     0     0     0     0     0     0     0     0     0     0     0     0     0     0     0     0     0     0     0     0     0     0     0     0     0     0     0     0     0     0     0     0     0     0     0     1     0     0     0     1     0     2     2     3    11    11     4     7    10
    10    12    21    14    31    39    35    42    49    67    83    55    73    91    91   113    89    81    78    89    98   101    99    95    81    57    55    56    41    56    40    38    29    28    24    22    14    12     4     3     4     0     2     2     2     1     0     0     0     0     0     0     0     0     0     0     0     0     0     0     0     0     0     0     0     0     0     0     0     0     0     0     0     0     0     0     0     0     0     0     0     0     0     0     1     1     1     0     0     0     0     2     1     1     2    10     6     7     5    12
    12     4    11     8    20    34    31    37    43    59    64    76    81    68    92    90    92    83   100    94   100   104   101   110   104    93    68    71    64    57    45    51    31    31    20    17    22     5     9     4     4     4     5     4     1     0     1     1     0     0     0     0     0     0     0     0     0     0     0     0     0     0     0     0     0     0     0     0     0     0     0     0     0     0     0     0     0     0     0     0     0     0     0     0     0     0     0     0     0     1     0     1     1     1     0     4     7     4     5     4
     2     6     9     9    20    14    28    36    45    44    52    66    68    80    78   105    92    86    81   116   102   110   100   102    95    93    95    74    57    70    48    31    49    37    29    24    17    10    12     4     7     8     0     4     3     3     1     1     2     1     1     0     0     0     1     0     0     0     0     0     0     0     0     0     0     0     0     0     0     0     0     0     0     0     0     0     0     0     0     0     0     0     0     0     0     0     0     0     0     0     0     0     1     1     0     4     2     1     6     2
     7    11     6    12    12    19    22    31    33    48    48    62    70    81    72    81   110    84    79   108   110   108    99   106    96    93    86    76    61    76    68    58    60    40    42    24    27    18    12     8     6     7     4     3     2     1     1     1     3     0     0     1     0     0     0     0     0     0     0     0     0     0     0     0     0     0     0     0     0     0     0     0     0     0     0     0     0     0     0     0     0     0     0     0     0     1     2     0     0     0     0     0     1     1     0     1     2     0     3     4
     7    11     8     8     6    20    16    13    26    41    24    53    55    59    60    93    81    82    97    98    89   107   114   122    91    80    94    95    85    79    66    55    51    37    45    42    33    17    15    14     8    10    11     4     5     2     5     0     1     1     0     0     0     2     0     0     1     0     0     0     0     0     0     0     0     0     0     0     0     0     0     0     0     0     0     0     0     0     0     0     0     0     0     0     0     0     0     0     0     0     0     1     1     1     1     1     1     3     8     3
     5     8     5    10    12    17    13    32    22    27    41    46    43    61    62    60    83    94    97   111   104    96   107   138   116   102   101   113    84    96    95    73    65    52    51    30    37    22    27    25    18     5    10     8     7     2     3     2     0     2     0     1     0     0     0     0     0     0     0     0     0     0     0     0     0     0     0     0     0     0     0     0     0     0     0     0     0     0     0     0     0     0     0     0     0     0     0     0     0     0     0     0     0     0     1     1     1     1     3     6
     0     6     7     7     7     7    13    11    21    31    32    34    49    60    51    42    67    89    64    78    92    93    77    97    95    91   101   100    85    79    89    77    59    72    48    46    54    42    29    27    23    24     9     6     8     5     8     2     2     1     0     0     0     0     0     0     0     0     0     1     0     0     0     0     0     0     0     0     0     0     0     0     0     0     0     0     0     0     0     0     0     0     0     0     0     0     0     0     0     0     0     0     0     0     0     0     2     3     0     3
     3     5     3     6     3     8    14    18     7    16    32    30    32    47    37    48    57    80    66    76    85    98   114   110    87   101   108   100   102    90    91    87    68    66    54    51    51    64    33    29    20     7    10    11     8     7     8     2     1     4     2     0     1     0     0     0     0     0     1     1     0     1     0     0     0     0     0     0     0     0     0     0     0     0     0     0     0     0     0     0     0     0     0     0     0     0     0     0     0     0     0     0     1     1     0     1     2     1     2     1
     2     2     3     1     4     6     6     8    15    12    26    21    29    31    43    46    43    59    59    67    67    91   104   112    93   108    86    96    89    88    95   106    74    87    67    64    60    52    39    35    25    20    22    12    12    10     7     3     4     5     3     2     2     2     1     0     0     0     1     0     0     0     0     0     0     0     0     0     0     0     0     0     0     0     0     0     0     0     0     0     0     0     0     0     0     0     0     0     0     0     0     0     0     0     0     0     1     2     0     4
     3     0     1     2     2     5     6     8    14    11    17    26    32    26    39    39    37    59    62    61    84    84    88   100    90   111   109   108   129   118   108    97   115    93    84    79    58    56    46    34    26    30    18    19     9    14     9     7     2     3     2     2     2     1     2     2     1     0     0     1     1     0     0     0     0     0     0     0     0     0     0     0     0     0     0     0     0     0     0     0     0     0     0     0     0     0     0     0     0     0     0     0     0     1     0     0     1     0     0     0
     0     0     1     2     5     4     4     7     5     9     7    12    25    22    36    46    35    39    62    57    62    79    88    86    88    90    94   116    96   111   108   106    99   102   122    80    75    63    53    51    52    35    22    21    17    14     7     7     4     3     2     4     1     0     3     0     1     0     1     0     1     0     0     0     0     0     0     0     0     0     0     0     0     0     0     0     0     0     0     0     0     0     0     0     0     0     0     0     0     0     0     0     0     0     0     0     0     0     0     0
     0     2     0     1     1     1     2     7     2    10     9    11    15    24    18    28    27    40    50    52    69    78    56    82    77    89   102   140   127   120    94   126   102   107    87    88    70    70    74    57    53    38    34    37    13    14    13     6     6     5     6     4     7     1     3     4     6     0     1     2     0     2     0     0     0     0     0     0     0     0     0     0     0     0     0     0     0     0     0     0     0     0     0     0     0     0     0     0     0     0     0     0     0     0     0     0     0     0     1     3
     0     0     0     2     0     1     2     3     2     3     7     7    14    11    19    22    41    35    44    48    49    69    69    96    93    97    79   110   133   117   115   120    92    97    93    79    72    68    63    63    59    55    42    25    34    22    17    12    16     7    14    11     3     2     1     1     0     4     1     3     1     3     1     0     0     0     0     0     0     0     0     0     0     0     0     0     0     0     0     0     0     0     0     0     0     0     0     0     0     0     0     0     0     0     0     0     0     0     0     1
     0     0     1     1     1     2     2     0     3     6     3     3    15    12    19    22    30    35    41    59    51    45    48    70    74    86    85   104    80   116   113   108    96   100   116   117   115    79    85    75    70    59    51    40    20    19    28    11    13    20    10     7    15     8     1     2     5     2     1     1     0     0     0     0     0     0     1     0     0     0     0     0     0     0     0     0     0     0     0     0     0     0     0     0     0     0     0     0     0     0     0     0     0     0     0     0     0     0     0     0
     0     1     0     1     0     0     1     1     0     2     1     2     8     9    17    16    24    30    37    45    41    50    52    69    62    82    68   111    93   113    92   100   103   127   105    97    94    96    82    97    64    55    50    36    32    28    20    20    22    13    15    14     6     6     2     2     1     2     3     4     1     2     1     1     1     0     0     0     0     0     0     0     0     0     0     0     0     0     0     0     0     0     0     0     0     0     0     0     0     0     0     0     0     0     0     0     0     0     1     0
     1     1     0     0     1     0     2     1     5     4     4     3     5     3     5    16    15    20    30    35    53    49    51    65    57    85    73    96   105    99   112   106   102   100   102    92   100   114    83    90    75    68    64    41    44    42    35    25    28    16    16    24    10    10     5     4     5     4     2     1     1     0     1     0     0     0     0     0     0     0     0     0     0     0     0     0     0     0     0     0     0     0     0     0     0     0     0     0     0     0     0     0     0     0     0     0     0     0     1     0
     0     0     0     0     0     1     1     2     0     6     3     7     4     5     7    13    12    20    24    28    27    44    44    57    61    60    75    73    84    95    86   110   103   102   131   115    99    90   107   106    83    76    70    51    53    44    38    27    26    19    27    17    17    12     8    11     4     3     5     2     1     0     2     0     0     0     0     0     0     0     0     0     0     0     0     0     0     0     0     0     0     0     0     0     0     0     0     0     0     0     0     0     0     0     0     0     0     0     0     0
     0     0     0     0     0     0     0     0     0     1     2     4     4     3     5     5     5    16    13    19    26    38    38    55    50    42    72    65    83    69    96   115   115    88    99   136   125   116   110    86    91    89    86    53    65    49    33    40    33    25    31    20    12    15    14     7     6     3     4     1     4     2     0     1     1     0     0     0     0     0     0     0     0     0     0     0     0     0     0     0     0     0     0     0     0     0     0     0     0     0     0     0     0     0     0     0     0     0     0     0
     0     0     0     0     0     1     0     0     0     1     1     3     0     7     1     3     7     6     8    20    17    30    26    47    43    62    68    74    87    70    93    76   104   114   104   120   143   109   124   103   107   101    82    67    60    59    51    39    35    35    33    23    25    15    12     9     6     3     4     2     8     3     0     1     2     1     1     0     0     0     0     0     0     0     0     0     0     0     0     0     0     0     0     0     0     0     0     0     0     0     0     0     0     0     0     0     0     0     0     0
     0     0     0     0     0     0     0     0     0     1     1     0     0     1     3     7     5     6    11    16    11    27    27    23    28    49    52    47    58    62    81    87    96    87   116   133   112   122   113    96   115    88    92   102    68    58    61    50    43    41    36    29    23    20    11    10     5     6     5     4     2     5     1     1     0     0     0     0     1     0     0     0     0     0     0     0     0     0     0     0     0     0     0     0     0     0     0     0     0     0     0     0     0     0     0     0     0     0     0     0
     0     0     0     0     0     0     0     0     0     0     1     1     0     2     0     0     6     4    11     5     6    13    28    19    34    27    29    39    48    64    72    76    77    92   110   127   113   133   112   116   115    88    92    86    72    71    58    50    61    51    39    37    35    24    22    14    10    14     5     3     2     4     4     2     1     1     0     0     1     0     0     0     0     0     0     0     0     0     0     0     0     0     0     0     0     0     0     0     0     0     0     0     0     0     0     0     0     0     0     0
     0     0     0     0     0     0     0     0     0     0     0     1     0     1     1     4     1     2     5     6    11    12    16    15    27    28    25    43    47    57    70    59    76    98    72    96   110   116   119   117   127    93    90    94    95    72    61    70    77    45    45    38    36    26    20    17    19    11     4     4     8     5     2     2     2     2     1     1     1     1     0     0     0     0     0     0     0     0     0     0     0     0     0     0     0     0     0     0     0     0     0     0     0     0     0     0     0     0     0     0
     0     0     0     0     0     0     0     0     0     0     0     0     1     0     0     0     1     3     1     5    11    12    11    20    15    25    30    35    46    42    59    71    65    64    80    87    87    93    93   111    87   106    94    94   102    94    84    71    89    71    55    53    58    52    27    25    19    16     9     6     6     8     5     1     3     3     2     1     0     1     0     0     0     0     0     0     0     0     0     0     0     0     0     0     0     0     0     0     0     0     0     0     0     0     0     0     0     0     0     0
     0     0     0     0     0     0     0     0     1     0     0     0     1     1     0     3     1     1     0     1     3     6     9    14    20    15    25    28    50    45    60    55    60    67    63    65    81   100    83    97   128   104   107    96    83    88    86    86    89    64    58    49    61    39    41    28    22    20    20    15     8     8    12     5     4     3     2     2     0     0     1     0     0     0     0     0     0     0     0     0     0     0     0     0     0     0     0     0     0     0     0     0     0     0     0     0     0     0     0     0
     0     0     0     0     0     0     0     0     0     0     0     1     0     0     1     3     0     1     4     2     6     7     5     9    13    17    12    22    28    31    36    53    58    73    78    75    83   104    85    87   100   120   106   110    87   108   106    92    84    84    72    62    57    39    43    30    34    29    12    12    13     9     7     7    10     2     4     1     0     1     1     0     1     1     0     0     0     0     0     0     0     0     0     0     0     0     0     0     0     0     0     0     0     0     0     0     0     0     0     0
     0     0     0     0     0     0     0     0     0     1     0     0     0     0     0     0     1     0     2     1     6     8     7     4    11    13    18    20    27    35    34    49    63    59    62    56    71    90    85    90    82    87   108   122   101   111    88    98    89    72    75    65    63    60    43    41    26    32    21    23     9    18    16     3     4     4     3     3     2     1     1     0     0     0     0     0     0     0     0     0     0     0     0     0     0     0     0     0     0     0     0     0     0     0     0     0     0     0     0     0
     0     0     0     0     0     0     0     0     0     0     0     0     0     0     0     0     0     0     2     2     1     2     3     4     8    10    10    18    16    30    23    37    46    40    57    55    65    67    78    84    85    91   112   114   106    92   100   105    86   107    90    76    75    69    51    37    35    36    29    24    20    20    11    12    13     5     6     4     2     3     1     1     0     0     0     0     0     0     0     0     0     0     0     0     0     0     0     0     0     0     0     0     0     0     0     0     0     0     0     0
     0     0     0     0     0     0     0     0     0     0     0     0     0     0     0     0     0     0     0     0     3     5     3     7     4     6    10    16    14    18    19    31    30    51    56    54    69    69    84    72    79    92    98   111   106   111   114    87    88    84    94    71    69    63    65    44    38    40    35    28    32    17    21     8    11     5    12     4     2     2     1     1     0     0     1     0     1     0     0     0     0     0     0     0     0     0     0     0     0     0     0     0     0     0     0     0     0     0     0     0
     0     0     0     0     0     0     0     0     0     0     0     0     0     0     0     0     0     0     0     0     3     3     0     2     4     8     7    10    12    14    20    23    19    44    47    48    57    47    67    68    76    90    79   100   111    93   109   109   117   109   103   110    93    89    75    62    57    42    42    44    26    28    25    19    13    13     5     8     2     2     0     1     0     2     0     1     0     0     0     0     0     0     0     0     0     0     0     0     0     0     0     0     0     0     0     0     0     0     0     0
     0     0     0     0     0     0     0     0     0     0     0     0     0     0     0     0     0     0     0     0     1     2     2     3     2     2     6     9     6    12    17    21    28    31    36    40    44    58    64    70    49    76    83    98   111    93   117   100   100    97   110   109   107    79    71    54    65    51    45    46    40    30    31    16    17    12    13     8     8     2     3     0     0     0     0     0     0     1     0     0     0     0     0     0     0     0     0     0     0     0     0     0     0     0     0     0     0     0     0     0
     0     0     0     0     0     0     0     0     0     0     0     0     0     0     0     0     0     0     0     0     0     0     2     0     1     4     4     5     6    13    10     9    25    27    21    27    51    44    48    50    84    68   101    93    88   104   118   103   122   130   116   115    91   102   104    90    69    88    66    51    35    32    32    19    21    13     9     6     8     3     1     3     5     0     0     1     1     0     1     0     0     0     0     0     0     0     0     0     0     0     0     0     0     0     0     0     0     0     0     0
     0     0     0     0     0     0     0     0     0     0     0     0     0     0     0     0     0     0     0     0     0     0     0     0     0     1     4     3     7     8    14    16    13    19    24    40    44    43    61    52    71    76    82    86   106   104   103   102   105   119   115   134    99    97    99    87    93    60    67    57    46    35    30    32    25    11    19    14    10     2     3     1     1     1     1     0     0     2     0     0     0     0     0     0     0     0     0     0     0     0     0     0     0     0     0     0     0     0     0     0
     0     0     0     0     0     0     0     0     0     0     0     0     0     0     0     0     0     0     0     0     0     0     0     0     1     1     2     0     6     6     6    11     8    22    17    21    28    25    45    46    61    74    78    78    76   104    87   103   104   131   122   139   131   114    96   111    96    90    84    70    54    55    44    37    36    22    24    19    18     6     9     4     3     0     3     0     1     0     1     1     0     2     0     0     1     1     0     0     0     0     0     0     0     0     0     0     0     0     0     0
     0     0     0     0     0     0     0     0     0     0     0     0     0     0     0     0     0     0     0     0     0     0     0     0     0     2     2     3     2     5     6     6     5    10    10    11    23    22    42    41    58    64    81    61    74    85   101   128   107   125   121   137   130   124   112   114   121   107    91    80    64    64    51    40    46    26    30    20    15    11     7     7     3     1     3     0     0     1     1     0     1     2     0     0     0     0     0     0     0     0     0     0     0     0     0     0     0     0     0     0
     0     0     0     0     0     0     0     0     0     0     0     0     0     0     0     0     0     0     0     0     0     0     0     0     0     1     1     3     0     5     4     3     6     9     7    14    23    17    26    31    42    43    54    63    68    99   104   104   107    93   134   140   114   128   118   139   115   111   105    98    63    64    62    62    47    28    37    27    15    15     9     9     6     2     3     2     4     0     1     1     1     0     0     1     2     0     0     0     0     0     0     0     0     0     0     0     0     0     0     0
     0     0     0     0     0     0     0     0     0     0     0     0     0     0     0     0     0     0     0     0     0     0     0     1     0     1     0     0     1     1     5     4     2     2     5    15    13    16    15    25    34    29    46    74    71    60    83    79    96   106   116   124   116   134   141   115   110   124   110    94    75    81    53    59    65    41    42    28    24    19    14    14     7     1     5     2     0     2     2     3     2     0     0     1     0     0     0     0     0     1     0     0     1     0     0     0     0     0     0     0
     0     0     0     0     0     0     0     0     0     0     0     0     0     0     0     0     0     0     0     0     0     0     1     0     0     0     2     2     1     0     0     1     6     1     4    11    13    10    16    35    22    38    43    45    52    62    80    86    95   104    99    97   130   105   119   132   117   106   101   119   103    88    70    64    70    54    45    29    34    19     5    11     9    10     6     4     2     2     1     4     1     2     0     0     0     0     0     0     0     0     0     0     0     0     0     0     0     0     0     0
     0     0     0     0     0     0     0     0     0     0     0     0     0     0     0     0     0     0     0     0     0     0     0     0     1     0     0     0     2     1     1     4     4     7     1     8    16    14    13    19    22    28    46    29    67    56    67    60    93   105   102   120   111   123   120   135   126   116   119   104    97   104   110    65    82    62    42    46    37    26    17    19    13     3     9    10     6     2     3     3     4     2     0     1     1     0     0     0     0     0     0     0     0     0     0     0     0     0     0     0
     0     0     0     0     0     0     0     0     0     0     0     0     0     0     0     0     0     0     0     0     0     0     0     0     0     0     0     2     0     0     0     1     1     6     2     2    12     9    14    18    19    33    22    24    37    56    72    63    77    72    99    97   109    99   117   127   120   124   108   123   107   114    98    72    77    65    58    56    60    38    46    23    16    20    13     6     6     4     2     6     2     0     0     0     1     0     0     1     1     0     0     0     0     0     0     0     0     0     0     0
     0     0     0     0     0     0     0     0     0     0     0     0     0     0     0     0     0     0     0     0     0     0     0     0     0     0     1     0     0     0     0     0     2     3     5     3     9     3    12    16    14    20    29    31    36    31    51    61    61    67    73    81   108   121   127   133   124   124   136   117   120   111    88    86    71    88    63    51    44    50    34    38    27    13    14    23    10     9     7     5     3     1     2     2     0     1     1     1     1     1     0     0     0     0     0     0     0     0     0     0
     0     0     0     0     0     0     0     0     0     0     0     0     0     0     0     0     0     0     0     0     0     0     0     0     0     0     0     0     0     0     0     0     0     1     7     4     2     9     5    10    11    17    14    33    27    29    42    53    65    77    92    90    89   100    88   116   124   149   151   128   129   130   116   112    81    88    80    60    65    50    44    36    28    23    24    16    11     9     6     9     7     6     2     0     0     0     0     0     0     1     1     2     0     0     0     0     0     0     0     0
     0     0     0     0     0     0     0     0     0     0     0     0     0     0     0     0     0     0     0     0     0     0     0     0     0     0     0     0     0     0     1     0     2     0     2     0     4     3     9    10     6    19    19    19    28    30    30    43    43    58    73    88    86   100    92   104   115   111   126   130   130   104   115   105   100    91    89    73    67    58    57    34    38    29    21    21    11    13     4     5     7     4     2     1     0     0     0     0     0     0     0     0     0     0     0     0     0     0     0     0
     0     0     0     0     0     0     0     0     0     0     0     0     0     0     0     0     0     0     0     0     0     0     0     0     0     0     0     0     0     0     0     0     2     0     2     4     5     4     3     3     6    10    10    22    17    19    28    41    52    40    73    64    82    89    93   120   110   100   117   115   128   122   106    96    93   102   103    88    64    64    44    47    29    26    35    22    20    22    15    11     6     4     3     2     0     1     1     1     1     2     1     0     0     2     0     0     0     0     0     0
     0     0     0     0     0     0     0     0     0     0     0     0     0     0     0     0     0     0     0     0     0     0     0     0     0     0     0     0     0     0     0     0     0     0     0     1     1     1     0    11     4     7    11    11    20    25    27    23    46    54    48    51    66    80    79   101    98   113   120   119   129   125   112   130   100   110   107    90    71    76    68    70    55    39    49    22    22    13    10    14     9     6    10     5     6     7     1     5     2     0     1     0     0     0     0     0     0     0     0     0
     0     0     0     0     0     0     0     0     0     0     0     0     0     0     0     0     0     0     0     0     0     0     0     0     0     0     0     0     0     0     0     0     0     0     1     0     0     2     2     4     9     7    11     6    14    16    23    30    33    36    38    54    63    80    71    83    92    89   122    98   104    98    98   101   105   114   107   101    81    85    67    81    47    46    44    37    17    21    21    10    16     8    10    11     5     2     4     2     0     0     0     0     0     0     0     0     0     0     0     0
     0     0     0     0     0     0     0     0     0     0     0     0     0     0     0     0     0     0     0     0     0     0     0     0     0     0     0     0     0     0     0     0     0     0     0     1     0     0     0     1     1     5     9     9    11    15    14    26    27    27    33    47    52    56    63    80    95    85   116   108    96   106    91   108    96   118    93   109    77    91    74    65    63    48    48    51    30    33    21    18    11    16     8     6     6     8     3     1     1     0     1     1     1     0     0     0     0     0     0     0
     0     0     0     0     0     0     0     0     0     0     0     0     0     0     0     0     0     0     0     0     0     0     0     0     0     0     0     0     0     0     0     0     0     0     0     0     1     1     1     1     1     1     3     6    11     8    12    16    18    23    31    39    53    33    56    68    73    92   106    91    94   117   101    91   117   115   105   104    85    91    84    92    82    62    59    55    30    37    32    28    18    20     8    10    10     5    10     5     1     2     1     0     0     0     0     0     0     0     0     0
     0     0     0     0     0     0     0     0     0     0     0     0     0     0     0     0     0     0     0     0     0     0     0     0     0     0     0     0     0     0     0     0     0     0     0     0     0     1     0     2     0     0     3     7     8     7    13    13    17    16    20    36    36    38    49    62    71    72    73    92    98    88   116   123   110    91   127   106   103   103    99    90    83    74    58    51    42    37    37    25    30    18    12    12    13    10     9     7     5     3     2     2     2     0     0     0     0     0     0     0
     0     0     0     0     1     0     0     0     0     0     0     0     0     0     0     0     0     0     0     0     0     0     0     0     0     0     0     0     0     0     0     0     0     0     0     0     1     0     0     0     3     3     2     1     5     7     6     6    10    11    18    18    29    34    47    47    56    81    73    81    93    95   101    94   119   129   129   117   117   115    90   102    85    81    65    65    61    49    33    24    31    25    19    17    12    11     9     6     3     3     0     1     3     1     0     0     0     0     0     0
     0     0     0     1     1     0     0     0     0     0     0     0     0     0     0     0     0     0     0     0     0     0     0     0     0     0     0     0     0     0     0     0     0     0     0     0     0     0     0     1     1     0     2     2     7     4     6    13    12    16    11    18    25    26    29    58    38    44    54    53    80    76    83    89    97   119   119   106   121   125   104   116    87    73    84    70    67    41    48    38    42    30    23    25    14    12    12    10     3     3     6     1     0     2     0     0     0     1     0     0
     0     0     0     0     0     0     0     0     0     0     0     0     0     0     0     0     0     0     0     0     0     0     0     0     0     0     0     0     0     0     0     0     0     0     0     0     0     0     1     0     0     0     0     1     1     4     3     7     5     7    14    17    20    15    41    33    47    45    64    67    79    92    76    90   103    99   106    97   105   130   101   105    99    75    96    75    74    52    53    43    31    35    24    14    14    17    14    11     6     4     4     2     0     3     2     1     0     1     0     0
     1     0     0     0     0     0     0     0     0     0     0     0     0     0     0     0     0     0     0     0     0     0     0     0     0     0     0     0     0     0     0     0     0     0     0     0     0     0     0     0     0     1     2     1     2     2     4     3     5     8    12    12    11    15    29    37    39    41    58    47    58    75   104    94    89   101    88   109   118   124   112   114    99   113    92    86    85    80    56    57    49    42    37    27    23    22    17    13    10    11    11     3     3     2     2     0     3     0     2     2
     0     0     0     0     0     0     0     0     0     1     0     0     0     0     0     0     0     0     0     0     0     0     0     0     0     0     0     0     0     0     0     0     0     0     0     0     0     0     0     0     0     0     1     1     3     1     3     0     6     3     8    15    10    10    13    26    36    48    45    44    60    81    70    82    86    96    90   102    90   112    97    83   137    98    97    87    82    65    55    61    33    56    34    34    37    21    16    15    19    12     9     6     5     3     1     0     0     0     1     1
     0     0     0     0     0     1     0     0     0     2     0     1     0     0     0     0     0     0     0     0     0     0     0     0     0     0     0     0     0     0     0     0     0     0     0     0     0     0     0     0     0     0     1     2     0     0     3     1     1     6     7     7     9    12    13    22    26    27    39    33    43    54    60    83    82    77    81    98   103   103   109   113   103   124   116   104    90    84    61    80    64    43    38    44    41    37    24    25    20    22    10     8     7     5     6     3     0     0     2     0
     0     0     0     0     0     0     0     0     0     1     0     0     0     0     0     0     0     0     0     0     0     0     0     0     0     0     0     0     0     0     0     0     0     0     0     0     0     0     0     0     0     1     0     0     2     0     1     0     4     5     4     5     4     8     9     7    21    22    23    26    48    37    48    72    63    72    86    80   104   110   111   110   108   109   116   114    90    96    74    71    66    55    59    38    47    36    29    29    25    20    20    15     4     9     6     2     3     4     1     1
     0     0     0     0     0     0     0     0     0     0     0     0     0     0     0     0     0     0     0     0     0     0     0     0     0     0     0     0     0     0     0     0     0     0     0     0     0     0     0     0     0     0     1     2     0     0     0     1     1     3     3     7     7     8    10    13     9    19    20    30    31    45    34    58    53    68    83    87   107   120   104   116   135   103   109   111    90    91    81    70    67    56    58    49    50    52    46    25    15    21    26    15     9     8     6     5     4     3     1     0
     1     1     0     0     0     0     0     0     0     0     0     0     0     0     0     0     0     0     0     0     0     0     0     0     0     0     0     0     0     0     0     0     0     0     0     0     0     0     0     0     0     0     1     0     2     0     0     1     3     2     2     6     6     4    11     8    17    17    26    24    29    45    34    45    49    56    85    84    86    93    95   106   117   126   114    95   118    98    90    64    76    65    62    69    53    49    41    31    29    19    25    17    17    12     9     4     5     4     5     1
     8     0     0     2     1     0     0     0     0     0     0     0     0     0     0     0     0     0     0     0     0     0     0     0     0     0     0     0     0     0     0     0     0     0     0     0     0     0     0     0     0     0     0     1     0     0     2     1     4     4     1     1     5     3     3    14     9    12    11    23    29    36    33    40    47    55    73    79    69    90    97   105    97   105   115   118   111   108    97    82   101    77    63    71    43    46    40    31    23    28    23    33    16    21    13    11     4     5     2     2
     5     0     4     0     2     0     0     0     1     0     0     0     0     0     0     0     0     0     0     0     0     0     0     0     0     0     0     0     0     0     0     0     0     0     0     0     0     0     0     0     0     0     0     0     0     1     0     0     0     6     1     4     2     5     4     5    10     5    14    22    23    34    26    30    39    43    57    48    58    67    90    77   102   103    93   121    98    92   112   100   107    86    76    80    51    53    56    39    37    37    27    22    14    21    15     4    10     5     3     1
     2     1     4     2     1     2     0     2     0     1     0     0     0     0     0     0     0     0     0     0     0     0     0     0     0     0     0     0     0     0     0     0     0     0     0     0     0     0     0     0     0     0     0     0     0     0     1     0     0     2     1     3     2     1     2     8     6     8    21    20    17    33    24    24    33    41    35    48    49    85    77    93    85   102   101   125   106   108   108   103    97    83    78    86    77    63    73    64    48    40    35    35    31    19    15    10     9     7     3     3
     7     2     5     2     4     0     1     0     0     0     0     0     0     0     0     0     0     0     0     0     0     0     0     0     0     0     0     0     0     0     0     0     0     0     0     0     0     0     0     0     0     0     0     0     0     0     0     1     0     2     2     0     5     0     1     2     2     3    14    11    10    17    19    22    35    28    24    32    56    61    66    69    73    94    96    91    87    96    82   114   107   110    99    88    84    87    71    62    53    51    42    36    28    27     9     8     7    11     9     7
     3     9     4     1     2     3     0     0     0     1     1     0     0     0     0     0     0     0     0     0     0     0     0     0     0     0     0     0     0     0     0     0     0     0     0     0     0     0     0     0     0     0     0     0     0     0     0     1     0     1     0     1     3     2     1     3     4     2     6    11    11    23    16    18    25    29    34    31    49    54    43    57    73    75    81    90    83    96   110   104   119   102    94   106   102    84    78    82    63    64    40    44    29    21    23    24    24     6     8     6
     7     8     3     1     5     1     2     0     1     1     0     1     0     0     0     0     0     0     0     0     0     0     0     0     0     0     0     0     0     0     0     0     0     0     0     0     0     0     0     0     0     0     0     0     0     0     0     1     0     1     0     2     1     0     1     1     1     3     7     4     7    13    15    23    19    17    24    41    38    50    57    50    66    76    78    86    98   110   111    96   101   121   100    99    93    85    83    81    61    63    78    43    33    38    33    27    23    25    14    11
    16    14     8     3     3     0     1     2     0     0     0     0     0     1     0     0     0     0     0     0     0     0     0     0     0     0     0     0     0     0     0     0     0     0     0     0     0     0     0     0     0     0     0     0     0     0     0     0     0     1     0     0     0     1     0     1     1     3     4     6     6    10    16    12    18    21    25    19    31    36    48    61    60    83    67    57    98   107    93    99    99   109   125   109    91   100    75    98    81    83    78    67    40    35    39    24    17    25    25    17
    13    11     8     3     3     2     4     2     2     1     0     0     0     0     0     0     0     0     0     0     0     0     0     0     0     0     0     0     0     0     0     0     0     0     0     0     0     0     0     0     0     0     0     0     0     0     0     0     0     0     0     0     0     0     0     0     2     3     7     1     1     6     6     9     8    21    18    21    25    37    48    57    48    79    52    65    89    88    80    85   106   119    99   102    94    77    85   101    91    85    82    50    76    51    41    43    35    14    19    20
    25    13     8     9     5     6     3     4     0     2     1     1     0     0     0     1     0     0     0     0     0     0     0     0     0     0     0     0     0     0     0     0     0     0     0     0     0     0     0     0     0     0     0     0     0     0     0     0     0     0     0     0     0     0     0     0     0     0     2     1     0     4     8     4     7    16    14    24    20    20    32    50    45    60    69    65    82    85    88    86    83    96   118   104    97    93   114    94    97   102    79    75    75    48    48    41    42    29    30    17
    28    14    12    12    11     6     5     3     1     2     0     0     0     0     0     0     0     0     0     0     0     0     0     0     0     0     0     0     0     0     0     0     0     0     0     0     0     0     0     0     0     0     0     0     0     0     0     0     0     0     0     0     0     0     0     1     0     1     3     3     5     1     2     3     2    10    13    17    18    21    35    22    47    40    43    62    58    83    74    97    93    89   100   116    97   113   125   124   110    83    86    68    71    58    63    46    34    41    36    22
    27    23    14    11     5     4     7     3     1     0     3     0     0     0     3     1     1     0     0     0     0     0     0     0     0     0     0     0     0     0     0     0     0     0     0     0     0     0     0     0     0     0     0     0     0     0     0     0     0     0     0     0     0     0     2     0     0     0     0     1     1     2     4     3     3     8     4    11    14    29    22    29    32    42    60    56    65    76    90    88   105   112    98    98   104    99   101   116   108    75    99    83    79    53    70    63    43    46    36    33
    30    24    16    16    12    11     3     8     2     2     2     2     2     0     1     0     0     0     0     0     0     0     0     0     0     0     0     0     0     0     0     0     0     0     0     0     0     0     0     0     0     0     0     0     0     0     0     0     0     0     0     0     0     0     0     1     1     1     2     0     0     1     5     2     5     2     4    12    15    17    17    22    28    38    37    53    55    72    78    73    86    99   103    84    93    92   103   118   115   102   112   110    91    78    80    65    74    56    47    40
    48    35    31    19     9    13    14     7     2     5     2     1     0     2     2     1     0     1     0     1     0     0     0     0     0     0     0     0     0     0     0     0     0     0     0     0     0     0     0     0     0     0     0     0     0     0     0     0     0     0     0     0     0     0     0     0     0     1     3     1     0     0     1     2     5     6    10    10    13    11    22    19    20    35    28    44    47    75    77    86    89    95    88   118   110    97   115   105   108   107   114   115    88   101    71    76    78    66    63    47
    38    34    21    26    26    13    14    12    13     5     8     3     1     0     2     1     1     0     0     0     1     0     0     0     0     0     0     0     0     0     0     0     0     0     0     0     0     0     0     0     0     0     0     0     0     0     0     0     0     0     0     0     0     0     0     0     0     0     0     1     0     0     3     1     1     8     1     3     8     9    10    16    18    28    29    32    42    46    75    59    64    82    75    97    88   101   133   116   126   113   108   103    93   111    95    84    86    56    52    50
    44    47    34    27    27    19     9    22    12     8     6     4     3     3     0     4     1     0     2     0     0     0     0     0     0     0     0     0     0     0     0     0     0     0     0     0     0     0     0     0     0     0     0     0     0     0     0     0     0     0     0     0     0     0     0     0     0     0     0     1     1     0     2     1     1     4     5     3     2     8    11    16    10    22    26    41    37    64    49    52    64    80    85    87   104   118   116   126   115   116   107    94   106   101   101    84    80    80    83    58
    73    51    48    40    25    27    11    13    14    13     6     7     4     2     7     1     2     0     2     1     0     0     0     0     0     0     0     0     0     0     0     0     0     0     0     0     0     0     0     0     0     0     0     0     0     0     0     0     0     0     0     0     0     0     0     0     0     0     0     0     1     1     1     1     1     1     3     2     5     2     6    10    10    18    28    26    34    41    42    62    57    76    76    82    84   113    99   118   119   114   121   110   111   131    80    98    76    75    87    83
    60    53    44    50    35    32    21    29    24    10    13     6     2     1     3     3     1     0     0     1     0     0     0     0     0     0     0     0     0     0     0     0     0     0     0     0     0     0     0     0     0     0     0     0     0     0     0     0     0     0     0     0     0     0     0     0     0     0     0     0     0     0     0     0     0     1     2     2     0     4     3     4    11     8    16    21    30    32    42    51    47    62    79    81    86    98    96   108    98    98   120   112    91   103   100    99    72    81    67    66
    80    74    51    49    43    36    30    19    22    28    19    17     6     5     2     3     1     2     2     1     1     0     0     0     0     0     0     0     0     0     0     0     0     0     0     0     0     0     0     0     0     0     0     0     0     0     0     0     0     0     0     0     0     0     0     0     0     0     0     0     0     0     1     0     1     0     1     1     3     5     4     6     3     7    11    19    16    24    26    47    41    68    69    80    78    84    93    90   107   115   103   107   128    90   114    86   118    89    94    94
    93    62    61    59    49    40    33    36    29    20    13     9     7     4     5     1     2     5     1     0     0     0     0     0     0     0     0     1     0     0     0     0     0     0     0     0     0     0     0     0     0     0     0     0     0     0     0     0     0     0     0     0     0     0     0     0     0     0     0     1     0     0     1     1     0     0     0     1     3     7     3     2     8     5     9     9    12    25    15    27    38    44    60    60    76    69    80    95    96   115   115    91   124   114   101   100   102   104    97    91
    84    70    57    73    53    78    59    32    20    26    20    17    17     5     7     3     3     1     0     0     1     0     0     0     1     0     0     0     0     0     0     0     0     0     0     0     0     0     0     0     0     0     0     0     0     0     0     0     0     0     0     0     0     0     0     0     0     0     0     0     0     0     0     0     1     1     0     0     2     2     2     3     2     6     8    11    11    16    18    26    38    32    36    41    56    78    66    84    92   114    95   112   111   105   120   105   119   118   104    98
    84    93    88    78    72    45    59    43    38    28    25    14     8    18     4     8     2     3     1     3     1     1     0     0     0     0     0     0     0     0     0     0     0     0     0     0     0     0     0     0     0     0     0     0     0     0     0     0     0     0     0     0     0     0     0     0     0     0     0     0     1     0     0     0     0     0     0     2     0     4     0     4     4     7    11     7     8    18    11    35    35    26    42    38    59    57    59    74    81    81    85    86   112   120   104   116   114   107   105   118
   116    85    88    78    87    71    54    58    44    28    27    21    22    18    16    13    11     1     5     3     1     0     0     1     1     0     0     0     1     0     0     0     0     0     0     0     0     0     0     0     0     0     0     0     0     0     0     0     0     0     0     0     0     0     0     0     0     0     0     0     0     1     0     0     0     1     0     0     0     0     1     3     2     2     2     8     4    11     8    14    20    24    17    30    34    45    45    76    93    93   100    81   131   111   114   130   129   109   105   130
   114    96    83    98    97    79    80    50    66    56    33    33    18    21    23     8     7     8     4     4     1     1     1     2     1     0     0     0     0     0     0     0     0     0     0     0     0     0     0     0     0     0     0     0     0     0     0     0     0     0     0     0     0     0     0     0     0     0     0     0     0     0     0     0     1     0     0     0     0     0     3     2     4     2     2     3     3     6     9     7    14    24    17    17    48    58    52    55    60    87    86    80    83   103    96   107   114   130   122   117
   108   117   104   101    99    78    68    70    59    45    51    38    27    16    24    15     9     7     8     6     2     2     0     1     0     3     1     1     1     0     0     0     0     0     0     0     0     0     0     0     0     0     0     0     0     0     0     0     0     0     0     0     0     0     0     0     0     0     0     0     0     1     0     0     0     1     0     1     0     0     1     2     0     4     1     2     3     1     7     5    11    11    20    32    35    43    42    56    62    72    61    73   105    85   111   124   119   122   113   118
   115   108   107   101   109   101    78    96    76    54    49    49    30    31    12    18    14    11    11     3     5     5     8     1     4     0     1     1     0     0     1     0     0     0     0     0     0     0     0     0     0     0     0     0     0     0     0     0     0     0     0     0     0     0     0     0     0     0     0     0     0     0     0     0     0     0     0     1     0     1     0     1     3     0     3     2     1     1     3     7     7     7    13    18    27    36    37    50    51    55    87    84    90    88   108    99   132   126   105   139
