#lt      20.0
#count pbc
#dt      1.0
#dn      20
#edges  -27.1557089 -26.6125947 -26.0694805 -25.5263664 -24.9832522 -24.4401380 -23.8970238 -23.3539097 -22.8107955 -22.2676813 -21.7245671 -21.1814529 -20.6383388 -20.0952246 -19.5521104 -19.0089962 -18.4658821 -17.9227679 -17.3796537 -16.8365395 -16.2934253 -15.7503112 -15.2071970 -14.6640828 -14.1209686 -13.5778545 -13.0347403 -12.4916261 -11.9485119 -11.4053977 -10.8622836 -10.3191694  -9.7760552  -9.2329410  -8.6898268  -8.1467127  -7.6035985  -7.0604843  -6.5173701  -5.9742560  -5.4311418  -4.8880276  -4.3449134  -3.8017992  -3.2586851  -2.7155709  -2.1724567  -1.6293425  -1.0862284  -0.5431142   0.0000000   0.5431142   1.0862284   1.6293425   2.1724567   2.7155709   3.2586851   3.8017992   4.3449134   4.8880276   5.4311418   5.9742560   6.5173701   7.0604843   7.6035985   8.1467127   8.6898268   9.2329410   9.7760552  10.3191694  10.8622836  11.4053977  11.9485119  12.4916261  13.0347403  13.5778545  14.1209686  14.6640828  15.2071970  15.7503112  16.2934253  16.8365395  17.3796537  17.9227679  18.4658821  19.0089962  19.5521104  20.0952246  20.6383388  21.1814529  21.7245671  22.2676813  22.8107955  23.3539097  23.8970238  24.4401380  24.9832522  25.5263664  26.0694805  26.6125947  27.1557089
   116    98    97   100    87    80    79    76    62    64    58    44    62    39    22    24    13    15    16    10    13     8     3     2     1     2     0     0     0     1     0     0     0     0     0     0     0     0     0     0     0     0     0     0     0     0     0     0     0     0     0     0     0     0     0     0     0     0     0     0     0     0     0     0     0     0     0     0     0     0     0     1     0     0     1     7     3     6     6    12     8    15    14     7    24    20    35    32    40    61    69    63    81    85   104   126    86   128   115   103
    94    98   106   102   114   112    81    75    95    76    49    65    43    24    33    31    24    13    20    11     8     5     3     2     4     1     2     0     0     0     1     0     1     0     0     0     0     0     0     0     0     0     0     0     0     0     0     0     0     0     0     0     0     0     0     0     0     0     0     0     0     0     0     0     0     0     0     1     0     1     0     0     0     0     0     1     1     1     6     7    12    12    14    11    13    24    20    32    53    39    51    52    83    67    88    91    97   118   102    95
   104    92   100   121   108   122   104    82    87    78    57    61    54    41    38    29    31    12    16    14    12    11     6     5     3     3     2     1     1     1     0     0     0     0     0     0     0     0     0     0     0     0     0     0     0     0     0     0     0     0     0     0     0     0     0     0     0     0     0     0     0     0     0     0     0     0     0     0     1     0     1     0     0     1     1     1     1     3     3     7     3     3     5    11    12    16    15    21    31    40    41    40    55    72    85    83    92    89   102    91
   108   113   104   109   126   120   105    89    81   117    81    66    57    55    51    32    38    28    23    21    11    14     6     8     2     1     4     2     0     1     0     0     1     0     0     0     0     0     0     0     0     0     0     0     0     0     0     0     0     0     0     0     0     0     0     0     0     0     0     0     0     0     0     0     0     0     0     0     0     0     0     0     0     0     2     0     5     1     1     5     1     2     8    10    18    12    16    13    29    33    40    38    68    68    57    73    70    80    92   105
   112   100   108   137   112   126   101   104    89    92   100    78    72    59    56    42    44    30    29    24    16    17    22     5    17     6     3     4     3     3     0     0     1     0     1     0     0     0     0     0     0     0     0     0     0     0     0     0     0     0     0     0     0     0     0     0     0     0     0     0     0     0     0     0     0     0     0     0     0     0     0     0     1     1     0     0     0     3     2     2     1     5     6     3     6     9    16    11    22    11    21    27    43    50    61    67    75    78    89    94
    98   100    95   111   125   150   107   132   119   127   117    82   101    70    71    50    49    50    30    27    17    17    12    14     9     4     4     1     2     4     2     0     1     0     0     1     0     0     0     0     0     0     0     0     0     0     0     0     0     0     0     0     0     0     0     0     0     0     0     0     0     0     0     0     0     0     0     0     0     0     0     0     0     0     0     2     0     0     1     4     5     3     4     1     8     6    10    13    13    15    16    18    39    47    60    68    74    84    77    81
    79    82   103   115   109   124   121   115   131   113   109    87    90    70    78    70    58    44    38    32    22    26    11    24    11    12     6     3     2     1     3     1     2     0     0     0     0     0     0     0     0     0     0     0     0     0     0     0     0     0     0     0     0     0     0     0     0     0     0     0     0     0     0     0     0     0     0     0     0     0     0     0     0     0     0     0     0     1     1     1     3     2     5     2     4     7     7    12    13    16    12    18    33    29    66    50    53    71    75    90
    79    95    81   111   118   119   112   122   119   126   118   111    94   100    73    75    61    59    52    34    31    31    30    18    18    13     5     5     5     1     2     0     3     2     1     1     0     0     0     0     0     0     0     0     0     0     0     0     0     0     0     0     0     0     0     0     0     0     0     0     0     0     0     0     0     0     0     0     0     0     0     0     0     0     0     0     0     1     0     1     0     2     1     3     9     5     6     6     9    10    23    24    26    33    27    46    60    54    55    58
    67    81    68    94   102   116   112   141   106   133   119   109    97    93    69    75    86    63    49    50    43    30    23    17    21     8    10     5     4     4     4     0     2     5     0     0     1     0     0     0     0     0     0     0     0     0     0     0     0     0     0     0     0     0     0     0     0     0     0     0     0     0     0     0     0     0     0     0     0     0     0     0     0     0     0     0     0     0     1     0     0     0     2     2     3    10     6     7     9     9     9    18    24    27    34    33    33    44    62    58
    67    77    88    85   103   107   110   112   123   100   129   118   116   103    89    92    92    86    71    47    54    29    35    22    23    18    12     6     9     4     8     4     5     2     4     4     1     1     0     2     0     0     0     0     0     0     0     0     0     0     0     0     0     0     0     0     0     0     0     0     0     0     0     0     0     0     0     0     0     0     0     0     0     0     0     0     0     0     0     0     0     1     1     4     0     2     6     6     5    14    10    24    17    20    22    31    44    51    60    61
    60    65    68    96    85   115   107   117   131   115   119   118   113   126    94   104   102    72    77    55    44    40    27    27    28    23    12    12     5    11     9     6     6     3     3     2     3     2     1     1     1     0     0     0     0     0     0     0     0     0     0     0     0     0     0     0     0     0     0     0     0     0     0     0     0     0     0     0     0     0     0     0     0     0     0     0     0     0     0     0     0     0     0     1     0     1     4     2     4     3     7    13     6     9    16    27    31    51    55    57
    30    55    66    78    78    83   105   119   105   142   103   116   105   107    99    97   100    80    73    57    46    39    35    39    29    25    21    12    11     8     7     5    13     5     3     0     0     2     1     1     0     1     0     1     2     0     0     0     0     0     0     0     0     0     0     0     0     0     0     0     0     0     0     0     0     0     0     0     0     0     0     0     0     0     0     0     0     0     0     0     0     1     0     0     0     2     2     2     3     4     9    15     8    15    11    25    25    26    29    35
    51    43    58    63    74    78   107    96    87   116    91   120    90   111    82    93    82    75    79    49    55    57    44    46    31    33    20    22    15    13     8    10     9     3     3     6     1     1     2     3     1     0     0     0     0     0     0     0     0     0     0     0     0     0     0     0     0     0     0     0     0     0     0     0     0     0     0     0     0     0     0     0     0     0     0     0     0     0     0     0     0     0     1     1     3     4     1     2     0     6     6     6     9    13    18    14    22    20    23    37
    37    34    55    53    46    66    72    82    95    86   131   108    89   115    94    95    90    89    77    65    66    59    53    45    49    31    43    19    16    16    24    12     5     3     1     3     2     2     2     1     3     2     1     0     0     0     0     0     0     0     0     0     0     0     0     0     0     0     0     0     0     0     0     0     0     0     0     0     0     0     0     0     0     0     0     0     0     0     0     0     0     0     1     1     0     1     1     2     0     3     3     2     8     9     7    12    17    16    27    25
    36    39    43    35    57    68    53    83    84   108   119    94    89    96   103    82    85    71    81    71    70    67    52    47    52    41    37    41    26    15    10    14     7     4     5     5     3     3     1     3     1     3     2     3     1     1     0     0     0     0     0     0     0     0     0     0     0     0     0     0     0     0     0     0     0     0     0     0     0     0     0     0     0     0     0     0     0     0     0     0     0     1     0     1     0     2     3     1     1     3     2     6     6     5     8    12    10    24    18    22
    21    31    32    41    45    60    66    63    76    82   101    77   105   107    79    98    94    79    77    88    93    75    60    54    51    64    46    38    33    28    30    19    12    11     8     2     1     7     2     3     2     3     1     1     1     1     0     0     0     0     0     0     0     0     0     0     0     0     0     0     0     0     0     0     0     0     0     0     0     0     0     0     0     0     0     0     0     0     0     0     0     0     1     1     1     0     0     2     3     2     0     1     3     1     6     8    16    14    17    20
    20    27    27    32    29    42    50    67    72    78    65    71   109    81    80   101   106    96    92    99    85    88    70    55    62    44    54    45    35    31    28    25    15    17     7     5     5     3     3     2     3     5     1     1     2     0     0     0     0     0     0     0     0     0     0     0     0     0     0     0     0     0     0     0     0     0     0     0     0     0     0     0     0     0     0     0     0     0     0     0     0     0     0     1     0     0     1     1     2     3     3     0     0     1     3     9    10     9    16    17
    14    17    23    26    37    36    50    54    52    78    72    62    84    78    96    86    85    84    96    84    89    98    78    67    65    70    51    52    46    37    32    16    20    23    16    10     6     5     7     5     2     2     0     1     2     0     0     0     0     0     0     0     0     0     0     0     1     0     0     1     0     0     0     0     0     0     0     0     0     0     0     0     0     0     0     0     0     0     0     0     0     0     0     0     1     0     0     3     1     3     0     0     1     3     4     4     5    10     8    12
    18    10    15    22    28    32    45    44    52    53    66    74    77    78    96    90    77    87    87    97    84   100    69    64    79    79    52    63    46    38    41    26    29    23    20     9    12    11     6     4     1     2     2     2     1     0     2     0     0     0     0     0     0     1     1     0     0     0     0     0     0     0     0     0     0     0     0     0     0     0     0     0     0     0     0     0     0     0     0     0     0     0     0     0     0     1     2     0     1     0     1     0     2     1     2     7     5     6     9     9
     9    16    11    18    18    28    40    32    43    38    53    63    59    68    89    83    80    73    69    91    68    83    95    87    86    75    74    68    59    50    42    29    40    25    20    17    18    14     8    10     5     4     5     1     2     0     1     1     0     1     0     0     0     0     0     0     0     0     0     0     0     0     0     0     0     0     0     0     0     0     0     0     0     0     0     0     0     0     0     0     0     0     0     0     0     0     0     0     2     2     2     1     0     4     3     4     8     3     5     8
     9    13     7     8    17    21    31    29    42    34    63    59    50    61    72    63    78    90    91    76    85    93   115    85    79    73    69    78    43    57    54    39    43    28    21    18    23    20    13     6     7     8     8     3     2     1     0     1     0     0     1     0     1     0     0     0     0     0     0     0     0     0     0     0     0     0     0     0     0     0     0     0     0     0     0     0     0     0     0     0     0     0     0     0     0     0     1     0     0     0     2     0     1     1     0     3     4     5     3     5
     5     4     6    10    13    20    26    25    29    43    48    49    46    65    72    80    70    79    94    78    79    84    90    97    83    82    83    54    80    72    50    43    40    40    30    32    31    18    17    15     9     7     8     3     4     4     1     0     1     0     0     0     0     0     0     0     0     1     0     0     0     0     0     0     0     0     0     0     0     0     0     0     0     0     0     0     0     0     0     0     0     0     0     0     0     0     0     0     1     0     0     0     0     1     0     0     1     1     0     4
     5     3     8     7    10    11    12    17    21    36    41    43    56    56    70    63    56    73    79    96    81   106   107   101   116    94    74    84    84    76    62    54    39    40    37    30    35    17    11    12    16    10     6     5     3     3     6     1     1     1     2     0     0     0     0     0     0     0     0     0     0     0     0     0     0     0     0     0     0     0     0     0     0     0     0     0     0     0     0     0     0     0     0     0     0     0     0     0     0     0     0     1     1     0     1     1     3     1     1     0
     5     8     3     6    12     8    15    31    18    32    38    36    41    47    55    57    60    75    91    96    92    80    91    87   104    90    97    80    68    75    63    54    59    50    55    38    35    25    15    22    13    12    11    10     5     4     1     3     4     1     1     1     0     0     0     0     0     0     0     0     0     0     0     0     0     0     0     0     0     0     0     0     0     0     0     0     0     0     0     0     0     0     0     0     0     0     0     0     0     0     0     0     0     0     0     1     1     1     3     4
     2     1     7     6    11    11    13    20    17    31    37    50    33    35    49    73    63    80    67    80   100    90    96    98    95    84   102    83    81    78    85    78    73    52    55    46    51    33    34    23    20    11     5    17    12     4     8     3     3     1     1     0     0     0     0     0     0     0     0     0     0     0     0     0     0     0     0     0     0     0     0     0     0     0     0     0     0     0     0     0     0     0     0     0     0     0     0     0     0     0     0     1     0     0     0     0     1     0     1     2
     3     1     1     3     2     6     9    15    11    32    28    48    35    30    38    51    62    60    77    72    71    80    79    86    96    89    93    71    96    78    76    90    68    60    62    74    60    41    34    29    26    21    14    13    16    11     7     3     2     4     0     0     1     0     0     0     0     0     0     0     0     0     0     0     0     0     0     0     0     0     0     0     0     0     0     0     0     0     0     0     0     0     0     0     0     0     0     0     0     0     0     0     0     0     0     0     1     1     0     1
     1     1     1     2     6     5     3    13    14    11    26    21    24    25    49    54    51    53    61    72    74    64    88    98   102   106    91    90    93    70    75    83    89    81    83    58    61    56    40    29    26    22    16    16    11    17     8     7     4     3     3     2     1     0     1     1     0     0     0     0     0     0     0     0     0     0     0     0     0     0     0     0     0     0     0     0     0     0     0     0     0     0     0     0     0     0     0     0     0     0     0     0     0     0     0     2     0     0     1     3
     1     3     3     1     3     4     4     5    14    10    18    18    15    25    28    37    38    58    38    60    70    70    83   102    94    86    83    97    99   102    76    96    92   102    82    60    60    57    49    40    37    31    23    24    18    13     7     8     7     6     5     4     1     1     1     1     0     0     0     0     0     0     0     0     0     0     0     0     0     0     0     0     0     0     0     0     0     0     0     0     0     0     0     0     0     0     0     0     0     0     0     0     0     0     0     0     0     0     1     0
     0     0     1     4     3     6     2     5     7     8    12    14     7    19    26    40    26    47    42    36    58    59    76    66    72    78   104    91    99    99    85   110   104    92    96    88    70    59    51    55    40    40    23    21    18    16    10    14     7     2     3     4     5     2     1     0     0     0     0     0     0     0     0     0     0     0     0     0     0     0     0     0     0     0     0     0     0     0     0     0     0     0     0     0     0     0     0     0     0     0     0     0     0     0     0     0     0     0     0     0
     0     1     2     1     0     2     1     4     7     7    11    10    15    17    19    24    26    37    47    49    62    49    68    75    85    78    81   113   103    95    94   114   108   102    96    79    78    69    61    62    40    46    36    30    20    16     5    15    13    11     7     2     3     0     1     3     0     0     0     0     0     0     0     0     0     0     0     0     0     0     0     0     0     0     0     0     0     0     0     0     0     0     0     0     0     0     0     0     0     0     0     0     0     0     0     0     0     0     0     1
     0     1     1     2     0     2     2     5     5     7    10     8     9    16    15    27    33    35    40    46    48    56    68    64    64    92    83    94    94    88   111   118   100   103   108    96    81    66    76    60    53    50    40    38    25    20    12    11    14     8     5     5     2     4     0     1     1     1     0     1     0     0     0     0     0     0     0     0     0     0     0     0     0     0     0     0     0     0     0     0     0     0     0     0     0     0     0     0     0     0     0     0     0     1     0     1     0     0     0     0
     0     1     0     1     0     2     1     1     4     3    10     7     8     7    14    16    21    22    32    43    41    44    45    60    77    84    89   109   101    93   104   117    98   118   104   101   108   115    79    56    66    62    40    47    29    31    14    21    13     9    10     9     1     3     3     3     2     2     0     0     0     0     0     0     0     0     0     0     0     0     0     0     0     0     0     0     0     0     0     0     0     0     0     0     0     0     0     0     0     0     0     0     0     0     0     0     0     0     0     0
     0     1     0     1     0     2     3     2     6     6     4     7     4     9    15    14    13    22    30    31    31    52    52    77    68    65    79   115    96   112   101   107   107   121   109   113   100    96    99    76    73    56    43    39    43    30    27    21     7    24    17     8     4     5     6     1     1     2     0     0     0     0     0     0     0     0     0     0     0     0     0     0     0     0     0     0     0     0     0     0     0     0     0     0     0     0     0     0     0     0     0     0     0     0     0     0     0     0     0     1
     0     0     0     2     2     0     0     2     1     2     2     3     8     3    11     7    15    21    20    45    38    30    60    57    58    81    74    85    94   103    98    94   106   125   117   102   115   111    99    63    77    64    64    49    41    44    35    37    27    16    14    10     7     6     3     1     0     2     0     1     0     0     0     0     0     0     0     0     0     0     0     0     0     0     0     0     0     0     0     0     0     0     0     0     0     0     0     0     0     0     0     0     0     0     0     0     0     0     0     0
     0     0     0     0     2     1     0     2     1     1     3     3     4     5     4    11    14    21    23    22    27    32    41    49    60    66    85    83    93   110    99   117   111   120   118   126   119    90    92    77    70    71    53    63    65    36    45    37    36    22    16    14     8     4     6    11     4     1     3     1     0     0     0     0     0     0     0     0     0     0     0     0     0     0     0     0     0     0     0     0     0     0     0     0     0     0     0     0     0     0     0     0     0     0     0     0     0     0     0     0
     0     0     0     0     0     0     1     1     4     1     1     2     3     2     5     8     9    29    10    19    28    34    38    47    49    56    82    62    79    90   121    95   111    95   119   110   107    92   106    94    78    82    79    68    71    55    38    33    34    24    25    21    12    10     8     4     4     3     2     0     0     0     1     1     0     0     0     0     0     0     0     0     0     0     0     0     0     0     0     0     0     0     0     0     0     0     0     0     0     0     0     0     0     0     0     0     0     0     0     0
     0     0     0     0     0     1     0     1     1     1     1     2     1     4     8     7    11    12    14    14    15    21    31    34    58    62    71    76    84    76    90   109    85    95    83   108    93    96    77   107   107   101    99    75    82    70    46    52    43    43    31    31    19    17    17     6     9     6     2     2     2     2     0     0     0     0     0     0     0     0     0     0     0     0     0     0     0     0     0     0     0     0     0     0     0     0     0     0     0     0     0     0     0     0     0     0     0     0     0     0
     0     0     0     0     0     0     1     1     0     1     1     0     3     2     2     3     6     7    11    12    17    19    28    31    44    37    48    71    66    83    81    87    80    98    96   102    89   107   107    82    92    90   103    79    68    60    58    45    56    45    38    39    22    15    17    16     7     8     8     0     3     0     1     1     0     0     0     0     0     0     0     0     0     0     0     0     0     0     0     0     0     0     0     0     0     0     0     0     0     0     0     0     0     0     0     0     0     0     0     0
     0     0     0     0     0     1     0     0     0     0     1     2     1     1     3     4     4     6    10     5    11    11    21    34    32    41    53    48    56    70    89    68    90    96   100    89    90    88    86    92   101    86    80    95    86    81    74    52    75    39    45    28    30    17    26    15     9    19    10     3     1     4     3     0     2     1     0     1     0     0     0     1     0     0     0     0     0     0     0     0     0     0     0     0     0     0     0     0     0     0     0     0     0     0     0     0     0     0     0     0
     0     0     0     0     0     0     0     0     0     0     0     0     0     1     2     1     6     3     5     9    13    18    22    19    31    24    34    36    28    69    69    81   104    75    93    97   111   102    97    91   105   100    93    89    89    82    79    56    61    39    58    38    40    30    19    21    12    12     6     5    10     4     1     3     3     0     0     0     0     0     0     0     0     0     0     0     0     0     0     0     0     0     0     0     0     0     0     0     0     0     0     0     0     0     0     0     0     0     0     0
     0     0     0     0     0     0     2     1     0     0     0     0     0     0     0     1     3     2     3     2     6     9    11    23    22    28    33    29    31    47    54    74    83    79    93    88   102    90   111    98   111   116   105   105    98    74    85    81    68    58    54    53    40    33    31    26    18    16    10     8     4     1     1     5     1     3     0     2     0     0     1     0     0     0     0     0     0     0     0     0     0     0     0     0     0     0     0     0     0     0     0     0     0     0     0     0     0     0     0     0
     0     0     0     0     0     0     0     0     0     0     0     0     0     1     1     2     1     1     5     3     5    12    10    10    32    13    20    22    21    41    51    54    62    64    72    86   103    89    87   130   115   144   110   117   106    92    77    95    75    69    59    66    57    54    43    32    20    15    11    12     3     8     4     4     1     1     1     2     1     1     0     0     0     0     0     0     0     0     0     0     0     0     0     0     0     0     0     0     0     0     0     0     0     0     0     0     0     0     0     0
     0     0     0     0     0     0     0     0     0     0     0     0     1     0     1     0     6     0     3     5     5     8     5    15    23    19    19    15    22    34    43    48    51    65    89    64    88    95   102   109   110   110   124    98   103   115    88    93    78    70    78    65    37    48    42    34    16    25    18    12     6     8     8     5     3     3     3     2     0     1     0     0     0     0     0     0     0     0     0     0     0     0     0     0     0     0     0     0     0     0     0     0     0     0     0     0     0     0     0     0
     0     0     0     0     0     0     0     0     1     0     0     0     0     0     0     1     3     1     0     2     1     4     4     8     6    11    11    24    24    27    27    40    57    75    58    68    76    84    90    91    94   104   114    84    99   115   111    77    96   100    79    52    68    50    49    25    29    39    19    13    14    20    11     6     3     7     4     2     1     2     0     0     0     0     0     0     0     0     0     0     0     0     0     0     0     0     0     0     0     0     0     0     0     0     0     0     0     0     0     0
     0     0     0     0     0     0     0     0     0     0     0     0     0     0     0     0     2     0     1     0     3     4     6     7     7     9    13    14    23    20    28    40    47    52    63    59    67    78    78    94    82   115   114   104   121   127    99   101    81   115    72    60    68    54    60    51    33    25    25    27    12    16     7     8     7     4     4     6     5     3     3     2     1     0     0     0     0     0     0     0     0     0     0     0     0     0     0     0     0     0     0     0     0     0     0     0     0     0     0     0
     0     0     0     0     0     0     0     0     0     0     0     0     0     0     0     0     0     1     0     1     6     1     8     4     3    14    11    13    14    17    26    24    37    32    50    66    60    73    72    89    93    89    95   101   102   122    92   104   115    88    89    85    67    62    59    53    55    38    32    18    21    12    11     8    15    10     8     3     3     1     2     0     0     0     1     1     1     0     0     0     0     0     0     0     0     0     0     0     0     0     0     0     0     0     0     0     0     0     0     0
     0     0     0     0     0     0     0     0     0     0     0     0     0     0     0     0     0     0     1     2     1     1     1     1     4     7     6     6    13    17    16    23    29    28    36    60    51    58    71    71   100    90    92   105   101   103    99   104   111    65    82    84    98    60    66    52    45    46    35    36    26    22    14    16    12     8     9    17     6     1     2     2     1     1     0     1     0     2     1     0     0     0     0     0     0     0     0     0     0     0     0     0     0     0     0     0     0     0     0     0
     0     0     0     0     0     0     0     0     0     0     0     0     0     0     0     0     0     0     0     0     1     0     1     2     2     6     3     7     8     9    15    19    21    30    33    41    52    65    57    66    84    84   101   105    91   106    92   106   108   104    98   106    71    80    74    76    70    65    46    41    33    28    13    22    13    10    10    14    10     2     8     1     1     1     1     0     1     0     1     0     0     0     0     0     0     0     0     0     0     0     0     0     0     0     0     0     0     0     0     0
     0     0     0     0     0     0     0     0     0     0     0     0     0     0     0     0     0     0     0     0     0     0     0     1     5     2     2     9     3     7     9    15    27    21    25    37    43    47    55    83    86    81    90    84   105   101   106   107   118   120    91   112    87    85    83    81    78    55    52    42    52    31    16    30    13    11    14    17    14     8     4     5     3     4     0     1     0     0     1     0     1     0     0     0     0     0     0     0     0     0     0     0     0     0     0     0     0     0     0     0
     0     0     0     0     0     0     0     0     0     0     0     0     0     0     0     0     0     0     0     0     0     0     0     0     1     4     2     3     5     8     6     8    14    18    28    28    37    38    58    54    63    73    85    84    94    92    98    97   102   100   104    95    96    81    85    72    70    73    61    53    47    44    35    33    27    19     9    14     7     9     8     1     3     4     0     2     0     0     0     0     0     0     0     0     0     0     0     0     0     0     0     0     0     0     0     0     0     0     0     0
     0     0     0     0     0     0     0     0     0     0     0     0     0     0     0     0     0     0     0     0     0     0     0     1     1     1     2     2     6     4     2    11     9    14    26    40    33    27    45    46    77    64    68    69    75    95    91   109    94   104    96   112    99    96    99    96    89    93    99    57    57    51    35    37    25    15    21    15    16    11     9     6     6     4     2     1     2     0     0     0     0     0     0     0     0     0     0     0     0     0     0     0     0     0     0     0     0     0     0     0
     0     0     0     0     0     0     0     0     0     0     0     0     0     0     0     0     0     0     0     0     0     0     0     1     1     1     4     3     1     2     6     6    12    11    18    26    22    21    43    49    52    54    52    53    88    76    89    91   115   103   110   114    88   102   110    95   109    96    85    61    65    58    48    41    26    29    23    22    14    16    11     8     5     1     2     0     2     1     3     0     0     0     0     1     0     0     0     0     0     0     0     0     0     0     0     0     0     0     0     0
     0     0     0     0     0     0     0     0     0     0     0     0     0     0     0     0     0     0     0     0     0     0     0     1     0     0     2     0     0     3     1     6     9     6    12     8    25    22    24    43    34    63    53    46    59    65    81    95   103    96   113   111    92    99   100    87   101    94    86    73    76    78    49    42    34    44    25    25    25    18    16    12     8     4     6     3     3     1     2     1     0     0     0     0     0     0     0     0     0     0     0     0     0     0     0     0     0     0     0     0
     0     0     0     0     0     0     0     0     0     0     0     0     0     0     0     0     0     0     0     0     0     0     0     0     0     0     4     2     2     2     3     7     5     7    13    17    16    19    29    25    37    33    57    56    51    63    70    88    81    86   107   102    97   115   105   100   119   111   119    81    77    83    64    48    47    31    28    26    33    26    26    17    10    10    10     9     3     3     1     1     0     1     0     0     1     0     0     0     0     0     0     0     0     0     0     0     0     0     0     0
     0     0     0     0     0     0     0     0     0     0     0     0     0     0     0     0     0     0     0     0     0     0     0     0     0     0     1     0     0     2     1     5     5    12     8    12    17    15    22    31    24    32    46    45    57    44    71    79    82    86   111    99    95   113   117   115   128   100   122    99   112    84    62    63    65    50    40    33    33    31    26    16    13    13    12     7     3     7     2     2     0     0     0     0     0     0     0     0     0     0     0     0     0     0     0     0     0     0     0     0
     0     0     0     0     0     0     0     0     0     0     0     0     0     0     0     0     0     0     0     0     0     0     0     0     0     0     1     0     0     1     3     2     4     8     2     5    16    14    19    30    20    35    33    50    43    47    56    66    74    74    83   100   110   129   116   115   119   113   105   103    89    92    70    50    78    60    58    54    34    29    33    19    22    14    13    11    10     4     1     2     1     2     2     0     1     0     0     0     0     0     0     1     0     0     0     0     0     0     0     0
     0     0     0     0     0     0     0     0     0     0     0     0     0     0     0     0     0     0     0     0     0     0     0     0     0     0     0     2     0     0     0     1     1     4     2     7     5    12    14    13    15    24    30    44    36    38    57    62    74    91   100    91   103   117   130   141   122   133   137   111    93    86    63    86    79    61    70    56    44    44    38    30    19    15     5    13    10     9     6     3     2     1     1     2     0     0     0     1     0     0     0     1     0     0     0     0     0     0     0     0
     0     0     0     0     0     0     0     0     0     0     0     0     0     0     0     0     0     0     0     0     0     0     0     0     0     0     0     0     0     1     2     0     2     2     1     6     9    10    10     6     8    21    22    26    37    42    57    72    72    64    86    88   106   105   120   116   111   116   145   121   106   114    84   104    88    70    87    71    58    42    39    36    27    26    21    11     9     9     3     4     4     2     2     2     2     1     1     0     2     0     0     0     0     0     0     0     0     0     0     0
     0     0     0     0     0     0     0     0     0     0     0     0     0     0     0     0     0     0     0     0     0     0     0     0     0     0     0     0     0     0     0     0     0     3     5     5     4     6     6    13    11    12    21    31    28    35    34    49    60    50    82    91   107   102   104   120   128   155   116   105   128    98   100   110    80    90    69    57    56    50    33    24    37    33    21    20    14    21     7     5     0     4     2     4     1     0     2     2     0     0     1     0     0     0     0     0     0     0     0     1
     0     0     0     0     0     0     0     0     0     0     0     0     0     0     0     0     0     0     0     0     0     0     0     0     0     0     0     0     0     1     0     1     0     2     3     2     7    10     2     9    12    18    16    11    22    25    39    51    49    45    59    67    61    91    90   108   128   112   124    89   109    90    77    75    85    70    81    76    58    56    48    59    31    26    25    29    21     7    10    10    11     4     8     4     2     2     1     0     0     0     0     1     0     0     0     0     0     0     0     0
     0     0     0     0     0     0     0     0     0     0     0     0     0     0     0     0     0     0     0     0     0     0     0     0     0     0     1     0     1     0     0     0     0     0     3     4     3     5     4     5    10     9    10    15    21    22    32    36    47    34    43    67    71    94    95    94   136   117   105    98    97   109   114    89   110   101    94    84    70    70    70    59    46    40    29    29    25    23    11     9     8    11     5     3     7     1     0     1     1     0     0     0     0     0     0     0     0     0     0     0
     0     0     0     0     0     0     0     0     0     0     0     0     0     0     0     0     0     0     0     0     0     0     0     0     0     0     0     0     2     0     0     0     0     0     0     0     1     2     2     3     5     6     8    10    16    17    22    33    38    40    60    51    58    82    86    97   110   105   108   114   119   110   110   114   128   102   109    81    85    79    69    64    58    47    42    33    25    20    16    16     5     8     5     2     3     0     1     4     0     0     0     0     1     0     1     0     0     0     0     0
     1     0     0     0     0     0     0     0     0     0     0     0     0     0     0     0     0     0     0     0     0     0     0     0     0     0     0     0     0     0     0     0     0     0     0     1     0     2     3     4     6     7    12    10    10    14    22    27    21    42    39    51    43    75    77    88    92   105    74   100   126   103   118   117   128   126    99    90    93    94    65    73    52    56    44    41    23    14    14    19    14     7     6     8     5     2     2     0     0     0     3     0     1     0     0     0     0     0     1     1
     0     0     0     0     0     0     0     0     0     0     0     0     0     0     0     0     0     0     0     0     0     0     0     0     0     0     0     0     0     0     0     0     0     0     0     0     1     0     1     7     1     7     2    10    10    10    19    20    25    31    42    49    65    54    72    69    80    94   101   103    93   117   118   111   127   113   105    94   101    93    80    83    65    59    68    44    38    18    15    20    16    15     7     8     4     3     5     4     3     2     0     0     0     0     0     0     0     0     0     0
     0     0     0     0     0     0     0     0     0     0     0     0     0     0     0     0     0     0     0     0     0     0     0     0     0     0     0     0     0     0     0     0     0     1     2     0     1     1     1     3     3     2     7     9     8    16    15    12    23    27    34    34    42    60    66    70    73    88    85   123   102   121   119   146   134   130   123   102   121   107    97    93    79    57    51    45    39    21    34    17    18    10    11    11     9     4     8     1     1     1     0     2     0     0     0     1     0     0     0     0
     0     0     0     0     0     0     0     0     0     0     0     0     0     0     0     0     0     0     0     0     0     0     0     0     0     0     0     0     0     0     0     1     1     1     0     1     1     1     1     0     4     2     4     7     8     6     9    10    13    27    32    27    51    48    48    58    69    92    79    73   108    95   121   139   115   122   119   131   110   110   105    77    96    72    62    60    52    33    33    27    16    21    15    10    17     8     8     6     2     3     2     0     0     0     1     1     1     0     0     0
     0     0     0     0     0     0     0     0     0     0     0     0     0     0     0     0     0     0     0     0     0     0     0     0     0     0     0     0     0     0     1     0     0     0     0     1     1     0     1     1     1     0     3     2     7     9    10     9    20    15    20    20    30    26    45    51    58    81    66    82   119   110   123   126   118   142   130   112   122   106   104    90    86    82    60    67    56    42    37    40    27    26    17    14    14     7    10     3     2     4     2     2     1     0     0     0     0     0     0     0
     0     0     0     0     0     0     0     0     0     0     0     0     0     0     0     0     0     0     0     0     0     0     0     0     0     0     0     0     0     0     0     0     0     0     0     0     0     0     0     1     1     2     3     2     1     2     5     9     6    13    17    22    36    29    36    51    66    58    74    71   105   106   121   109   126   128   125   109   128   110   118    87    79    80    71    74    60    59    40    29    41    25    29    23    12    14     8     6     6     4     5     2     2     0     1     1     0     0     0     1
     1     0     0     0     0     0     0     0     0     0     0     0     0     0     0     0     0     0     0     0     0     0     0     0     0     0     0     0     0     0     0     0     0     0     0     0     0     0     0     0     0     2     1     1     4     4     3     4     7     9    10    15    21    27    42    46    40    57    70    78    77    84   113    96   107   104   121   123   116   133   112   106   105    98    70    80    75    64    56    54    48    44    44    26    25    30    15    12    12     5     4     2     1     0     1     0     0     0     0     0
     0     0     0     0     0     0     0     0     0     0     0     0     0     0     0     0     0     0     0     0     0     0     0     0     0     0     0     0     0     0     0     0     0     0     0     0     0     0     0     0     1     1     4     1     4     0     2     1     7    10     6    11    20    27    24    30    39    52    57    64    81    90    93    93   119   125    99   124   137   120   106   112   115    80    94    83    73    79    81    49    50    55    49    38    33    18    24    10     7     2    10     3     8     5     1     2     0     0     0     0
     0     1     0     0     0     0     0     0     0     0     0     0     0     0     0     0     0     0     0     0     0     0     0     0     0     0     0     0     0     0     0     0     0     0     0     0     0     0     0     0     0     0     0     1     0     1     3     2     1     5     7    11    14    20    25    30    28    35    51    46    58    77    98    89   100    94   115   110   109   123    99   109   113   103   103    93    90    75    72    81    53    58    44    47    35    19    22    19    15     8     4     5     3     2     4     1     2     0     0     1
     1     0     0     0     0     0     0     0     0     0     0     0     0     0     0     0     0     0     0     0     0     0     0     0     0     0     0     0     0     0     0     0     0     0     0     0     0     1     0     0     1     0     0     2     1     2     2     1     3     2     4     5    12    22    13    18    28    28    40    37    51    83    63    92    78   102    95   119   124   125    91   115    98    99   109   104    90    81    79    69    58    71    64    44    51    30    27    19    21    14    16    10     7     5     3     2     1     1     0     2
     1     0     0     0     0     0     0     0     0     0     0     0     0     0     0     0     0     0     0     0     0     0     0     0     0     0     0     0     0     0     0     0     0     0     0     0     0     0     1     0     0     0     1     0     0     1     0     1     2     5     1     4     4    11    15    14    26    22    42    38    34    57    72    73    86    94    85    87    90    85   108   108   117    97   119    93   115   105    96    81    73    72    56    48    48    37    34    32    21    15    15    13     7     4     5     2     1     2     0     0
     0     0     0     0     0     0     0     0     0     0     0     0     0     0     0     0     0     0     0     0     0     0     0     0     0     0     0     0     0     0     0     0     0     0     0     0     0     0     0     0     0     0     0     0     0     1     2     1     1     2     4     3     5     6     9    13    18    22    31    29    38    34    52    61    73    82    79   106    89   106    98    96   108   110   113    96    93   106    93    83    88    82    43    52    49    45    40    34    27    27    19     9     7     7     2     2     8     3     0     0
     3     0     2     0     0     0     0     0     0     0     0     0     0     0     0     0     0     0     0     0     0     0     0     0     0     0     0     0     0     0     0     0     0     0     0     0     0     0     0     0     0     0     0     0     0     0     1     2     1     2     0     2     3     6    10    13    11    16    20    25    36    39    48    50    54    60    89    95    94    98   113   105   124   123   133   100    90   102    94    96    81    65    77    63    49    58    44    40    41    25    17    11    10     9     6     6     4     3     2     1
     2     0     0     0     0     0     0     0     0     0     0     0     0     0     0     0     0     0     0     0     0     0     0     0     0     0     0     0     0     0     0     0     0     0     0     0     0     0     0     0     1     0     0     0     1     0     0     0     1     1     3     3     3     9     3     7     6    15    21    20    25    43    43    40    52    60    74    68   110    98    79   108   125   106   118   110   112   132   108   103   103    72    74    73    81    55    46    41    37    26    26    21    14    12    12     8    11     4     2     1
     3     1     0     0     0     0     0     1     0     0     0     0     0     0     0     0     1     0     0     0     0     0     0     0     0     0     0     0     0     0     0     0     0     0     0     0     0     0     0     0     0     0     0     0     1     0     0     0     0     1     0     4     3     0     5     4    12     7    15    15    18    24    25    37    51    55    78    75    77    93    81   105   100   125   117   135   127    98   120    86   105    85    82    77    80    59    52    59    40    31    27    25    21    17    18     9     6     5     3     7
     0     0     0     0     0     0     0     0     0     0     0     0     1     0     0     1     1     0     0     0     0     0     0     0     0     0     0     0     0     0     0     0     0     0     0     0     0     0     0     0     0     0     0     0     0     0     0     0     0     0     2     2     0     3     4     5     3     9     7     4    17    16    32    29    38    42    40    61    67    78    86    91    81   102   111   109   124   124   140   103   120   116    98    94    79    73    70    61    36    40    40    37    29    23    13    13    12     4     1     7
     1     2     3     1     3     1     0     0     0     0     0     0     0     0     0     1     0     0     0     0     0     0     0     0     0     0     0     0     0     0     0     0     0     0     0     0     0     0     0     0     0     0     0     0     0     0     0     0     1     1     1     1     3     2     5     4     6     8     8    10    12    21    24    19    31    40    43    53    70    94    72    87    97    88   100   131   129   110   110   104   127   129   104   117    82    96    79    64    40    45    49    33    29    31    18    18    10     8     6     6
     8     3     2     0     2     0     0     0     0     1     1     0     0     0     0     0     0     0     0     0     0     0     0     0     0     0     0     0     0     0     0     0     0     0     0     0     0     0     0     0     0     0     0     0     0     0     0     0     1     1     4     0     0     1     4     4     5     6     1     5     7    16    23    15    30    28    35    50    54    59    84    67    83    77    94   109   109   132   139   123   114   125    96   108    86   105    90    68    59    48    40    43    35    32    16    22    15     8     9     6
     6     7     3     2     3     2     1     2     1     0     1     0     1     0     0     0     0     0     0     0     0     0     0     0     0     0     0     0     0     0     0     0     0     0     0     0     0     0     0     0     0     0     0     0     0     0     0     0     0     1     1     0     0     0     0     1     2     4     7     2     7    10     8    12    30    26    30    38    31    67    76    64    65    98    75    96    98   133   135   145   105   127   123   128    97    90    84    94    76    54    53    59    44    31    40    25    19    17     9     8
    10     8     2     4     3     5     0     3     1     3     1     0     0     1     0     0     0     0     0     0     0     0     0     0     0     0     0     0     0     0     0     0     0     0     0     0     0     0     0     0     0     0     0     0     0     0     0     0     0     0     1     1     0     0     1     2     2     2     4     5     7     9    13    10    15    21    20    28    39    39    55    59    70    64    74   104   105   104   126   122   153   109   134   138   105    86   102   100    67    60    63    54    43    49    38    25    35    22    16    14
     4    16     9     3     5     3     2     1     2     1     0     1     1     0     2     0     0     0     0     0     0     0     0     0     0     0     0     0     0     0     0     0     0     0     0     0     0     0     0     0     0     0     0     0     0     0     0     0     0     1     0     1     1     1     0     1     2     2     4     0     3     6     7     7    14    12    20    16    28    41    44    57    56    70    81    94    89   109   113   119   116   109   114   117   154   111   104    78    86    84    75    66    64    57    57    38    41    19    20    17
    16    13    11     8     7     6     3     0     2     2     3     1     1     2     0     0     0     0     0     0     0     0     0     0     0     0     0     0     0     0     0     0     0     0     0     0     0     0     0     0     0     0     0     0     0     0     0     0     0     0     0     0     0     0     1     0     2     3     0     2     3     4    10     8    13    13    19    17    26    30    41    44    47    60    81    70    94    84   115   107    93   123   119   118    94   119   124   116    94   107    82    66    73    67    67    63    38    21    24    20
    26    12    10    16     4     3     1     4     1     1     1     2     0     2     0     0     1     0     0     0     0     0     0     0     0     0     0     0     0     0     0     0     0     0     0     0     0     0     0     0     0     0     0     0     0     0     0     0     0     0     0     0     0     0     0     0     2     1     2     2     4     3     6     5     6    11    17    17    22    18    31    37    41    50    48    71    78    80    97   103   102    93   126   123   116   138   124   106   122   106    96    97    79    60    55    59    44    28    24    19
    22    21    16    11     7     6     7     4     3     2     1     0     0     0     0     0     0     0     0     0     0     0     0     0     0     0     0     0     0     0     0     0     0     0     0     0     0     0     0     0     0     0     0     0     0     0     0     0     0     0     0     0     0     0     0     1     1     1     1     2     2     2     2     4    10    10     5     9    18    17    29    36    41    42    68    51    76    81    84    99   100   114   123   124   120   128   128   114   106   121   106   103    82    74    54    58    53    52    31    16
    24    18    14    12     9     5     8     7     5     4     3     5     0     0     0     0     0     1     0     0     0     0     0     0     0     0     0     0     0     0     0     0     0     0     0     0     0     0     0     0     0     0     0     0     0     0     0     0     0     0     0     0     0     0     0     3     2     2     3     0     0     4     6     2     2     8     7     6    10    12    18    37    24    33    54    55    71    69    75   103    99    99   117   138   120   127   108   122   117   107   141    97   102    84    86    62    57    47    27    22
    33    33    14    17     6    14     7    10     4     5     2     0     2     0     0     0     0     0     0     0     0     0     0     0     0     0     0     0     0     0     0     0     0     0     0     0     0     0     0     0     0     0     0     0     0     0     0     0     0     0     0     0     0     0     0     0     0     0     1     2     6     2     1     2     3     4     4     9    12    14    19    28    22    29    34    41    63    68    75    83    90    92   109   119   116   119   133   119   125   110   108   110    91    95    76    69    57    49    62    44
    35    39    21    30    18    20    13    11     6     5    10     1     0     2     0     1     0     0     0     0     0     0     0     0     0     0     0     0     0     0     0     0     0     0     0     0     0     0     0     0     0     0     0     0     0     0     0     0     0     0     0     0     0     0     0     0     0     2     1     3     1     4     3     2     3     4     2     2     9    15    22    25    23    18    23    43    47    50    56    71    94    78    87   103   117   107   130   127   118   116   108    99   105    91    76    75    71    57    47    55
    49    44    36    22    17    22    16    11     9     7     3     2     1     1     0     0     0     1     0     0     0     0     0     0     0     0     0     0     0     0     0     0     0     0     0     0     0     0     0     0     0     0     0     0     0     0     0     0     0     0     0     0     0     0     0     1     0     0     0     1     0     1     2     0     2     2     6     2     7     7    17    18    18    22    19    36    38    42    53    59    69    69    63    69    95   119   114   125   122   118   126   123    95    93    84    91    79    65    75    60
    52    54    39    39    28    21    15    19    11    11     5     5     3     0     2     0     0     0     0     0     0     0     0     0     0     0     0     0     0     0     0     0     0     0     0     0     0     0     0     0     0     0     0     0     0     0     0     0     0     0     0     0     0     0     0     2     1     0     0     0     0     1     2     0     4     6     2     0     5    13     9    15    12    16    21    25    35    39    41    49    65    73    94    58    87    96   101    95   123   117    98   119   116   113   107    88    96   100    71    60
    60    60    59    35    36    29    21    25    19    15     7    10     4     3     4     0     0     0     0     0     0     0     0     0     0     0     0     0     0     0     0     0     0     0     0     0     0     0     0     0     0     0     0     0     0     0     0     0     0     0     0     0     0     0     0     0     0     0     0     0     0     0     2     2     1     1     2     1     0     5     5    13    15    15    20    22    31    32    31    32    59    74    45    85    81    93   104   131   109    99   105   103    86    99   115   121    88    89    82    63
    87    70    60    49    44    40    37    27    20    25    15    16     4     5     2     1     1     1     0     0     0     0     0     0     0     0     0     0     0     0     0     0     0     0     0     0     0     0     0     0     0     0     0     0     0     0     0     0     0     0     0     0     0     0     0     0     0     1     0     0     0     0     2     1     3     0     0     4     5     5     3     7     7     7    11    21    14    26    41    30    44    60    62    55    70    99    87    88   107    95   107   118   103   111   116   119   127   109    86    82
    79    88    75    59    44    32    46    33    18    22    19    12     4     3     8     1     3     1     1     2     0     0     0     0     0     0     0     0     0     0     0     0     0     0     0     0     0     0     0     0     0     0     0     0     0     0     0     0     0     0     0     0     0     0     0     0     0     0     0     1     0     0     2     1     2     1     2     1     3     4     4     8     7     8     8    12    15    19    25    25    42    41    60    61    82    81    85    88    80   108    96   106   106   104   118   134   105   110    97    91
    96    92    85    63    50    61    58    40    34    21    17    10    10     8     5     7     2     1     0     1     0     1     0     0     0     0     0     0     0     0     0     0     0     0     0     0     0     0     0     0     0     0     0     0     0     0     0     0     0     0     0     0     0     0     0     0     0     0     0     0     0     0     0     0     0     1     0     1     3     2     7     2     5     5     6     9     8    11    25    28    35    38    45    55    63    66    75   103    81   113   104    99   133   120   144   143   130   117   119    98
   124    99    88    70    59    62    49    47    34    35    44    29    11    13    10     5     4     3     0     2     3     0     1     0     0     0     0     0     0     0     0     0     0     0     0     0     0     0     0     0     0     0     0     0     0     0     0     0     0     0     0     0     0     0     0     0     0     0     0     0     0     0     1     1     1     1     1     0     3     2     3     3     5     7     3     9     8    19     6    17    23    34    54    39    45    66    74    81    79    91    96    98   120   124   142   143   142   103   112   108
   112    91    97    86    91    66    72    56    57    43    30    24    15    15     8     8     6     4     3     0     3     0     1     1     0     0     0     0     0     0     0     0     0     0     0     0     0     0     0     0     0     0     0     0     0     0     0     0     0     0     0     0     0     0     0     0     0     0     0     0     0     0     0     1     0     1     1     0     0     2     3     2     3     2     4     5     5     9    14    14    17    28    29    46    36    43    64    67    75    71    99    86   111   134   140   126   102   123   125    98
   111    93    90    92   102    93    76    72    44    42    32    23    16    10    15     6     6     4     2     3     4     1     2     1     0     0     1     0     0     1     0     0     0     0     0     0     0     0     0     0     0     0     0     0     0     0     0     0     0     0     0     0     0     0     0     0     0     0     0     0     0     0     0     0     1     1     2     0     0     0     1     2     0     1     3     7     5    10    13    12    21    18    30    29    30    51    45    64    74    81    84    83   111    92   138   107   116   149   114   122
   109   103    80    93   104    82    87    72    59    54    41    31    23    22    15    16     8     7     6     3     8     5     0     1     1     1     0     0     1     1     0     0     0     0     0     0     0     0     0     0     0     0     0     0     0     0     0     0     0     0     0     0     0     0     0     0     0     0     0     0     0     0     0     0     0     0     0     2     1     1     0     1     0     2     4     5     2     8    10    11    17    12    22    29    26    40    40    40    67    62    67    85    91    98   102   115   124   134   133    91
   106    91   108    94    89    83    85    50    54    48    42    37    44    29    16    22    10    12    10     3     5     1     3     0     0     2     0     1     1     0     1     1     0     0     0     0     0     0     0     0     0     0     0     0     0     0     0     0     0     0     0     0     0     0     0     0     0     0     0     0     0     0     0     0     0     0     0     0     0     0     0     0     0     2     3     4     4     1    15     9    15    12    16    22    15    26    27    45    54    41    55    80    85    83   113   101   123   118   119   102
