#lt      10.0
#count pbc
#dt      1.0
#dn      10
#edges  -27.1557089 -26.6125947 -26.0694805 -25.5263664 -24.9832522 -24.4401380 -23.8970238 -23.3539097 -22.8107955 -22.2676813 -21.7245671 -21.1814529 -20.6383388 -20.0952246 -19.5521104 -19.0089962 -18.4658821 -17.9227679 -17.3796537 -16.8365395 -16.2934253 -15.7503112 -15.2071970 -14.6640828 -14.1209686 -13.5778545 -13.0347403 -12.4916261 -11.9485119 -11.4053977 -10.8622836 -10.3191694  -9.7760552  -9.2329410  -8.6898268  -8.1467127  -7.6035985  -7.0604843  -6.5173701  -5.9742560  -5.4311418  -4.8880276  -4.3449134  -3.8017992  -3.2586851  -2.7155709  -2.1724567  -1.6293425  -1.0862284  -0.5431142   0.0000000   0.5431142   1.0862284   1.6293425   2.1724567   2.7155709   3.2586851   3.8017992   4.3449134   4.8880276   5.4311418   5.9742560   6.5173701   7.0604843   7.6035985   8.1467127   8.6898268   9.2329410   9.7760552  10.3191694  10.8622836  11.4053977  11.9485119  12.4916261  13.0347403  13.5778545  14.1209686  14.6640828  15.2071970  15.7503112  16.2934253  16.8365395  17.3796537  17.9227679  18.4658821  19.0089962  19.5521104  20.0952246  20.6383388  21.1814529  21.7245671  22.2676813  22.8107955  23.3539097  23.8970238  24.4401380  24.9832522  25.5263664  26.0694805  26.6125947  27.1557089
   138   134   136   118   104    84    95    61    71    45    38    22    12    16     6    12     1     5     3     4     1     0     1     0     0     0     0     0     0     0     0     0     0     0     0     0     0     0     0     0     0     0     0     0     0     0     0     0     0     0     0     0     0     0     0     0     0     0     0     0     0     0     0     0     0     0     0     0     0     0     0     0     0     0     0     0     0     0     0     1     2     0     3     5     4     8    12    12    22    25    30    34    56    68    83   100   141   113   129   147
   130   165   130   141   152   107   105    90    88    63    55    39    34    27    17    11     4     7     1     3     1     0     0     0     0     0     0     0     0     0     0     0     0     0     0     0     0     0     0     0     0     0     0     0     0     0     0     0     0     0     0     0     0     0     0     0     0     0     0     0     0     0     0     0     0     0     0     0     0     0     0     0     0     0     0     0     0     0     0     0     1     3     0     2     6     6     6    10    18    27    21    31    41    47    66    87    92   109   136   146
   140   154   137   149   159   133   120   115    85    59    66    40    37    27    29    23    11     8     4     2     1     0     0     0     1     0     0     0     0     0     0     0     0     0     0     0     0     0     0     0     0     0     0     0     0     0     0     0     0     0     0     0     0     0     0     0     0     0     0     0     0     0     0     0     0     0     0     0     0     0     0     0     0     0     0     0     0     0     1     2     0     2     2     3     0     1     7    13     5    17    25    22    31    48    57    73    88    95   105   130
   122   133   160   147   154   139   125   135   118    86    71    64    52    38    36    32    25     8     6     6     2     1     3     2     0     0     0     0     0     1     0     0     0     0     0     0     0     0     0     0     0     0     0     0     0     0     0     0     0     0     0     0     0     0     0     0     0     0     0     0     0     0     0     0     0     0     0     0     0     0     0     0     0     0     0     0     0     0     0     0     1     0     0     1     5     0     3     4     9    10    13    19    18    36    43    56    69    91    90   113
   112   137   138   144   142   144   173   116   130   120   103    89    70    52    43    18    19    18     5     7     6     5     3     1     1     0     0     0     0     0     0     0     0     0     0     0     0     0     0     0     0     0     0     0     0     0     0     0     0     0     0     0     0     0     0     0     0     0     0     0     0     0     0     0     0     0     0     0     0     0     0     0     0     0     0     0     0     0     0     0     0     0     0     1     1     2     4     7     1     1     6    17    26    32    35    47    58    67    89   103
    97   118   119   147   142   155   170   141   135   122   112    95    66    79    37    34    22    26    13     8     7     3     2     0     2     0     0     0     0     0     0     0     0     0     0     0     0     0     0     0     0     0     0     0     0     0     0     0     0     0     0     0     0     0     0     0     0     0     0     0     0     0     0     0     0     0     0     0     0     0     0     0     0     0     0     0     0     0     0     1     1     0     0     0     0     0     2     3     2     6     4     8    12    19    19    37    52    64    55    91
    76   120   109   124   159   178   185   158   162   140   123   107   100    71    58    42    45    27    16    14     9     5     3     3     2     2     1     1     0     0     0     0     0     0     0     0     0     0     0     0     0     0     0     0     0     0     0     0     0     0     0     0     0     0     0     0     0     0     0     0     0     0     0     0     0     0     0     0     0     0     0     0     0     0     0     0     0     0     0     0     1     1     0     1     1     0     5     2     3     3     8    12    14    13    18    24    42    44    60    69
    59    91    94   123   145   135   153   137   168   143   136   110   100   102    80    58    56    40    35    23    15    11     9     4     0     0     2     1     0     0     0     0     0     0     0     0     0     0     0     0     0     0     0     0     0     0     0     0     0     0     0     0     0     0     0     0     0     0     0     0     0     0     0     0     0     0     0     0     0     0     0     0     0     0     0     0     0     0     0     0     0     0     0     0     0     0     1     0     1     1     1     5     5    12    11    21    30    33    44    49
    54    75   102   108   126   141   143   167   156   135   130   120   123   126    96    82    68    44    51    26    20    17     5     9     5     2     3     1     0     2     1     0     0     0     0     0     0     0     0     0     0     0     0     0     0     0     0     0     0     0     0     0     0     0     0     0     0     0     0     0     0     0     0     0     0     0     0     0     0     0     0     0     0     0     0     0     0     0     0     0     0     0     0     0     0     0     0     0     2     2     3     3     3     6    16    16    21    33    44    39
    43    59    87    93   104   131   144   144   135   180   144   132   150   134    94   100    79    65    52    45    36    22    15     7     8     4     5     2     1     4     0     0     0     0     0     0     0     0     0     0     0     0     0     0     0     0     0     0     0     0     0     0     0     0     0     0     0     0     0     0     0     0     0     0     0     0     0     0     0     0     0     0     0     0     0     0     0     0     0     0     0     0     0     0     0     1     0     0     0     0     2     1     0     3     8    14    21    24    30    39
    32    37    60    67   100    94   119   124   138   159   149   161   144   161   137   106    93    95    73    53    49    25    22    11    14     6     1     4     1     0     1     0     2     1     0     0     0     0     0     0     0     0     0     0     0     0     0     0     0     0     0     0     0     0     0     0     0     0     0     0     0     0     0     0     0     0     0     0     0     0     0     0     0     0     0     0     0     0     0     0     0     0     0     0     0     0     0     0     0     1     0     1     0     2     4    11    11    12    19    34
    22    36    50    62    78    87   118   106   113   139   170   145   171   159   128   153   122   113    83    75    56    47    38    23    10     7    12     6     3     4     0     3     3     1     0     0     0     0     0     0     0     0     0     0     0     0     0     0     0     0     0     0     0     0     0     0     0     0     0     0     0     0     0     0     0     0     0     0     0     0     0     0     0     0     0     0     0     0     0     0     0     0     0     0     0     0     0     0     0     0     0     0     1     1     4     2     3    10    11    14
    17    34    32    48    58    80    81   104   127   157   154   175   166   178   159   147   154   126    96    86    59    58    42    30    24    21    10     4     3     4     1     4     0     1     1     0     0     0     0     0     0     0     0     0     0     0     0     0     0     0     0     0     0     0     0     0     0     0     0     0     0     0     0     0     0     0     0     0     0     0     0     0     0     0     0     0     0     0     0     0     0     0     0     0     0     0     0     0     0     0     0     0     1     2     5     1     9     9    12    13
    13    23    29    41    54    72    87    86   115   130   135   145   184   183   176   167   162   127   133   114   110    58    49    53    42    21    15    14     9     4     4     1     1     1     0     0     0     0     0     0     0     0     0     0     0     0     0     0     0     0     0     0     0     0     0     0     0     0     0     0     0     0     0     0     0     0     0     0     0     0     0     0     0     0     0     0     0     0     0     0     0     0     0     0     0     0     0     0     0     0     0     1     0     1     0     2     3     7     8     9
    11    11    20    24    43    51    50    78    87   112   124   141   174   183   178   186   163   163   152   132    85    95    66    50    41    22    15    23    10     4     5     4     0     0     0     1     1     0     1     0     0     0     0     0     0     0     0     0     0     0     0     0     0     0     0     0     0     0     0     0     0     0     0     0     0     0     0     0     0     0     0     0     0     0     0     0     0     0     0     0     0     0     0     0     0     0     0     0     0     0     0     1     1     0     1     1     1     3     5    12
     7    13    22    25    28    44    61    52    71    94   114   148   137   167   160   194   176   184   165   153   140   131   106    56    46    33    26    25    20    14    10     6     4     3     3     1     1     1     1     0     0     0     0     0     0     0     0     0     0     0     0     0     0     0     0     0     0     0     0     0     0     0     0     0     0     0     0     0     0     0     0     0     0     0     0     0     0     0     0     0     0     0     0     0     0     0     0     0     0     0     0     0     0     1     0     0     2     1     6     5
     2    10     8    14    21    21    24    55    72    80   106   111   142   141   168   166   154   202   192   182   124   117   100    91    58    59    36    23    15    17    18     6     7     2     4     0     1     2     0     0     0     0     0     0     0     0     0     0     0     0     0     0     0     0     0     0     0     0     0     0     0     0     0     0     0     0     0     0     0     0     0     0     0     0     0     0     0     0     0     0     0     0     0     0     0     0     0     0     0     0     0     0     0     0     0     0     1     1     0     4
     7     7    11    10    14    15    29    41    57    68    88   110   130   144   167   175   202   176   181   163   146   141   122   129    88    69    53    29    32    30    17    17     6     2     7     4     3     1     3     0     0     0     0     0     0     0     0     0     0     0     0     0     0     0     0     0     0     0     0     0     0     0     0     0     0     0     0     0     0     0     0     0     0     0     0     0     0     0     0     0     0     0     0     0     0     0     0     0     0     0     0     0     0     1     1     0     0     0     1     3
     3     3     7     3    11    10    23    26    33    60    61    78    94   145   154   169   167   199   191   174   175   165   142   134   110    66    56    60    37    23    19    13    19     4     6     3     6     1     0     0     0     0     0     0     0     0     0     0     0     0     0     0     0     0     0     0     0     0     0     0     0     0     0     0     0     0     0     0     0     0     0     0     0     0     0     0     0     0     0     0     0     0     0     0     0     0     0     0     0     0     0     0     0     0     0     0     0     0     0     1
     2     2     2     1     7    13    14    20    27    54    44    71   103   109   127   165   164   208   180   173   182   156   155   130   123    88    91    75    43    27    24    22    28    11     9     8     4     2     0     1     2     0     0     0     0     0     0     0     0     0     0     0     0     0     0     0     0     0     0     0     0     0     0     0     0     0     0     0     0     0     0     0     0     0     0     0     0     0     0     0     0     0     0     0     0     0     0     0     0     0     0     0     0     0     0     0     0     0     1     0
     0     1     2     3     7     5    18    14    19    29    34    68    65    77   116   138   132   146   172   173   144   170   152   156   127   114    97    79    56    56    39    30    20    13    10     6     6     3     2     1     1     1     0     0     1     0     0     0     0     0     0     0     0     0     0     0     0     0     0     0     0     0     0     0     0     0     0     0     0     0     0     0     0     0     0     0     0     0     0     0     0     0     0     0     0     0     0     0     0     0     0     0     0     0     0     0     0     0     0     0
     1     3     1     6     8     7     5    21    11    14    24    61    55    70    93   105   119   138   162   162   168   156   170   175   142   143   116    99    72    54    57    40    34    17    15     7     5     2     4     5     2     1     0     1     0     0     0     0     0     0     0     0     0     0     0     0     0     0     0     0     0     0     0     0     0     0     0     0     0     0     0     0     0     0     0     0     0     0     0     0     0     0     0     0     0     0     0     0     0     0     0     0     0     0     0     0     0     1     0     0
     1     2     0     0     1     5     4    10    16    15    22    28    43    48    76    87    98   117   139   160   166   167   175   178   173   145   142    99    88    95    64    45    37    29    19     5    10     6     6     3     3     0     3     1     0     0     0     0     0     0     0     0     0     0     0     0     0     0     0     0     0     0     0     0     0     0     0     0     0     0     0     0     0     0     0     0     0     0     0     0     0     0     0     0     0     0     0     0     0     0     0     0     0     0     0     0     0     0     0     0
     0     0     0     0     0     0     5     8     9    10    22    30    27    36    52    69    89   111   133   163   139   174   179   192   153   181   121   135    97   101    70    65    46    31    25    21    14    15     8     1     4     3     4     1     2     1     0     0     0     0     0     0     0     0     0     0     0     0     0     0     0     0     0     0     0     0     0     0     0     0     0     0     0     0     0     0     0     0     0     0     0     0     0     0     0     0     0     0     0     0     0     0     0     0     0     0     0     0     0     0
     0     0     1     2     3     2     2     5     6     9    10    15    26    21    36    64    56    86   110   130   156   160   181   177   183   140   122   128   119    93   104    61    67    44    47    28    21    13    10     6     3     6     1     3     1     0     0     0     0     1     0     0     0     0     0     0     0     0     0     0     0     0     0     0     0     0     0     0     0     0     0     0     0     0     0     0     0     0     0     0     0     0     0     0     0     0     0     0     0     0     0     0     0     0     0     0     0     0     0     0
     0     0     0     1     0     0     2     1     6     5     9    14    14    24    25    43    48    63    75   112    97   136   145   168   171   163   192   148   125   117   104    90    67    56    38    33    25    25    12    13    12     4     2     1     1     2     1     0     0     0     0     0     0     0     0     0     0     0     0     0     0     0     0     0     0     0     0     0     0     0     0     0     0     0     0     0     0     0     0     0     0     0     0     0     0     0     0     0     0     0     0     0     0     0     0     0     0     0     0     1
     0     0     0     0     0     0     1     3     3     6     5     5     6    17    28    30    35    47    59    71    81   129   123   153   140   143   145   148   151   124   120   111    96    86    67    44    30    23    12    14     9     4     1     9     2     4     1     0     0     0     0     0     0     0     0     0     0     0     0     0     0     0     0     0     0     0     0     0     0     0     0     0     0     0     0     0     0     0     0     0     0     0     0     0     0     0     0     0     0     0     0     0     0     0     0     0     0     0     0     0
     0     0     0     0     0     0     1     0     2     2     3     7     7     7    13    25    22    46    39    66    75    96   124   118   156   186   138   155   147   136   118   126    94    79    84    57    47    26    32    20    16    15    11     4     3     0     2     2     0     0     0     0     0     0     0     0     0     0     0     0     0     0     0     0     0     0     0     0     0     0     0     0     0     0     0     0     0     0     0     0     0     0     0     0     0     0     0     0     0     0     0     0     0     0     0     0     0     0     0     0
     0     0     0     0     0     0     1     3     1     2     0     1     7     6     5    16    19    22    34    56    60    63    91    94   117   141   131   129   140   154   169   137   107   111    85    74    46    55    41    22    29    12     9    12    11     2     4     1     1     1     2     1     0     0     0     0     0     0     0     0     0     0     0     0     0     0     0     0     0     0     0     0     0     0     0     0     0     0     0     0     0     0     0     0     0     0     0     0     0     0     0     0     0     0     0     0     0     0     0     0
     0     0     0     0     0     0     0     0     0     0     0     1     2     6     4    10     7    20    32    33    45    58    73    84   105   109   121   145   129   159   172   158   106   104   125   110    75    61    72    46    28    19    14    17    12     5     4     3     1     2     0     0     0     0     0     0     0     0     0     0     0     0     0     0     0     0     0     0     0     0     0     0     0     0     0     0     0     0     0     0     0     0     0     0     0     0     0     0     0     0     0     0     0     0     0     0     0     0     0     0
     0     0     0     0     0     0     0     0     1     0     1     0     6     3     4     7    18    24    16    25    30    48    56    66    99    98   123   136   146   149   140   136   119   134   130   117    85    82    66    66    38    31    19    11     9     8     3     0     2     5     1     0     0     1     0     0     0     0     0     0     0     0     0     0     0     0     0     0     0     0     0     0     0     0     0     0     0     0     0     0     0     0     0     0     0     0     0     0     0     0     0     0     0     0     0     0     0     0     0     0
     0     0     0     0     0     0     0     0     0     0     0     1     3     1     3     6     8    11    18    25    33    46    47    58    79   103   113   127   123   143   140   155   132   128   124   117   102    97    91    72    36    34    26    17    14    13     8     4     0     5     3     1     0     0     0     2     0     0     0     0     0     0     0     0     0     0     0     0     0     0     0     0     0     0     0     0     0     0     0     0     0     0     0     0     0     0     0     0     0     0     0     0     0     0     0     0     0     0     0     0
     0     0     0     0     0     0     0     0     0     0     0     1     0     1     0     1     3     7     9    16    26    22    29    46    49    83    88    91   117   136   123   132   129   139   133   135   102    96    99    73    59    56    31    30    29    13     9    14     7     4     4     2     2     1     1     0     0     0     0     0     0     0     0     0     0     0     0     0     0     0     0     0     0     0     0     0     0     0     0     0     0     0     0     0     0     0     0     0     0     0     0     0     0     0     0     0     0     0     0     0
     0     0     0     0     0     0     0     0     0     0     0     0     0     0     1     0     1     4     6     4    15    25    32    42    54    60    53    89   107    99   117   125   136   152   149   157   135   147   109    91    91    51    33    35    28    16    14    14    12     2     5     1     2     0     1     0     0     0     0     0     0     0     0     0     0     0     0     0     0     0     0     0     0     0     0     0     0     0     0     0     0     0     0     0     0     0     0     0     0     0     0     0     0     0     0     0     0     0     0     0
     0     0     0     0     0     0     0     0     0     0     0     0     0     0     0     0     3     3     1     3    21    14    20    29    44    47    60    81    98    82    96   121   139   132   171   165   147   140   134    96   100    88    63    53    37    24    25    17    12     8     3     2     7     2     0     0     0     0     0     0     0     0     0     0     0     0     0     0     0     0     0     0     0     0     0     0     0     0     0     0     0     0     0     0     0     0     0     0     0     0     0     0     0     0     0     0     0     0     0     0
     0     0     0     0     0     0     0     0     0     0     0     0     0     0     0     0     0     3     1    10     7    10    23    24    30    36    47    55    67   103   103   105   118   132   129   155   159   168   135   138   118    84    75    65    52    38    34    29     9    11    11     7     3     1     1     0     0     0     0     0     0     0     0     0     0     0     0     0     0     0     0     0     0     0     0     0     0     0     0     0     0     0     0     0     0     0     0     0     0     0     0     0     0     0     0     0     0     0     0     0
     0     0     0     0     0     0     0     0     0     0     0     0     0     1     0     0     1     1     1     0     9     8    10    23    24    31    41    49    67    68    66   102   113   115   130   150   179   174   145   138   114   107    88    66    71    43    44    32    17    13    19     6    11     4     4     0     0     0     0     0     0     0     0     0     0     0     0     0     0     0     0     0     0     0     0     0     0     0     0     0     0     0     0     0     0     0     0     0     0     0     0     0     0     0     0     0     0     0     0     0
     0     0     0     0     0     0     0     0     0     0     0     0     0     0     0     1     0     0     2     1     0     6     9    10    15    28    22    34    75    67    83    90   105   122   128   150   148   158   157   150   127   145   108   100    87    75    52    39    31    20    16    14     5     3     5     3     1     0     0     0     0     0     0     0     0     0     0     0     0     0     0     0     0     0     0     0     0     0     0     0     0     0     0     0     0     0     0     0     0     0     0     0     0     0     0     0     0     0     0     0
     0     0     0     0     0     0     0     0     0     0     0     0     0     0     0     0     0     0     3     2     1     2     3     5     9    14    23    40    34    60    57    69    90   105   138   132   152   148   145   166   140   128   122   132    80   104    78    50    33    30    24    17    13     8     4     5     6     4     0     1     1     0     0     0     0     0     0     0     0     0     0     0     0     0     0     0     0     0     0     0     0     0     0     0     0     0     0     0     0     0     0     0     0     0     0     0     0     0     0     0
     0     0     0     0     0     0     0     0     0     0     0     0     0     0     0     0     0     0     1     2     0     1     3     9     5    10    21    15    25    31    55    67    77    94    94   107   116   122   130   165   169   159   159   118    97   101    90    72    48    33    30    21    20    15     9     7     5     3     1     0     0     0     0     0     0     0     0     0     0     0     0     0     0     0     0     0     0     0     0     0     0     0     0     0     0     0     0     0     0     0     0     0     0     0     0     0     0     0     0     0
     0     0     0     0     0     0     0     0     0     0     0     0     0     0     0     0     0     0     0     0     0     2     2     3     4     8    16    20    18    35    44    61    57    86    84   102   120   143   156   132   135   162   145   135   122   107    92    75    83    45    40    26    14    15    11     8     4     1     2     0     0     0     0     0     0     0     0     0     0     0     0     0     0     0     0     0     0     0     0     0     0     0     0     0     0     0     0     0     0     0     0     0     0     0     0     0     0     0     0     0
     0     0     0     0     0     0     0     0     0     0     0     0     0     0     0     0     0     0     1     1     1     1     2     1     4     4     9    11    13    30    35    53    61    66    79    80   103   129   119   129   155   156   168   132   146   120   121    97    75    54    57    28    37    31    16     9     8     5     5     2     0     1     0     0     0     0     0     0     0     0     0     0     0     0     0     0     0     0     0     0     0     0     0     0     0     0     0     0     0     0     0     0     0     0     0     0     0     0     0     0
     0     0     0     0     0     0     0     0     0     0     0     0     0     0     0     0     0     0     0     0     1     0     0     3     2     2     5     4    20    16    26    32    27    52    59    71   100   115   117   131   141   138   158   196   181   142   140   111   103    88    66    51    46    33    21    14     9     7     9     2     0     2     2     0     0     0     0     0     0     0     0     0     0     0     0     0     0     0     0     0     0     0     0     0     0     0     0     0     0     0     0     0     0     0     0     0     0     0     0     0
     0     0     0     0     0     0     0     0     0     0     0     0     0     0     0     0     0     0     0     1     0     0     0     0     0     1     4     8     3    15    23    32    27    37    58    67    84    86   121   112   144   140   159   185   192   170   149   123   110    97    75    67    65    40    33    18    12    10     7     3     4     2     3     1     0     0     0     0     0     0     0     0     0     0     0     0     0     0     0     0     0     0     0     0     0     0     0     0     0     0     0     0     0     0     0     0     0     0     0     0
     0     0     0     0     0     0     0     0     0     0     0     0     0     0     0     0     0     0     0     0     1     0     0     0     1     1     3     5     3     4     9    15    24    29    38    51    65    95   103   103   120   154   160   168   157   161   153   141   134   117   106    78    57    62    43    35    23    17    13     6     1     1     1     2     0     0     0     0     0     0     1     0     0     0     0     0     0     0     0     0     0     0     0     0     0     0     0     0     0     0     0     0     0     0     0     0     0     0     0     0
     0     0     0     0     0     0     0     0     0     0     0     0     0     0     0     0     0     0     0     0     1     0     0     1     0     1     3     4     5     8     9    12    11    26    22    51    56    65    78    92   114   106   142   163   176   176   165   149   139   121   104    86    91    62    60    46    34    21    16     9     4     0     2     1     1     0     0     0     1     0     0     0     0     0     0     0     0     0     0     0     0     0     0     0     0     0     0     0     0     0     0     0     0     0     0     0     0     0     0     0
     0     0     0     0     0     0     0     0     0     0     0     0     0     0     0     0     0     0     0     0     0     0     0     0     0     0     1     2     1     4     7     4     8    25    23    27    45    52    72    70    85   118   166   149   161   166   159   149   150   152   150   126    94   105    66    63    44    38    22    20     8     4     8     3     0     0     1     0     2     1     0     0     0     0     0     0     0     0     0     0     0     0     0     0     0     0     0     0     0     0     0     0     0     0     0     0     0     0     0     0
     0     0     0     0     0     0     0     0     0     0     0     0     0     0     0     0     0     0     0     0     0     0     0     0     0     0     3     1     3     2     3     7     6    12    16    21    34    44    40    76    83   101   121   129   137   151   153   165   167   141   149   105   110    95    91    59    46    47    26    18    18    14     4     6     1     1     4     1     0     1     0     0     0     0     0     0     0     0     0     0     0     0     0     0     0     0     0     0     0     0     0     0     0     0     0     0     0     0     0     0
     0     0     0     0     0     0     0     0     0     0     0     0     0     0     0     0     0     0     0     0     0     0     0     0     0     0     0     2     1     1     2     2     7    10     9     9    15    31    54    52    61    86    95   125   121   133   158   156   169   146   138   148   126   114   107    95    59    52    50    38    17    22     9     4     5     6     3     1     0     0     0     0     0     0     0     0     0     0     0     0     0     0     0     0     0     0     0     0     0     0     0     0     0     0     0     0     0     0     0     0
     0     0     0     0     0     0     0     0     0     0     0     0     0     0     0     0     0     0     0     0     0     0     1     0     0     0     0     0     1     1     1     5     6     6     9     5    14    22    26    35    43    59    86    97    96   106   165   130   165   144   142   143   131   114   117    97    84    72    45    37    29    16    10    16    13     3     4     3     3     3     1     0     0     0     0     0     0     0     0     0     0     0     0     0     0     0     0     0     0     0     0     0     0     0     0     0     0     0     0     0
     0     0     0     0     0     0     0     0     0     0     0     0     0     0     0     0     0     0     0     0     0     0     0     0     0     0     0     0     0     0     1     3     1     5     7    11     8    12    19    23    34    46    72    81    90   120   147   145   170   152   149   153   143   125   124   123   104    98    62    50    43    28    28    10     8     3     4     3     4     0     0     1     0     0     0     0     0     0     0     0     0     0     0     0     0     0     0     0     0     0     0     0     0     0     0     0     0     0     0     0
     0     0     0     0     0     0     0     0     0     0     0     0     0     0     0     0     0     0     0     0     0     0     0     0     0     0     0     0     0     0     0     2     3     2     3     4     8    10    14    20    24    31    50    53    76    82   113   152   130   129   148   141   153   136   141   144   132    94    84    75    51    53    32    21    10    10     8    11     4     3     0     3     0     0     0     0     0     0     0     0     1     0     0     0     0     0     0     0     0     0     0     0     0     0     0     0     0     0     0     0
     0     0     0     0     0     0     0     0     0     0     0     0     0     0     0     0     0     0     0     0     0     0     0     0     0     0     0     0     0     0     0     1     0     2     1     4     5     9    11    12    17    33    44    52    63    89   108   124   125   121   155   154   163   162   161   143   135   109    98    79    80    49    31    27    26    13    12     6     5     6     2     3     1     2     1     0     1     1     1     0     0     0     0     0     0     0     0     0     0     0     0     0     0     0     0     0     0     0     0     0
     0     0     0     0     0     0     0     0     0     0     0     0     0     0     0     0     0     0     0     0     0     0     0     0     0     0     0     0     0     0     0     0     0     3     1     4     4     2    11    16    21    17    24    38    46    70    78    85   117   106   143   142   163   162   185   151   147   138   124   100    88    66    49    42    27    26    14    18    12     4     4     3     0     2     1     0     0     0     0     0     0     0     0     0     0     0     0     0     0     0     0     0     0     0     0     0     0     0     0     0
     0     0     0     0     0     0     0     0     0     0     0     0     0     0     0     0     0     0     0     0     0     0     0     0     0     0     0     0     0     0     0     0     0     1     2     0     1     2     9     9     9    15    20    31    43    41    72    78   100   105   119   150   172   167   169   180   169   142   133   106    88    97    75    65    44    21    20    19    16     5     5     3     0     2     2     2     1     2     0     0     0     0     0     1     0     0     0     0     0     0     0     0     0     0     0     0     0     0     0     0
     0     0     0     0     0     0     0     0     0     0     0     0     0     0     0     0     0     0     0     0     0     0     0     0     0     0     0     0     0     0     0     0     0     0     2     0     0     5     4     3     8    10    22    27    25    39    58    67    68   103   127   125   132   157   170   149   160   166   148   133   129   109    92    56    62    42    27    26    11    18    11     5     6     6     1     1     1     0     0     1     0     0     0     0     1     0     0     0     0     0     0     0     0     0     0     0     0     0     0     0
     0     0     0     0     0     0     0     0     0     0     0     0     0     0     0     0     0     0     0     0     0     0     0     0     0     0     0     0     0     0     0     0     0     0     0     0     0     1     7     3     8     9    16    17    29    29    43    51    67    82    88   107   147   145   171   175   178   179   154   137   140   123    95    77    72    45    30    29    12    17    13     8     9     6     2     5     1     0     0     0     1     0     1     0     0     0     0     0     0     0     0     0     0     0     0     0     0     0     0     0
     0     0     0     0     0     0     0     0     0     0     0     0     0     0     0     0     0     0     0     0     0     0     0     0     0     0     0     0     0     0     0     0     0     0     0     1     0     0     1     1     3     6     9     7    17    26    53    47    59    67    95   110   114   128   130   168   195   162   142   171   143   118   107    82    79    61    40    42    29    25    14    15    12     3     6     2     1     1     1     0     0     1     0     0     0     0     0     0     0     0     0     0     0     0     0     0     0     0     0     0
     0     0     0     0     0     0     0     0     0     0     0     0     0     0     0     0     0     0     0     0     0     0     0     0     0     0     0     0     0     0     0     0     0     0     0     0     1     0     1     0     2     6     5     8    16    13    13    32    44    58    64    94    94   125   109   157   156   151   188   155   142   158   132   104    67    95    65    45    33    20    21    12    13    13     9     4     2     0     1     1     0     0     0     0     0     0     0     0     0     0     0     0     0     0     0     0     0     0     0     0
     0     0     0     0     0     0     0     0     0     0     0     0     0     0     0     0     0     0     0     0     0     0     0     0     0     0     0     0     0     0     0     0     0     0     0     0     0     0     1     1     0     5     5     6     9    11    15    14    22    49    42    73    81    96   110   142   153   184   164   162   157   167   140   131   113    78    84    65    53    39    28    18    20    12     5     5     2     2     1     1     0     1     0     0     0     0     0     0     0     0     0     0     0     0     0     0     0     0     0     0
     0     0     0     0     0     0     0     0     0     0     0     0     0     0     0     0     0     0     0     0     0     0     0     0     0     0     0     0     0     0     0     0     0     0     0     0     0     0     1     0     3     1     3     3     4     7     6    11    25    42    41    44    61    82   106   117   131   135   152   175   162   148   131   135   106    98   100    86    81    62    38    28    16    22    14     6     1     2     2     1     0     0     2     0     1     0     0     0     0     0     0     0     0     0     0     0     0     0     0     0
     0     0     0     0     0     0     0     0     0     0     0     0     0     0     0     0     0     0     0     0     0     0     0     0     0     0     0     0     0     0     0     0     0     0     0     0     0     0     0     0     0     1     4     5     5     4     4     8    15    14    29    36    61    72    88   103   122   148   159   164   166   154   153   161   137   139   100    90    83    50    54    52    21    15    24     9     4     5     1     5     2     1     0     0     1     0     0     0     0     0     0     0     0     0     0     0     0     0     0     0
     0     0     0     0     0     0     0     0     0     0     0     0     0     0     0     0     0     0     0     0     0     0     0     0     0     0     0     0     0     0     0     0     0     0     0     0     0     0     0     0     0     1     2     0     4     5     4    11     9    11    18    32    29    49    57    94   107   118   115   154   139   168   154   158   133   153   118   111   102    74    57    54    30    29    27    15    15     5     2     2     1     0     0     0     0     0     0     0     0     0     0     0     0     0     0     0     0     0     0     0
     0     0     0     0     0     0     0     0     0     0     0     0     0     0     0     0     0     0     0     0     0     0     0     0     0     0     0     0     0     0     0     0     0     0     0     0     0     0     0     0     0     0     2     0     2     1     2     4     3     5    13    20    31    47    63    48    83    80   100   125   134   162   177   161   152   135   133   126   102    89    99    47    49    43    37    27    11     8     7     4     1     0     2     1     0     1     0     0     0     1     0     0     0     0     0     0     0     0     0     0
     0     0     0     0     0     0     0     0     0     0     0     0     0     0     0     0     0     0     0     0     0     0     0     0     0     0     0     0     0     0     0     0     0     0     0     0     0     0     0     0     0     0     0     0     3     3     0     2     5     8     9    11    22    29    47    46    61    88    81   105   119   147   147   132   173   155   141   126   108   100    97    81    60    48    40    45    18    14    17     5     8     3     0     1     2     1     0     1     0     0     0     0     0     0     0     0     0     0     0     0
     0     0     0     0     0     0     0     0     0     0     0     0     0     0     0     0     0     0     0     0     0     0     0     0     0     0     0     0     0     0     0     0     0     0     0     0     0     0     0     0     1     0     0     1     1     3     2     5     7     8     7    14    15    20    35    37    39    61    82    91    98   133   135   152   143   154   151   122   120   136   112    79    86    78    43    33    32    23    16     6     6    10     1     3     2     0     2     0     0     0     0     0     0     0     0     0     0     0     0     0
     0     0     0     0     0     0     0     0     0     0     0     0     0     0     0     0     0     0     0     0     0     0     0     0     0     0     0     0     0     0     0     0     0     0     0     0     0     0     0     0     0     0     0     0     0     0     2     2     1     2     3    11    14    16    16    32    38    43    63    79    85   111   121   123   155   149   135   144   168   123   133   115   106    85    52    64    38    35    23    10     6     5     3     1     0     1     1     0     0     0     0     0     0     0     0     0     0     0     0     0
     0     0     0     0     0     0     0     0     0     0     0     0     0     0     0     0     0     0     0     0     0     0     0     0     0     0     0     0     0     0     0     0     0     0     0     0     0     0     0     0     0     1     0     0     1     0     0     1     0     2     6     7     7    16    15    16    26    35    37    71    82    96   105   125   133   145   153   137   132   158   132   152   131    92    87    52    59    58    33    19    10    14     8     4     3     2     0     1     0     0     0     0     0     0     0     0     0     0     0     0
     0     0     0     0     0     0     0     0     0     0     0     0     0     0     0     0     0     0     0     0     0     0     0     0     0     0     0     0     0     0     0     0     0     0     0     0     0     0     0     0     0     1     0     0     0     0     0     0     1     0     2     1     8    10    12     8    17    30    30    51    54    88    90   101   136   152   164   136   165   151   170   151   150   113    86    93    72    57    43    25    18    12    16     9     6     4     1     0     0     0     0     1     0     0     0     0     0     0     0     0
     0     0     0     0     0     0     0     0     0     0     0     0     0     0     0     0     0     0     0     0     0     0     0     0     0     0     0     0     0     0     0     0     0     0     0     0     0     0     0     0     0     0     0     0     0     0     0     0     1     0     1     3     4     5     7     4     9    14    30    34    50    61    84   104   110   119   133   165   185   157   179   161   131   133   130   105    94    78    53    42    20    18    12    14     7     1     4     2     0     2     1     0     0     0     0     0     0     0     0     0
     0     0     0     0     0     0     0     0     0     0     0     0     0     0     0     0     0     0     0     0     0     0     0     0     0     0     0     0     0     0     0     0     0     0     0     0     0     0     0     0     0     0     0     0     0     0     0     0     0     0     1     0     1     0     4     6    13    18    31    41    37    44    65    91   105    97   132   157   155   149   178   185   165   141   116   125   101    87    70    58    33    27    29    12    12    10     6     3     1     0     2     1     0     0     0     0     0     0     0     0
     0     0     0     0     0     0     0     0     0     0     0     0     0     0     0     0     0     0     0     0     0     0     0     0     0     0     0     0     0     0     0     0     0     0     0     0     0     0     0     0     0     0     0     0     0     0     0     0     1     0     0     2     1     1     2     2    10     6    17    31    31    41    54    65    74    80   106   141   152   178   183   185   150   165   145   138   121   115    78    74    61    36    43    37    19     9     8     5     4     0     2     0     0     1     1     0     0     0     0     0
     0     0     0     0     0     0     0     0     0     0     0     0     0     0     0     0     0     0     0     0     0     0     0     0     0     0     0     0     0     0     0     0     0     0     0     0     0     0     0     0     0     0     0     0     0     0     0     0     0     0     1     1     0     0     0     1     6     6    12    11    27    23    43    44    67    90   107   132   133   145   156   159   166   194   158   132   138    99    80    99    79    63    47    31    30    15    15     4     8     4     1     1     1     0     0     0     0     0     0     0
     0     0     0     0     0     0     0     0     0     0     0     0     0     0     0     0     0     0     0     0     0     0     0     0     0     0     0     0     0     0     0     0     0     0     0     0     0     0     0     0     0     0     0     0     0     0     0     0     0     0     0     0     1     0     0     2     3     6    10     8    17    20    22    37    42    53    97   103   127   140   145   182   191   172   170   144   140   132   125   101    84    73    64    53    33    24    19    12     7    11     1     3     0     1     0     1     1     0     0     1
     0     0     0     0     0     0     0     0     0     0     0     0     0     0     0     0     0     0     0     0     0     0     0     0     0     0     0     0     0     0     0     0     0     0     0     0     0     0     0     0     0     0     0     0     0     0     0     0     0     1     0     0     0     0     0     1     0     4     5     8    15    14    19    30    29    53    61   103    96   137   129   179   156   188   200   150   158   130   125   103   109    92    73    67    35    32    30    18    13     9     7    10     3     1     0     0     2     1     0     0
     1     0     0     0     0     0     0     0     0     0     0     0     0     0     0     0     0     0     0     0     0     0     0     0     0     0     0     0     0     0     0     0     0     0     0     0     0     0     0     0     0     0     0     0     0     0     0     0     0     0     0     1     0     0     1     1     0     2     4     4     8     8    13    16    19    39    36    55    87   109   113   144   174   172   180   172   177   157   129   146   112   105    94    53    39    40    24    26    14     5     4     5     4     2     2     1     0     0     0     0
     0     0     0     0     0     0     0     0     0     0     0     0     0     0     0     0     0     0     0     0     0     0     0     0     0     0     0     0     0     0     0     0     0     0     0     0     0     0     0     0     0     0     0     0     0     0     0     0     0     0     0     0     0     0     0     0     0     0     3     4     9     5    12    14    28    25    37    44    71   100   103   126   145   144   185   162   171   138   160   135   136   124   117    87    72    52    37    27    23    15    10     6     0     1     2     0     1     2     2     0
     0     0     0     0     0     0     0     0     0     0     0     0     0     0     0     0     0     0     0     0     0     0     0     0     0     0     0     0     0     0     0     0     0     0     0     0     0     0     0     0     0     0     0     0     0     0     0     0     0     0     0     0     0     0     0     0     1     1     0     4     6     4    10    13    14    15    26    34    46    78    74   103    96   119   156   156   160   171   182   173   148   132   116   115    80    66    45    38    24    19    11    10     9     3     2     0     2     3     1     0
     0     0     0     0     0     0     0     0     0     0     0     0     0     0     0     0     0     0     0     0     0     0     0     0     0     0     0     0     0     0     0     0     0     0     0     0     0     0     0     0     0     0     0     0     0     0     0     0     0     0     0     0     0     0     0     0     0     0     0     3     5     3     2    12     9    17    26    26    31    47    77    73   103   106   110   150   157   159   169   183   163   164   160   135   100    89    67    46    26    28    25    16     9     8     7     3     2     2     1     0
     1     0     0     0     0     0     0     0     0     0     0     0     0     0     0     0     0     0     0     0     0     0     0     0     0     0     0     0     0     0     0     0     0     0     0     0     0     0     0     0     0     0     0     0     0     0     0     0     0     0     0     0     0     0     1     1     0     0     0     0     0     3     3     5     8    10    11    19    33    44    47    64    90   114   117   124   155   156   178   193   143   179   149   152   123   123   117    86    52    40    26    15    12    10    12     4     6     4     1     0
     0     0     0     1     0     0     0     0     0     0     0     0     0     0     0     0     0     0     0     0     0     0     0     0     0     0     0     0     0     0     0     0     0     0     0     0     0     0     0     0     0     0     0     0     0     0     0     0     0     0     0     0     0     0     0     0     0     0     0     0     1     0     1     5     3     8     9    17    22    24    31    40    67    79   100   108   147   149   157   187   176   157   153   137   138   130    87    83    62    45    43    28    32    22    18    10     2     0     4     2
     1     1     2     0     0     1     0     0     0     0     0     0     0     0     0     0     0     0     0     0     0     0     0     0     0     0     0     0     0     0     0     0     0     0     0     0     0     0     0     0     0     0     0     0     0     0     0     0     0     0     0     0     0     0     0     0     0     0     0     0     0     2     1     3     2     5     7     5    22    22    30    45    53    65    95   104   130   142   142   185   163   171   189   160   159   130   110    90    64    77    43    37    33    35    12    16     5     2     1     7
     2     1     3     0     0     1     0     0     0     0     0     0     0     0     0     0     0     0     0     0     0     0     0     0     0     0     0     0     0     0     0     0     0     0     0     0     0     0     0     0     0     0     0     0     0     0     0     0     0     0     0     0     0     1     0     0     0     0     0     0     1     1     0     1     3     1     6     2    10    18    22    31    40    57    72   105   112   126   157   165   175   173   153   169   166   143   147   100    83    95    57    53    43    29    23    20    10     3     5     4
     4     2     0     0     1     0     1     0     0     0     0     0     0     0     0     0     0     0     0     0     0     0     0     0     0     0     0     0     0     0     0     0     0     0     0     0     0     0     0     0     0     0     0     0     0     0     0     0     0     0     0     0     0     0     0     0     0     0     0     1     1     0     1     1     0     1     0     2     5    12    20    20    30    46    61    73    76   102   101   156   168   169   169   162   142   159   123   106   115    83    85    80    54    42    31    17    26    11     3     3
     6     2     3     4     1     0     0     0     0     0     0     0     0     0     0     0     0     0     0     0     0     0     0     0     0     0     0     0     0     0     0     0     0     0     0     0     0     0     0     0     0     0     0     0     0     0     0     0     0     0     0     0     0     0     0     0     0     0     0     0     0     0     1     0     1     1     3     4     6     7    11    14    16    24    45    42    72    65   111   143   130   157   156   158   150   167   145   135   126    86   107    78    76    53    46    21    21    10     9     5
     9     6     7     2     0     1     0     0     1     0     0     0     0     0     0     0     0     0     0     0     0     0     0     0     0     0     0     0     0     0     0     0     0     0     0     0     0     0     0     0     0     0     0     0     0     0     0     0     0     0     0     0     0     0     0     1     0     0     0     0     0     0     0     0     0     1     0     2     4     7     7     9    11    30    25    41    35    69    97    86   122   131   157   147   169   147   156   119   120   127   117    89    74    70    59    34    28    27    13     6
    15    11     6     2     5     2     2     1     0     0     0     0     0     0     0     0     0     0     0     0     0     0     0     0     0     0     0     0     0     0     0     0     0     0     0     0     0     0     0     0     0     0     0     0     0     0     0     0     0     0     0     0     0     0     0     0     0     0     1     0     0     0     0     0     1     1     1     2     2     3     4     9     8    13    29    29    26    55    75    85    97   115   128   127   153   158   138   140   136   144   132   110    81    72    57    48    32    26    20     8
    15    11     3     2     1     1     1     0     1     0     0     0     0     0     0     0     0     0     0     0     0     0     0     0     0     0     0     0     0     0     0     0     0     0     0     0     0     0     0     0     0     0     0     0     0     0     0     0     0     0     0     0     0     0     0     0     0     1     0     0     0     0     0     0     0     1     1     2     1     5     4     5    11    18    20    24    30    30    52    55    75    92   117   137   124   153   127   145   156   151   134   142   109   105    74    61    41    27    25    17
    19    27    10     5     1     3     1     1     2     1     0     0     0     0     0     0     0     0     0     0     0     0     0     0     0     0     0     0     0     0     0     0     0     0     0     0     0     0     0     0     0     0     0     0     0     0     0     0     0     0     0     0     0     0     0     0     0     0     0     0     0     0     0     0     0     0     0     0     0     0     1     5     7    10    19    10    20    26    29    42    54    71   108   105   128   123   145   145   172   151   137   138   125   105    93    81    56    56    31    26
    29    19    16    12     5     2     4     1     1     1     0     0     0     0     0     0     0     0     0     0     0     0     0     0     0     0     0     0     0     0     0     0     0     0     0     0     0     0     0     0     0     0     0     0     0     0     0     0     0     0     0     0     0     0     0     0     0     0     0     0     0     1     0     0     0     0     1     0     0     1     1     3     0     4     4    16    16    17    22    37    41    57    83    95   101   116   114   140   165   183   173   148   149   128   113    83    79    53    45    49
    29    33    19    25     7     4     7     0     4     2     1     1     0     0     0     0     0     0     0     0     0     0     0     0     0     0     0     0     0     0     0     0     0     0     0     0     0     0     0     0     0     0     0     0     0     0     0     0     0     0     0     0     0     0     0     0     0     0     1     1     0     0     0     0     0     0     0     0     0     1     0     1     2     3     7     9     8    19    22    24    43    60    61    53    95    87   107   140   156   158   191   171   159   159   126   101   101    67    64    48
    58    39    32    19    16    19     9     4     3     1     1     1     1     0     0     0     0     0     0     0     0     0     0     0     0     0     0     0     0     0     0     0     0     0     0     0     0     0     0     0     0     0     0     0     0     0     0     0     0     0     0     0     0     0     0     0     0     0     0     0     0     0     0     0     0     0     0     1     0     0     1     0     2     4     4     5     9     8    21    18    30    39    44    71    73    89   114   123   153   152   149   160   175   162   126   129   110    90    71    80
    52    51    42    26    27    19    12    10     6     7     1     1     2     0     1     1     0     0     0     0     0     0     0     0     0     0     0     0     0     0     0     0     0     0     0     0     0     0     0     0     0     0     0     0     0     0     0     0     0     0     0     0     0     0     0     0     0     0     1     0     0     0     0     1     0     0     0     0     0     1     1     0     2     2     6     2    12     7    10    18    16    38    35    36    82    71    98   101   117   136   164   157   148   136   163   147   114   105    89    72
    75    60    52    28    34    24    19     9    10     2     4     5     1     2     1     0     0     0     0     0     0     0     0     0     0     0     0     0     0     0     0     0     0     0     0     0     0     0     0     0     0     0     0     0     0     0     0     0     0     0     0     0     0     0     0     0     0     0     0     0     0     0     0     0     0     0     0     0     1     0     0     1     0     3     1     2     9     2    12    13    11    28    32    45    39    57    74    98   109   121   147   151   169   181   156   146   112   116   100   110
    90    64    58    51    30    32    22    20    15     9     5     4     3     1     2     0     0     0     0     1     0     0     0     0     0     0     0     0     0     0     0     0     0     0     0     0     0     0     0     0     0     0     0     0     0     0     0     0     0     0     0     0     0     0     0     0     0     0     0     0     0     0     0     0     0     0     0     0     0     0     0     1     1     1     2     3     0     5     2    11    14    19    17    30    31    30    64    87    87    98   117   160   148   169   166   129   135   121    99    97
    97    82    74    66    41    34    31    21    11    13     3     4     3     2     2     0     1     0     0     0     0     0     0     0     0     0     0     0     0     0     0     0     0     0     0     0     0     0     0     0     0     0     0     0     0     0     0     0     0     0     0     0     0     0     0     0     0     0     0     0     0     0     0     0     0     0     0     0     0     0     0     1     1     1     0     2     1     2     4     8    11     9    18    17    31    40    40    81    66    87    86   143   130   138   143   133   134   132   127   109
   123   109    79    77    55    45    32    24    15    10    15     6     2     3     1     3     0     0     0     0     0     0     0     0     0     0     0     0     0     0     0     0     0     0     0     0     0     0     0     0     0     0     0     0     0     0     0     0     0     0     0     0     0     0     0     0     0     0     0     0     0     0     0     0     0     0     0     0     0     0     0     1     0     0     0     0     2     3     4     4     6     3    11    12    17    31    39    52    65    65   100   110   130   143   128   141   156   131   128   128
   138    95   104    87    78    56    46    32    24    18    11     6     3     2     4     3     1     1     1     0     0     0     0     0     0     0     0     0     0     0     0     0     0     0     0     0     0     0     0     0     0     0     0     0     0     0     0     0     0     0     0     0     0     0     0     0     0     0     0     0     0     0     0     0     0     0     0     0     0     0     0     0     0     0     1     0     0     1     0     3     0     8     9     4    19    19    31    50    37    54    83    84   114   117   118   136   145   135   126   113
   120   122   114   105    58    53    45    41    45    23    22    14     9     7     5     1     2     2     1     1     0     0     0     0     0     0     0     0     0     0     0     0     0     0     0     0     0     0     0     0     0     0     0     0     0     0     0     0     0     0     0     0     0     0     0     0     0     0     0     0     0     0     0     0     0     0     0     0     0     0     0     0     0     0     0     0     0     3     0     2     3     2     4     8    16    14    23    28    44    42    49    98    80   111   113   122   141   116   134   130
   130   127   148   134   107    77    70    56    29    38    23    14    21    14     7     3     4     3     2     0     0     0     0     0     0     0     0     0     0     0     0     0     0     0     0     0     0     0     0     0     0     0     0     0     0     0     0     0     0     0     0     0     0     0     0     0     0     0     0     0     0     0     0     0     0     0     0     0     0     0     0     0     0     0     0     0     0     1     0     1     2     2     3     5     5    13    16    24    24    39    60    57    76    80    93   113   111   167   136   145
