#lt      30.0
#count pbc
#dt      1.0
#dn      30
#edges  -27.1557089 -26.6125947 -26.0694805 -25.5263664 -24.9832522 -24.4401380 -23.8970238 -23.3539097 -22.8107955 -22.2676813 -21.7245671 -21.1814529 -20.6383388 -20.0952246 -19.5521104 -19.0089962 -18.4658821 -17.9227679 -17.3796537 -16.8365395 -16.2934253 -15.7503112 -15.2071970 -14.6640828 -14.1209686 -13.5778545 -13.0347403 -12.4916261 -11.9485119 -11.4053977 -10.8622836 -10.3191694  -9.7760552  -9.2329410  -8.6898268  -8.1467127  -7.6035985  -7.0604843  -6.5173701  -5.9742560  -5.4311418  -4.8880276  -4.3449134  -3.8017992  -3.2586851  -2.7155709  -2.1724567  -1.6293425  -1.0862284  -0.5431142   0.0000000   0.5431142   1.0862284   1.6293425   2.1724567   2.7155709   3.2586851   3.8017992   4.3449134   4.8880276   5.4311418   5.9742560   6.5173701   7.0604843   7.6035985   8.1467127   8.6898268   9.2329410   9.7760552  10.3191694  10.8622836  11.4053977  11.9485119  12.4916261  13.0347403  13.5778545  14.1209686  14.6640828  15.2071970  15.7503112  16.2934253  16.8365395  17.3796537  17.9227679  18.4658821  19.0089962  19.5521104  20.0952246  20.6383388  21.1814529  21.7245671  22.2676813  22.8107955  23.3539097  23.8970238  24.4401380  24.9832522  25.5263664  26.0694805  26.6125947  27.1557089
   100    86    87    90    79    67    75    69    62    65    48    55    33    48    46    29    40    20    23    22     4     8     9     5     7     7     3     2     2     2     3     1     0     0     0     0     3     0     0     1     0     0     0     0     0     0     0     0     0     0     0     0     0     0     0     0     0     0     0     0     0     0     0     0     0     0     1     0     1     0     1     2     1     3     1     4     7     7    11    12    14    16    13    26    28    28    30    42    44    48    49    63    61    70    71    81    86   116    90    91
    98    96    76    78    67    78    75    70    57    71    53    60    56    39    34    51    34    25    27    22    13     8    19     6     7     1     6     0     3     3     2     2     1     2     1     2     2     2     0     1     1     0     0     0     0     0     0     0     0     0     0     0     0     0     0     0     0     0     0     0     0     0     0     0     0     0     0     0     1     0     0     0     1     0     2     3     7     4     6    13     8    10    14    23    22    26    29    27    39    39    44    70    73    63    86    90    88    98    80    87
    91    83   104    78    87    72    84    75    71    79    72    60    52    50    42    37    38    26    33    21    25    21    10     7    14     5     2     4     2     2     2     0     2     3     2     1     2     1     1     0     0     0     0     0     0     0     0     0     0     0     0     0     0     0     0     0     0     0     0     0     0     0     0     0     0     0     0     0     0     0     0     1     2     1     1     0     3     7     7     8     9     8    16    18    25    31    32    29    41    44    37    51    64    80    82    76    87    81    93    94
    85    80    80    84    70    77    73    72    77    85    64    67    69    55    39    44    41    34    33    22    24    18    14    11     7    11     8     2     2     4     3     3     4     4     3     1     2     1     1     0     0     1     0     0     0     0     0     0     0     0     0     0     0     0     0     0     0     0     0     0     0     0     0     0     0     0     0     0     0     0     0     0     0     2     4     3     2     3     5     5     5    10    11    10    20    23    20    26    26    48    32    40    62    61    65    74    94   104    73    94
    73    78    67    79    69    95    82    82    84    90    83    80    60    67    58    48    59    33    31    25    27    21    19    18    10     9    19     6    10     2     2     3     3     1     4     1     1     3     0     1     0     0     0     0     0     0     0     0     0     0     0     0     0     0     0     0     0     0     0     0     0     0     0     0     0     0     0     0     0     0     0     0     1     0     3     1     1     3     4     5     3     4    11     7    15    13    28    28    32    39    35    37    46    46    57    58    52    77    69    78
    69    82    84    96    88    84    92    93    79    89    84    70    78    65    70    52    46    37    39    21    31    26    24    17    20    10     3     5     6     4     8     5     7     4     0     0     1     1     1     1     0     0     0     0     0     0     0     0     0     0     0     0     0     0     0     0     0     0     0     0     0     0     0     0     0     0     0     0     0     0     0     0     0     1     2     2     0     0     5     5     4     6     9     7    15    20    26    20    23    34    25    42    36    52    42    52    54    71    65    77
    72    69    91    65    69    82    87    75    98    81   101    79    62    66    76    56    44    51    32    30    39    33    30    10    18    21    10     6    10     4     6     1     4     2     3     1     1     5     0     1     1     0     0     0     0     0     0     0     0     0     0     0     0     0     0     0     0     0     0     0     0     0     0     0     0     0     0     0     0     1     0     0     1     0     0     1     1     2     1     7     7     5     4    10    10    13    16    18    18    32    34    26    21    41    45    56    58    59    56    61
    56    89    94    92    97    77    75    82    88    91    76    64    85    75    69    69    55    68    53    31    43    40    24    15    19    16    20    18    13     7     6     3     2     1     3     2     1     1     0     0     1     0     0     0     0     0     2     0     0     0     0     0     0     0     0     0     0     0     0     0     0     0     0     0     0     0     0     1     0     0     0     1     0     0     1     2     3     2     7     2     4     5     5     6     7    14    14    15    15    22    26    30    33    35    33    41    49    52    61    78
    73    57    83    65    69    88    67    72    83    73    80    88    80    72    74    65    66    60    44    43    43    43    43    37    26    23    18    13    12    12     7    12     6     3     0     2     2     5     1     2     1     1     0     2     0     0     0     0     0     0     0     0     0     0     0     0     0     0     0     0     0     0     0     0     0     0     0     0     0     0     0     2     2     0     2     1     0     1     1     1     0     1     3     7     8     7     5    13    14    16    21    15    30    37    39    42    34    46    56    61
    48    75    73    80    79    88    87    84    97    97    89    83    96    78    85    92    56    65    57    57    50    54    40    48    39    29    27    17    10    18    11     8     9     6     7     5     4     1     2     0     0     3     0     0     0     0     0     0     0     0     0     0     0     0     0     0     0     0     0     0     0     0     0     0     0     0     0     0     0     0     0     0     1     0     0     0     0     1     1     0     3     3     1     1     1     8     8     6     8     7    12    30    27    23    29    36    34    47    44    49
    71    57    65    67    79    87    67    84   103    88   108    95    96    79    77    79    59    70    85    58    56    63    54    45    47    49    28    30    17    19    13    12     9     8     3     3     3     0     3     1     2     4     1     0     3     2     2     1     0     0     0     0     0     0     0     0     0     0     0     0     0     0     0     0     0     0     0     0     0     2     1     0     0     0     0     0     0     2     0     1     1     1     0     2     6     9     4     4     4    13    11    18    20    22    28    31    36    40    40    51
    57    68    57    81    62    59    67    61    77    84   102    89    89    84   101    90    80    84    59    61    54    61    57    40    51    42    35    31    28    21    15    12     8    13     9     4     3     2     1     0     2     0     3     0     1     1     2     0     0     0     0     0     0     0     0     0     0     0     0     0     0     0     0     0     0     0     0     0     0     0     0     1     0     0     0     0     1     1     3     0     1     1     4     0     1     4     0     2     6     8    11    10    20    16    15    17    31    35    40    62
    51    51    63    64    56    78    58    60    67    98    91    89    74    88    90    89    85    65    75    74    68    76    58    63    47    38    44    31    16    17    20    16    14    12     4     4     5     3     3     2     3     1     1     1     0     1     0     1     1     0     1     0     0     0     0     0     0     0     0     0     0     0     0     0     0     0     0     0     0     0     0     0     0     0     0     2     0     1     0     1     1     0     1     1     1     1     2     7     5     6     4    10    18    12    27    27    26    34    40    52
    48    44    55    54    68    57    63    89    69    81    99    92   108    92    85    88    82    91    64    65    67    65    56    59    52    43    37    37    23    32    21    12    18     8     9    10     9     2     5     1     3     5     1     5     0     1     2     1     1     0     0     0     0     0     0     0     0     0     0     0     0     0     0     0     0     0     0     0     0     0     0     0     0     0     0     0     1     0     0     0     0     0     1     1     0     1     3     4     5     9     4    10     9    17    21    27    31    38    49    41
    35    45    44    48    68    67    71    67    75    78    94    92    79   100   102   105    84    91    85    82    62    55    77    71    54    49    56    57    30    30    36    19    14    19    10    10    11     3     2     5     6     1     1     1     3     1     0     0     1     0     0     0     0     0     0     0     0     0     0     0     0     0     0     0     0     0     0     0     0     0     0     0     0     0     0     0     0     1     0     0     0     0     0     2     0     3     1     3     4     7     8     6     7    18    15    20    22    23    26    33
    39    32    41    46    49    49    56    58    55    62    82    86    85    92   103    88    97    67    84    84    75    76    79    79    59    49    54    47    50    45    19    29    28    21    17    14     8     4     5     7     3     4     1     4     1     1     2     0     0     0     0     0     0     0     0     0     0     0     0     0     0     0     0     0     0     0     0     0     0     0     0     0     0     0     0     0     1     0     0     0     0     0     0     1     1     0     2     3     3     6     6     4     8    12    15    19    18    27    23    34
    33    25    47    43    32    53    56    55    49    74    63    81    94    77    95    87    80    84    71    66    84    63    64    87    67    61    62    41    59    38    39    31    30    13    15    13    13    10     4    12     3     7     2     1     2     4     1     0     2     0     0     0     0     0     0     0     0     0     0     0     0     0     0     0     0     0     0     0     0     0     0     0     0     0     1     0     0     0     0     0     0     0     0     0     0     2     3     1     4     8     5     7     6    10    14    13    19    21    22    28
    25    26    37    31    31    47    38    59    60    57    86    74    72    73   103    70    90    80    91    63   102    85    76    52    69    57    52    55    47    37    39    29    27    31    23    30    16    11    11    12    11    10     6     5     2     0     1     2     0     2     0     0     0     0     0     0     0     0     0     0     0     0     0     0     0     0     0     0     0     0     0     0     0     0     0     0     0     0     0     0     0     0     0     0     1     0     2     5     1     4     3     4     7    12    10    12    11    10    16    18
    17    27    27    33    31    38    39    45    49    69    68    72    65    77    72    80    82    71    91    73    80    77    92    69    80    62    69    59    52    48    50    48    30    40    17    19    25    13    12     7     7     6    10     2     1     3     1     1     0     0     1     0     1     0     0     0     0     0     0     0     0     0     0     0     0     0     0     0     0     0     0     0     0     0     0     0     0     0     0     0     0     0     0     0     0     0     1     1     0     3     1     4     5     4     5     7    13    17     7    13
    19    20    30    30    29    33    34    40    35    59    60    54    67    67    85    72    88    92    77    79    82    76    81    80    71    53    68    50    56    49    54    34    41    32    32    23    20    24    23    16    13    18     7    10     5     2     2     2     0     1     1     1     0     0     0     0     0     0     0     0     0     0     0     0     0     0     0     0     0     0     0     0     0     0     0     0     0     0     0     0     0     0     0     0     0     0     1     1     1     0     1     1     0     7     1     6    14     5    11     9
    17    18    20    24    30    35    35    45    39    51    50    44    84    74    69    76    64    77    78    80    89    84    86    67    71    84    71    57    76    64    55    57    50    30    41    21    29    26    24    21    12    14    15     8     4     4     3     1     0     5     0     1     0     0     0     0     0     0     0     0     0     0     0     0     0     0     0     0     0     0     0     0     0     0     0     0     0     0     0     0     0     0     0     0     0     0     0     0     0     2     0     2     2     1     2     2     7     5    10    21
    11    10    18     6    15    24    23    40    34    34    51    47    66    82    55    83    68    73    84    82    91   101    85    87    89    58    59    68    70    67    45    65    48    46    45    44    21    24    22    27    17    15    11     3     9     5     3     2     4     1     1     0     0     1     1     0     0     0     0     0     0     0     0     0     0     0     0     0     0     0     0     0     0     0     0     0     0     0     0     0     0     0     0     0     0     0     1     0     0     1     0     3     1     1     0     2    10     9     6     7
     7    12     5    20    21    23    30    32    37    44    54    56    47    63    74    58    61    73    80    91    84    68   104    84    77    93    75    75    65    63    59    60    50    55    49    45    48    36    32    38    15    20    13     9     9     6     4     7     4     4     0     3     1     1     1     1     1     1     1     0     0     0     0     0     0     0     0     0     0     0     0     0     0     0     0     0     0     0     0     0     0     0     0     0     0     0     0     0     0     1     1     0     1     1     5     2     6     8     5     7
     3    11     8    12    21    26    23    25    26    35    42    40    47    53    63    51    71    64    83    97    91    63    89    75    63    91    78    74    69    81    76    57    61    50    40    38    28    37    30    22    24    18    20    17    15     8    13     7     6     7     6     1     3     1     1     4     1     0     0     1     0     0     0     0     0     0     0     0     0     0     0     0     0     0     0     0     0     0     0     0     1     0     0     0     0     0     0     0     0     0     0     1     0     1     2     2     0     2     6     3
     3     9     8    13    14    11    16    24    27    24    42    44    42    63    51    62    59    88    64    77    69    69    78    76    63    85    92    78    70    79    63    69    71    64    54    57    39    47    42    27    27    25    20    15    16    13     9    13     3     4     1     1     3     3     3     1     1     0     0     1     0     1     0     0     2     0     0     0     0     0     0     0     0     0     0     0     0     0     0     0     0     0     0     0     0     0     0     2     0     1     1     1     1     0     0     0     4     3     1     3
     8     8     5     8    10    20    16    21    27    31    28    42    66    57    58    54    63    66    50    82    85    71    82    72    80    94    89    85    99    76    52    75    70    56    52    44    47    50    35    43    24    20    25    21    21    14    13    13     5     5     5     3     5     3     2     0     0     0     0     0     1     0     0     0     0     0     0     0     0     0     0     0     0     0     0     0     0     0     0     0     0     0     0     0     0     1     0     0     0     2     0     0     1     0     2     1     3     1     3     4
     7    10     7     4    14    10    19    26    18    18    28    26    36    46    59    58    64    62    70    69    75    60    60    82    76    76    82    81    94    70    73    77    82    80    58    48    53    45    40    26    36    36    26    16    13    21    14    19     8     2     9     6     5     2     0     1     0     0     0     0     0     1     1     0     0     0     0     0     0     0     0     0     0     0     0     0     0     0     0     0     0     0     0     0     0     0     0     0     0     1     0     0     1     1     1     0     2     1     6     7
     4     4     5     5     5    11    12    13    24    21    33    32    35    39    34    43    55    62    55    68    67    61    59    68    82    82    92    81    75    82    70    58    71    78    77    52    60    44    52    52    37    27    35    22    28    17    18    14    16     7     7    10     5     4     2     2     1     2     0     1     0     0     0     0     0     0     0     0     0     0     0     0     0     0     0     0     0     0     0     0     0     0     0     0     0     0     0     0     0     0     1     0     2     3     0     1     1     2     3     0
     3     4     6     5     9     9     9    21    17    23    22    25    22    38    35    37    38    37    36    57    53    56    78    61    83    79    76    72    94    65    79   101    80    64    62    75    70    53    56    53    51    38    35    27    28    27    26    23    13     8    10    10     4     4     3     2     2     5     1     0     1     0     1     0     1     0     0     0     0     0     0     0     0     0     0     0     0     0     0     0     0     0     0     0     0     0     0     0     0     0     0     1     1     0     3     1     3     2     1     3
     4     1     7     3     7     9     6     6    19    19    20    21    20    31    31    51    51    43    32    47    39    64    55    58    64    72    87    70    81    78    81    93    79    99    68    72    70    69    48    56    45    41    42    44    22    27    28    18    17    18    16     6     2     3     6     2     4     0     0     2     1     0     1     0     0     0     0     0     0     0     0     0     0     0     0     0     0     0     0     0     0     0     0     0     0     0     0     0     0     0     1     0     0     1     1     2     2     0     1     1
     1     2     1     2     4     8     7     9    15    14    12    12    18    24    19    27    24    33    40    39    36    54    59    59    74    89    66    87    76    82    79    84    95    82    69    92    75    57    58    53    43    47    46    41    42    25    31    17    14    13    17    11     3     7     3     3     0     1     2     2     1     0     0     0     0     0     0     0     0     0     0     0     0     0     0     0     0     0     0     0     0     0     0     0     0     0     0     0     0     0     0     0     0     0     2     2     1     0     0     1
     2     1     2     3     7     2     8    11    10    11     9    11    12    13    24    31    28    43    53    54    52    50    60    62    71    71    61    69    72    76    77    90    80    93    91    92    77    79    59    55    60    67    51    53    36    36    34    29    24    19    20    15     8     9     5     2     4     5     2     1     0     1     0     0     1     0     0     0     0     0     0     0     0     0     0     0     0     0     0     0     0     0     0     0     0     0     0     0     0     0     0     0     0     0     0     0     0     0     1     2
     0     1     0     3     6     5     7     5     8    13    12     6    12    19    19    28    16    41    39    31    45    48    69    54    70    81    72    72    86    76    75    93    95    89    94    85    81    63    82    67    62    54    50    32    42    47    32    19    23    36    20    20    16     8    11     4     7     6     1     1     2     1     0     1     0     0     1     0     0     0     1     0     0     0     0     0     0     0     0     0     0     0     0     0     0     0     0     0     0     0     0     0     0     0     0     1     1     0     1     0
     1     0     3     1     3     4     2     7    12     3    12     7    12    13    23    20    26    13    29    36    37    45    56    56    61    71    66    70    75    93    65    86    92    99    93    92    84    96    93    80    52    47    62    64    47    49    43    46    26    17    20    18    17    15    11     8     7     3     1     3     0     2     2     0     2     0     1     0     0     0     0     1     0     0     0     0     0     0     0     0     0     0     0     0     0     0     0     0     0     0     0     0     0     0     0     2     1     0     0     0
     0     1     2     1     0     2     4     6     9     6    12    11    10    19    17    17    17    20    23    31    35    43    50    55    52    59    65    55    63    71    83    86    87    83    95   108    74    78    62    72    65    71    63    59    62    47    33    36    35    32    31    23    11    11    13    22     9     6     6     5     2     1     1     2     0     2     0     2     0     2     0     1     0     0     0     0     0     0     0     0     0     0     0     0     0     0     0     0     0     0     0     0     0     0     1     0     0     1     0     0
     0     0     2     0     1     1     4     7     1     6     9    10    14    17    16    17    15    20    13    29    25    37    43    57    61    59    56    81    77    81    98    84   106   107    83   100    92    80    81    69    79    86    77    78    71    54    47    51    49    27    31    22    26    25    11    11    13     8     8     3     7     6     1     0     0     2     1     0     0     2     1     0     1     0     0     0     0     0     0     0     0     0     0     0     0     0     0     0     0     0     0     0     0     0     0     0     0     0     0     0
     0     0     1     0     2     2     2     4     7     1     3     9     7    13    10    16    18    14    14    21    28    27    32    46    47    45    61    67    64    77    56    79    85    71    89   100    95    84    93    90    94    81    79    66    68    58    66    58    41    34    32    25    24    27    19    21    14    12    13    11     6     8     4     2     1     2     2     2     0     1     1     0     0     0     0     0     0     0     0     0     0     0     0     0     0     0     0     0     0     0     0     0     0     0     0     0     0     0     1     0
     0     0     0     0     1     1     2     1     0     5     2     2     6     6     7     9    13    16    13    22    20    26    21    44    40    46    50    64    52    65    77    77    80    82    82    97   104    89    98    86    67    68    82    83    81    74    66    56    42    30    33    36    33    20    20    22    23    14    13    12     5     6     8     2     1     3     1     0     0     3     0     2     0     0     0     0     1     0     0     0     0     0     0     0     0     0     0     0     0     0     0     0     0     0     0     0     0     0     0     0
     0     0     1     0     1     0     0     0     2     2     5     4     3     7     8     8    15    15    10    12    18    22    27    32    37    43    41    38    55    64    57    69    72    72    80    95   110    86    85    74   110    82    88    88    58    75    80    60    46    52    28    44    50    42    33    34    25    19    31    16    11     6     2     1     4     1     5     1     2     1     1     0     0     0     0     0     0     0     0     0     0     0     0     0     0     0     0     0     0     0     0     0     0     0     0     0     0     0     0     0
     0     0     1     1     0     1     1     1     1     1     2     2     1     3     6     6     5     3    16    10    16    20    26    19    27    33    43    46    52    37    51    71    63    65    70   109    88    89    98    75    80    91    85    73    92    79    78    70    65    75    38    52    41    46    30    38    20    35    31    22    11     9     6    11     5     4     3     3     3     3     0     0     1     0     0     0     0     0     0     0     0     0     0     0     0     0     0     0     0     0     0     0     0     0     0     0     0     0     0     0
     0     0     0     0     0     0     1     0     0     1     1     1     4     7     4     5    10     5     6    10    20    11    23    27    15    22    31    43    33    48    48    56    54    80    69    98    98    91    94    82    88    73    89    88    94    80    84    74    66    59    53    62    55    51    45    35    34    34    23    23    14    16     9     6     4     7     9     1     2     1     2     2     3     0     1     1     1     0     0     0     0     0     0     0     0     0     0     0     0     0     0     0     0     0     0     0     0     0     0     0
     0     0     0     0     0     0     1     0     0     1     0     3     1     5     8     5     6     7     9     8    10     7    17    17    25    35    19    44    35    49    42    47    52    75    61    77    81    85    92    85    92   103    96    76    77    90    98    79    77    61    63    73    52    57    47    42    40    34    24    26    21    16    10     8     5     5     6     5     5     3     0     3     2     1     1     2     1     0     0     0     0     0     0     0     0     0     0     0     0     0     0     0     0     0     0     0     0     0     0     0
     0     0     0     0     0     0     0     0     0     0     0     2     1     2     4     2     6     7     8    12     5    10     8    12    16    20    33    25    22    41    41    56    45    46    69    69    83    96    95    83    88   101    96    95    91    90    88    73    83    94    90    70    64    56    63    59    50    37    38    39    32    24    15    10     5     5     7     4     1     1     1     2     1     1     1     0     1     1     0     1     1     0     0     0     0     0     0     0     0     0     0     0     0     0     0     0     0     0     0     0
     0     0     0     0     0     0     0     0     0     1     0     2     0     2     3     2     1     5     6     2    14    15     9    10    12    13    20    17    25    27    32    34    46    50    75    65    74    75    86    99    91    79   106    86   106    88    81    90    79    70    80    89    59    70    64    56    51    58    34    43    37    16    11    12    13     5     9     5     7     3     5     3     2     2     1     2     0     0     0     1     0     1     0     1     0     0     0     0     0     0     0     0     0     0     0     0     0     0     0     0
     0     0     0     0     0     0     0     0     0     0     0     2     0     2     1     1     3     2     4     3     7     9     7    11    15    11    16    22    21    26    30    32    52    69    55    67    68    78    74    96    91    74    98    96    74   105   102    86    96    89    94    76    71    62    55    49    50    45    46    38    26    22    19    13    13    15     6     8     6     7     5     4     2     2     1     1     0     0     0     1     1     0     0     0     0     0     0     0     0     0     0     0     0     0     0     0     0     0     0     0
     0     0     0     0     0     0     0     0     0     0     0     0     0     0     0     0     1     1     4     7     5     6     4     6     8    12    18    25    21    23    28    39    31    40    50    73    69    61    76    71   102    81   102    93    99   100    92    79    94    95   106    79    75    83    56    55    68    50    49    40    42    28    26    15    18    16     7     7     6     5     4     3     5     2     1     1     5     0     1     0     1     0     0     0     0     2     0     0     0     0     0     0     0     0     0     0     0     0     0     0
     0     0     0     0     0     0     0     0     0     0     0     1     1     1     1     1     3     3     7     0     5     5    10    12     3    20    12    19    26    17    30    39    26    32    45    57    46    63    63    77    90    84    95    97   113    87    90    78    88   118    92    95    86    78    70    74    76    66    55    42    33    29    31    31    18     6    11    10    13     5     8     4     3     4     4     1     0     0     0     0     0     0     0     0     0     0     0     0     0     0     0     0     0     0     0     0     0     0     0     0
     0     0     0     0     0     0     0     0     0     0     0     0     0     0     0     1     0     0     1     5    10     3     4     5    10    11    10    21    16    17    20    24    33    41    46    64    59    53    55    74    69    78    87    95    85    92    98    97   108    87   115   101    78    82    78    77    78    58    55    50    50    38    42    24    17    12    15    12     9     3     7     6     7     3     1     1     0     1     0     0     0     0     0     0     1     0     0     0     0     0     0     0     0     0     0     0     0     0     0     0
     0     0     0     0     0     0     0     0     0     0     0     0     0     0     1     0     2     1     2     2     0     9     3     5     4    12    15    10    19    18    24    26    31    40    28    47    41    56    79    79    70    71    81    74   105    91    90    97    94    80   105    82    82    95    86    81    62    68    60    44    52    45    37    37    19    21    18    23    10    10     2     7     3     3     0     3     3     3     0     0     0     1     2     0     0     0     0     0     0     0     0     0     0     0     0     0     0     0     0     0
     0     0     0     0     0     0     0     0     0     0     0     0     0     0     0     0     0     0     1     1     2     4     3     3    11    10     5    14    17     9     9    19    27    23    39    41    36    52    45    62    76    71    72    67    89    92    86    94   104   111    87    97    80    91    76    94    73    78    64    51    74    46    45    34    42    25    21    18    21     6    11     7     4     3     3     2     2     1     2     2     1     2     2     3     0     0     0     0     1     0     0     0     0     0     0     0     0     0     0     0
     0     0     0     0     0     0     0     0     0     0     0     0     0     0     0     0     0     0     2     1     2     2     1     1     4    10     9     7    10    24    22    17    21    16    41    28    41    42    54    66    43    72    75    70    84   105    95   102    77    99   104    94    80   101   101    82    68    97    74    64    70    62    48    56    37    37    37    25    23    16     9     6    11     7     4     7     5     4     1     2     1     1     2     4     0     1     0     0     0     0     0     0     0     0     0     0     0     0     0     0
     0     0     0     0     0     0     0     0     0     0     0     0     0     0     0     0     0     0     0     0     1     2     3     0     4     2     2     7     5    13    12    12    10    26    23    21    43    35    44    43    61    49    67    64    79    85    93    98    92    82    87   106    88    94    86   105    76   107    87    70    89    64    67    58    45    40    45    41    34    17    15    14     6     2    10     6     1     3     1     2     0     0     7     1     0     2     2     0     0     0     0     0     0     0     0     1     0     0     0     0
     0     0     0     0     0     0     0     0     0     0     0     0     0     0     0     0     0     0     0     0     0     2     3     1     1     2     4     5     8     6    12     8    16    12    19    24    27    29    34    44    55    49    57    74    74    78    82    82    81    71    92    70    83    86   114    88    79    91    91    94    80    85    78    64    56    51    43    39    25    19    19    12     9    12     6     3     6     2     3     0     3     0     2     1     2     1     0     0     0     0     0     0     0     1     0     0     0     0     0     0
     0     0     0     0     0     0     0     0     0     0     0     0     0     0     0     0     0     0     0     0     0     0     0     2     2     3     6     4     4     4     9    10    13    11    15    15    19    36    27    39    43    51    61    74    56    75    74    85    89    78    86   104    73   101   104    97   105   105   106   120    92    81    78    70    61    57    42    43    46    26    28    15    22    10     9     7     6     3     2     1     3     5     1     2     2     1     1     2     1     1     0     0     0     0     0     1     1     0     0     0
     0     0     0     0     0     0     0     0     0     0     0     0     0     0     0     0     0     0     0     0     0     2     0     0     1     3     3     6     7     5     3     9     4    13    15    12    16    33    40    32    31    51    41    48    59    46    56    77    65    73    88    91   114    88    94   116    96   112   104   117   111   101    91    91    67    65    60    37    49    27    29    32    23    14    13    14     5     4     6     3     4     4     1     3     1     1     2     2     0     0     0     1     0     1     0     0     1     1     0     0
     0     0     0     0     0     0     0     0     0     0     0     0     0     0     0     0     0     0     0     0     0     0     0     0     0     3     3     3     0     3     4     4     7     9     8    20    11    22    31    30    35    51    52    58    51    75    68    76    75    91    95    97    84   119   121   124   114   105   106    90   102    89    98    80    70    65    60    39    50    29    35    33    21    16    19    11     5     8     9     5     4     6     2     1     2     2     1     2     2     1     0     0     0     0     0     0     1     0     1     0
     0     0     0     0     0     0     0     0     0     0     0     0     0     0     0     0     0     0     0     0     0     0     0     0     3     1     3     3     2     3     4     7     5     7     4    12    11    19    13    18    31    38    47    51    48    49    62    57    66    77   100    80   107    98   113   103   102   112   100   100    99   113    91    86    69    72    55    43    51    28    30    39    28    22    20    17    11     9     6     0     7     8     4     6     3     0     2     1     0     1     0     0     0     1     0     1     0     0     0     0
     0     0     0     0     0     0     0     0     0     0     0     0     0     0     0     0     0     0     0     0     1     1     2     0     1     1     2     2     4     0     4     4     7     8     7    10    14    21    22    20    31    32    31    36    45    51    54    60    79    94    88    90    70    86   104    99   103   101   100    95   112    98    85   108   100    79    85    52    51    44    51    43    36    22    20    27    16    12    11     5     9     5     7     2     6     3     2     1     1     0     0     0     0     1     0     1     0     0     0     0
     0     0     0     0     0     0     0     0     0     0     0     0     0     0     0     0     0     0     0     1     1     0     1     3     1     1     0     1     2     0     3     3     4     7     3    11     8    12    10    16    26    28    29    37    31    41    42    61    61    82    78    81   105   102   109   122   103   114   103    95   109   118   103    73    81    87    72    77    59    47    46    42    41    36    33    32    26    15     7    13     7     8     8     2     0     3     2     2     1     1     0     0     0     0     1     0     0     0     0     0
     0     0     0     0     0     0     0     0     0     0     0     0     0     0     0     0     0     0     0     1     2     0     0     0     0     1     1     0     1     2     1     1     2     4     4    11     5     6    17    17    27    25    25    24    32    29    46    59    65    57    67    74    86   100   104    96   104    89   103   107   125   105   102    92    82    86    97    67    72    60    51    40    45    35    27    29    23    21    18    18    11     5     4     8     2     8     1     2     0     3     1     1     1     0     0     1     0     0     0     0
     0     0     0     0     0     0     0     0     0     0     0     0     0     0     0     0     0     0     0     1     0     0     0     0     0     1     0     0     0     0     1     1     1     5     6     4     9     4     9    14    12    30    26    34    30    34    48    47    61    54    72    75    81   120    89   113    95    96   115   111   105   104   104    87   106    90    79    96    88    74    62    62    53    35    50    32    27    25    18    14     8    11     5     5     7     6     7     5     2     2     2     1     1     1     0     0     1     0     0     0
     0     0     0     0     0     0     0     0     0     0     0     0     0     0     0     0     0     0     0     0     0     1     1     0     0     0     0     0     0     0     1     0     0     4     4     5     3     3     9    13    16    27    15    18    18    27    43    53    59    61    62    69    75    80    68    90    88   102   113   110   126   104    95   101   106    97    83    85    94    63    72    68    51    45    47    35    25    27    27    23    13     9    12     7     6     5     2     5     1     3     0     0     1     1     2     0     0     0     0     0
     0     0     0     0     0     0     0     0     0     0     0     0     0     0     0     0     0     0     0     0     0     1     0     0     0     0     0     0     1     0     1     0     4     0     3     3     4     6     7     7    10    15    13    16    17    28    26    42    44    46    67    60    63    73    90    73    89    85   101    89   110   119    91   104   112    94   111    91   100    83    84    83    67    61    60    37    45    27    23    22    17    12    12     7     2     8     6     9     3     3     0     0     3     0     0     0     0     0     0     0
     0     0     1     0     0     1     0     0     0     0     0     0     0     0     0     0     0     0     0     0     0     0     0     0     0     0     0     0     0     0     1     1     1     1     1     3     2     5    11    11     5    12    12    24    19    26    38    32    42    42    39    49    44    65    79    70    83    81    95    84   113    97    99   100   116    90    93   101    93    71    65    66    80    74    67    46    44    37    24    33    20    21    15    13     6     9     7     2     3     1     2     2     0     1     1     0     0     0     1     0
     0     1     0     1     0     0     0     0     0     0     0     0     0     0     0     0     0     0     0     0     0     0     0     0     0     0     0     0     0     0     0     0     0     2     0     1     2     4     5     4     6    11    14    16    15    19    20    23    30    30    28    50    46    42    63    65    75    94    94   103    91    91   106    98    82    83    96    95   108    73    99    79    81    77    63    54    45    41    37    16    20    29    14    16    15     9     8     3     6     3     0     2     2     2     0     2     0     1     0     0
     0     0     0     1     0     0     0     0     0     0     0     0     0     0     0     0     0     0     0     0     0     0     0     0     0     0     0     0     0     0     0     0     0     1     0     2     0     0     5     4     9    11     9     8    14    18    21    22    30    23    31    43    43    38    53    72    55    72    85    99   100    83   108   100    81    91   105    91    88    88    90    88    75    77    80    72    59    48    44    45    24    21    20    20    14    14     5     7     6     6     3     1     2     1     0     1     0     0     1     1
     0     1     3     1     0     0     0     0     0     0     0     0     0     0     0     0     0     0     0     0     0     0     0     0     0     0     0     0     0     0     0     1     0     1     0     2     2     0     0     2     3     6    12    14     9    10    12    27    21    26    36    39    52    49    53    55    76    68    71    70    78    88    88   116   102    97    84    91    92    79    88    88    74    71    62    90    48    56    48    37    29    32    27    21    17    11    13    12     6     5     4     4     2     2     2     0     1     1     0     1
     0     1     0     0     0     0     0     0     0     0     0     0     0     0     0     0     0     0     0     0     0     0     0     0     0     0     0     0     0     0     0     0     0     0     0     0     2     0     0     1     5     7     6     8     6    16    13    19    23    13    18    32    35    48    50    54    75    54    75    74    65    80    99    97    87   106    89    91   103    86    89   100    90    93    68    68    71    61    46    43    36    30    28    23    18    18    14    10     8     9     1     5     5     2     1     1     2     0     1     0
     1     0     3     1     1     0     0     0     0     0     0     1     0     0     0     0     0     0     0     0     0     0     0     0     0     0     0     0     0     0     0     1     1     0     0     0     0     1     2     1     3     1     3     9     7    12    19    13    16    17    26    27    32    38    40    52    55    52    67    70    71    90    93    86    86    87    91   104    85   102   100    99   103    82    91    85    63    56    58    46    42    42    54    32    20    24    16    13    11     8     5     7     2     3     6     3     2     1     1     1
     2     2     0     2     0     1     0     0     0     1     0     0     0     0     0     0     0     0     0     0     0     0     0     0     0     0     0     0     0     0     0     0     0     0     0     0     1     0     1     3     2     0     3     2     6     6     8     9    10    22    14    14    23    30    41    52    36    49    50    54    70    59    76    69    81    85    78    95    88   100    87    93    91    84    87    68    68    52    56    41    41    47    45    39    36    26    27    16    13    18     7     8     2     7     4     4     2     0     1     0
     2     3     3     0     2     1     0     0     0     0     0     0     0     0     0     0     0     0     0     0     0     0     0     0     0     0     0     0     0     0     0     0     0     0     0     1     0     0     0     1     2     2     1     5     3     1     8     7     4    11    26    10    31    22    38    33    38    39    49    67    48    64    93    88    92    85    71    81    76   106    92    97   109    90    94    88    77    72    66    65    60    52    43    41    39    41    28    28    19    12    12     4    14     7     5     3     3     5     4     2
     1     1     1     1     1     1     0     0     0     1     0     0     0     0     0     0     0     0     0     0     0     0     0     0     0     0     0     0     0     0     0     0     0     0     0     0     0     1     0     0     0     0     1     3     5     3     4    10    12     8    13    13    20    19    26    34    27    41    45    43    65    56    63    85   102    77    83   100    85    79   111    84    89   105   104    96    99    86    57    72    69    65    58    51    32    38    26    21    22    18    13    19     8    11     8     6     5     6     5     5
     2     1     1     1     1     1     1     0     1     2     0     0     0     0     0     0     0     1     0     0     0     0     0     0     0     0     0     0     0     0     0     0     0     0     0     0     0     0     0     0     0     1     1     3     8     0     6     7     4    11    12    13    12    15    15    24    29    31    34    30    52    66    69    76    75    78    61    65    79    85   103    92   105   105    89    95    90    84    79    73    82    64    71    54    57    48    34    34    19    27    11    16     7     8    10     6     7     6     1     2
     2     2     1     1     3     0     0     1     0     4     2     0     0     0     0     0     0     0     1     0     0     0     0     0     0     0     0     0     0     0     0     0     0     0     0     0     0     0     0     1     0     2     0     4     3     4     1     4     6     5     8     9    17    22    17    24    20    28    30    33    45    70    82    57    61    66    71    81    76    91    92    88    97    96    99    93    96    87   109   101    70    62    58    59    57    42    49    37    24    27    20    21    17    21    16     4     6     4     6     1
     2     1     2     1     1     1     0     0     0     1     0     0     0     0     0     0     0     0     0     0     0     0     0     0     0     0     0     0     0     0     0     0     0     0     0     0     0     0     0     0     0     1     1     4     0     2     1     6     6     8     5    11    10    10    14    24    14    17    29    34    39    59    55    47    43    71    77    82    74    81   102    91    95    90    79    98    84    99   104    90    83    68    69    63    65    57    48    50    37    44    31    27    21    17    13    11    11     6     9     4
     7     5     5     3     1     2     0     1     0     2     4     1     2     0     0     0     0     0     0     0     0     0     0     0     0     0     0     0     0     0     0     0     0     0     0     0     0     0     0     1     0     1     2     4     1     2     2     4     5     1     3     1    11     5    11    14    13    17    18    20    38    38    44    53    45    72    55    78    82    73    84    84    80   103    89   113   102   107    94   103   104    92   105    67    84    65    52    46    41    37    29    27    19    15    20     8     5     6     5     5
     5     6     2     7     5     4     3     4     0     0     0     0     0     1     0     0     0     0     0     0     0     0     0     0     0     0     0     0     0     0     0     0     0     0     0     0     0     0     0     0     0     2     2     2     0     2     2     1     3     5     2     5     8     6    11     9     5    13    14    31    28    34    40    44    45    63    57    60    77    65    82    84    81    95    88    95    78    96   113    96    90    89    78    94    73    57    53    46    52    47    37    26    17    28    19    13    14     7    10     8
     6    10     5     7     3     2     4     0     0     1     0     0     2     0     0     1     0     0     1     0     0     0     0     0     0     0     0     0     0     0     0     0     0     0     0     0     0     0     0     0     0     2     0     3     0     0     1     7     4     4     2     2     6     5     2     8     8    17    14    22    22    25    27    30    40    56    51    52    68    93    87    80    81    81    91    91   103    95   114    98   103    93    89    82    96    63    64    75    55    59    30    39    24    30    28    24    15    10     9    12
    10     7     3     4     6     4     4     5     0     0     1     1     1     1     0     0     0     0     0     0     0     0     0     0     0     0     0     0     0     0     0     0     0     0     0     0     0     0     0     0     0     0     0     0     0     0     0     0     3     2     3     1     4     5     4     5    12    12    16    15    24    23    21    35    33    52    53    60    65    61    76    74    75    95    82   107   115   116    97   121   111   105    86    98    78    71    75    55    59    53    49    40    35    26    27    25    16    12    14    12
    10     9     8     6     3     4     4     5     0     3     0     0     2     1     0     0     1     0     0     0     0     0     0     0     0     0     0     0     0     0     0     0     0     0     0     0     0     0     0     0     0     0     1     0     0     0     0     1     1     1     1     2     4     3     4     5     4    13    11     9    15    15    23    27    38    45    51    40    57    58    68    96    72    84    93   106    87   106   121    94    90    92   113    84    95    78    83    65    57    57    52    29    35    30    30    17    21    22     9     9
     8    11    13    10     6     5     4     5     1     0     1     0     1     0     2     0     1     1     2     0     0     0     0     0     0     0     0     0     0     0     0     0     0     0     0     0     0     0     0     0     0     1     0     1     0     0     0     2     0     2     2     3     2     2     4     3     2    11     7     7    20    19    25    15    30    34    36    45    51    55    49    72    79    89    90    77   104    91    96    97   110    91    93   111    78    94    83    68    48    60    53    52    42    39    31    33    17    21    12    15
    16    10    14     8     5     8     6     5     1     4     3     2     3     1     1     1     2     0     0     0     0     0     1     1     0     0     0     0     0     0     0     0     0     0     0     0     0     0     0     0     0     0     0     0     0     0     1     0     0     2     2     0     2     3     6     2     4     5     6    11     9    10    18    14    16    26    37    41    43    51    54    74    70    81    69    80    80   113   101   118   117    99   106    78    87    90   103    76    76    65    44    54    47    38    26    30    35    17     6    17
     8    13    11     8     7     8     6     2     2     2     2     2     0     1     1     1     0     0     0     0     1     0     1     0     0     1     0     0     0     0     0     0     0     0     0     0     0     0     0     0     0     0     0     0     0     0     0     1     0     0     3     4     3     3     3     1     6     3     6     6     7     9    13     9    23    23    20    42    39    46    53    52    47    82   103    79    79    95   103   105   105   116   108    82    99    95    75    80    77    49    66    78    51    45    29    31    33    27    18    24
    14    18    17     9    19     5     8     6     6     1     4     1     1     3     2     1     1     0     0     0     0     0     0     0     0     1     0     0     0     0     0     0     0     0     0     0     0     0     0     0     0     0     0     0     0     1     0     0     0     2     0     2     1     5     4     4     3     3     6     4     5     7     8    15    14    12    24    29    29    39    44    51    66    66    75    61    76    94    96    95    91   109    96    86    86    94    88    81    92    88    72    61    53    50    39    29    37    22    22    14
    17    22    21    22    14    11     5     8     6     5     4     2     3     3     0     3     0     1     2     2     2     1     0     1     0     0     0     0     0     0     0     0     0     0     0     0     0     0     0     0     0     0     0     0     0     0     0     0     1     1     2     0     1     6     3     4     3     1     5     3     5     7     7     6     7    20    29    23    29    28    45    44    38    65    63    90    62    82    88    80    95   100    86   101   101    90    88    88    70    80    87    55    72    58    36    44    41    42    34    30
    29    18    19    17    21    17    12    10    11     4     0     5     1     5     1     1     0     5     1     2     1     0     1     0     0     0     0     0     0     0     0     0     0     0     0     0     0     0     0     0     0     0     0     0     0     0     0     0     0     1     0     0     0     0     2     1     2     5     3     3     1     2     2     8     8    14    18    23    19    20    35    43    42    57    49    52    71    81    72    89    90    91   102    95    96   120    84    88    97    88    83    75    61    63    61    53    50    40    34    26
    35    27    23    24    18    14    11    16     5     5     6     5     0     2     3     2     1     1     1     0     1     1     0     1     0     0     1     0     0     0     0     0     0     0     0     0     0     0     0     0     0     0     0     0     0     0     0     0     0     1     0     0     0     3     0     2     1     1     2     5     2     4     5     8     5    13    15    14    24    28    21    41    38    57    40    37    65    77    74    80    71    86    84    85    93    98    93    84    96   100    84    97    74    68    65    48    59    45    44    40
    30    32    36    39    20    29    17    15    10     9     7     9     6     0     1     1     2     1     2     2     0     3     0     1     0     1     0     1     0     0     0     0     0     0     0     0     0     0     0     0     0     0     0     0     0     0     0     0     0     0     0     0     0     0     0     0     0     2     2     3     5     3     3     2     4     8     5    13    19    11    13    16    31    38    38    49    47    74    76    82    68    68    79    77    84    91    85   110    83    75    92    75    82    60    79    62    64    62    44    31
    38    36    37    26    36    20    22    20    15    14    10     4     5     0     1     1     2     2     1     0     1     1     0     1     2     0     0     0     0     0     0     0     0     0     0     0     0     0     0     0     0     0     0     0     0     0     0     0     0     0     0     0     1     0     0     1     1     2     1     5     2     2     6     6    10     4     8    12    15    12    14    11    17    25    45    50    59    46    61    57    74    67    72    64    77    65    92    79    87    85    83    78    73    73    91    58    64    69    56    53
    41    51    39    25    32    30    21    23    19    11    10     6     7     8     1     1     1     1     4     1     4     0     2     2     3     0     0     0     0     0     0     0     0     0     0     0     0     0     0     0     0     0     0     0     0     0     0     0     0     0     0     0     1     0     2     2     0     0     1     1     1     1     1     7     6    12    13     8    14    12    17    19    20    24    31    41    48    52    62    47    60    71    53    85    88    93   101    75    89    84    99   104    73    85    91    74    76    70    73    63
    56    50    51    27    30    27    25    27    13    17    13    13     7     2     8     3     3     5     0     1     1     1     0     1     1     3     0     0     0     0     1     0     0     0     0     0     0     0     0     0     0     0     0     0     0     0     0     0     0     0     0     0     1     2     0     2     0     0     1     0     3     0     4     4     5     7     6     7     8     8    11    12    12    21    33    33    30    37    64    61    55    73    66    66    73    81    75    76    81    74    80    79    93    69    80    89    57    68    64    65
    68    48    49    43    48    27    24    28    17    20    15    14    11     4     8     7     3     3     4     1     2     2     0     1     0     1     1     0     0     0     0     0     0     1     0     0     1     0     0     0     0     0     0     0     0     0     0     0     0     0     0     1     0     0     0     1     0     1     3     1     3     3     5     7     2     2     6     6    11     4     7     6    10    18    20    36    25    36    39    32    57    65    53    71    68    71   112    63    70    95    85   104    83    76    78    79    91    97    62    68
    72    60    49    63    47    36    38    30    22    28    11    16    12     7     5     8     6     4     4     2     3     2     3     2     2     1     0     0     1     0     0     0     0     0     0     0     0     0     0     0     0     0     0     0     0     0     0     0     0     0     0     0     0     0     0     0     0     1     2     0     2     1     1     2     1     1     4     6    10     5     6    10    14    13    18    22    20    23    34    42    48    39    49    64    66    63    73    71    78    93    88    76    64    96    90    82    81    76    90    81
    72    70    59    61    52    46    47    42    29    19    31    19    10    12    16     8     7     4     6     7     1     1     6     1     0     1     1     1     0     0     0     0     0     0     0     0     0     1     0     0     0     0     0     0     0     0     0     0     0     0     0     0     0     0     0     0     0     0     1     0     2     1     0     2     2     3     2     1     3     3     4    10     6     7    13    14    24    30    22    41    36    43    54    53    62    70    62    69    74    84    71    83    92    75    87    89    79    89    77    75
    76    64    72    65    61    50    43    46    37    34    25    25    18    15    15     7    19     5     9     4     4     2     1     0     1     4     0     1     1     1     0     0     0     0     0     0     0     0     0     0     0     0     0     0     0     0     0     0     0     0     0     0     0     0     0     0     0     0     0     0     0     1     1     1     0     1     4     1     2     1     2     8     7    14    17    16    21    21    30    16    36    46    51    46    51    54    62    67    72    73    85    90    97    81   107   111    83    86    97    77
    90    82    76    81    70    68    52    44    31    34    25    18    17    12    16    10    15    15     6     4     4     3     2     3     3     2     0     1     1     0     0     0     0     0     0     0     0     1     0     0     0     0     0     0     0     0     0     0     0     0     0     0     0     0     0     0     0     0     0     0     0     0     0     1     2     0     1     2     0     3     5     7     5     8    14    14    22    24    29    21    19    44    54    40    55    51    56    60    77    80    87    76    73    77    92    99    84    91    89    89
    93    91    76    62    60    64    57    53    39    33    27    29    30    33    19    20    14    13    12     8     6     5     3     4     3     4     2     2     1     2     0     0     0     0     0     0     0     0     0     0     0     0     0     0     0     0     0     0     0     0     0     0     0     0     0     0     0     0     0     0     0     0     0     0     0     0     0     0     0     0     3     5    12     3     6    12     9    19    13    16    23    34    28    40    37    50    53    73    67    85    81    94    87    84    66   105   115    94    99    90
    99    86   100    75    76    69    69    65    41    48    51    48    22    27    23    23    22    17    14     8     8     7     2     4     0     4     0     0     1     1     0     0     2     0     0     0     0     0     0     0     0     0     0     0     0     0     0     0     0     0     0     0     0     0     0     0     0     0     0     0     0     0     0     0     0     0     0     0     1     3     1     6     4     6     3    13    20    15    22    15    22    18    20    45    29    46    57    81    54    80    64    68    88    83    93    93    94    92    96    95
    86    92    92    96    69    73    60    58    52    41    45    39    37    19    33    33    23    19    14    12     7     5     7     3     4     4     2     0     0     2     2     1     0     0     0     0     1     0     0     1     0     0     0     0     0     0     0     0     0     0     0     0     0     0     0     0     0     0     0     0     0     0     0     0     0     0     0     1     0     1     0     4     2     8     3     7     6     6    16    20    23    22    20    26    44    37    44    49    47    52    69    53    81    65    97    87    99   100   108    90
    85    78    87    80    83    77    78    70    62    56    50    42    36    43    32    26    24    26    14    12     8    13    12     7     4     4     2     2     2     4     2     1     1     1     0     3     1     0     0     0     0     0     0     0     0     0     0     0     0     0     0     0     0     0     0     0     0     0     0     0     0     0     0     0     0     0     0     0     1     0     2     1     1     0     8     8     6    10     5    16    13    19    24    25    31    33    40    46    52    54    61    59    67    87    86   100    92   107   101    98
