#lt      20.0
#count pbc
#dt      1.0
#dn      20
#edges  -27.1557089 -26.6125947 -26.0694805 -25.5263664 -24.9832522 -24.4401380 -23.8970238 -23.3539097 -22.8107955 -22.2676813 -21.7245671 -21.1814529 -20.6383388 -20.0952246 -19.5521104 -19.0089962 -18.4658821 -17.9227679 -17.3796537 -16.8365395 -16.2934253 -15.7503112 -15.2071970 -14.6640828 -14.1209686 -13.5778545 -13.0347403 -12.4916261 -11.9485119 -11.4053977 -10.8622836 -10.3191694  -9.7760552  -9.2329410  -8.6898268  -8.1467127  -7.6035985  -7.0604843  -6.5173701  -5.9742560  -5.4311418  -4.8880276  -4.3449134  -3.8017992  -3.2586851  -2.7155709  -2.1724567  -1.6293425  -1.0862284  -0.5431142   0.0000000   0.5431142   1.0862284   1.6293425   2.1724567   2.7155709   3.2586851   3.8017992   4.3449134   4.8880276   5.4311418   5.9742560   6.5173701   7.0604843   7.6035985   8.1467127   8.6898268   9.2329410   9.7760552  10.3191694  10.8622836  11.4053977  11.9485119  12.4916261  13.0347403  13.5778545  14.1209686  14.6640828  15.2071970  15.7503112  16.2934253  16.8365395  17.3796537  17.9227679  18.4658821  19.0089962  19.5521104  20.0952246  20.6383388  21.1814529  21.7245671  22.2676813  22.8107955  23.3539097  23.8970238  24.4401380  24.9832522  25.5263664  26.0694805  26.6125947  27.1557089
   112   117   108   111   101   105    86    91    82    62    62    54    39    30    28    20    12    14    11     9     6     3     3     4     0     1     1     2     2     1     0     0     0     0     0     0     0     0     0     0     0     0     0     0     0     0     0     0     0     0     0     0     0     0     0     0     0     0     0     0     0     0     0     0     0     0     0     0     0     0     1     0     2     0     0     3     1     4     5     5     7     8    10     8     8    32    19    17    30    28    44    70    56    75    91    82   100    96    96   106
   106   105   125   124    90    80   106   104    96    69    52    59    50    38    28    25    20    10    18     7    12     7     6     7     4     2     1     0     0     1     0     0     0     0     0     2     1     0     0     0     0     0     0     0     0     0     0     0     0     0     0     0     0     0     0     0     0     0     0     0     0     0     0     0     0     1     1     1     1     1     0     0     1     0     0     0     0     0     6     6     4     8     9    21     9     7    18    32    33    50    48    37    58    66    65    85    85    93   111   115
   107   102   116   111   103   123    99   109   110    90    62    54    51    46    48    35    25    29    23    14    14    15     7     8     7     2     3     1     0     0     2     1     0     0     0     0     1     0     0     0     0     0     0     0     0     0     0     0     0     0     0     0     0     0     0     0     0     0     0     0     0     0     0     0     0     0     0     1     0     1     0     2     0     1     1     1     2     1     0     1     2     5     5    11    11    27    26    20    21    25    41    60    47    79    61    84    70    96    96   101
   111    97   117   117   117   131   113   105    94   110    88    63    58    53    43    43    38    26    21    17    20    12    13     8     9     5     1     4     3     3     2     1     0     2     0     0     0     0     0     0     0     0     0     0     0     0     0     0     0     0     0     0     0     0     0     0     0     0     0     0     0     0     0     0     0     0     0     0     0     0     0     0     0     0     0     0     1     1     1     2     2     4     6     6    12    11    18    23    27    30    41    49    42    59    70    74    80    85   109   112
   108   121   103   134   122   104   109   114    96    98    72    86    77    67    51    53    42    31    25    25    24    21    10     7    11     8     1     3     3     1     0     0     0     0     0     0     0     0     0     0     0     0     0     0     0     0     0     0     0     0     0     0     0     0     0     0     0     0     0     0     0     0     0     0     0     0     0     1     0     0     0     0     1     0     0     0     0     1     2     1     1     4     4     5     5     6    13     7    21    17    25    41    33    45    54    70    78    87    85    83
   110   102   105   122   128    88   102   130    95   110    88    91    74    70    61    61    48    37    27    31    24    16    10     4    11     1     7     3     2     0     3     2     0     1     0     0     0     0     0     0     0     0     0     0     0     0     0     0     0     0     0     0     0     0     0     0     0     0     0     0     0     0     0     0     0     1     0     0     0     0     0     0     1     0     0     0     0     2     1     0     2     1     2     4     3     8    10    12    16    24    21    29    31    38    48    65    53    71    88    75
    97    88   109   112   103   101   107   105   107    95    96    90    85    74    73    80    59    52    45    32    18    28    26    15    12    13    12    11     4     4     2     1     2     0     0     0     1     0     0     0     0     0     0     0     0     0     0     0     0     0     0     0     0     0     0     0     0     0     0     0     0     0     0     0     0     0     0     0     0     0     0     0     0     0     0     0     0     0     0     1     2     2     5     5     3     5     9    13    12    15    20    27    23    24    46    41    60    85    53    76
    66    88    92   100   126   116   107   123   117   120   101    89    95    88    78    77    69    64    33    39    37    32    24    25    20    18    12     5    11     1     3     1     3     2     1     1     0     0     1     0     0     0     0     0     0     0     0     0     0     0     0     0     0     0     0     0     0     0     0     0     0     0     0     0     0     0     0     0     0     0     0     0     0     0     0     0     0     0     0     1     0     0     2     2     6     5     6     6    10    13     8    17    17    31    45    39    49    56    62    70
    60    64    88   104    98   132   110   109   115   122   115   132    99   112    91    99    79    79    63    49    50    24    35    30    24    23    16    13     8     5     6     2     5     5     0     0     0     0     0     0     0     0     0     0     0     0     0     0     0     0     0     0     0     0     0     0     0     0     0     0     0     0     0     0     0     0     0     0     0     0     0     0     0     0     1     0     0     0     0     0     0     1     1     2     4     4     2     3     8    15    16    14    15    24    36    31    32    47    53    60
    65    75    73    82   109   107   101   114   110    99   106   112   131   116   119    96    87    88    68    42    50    43    39    29    31    18     7    16    12     7     7     3     3     5     5     1     0     0     0     1     0     0     0     0     0     0     0     0     0     0     0     0     0     0     0     0     0     0     0     0     0     0     0     0     0     0     0     0     0     0     0     0     0     0     0     0     0     0     0     0     0     0     3     0     2     2     3     4     7     7     9    10    15    21    32    25    35    45    48    51
    55    52    65   103    94    94   111   112   119   115   114   121    93   126    89    96    80    77    70    61    67    66    38    35    17    32    12    14     9     6     3     3     9     4     1     0     0     1     0     0     0     0     0     0     0     0     0     0     0     0     0     0     0     0     0     0     0     0     0     0     0     0     0     0     0     0     0     0     0     0     0     0     0     0     0     0     0     0     0     0     0     0     0     0     2     2     2     2     5     8     5    13    12    18    15    20    32    37    54    55
    56    56    71    68    73    82    83   119    77   115   116   127   127   101   117    86   106   100    87    77    80    56    50    42    37    33    37    18    18    14    16    15     5     8     7     1     1     0     0     0     0     0     0     0     0     1     0     0     0     0     0     0     0     0     0     0     0     0     0     0     0     0     0     0     0     0     0     0     0     0     0     0     0     0     0     0     0     0     0     0     0     0     0     0     0     0     1     4     6     1     3     7    10    10    15    12    28    39    35    34
    37    44    48    75    73    72    87   104   109   104   129   129   120   124   101   106   107    84   108    94    87    71    59    42    52    34    37    25    20    13    14    11     8     4     7     5     4     0     1     2     2     0     1     0     0     0     0     0     0     0     0     0     0     0     0     0     0     0     0     0     0     0     0     0     0     0     0     0     0     0     0     0     0     0     0     0     0     0     0     0     0     0     0     0     2     1     2     3     4     2     7     7     6    12    10    15    22    20    32    32
    25    41    74    67    55    76    86    74    97   100    98   120   137   114   119   107   120   101   123   112    90    85    54    51    59    41    32    36    22    17    20    20    10    10     4     4     5     2     4     1     2     0     1     1     1     1     0     0     0     0     0     0     0     0     0     0     0     0     0     0     0     0     0     0     0     0     0     0     0     0     0     0     0     0     0     0     0     0     0     0     0     0     0     0     0     0     1     2     0     1     0     4    10    11    14    10    10    18    25    27
    37    28    47    55    66    56    69    75    95   111   131   118   109   142   115   111    86   104   122    89    93    86    67    60    65    52    36    30    28    20    26    17    11     5     9     6     9     3     3     2     0     2     2     0     0     0     0     0     0     0     0     0     0     0     0     0     0     0     0     0     0     0     0     0     0     0     0     0     0     0     0     0     0     0     0     1     1     0     0     1     0     0     0     1     0     1     0     1     0     3     4     6     6     4     5     9     9    16    23    20
    29    25    42    47    32    54    71    64   102   101   104   110   125   120   117   107   130   113   106   112    88    86    83    75    64    56    40    37    29    43    25    19    28    12     9     9     7     3     6     1     1     2     3     2     1     0     0     0     0     0     0     0     0     0     0     0     0     0     0     0     0     0     0     0     0     0     0     0     0     0     0     0     0     0     0     0     0     0     0     0     0     0     0     0     0     1     0     0     0     0     0     0     1     6     3     4     5    12    17    18
    19    25    32    27    42    51    55    62    96    99   103    87   109   118   131   146   142   119   117   135   107   106    79    95    58    60    42    59    42    30    33    17    28    17     7    14     8     6     3     3     5     2     2     2     0     0     0     0     0     0     0     0     0     0     0     0     0     0     0     0     0     0     0     0     0     0     0     0     0     0     0     0     0     0     0     0     0     0     0     0     0     0     0     0     0     0     0     1     0     0     1     4     3     2     8     6     8     7    11    22
    17    19    29    32    43    47    45    53    77    85    90   101    98   108   106   139   120   124   126    91   117   109    91    83    82    74    54    49    59    41    38    37    32    16    12    10     9     3     5    12     1     5     2     1     1     0     0     0     0     0     0     0     0     0     0     0     0     0     0     0     0     0     0     0     0     0     0     0     0     0     0     0     0     0     0     0     0     0     0     0     0     0     0     0     0     0     0     0     0     0     0     0     3     1     5     4     5     6    15    16
     9    15    21    26    33    40    53    55    70    73    88    78   102   104   109    98   149   113   132   126   109   108   105    87    92    88    60    68    59    45    46    26    30    22    19    13    15    11     9    10     4     2     4     3     2     0     0     3     0     0     0     0     0     0     0     0     0     0     0     0     0     0     0     0     0     0     0     0     0     0     0     0     0     0     0     0     0     0     0     0     0     0     0     0     0     0     0     0     0     0     1     1     1     2     3     4     5     4     5    11
     8    18    15    22    28    25    38    48    46    56    71    86    83    86   115   102   120   109    97   127   116   114   114   102    78    91    72    70    74    57    42    59    41    28    23    12    11    12     9     4     5     4     3     1     0     4     0     0     1     0     0     0     0     0     0     0     0     0     0     0     0     0     0     0     0     0     0     0     0     0     0     0     0     0     0     0     0     0     0     0     0     0     0     0     0     0     0     0     0     0     1     0     0     0     1     2     4     4     4     5
     7    12    19    16    18    34    29    35    56    49    55    47    79    72   101    96   128   110   145   115   115   121    95    91    89   106    92    82    94    81    64    53    37    44    39    25    22    16    17     9     5     2     1     0     1     1     1     1     0     1     1     0     1     0     0     0     0     0     0     0     0     0     0     0     0     0     0     0     0     0     0     0     0     0     0     0     0     0     0     0     0     0     0     0     0     0     0     0     0     0     0     1     1     0     3     0     3     0     2     5
     6     7    16    14    21    19    26    32    48    45    61    70    83    89    88    99    94   113   119   105   118   115    77   124    87    96    94    86    81    75    77    60    51    52    26    25    29    17     9    10     7    12     5     5     6     3     3     0     0     0     0     0     0     0     0     1     0     0     0     0     0     0     0     0     0     0     0     0     0     0     0     0     0     0     0     0     0     0     0     0     0     0     0     0     0     0     0     0     0     0     0     2     1     0     0     3     1     1     2     3
     1     8     6     9    13    16    21    31    42    38    46    47    72    68    57    73    85   115   101   107   105    98   107    94   116   112    93    98    96    76    70    59    56    45    41    32    27    16    16    15     6     7     4     6     3     1     1     0     0     0     0     0     0     0     0     0     0     0     0     0     0     0     0     0     0     0     0     0     0     0     0     0     0     0     0     0     0     0     0     0     0     0     0     0     0     0     0     0     0     0     0     0     1     1     4     1     1     1     2     5
     1     4     8    17    13    12    20    20    30    28    28    46    59    59    56    78    78    89   101   116   122   101    94    97   126   112   119   104    90    79    83    66    52    48    42    35    34    19    17    22    13     9    13     6     6     3     3     2     2     0     1     0     0     0     0     0     0     0     0     0     0     0     0     0     0     0     0     0     0     0     0     0     0     0     0     0     0     0     0     0     0     0     0     0     0     0     0     0     0     0     0     0     2     0     1     0     1     0     0     1
     4     8     6     5    11     9     5    11    11    19    15    36    34    46    62    52    84    84   104    89   100    94   125   105   120   109   112   101    98   111   112    74    76    58    63    44    42    29    26    23    13    19    11    15    13     6     5     5     4     3     2     1     1     0     0     0     0     1     0     0     0     0     0     0     0     0     0     0     0     0     0     0     0     0     0     0     0     0     0     0     0     0     0     0     0     0     0     0     0     0     0     0     0     0     0     1     0     4     1     1
     1     5     6     3     6     7     9     7    10    22    20    28    31    44    50    55    71    79    67    88   107   110   111   116   105   114   128    93   124    85   118    86    89    84    66    57    55    33    35    27    19    21    14    11    11     7     4     3     2     4     2     3     0     1     0     0     0     0     0     0     0     0     0     0     0     0     0     0     0     0     0     0     0     0     0     0     0     0     0     0     0     0     0     0     0     0     0     0     0     0     0     0     1     0     0     1     0     2     3     0
     2     1     1     5     7     4    10     6     7    19    13    26    25    41    41    45    56    72    73    78    87    90   106   128   115   128   114   111    96   120    76   100    68    73    87    74    59    42    25    32    16    17    21    30     9    10     8     7     5     2     1     1     0     0     1     0     1     0     0     0     0     0     0     0     0     0     0     0     0     0     0     0     0     0     0     0     0     0     0     0     0     0     0     0     0     0     0     0     0     0     0     0     0     0     1     0     0     0     0     2
     1     0     2     1     2     7     5     2    12    13     8    18    29    25    43    47    56    64    62    64    92    89    98    94   103   117   132   121   122   128    95   103    89    99    66    79    57    65    34    48    40    29    33    18    11    21     8     6     4     3     3     3     4     2     1     0     0     0     1     0     0     0     0     0     0     0     0     0     0     0     0     0     0     0     0     0     0     0     0     0     0     0     0     0     0     0     0     0     0     0     0     0     0     0     0     0     1     0     1     2
     0     1     0     0     2     3     4     4     5     8    16    20    20    24    30    34    46    67    62    65    79    93    91    90    94   116   102   130   132   103   108   108   108    78    95    80    83    50    69    54    49    32    28    30    18    15    10    14     5     2     2     1     1     1     1     0     1     0     0     0     0     0     0     0     0     0     0     0     0     0     0     0     0     0     0     0     0     0     0     0     0     0     0     0     0     0     0     0     0     0     0     0     0     0     0     0     0     1     0     0
     2     0     0     2     2     3     6     3     8     7    12     8    21     8    33    28    40    48    47    54    67    85    73    93    98    86   112   122   113   107   116    94    94    99    87    83    83    78    74    57    59    41    38    39    26    21    24    11    10     7     2     1     2     1     0     0     2     0     0     0     0     0     0     0     0     0     0     0     0     0     0     0     0     0     0     0     0     0     0     0     0     0     0     0     0     0     0     0     0     0     0     0     0     0     0     0     0     1     0     0
     0     1     2     2     1     4     4     2     8     4    14     5    10    21    19    30    36    44    49    51    57    70    76    82    97    96    92   121   113   107   119   106   116   105   104    78    92    76    78    83    73    65    56    24    35    25    14    28     9     6     2     6     3     1     5     2     0     2     0     1     0     0     0     0     0     0     0     0     0     0     0     0     0     0     0     0     0     0     0     0     0     0     0     0     0     0     0     0     0     0     0     0     0     0     0     0     0     0     1     0
     1     0     0     0     0     3     1     1     1     8     8    13    15    18    17    28    26    31    37    46    46    60    67    70    87    67   101    91    98   116   122   108   105   116   102   115    88    95    92    66    76    62    67    48    39    29    25    18    14     5    11     6     6     5     1     2     2     1     0     0     1     0     0     0     0     0     0     0     0     0     0     0     0     0     0     0     0     0     0     0     0     0     0     0     0     0     0     0     0     0     0     0     0     0     0     0     0     0     0     0
     0     0     0     0     0     2     3     0     7     5     4     6     8    12    12    19    27    23    43    34    47    54    54    73    74    79    80   108    95    98    99   108   127   122    98   114    99    94    91    96    93    81    61    55    49    40    31    22    35    15    10     9     2     6     6     8     3     2     1     1     0     0     0     0     0     0     0     0     0     0     0     0     0     0     0     0     0     0     0     0     0     0     0     0     0     0     0     0     0     0     0     0     0     0     0     0     0     0     0     0
     0     0     0     0     0     0     0     0     3     3     3     7     5    10    11    21    17    22    29    27    38    43    66    63    69    86    79    86    76    89    94   101   109   142   126   125   114   144   106    98    81    90    76    65    71    57    48    45    17    17    20     7     6     4     2     2     3     1     3     0     2     0     1     0     0     1     0     0     0     0     0     0     0     0     0     0     0     0     0     0     0     0     0     0     0     0     0     0     0     0     0     0     0     0     0     0     0     0     1     0
     0     0     0     0     0     0     0     0     2     3     2     8     8     6     6    11    15     8    20    27    31    47    45    50    54    60    71    95    78    84   104   120   114   123   130   126   124   133   104    99   104    95    79    76    60    71    38    41    33    26    15    23     9     5     9     5     4     3     2     1     1     1     1     1     0     0     0     0     0     0     0     0     0     0     0     0     0     0     0     0     0     0     0     0     0     0     0     0     0     0     0     0     0     0     0     0     0     0     0     0
     0     0     0     0     0     0     0     1     0     1     2     4     3     4     6     7     9    18    18    27    25    24    28    44    39    59    52    60    74    70    89    98   116   109   132   118   142   136   108   135   114   103    96    83    89    66    48    29    29    35    18    17    20    13     6     6     6     2     1     5     4     3     0     0     0     0     0     0     0     0     0     0     0     0     0     0     0     0     0     0     0     0     0     0     0     0     0     0     0     0     0     0     0     0     0     0     0     0     0     0
     0     0     0     0     0     0     0     0     0     0     0     1     2     1     6     7     4    11    10    12    23    34    24    31    46    46    54    53    60    98    88    93   108   120   122   112   106   120   141   151   133    95   111    88   101    62    68    56    37    41    41    35    22    17     7     5     4     6     8     3     2     2     0     0     0     0     0     0     0     0     0     0     0     0     0     0     0     0     0     0     0     0     0     0     0     0     0     0     0     0     0     0     0     0     0     0     0     0     0     0
     0     0     0     0     0     0     0     0     0     1     0     1     3     4     2     6     9     8     8    12    14    31    23    36    30    37    42    58    74    68    82   100   109   112   122   115   104   119   115   140   126   118   111   100    83    89    66    62    38    56    31    31    24    25    14    12    11     6     9     3     5     3     1     2     0     1     0     0     0     0     0     0     0     0     0     0     0     0     0     0     0     0     0     0     0     0     0     0     0     0     0     0     0     0     0     0     0     0     0     0
     0     0     0     0     0     0     0     0     0     0     0     1     1     5     1     3     3     5     7    10    12    20    16    11    26    33    44    43    61    68    91    93   101    93   105   109   129   124   130   123   124   111   130    98   106    96    77    62    66    40    41    32    26    20    17    21    10     8     4     9     6     1     1     1     0     0     1     0     0     0     0     0     0     0     0     0     0     0     0     0     0     0     0     0     0     0     0     0     0     0     0     0     0     0     0     0     0     0     0     0
     0     0     0     0     0     0     0     0     0     0     0     0     0     0     2     2     6     6     4     9     4     9    13    21    23    33    40    52    63    73    69    79    76    97   117   120   139   118   133   128   134   129   143    92   125    98    89    72    68    63    46    37    51    26    28    30    19    11     5     5    11     8     1     2     1     0     1     0     0     0     0     0     0     0     0     0     0     0     0     0     0     0     0     0     0     0     0     0     0     0     0     0     0     0     0     0     0     0     0     0
     0     0     0     0     0     0     0     0     0     0     0     0     1     0     0     4     3     2     3     5     8     7    16    18    20    23    37    50    49    39    53    73    76    88   101   109   125   136   137   130   128   139   107   135   124   111   101    84    81    78    59    51    51    27    23    26    19    18    18    12    10     6     6     1     3     3     1     1     0     1     0     0     0     0     0     0     0     0     0     0     0     0     0     0     0     0     0     0     0     0     0     0     0     0     0     0     0     0     0     0
     0     0     0     0     0     0     0     0     0     0     0     0     0     2     1     1     0     4     2     4     8     3    11    10    13    25    34    19    42    46    60    55    84    90   115   105   115   110   114   125   139   136   113   129   136   109   125    84    93    68    61    60    55    44    30    28    31    19    14    15    12     6     7     3     3     8     1     0     0     0     0     0     0     0     0     0     0     0     0     0     0     0     0     0     0     0     0     0     0     0     0     0     0     0     0     0     0     0     0     0
     0     0     0     0     0     0     0     0     0     0     0     0     2     2     1     1     2     1     0     1     2     4     4     8    15    12    23    30    41    44    42    60    59    93    76    90   109   123   117   113   130   100   136   111   129   126   112   118    87    95    81    79    82    55    38    44    34    35    16    15    12     8     8     9     3     1     2     4     0     0     0     1     1     0     0     0     0     0     0     0     0     0     0     0     0     0     0     0     0     0     0     0     0     0     0     0     0     0     0     0
     0     0     0     0     0     0     0     0     0     0     0     1     0     0     1     0     1     0     1     2     1     4     9     9    10    14    14    24    19    30    39    49    60    73    75    94    84    99   111   124   123   126   114   120   109   126   111   110   115    88    94    71    85    55    43    41    29    30    20    13    20     8     9     6     3     3     4     2     1     0     0     0     0     2     0     1     0     0     0     0     0     0     0     0     0     0     0     0     0     0     0     0     0     0     0     0     0     0     0     0
     0     0     0     0     0     0     0     0     0     0     0     0     1     0     0     1     0     4     2     1     2     3     3     4     8    11    20    13    19    29    45    46    48    71    81    72    77    92    85   107   114   119   124   133   147   135   110   114   100    96    98    96    58    63    58    57    59    37    33    24    20     6    14    11     9     5     7     2     4     1     1     0     0     2     1     1     0     0     0     0     0     0     0     0     0     0     0     0     0     0     0     0     0     0     0     0     0     0     0     0
     0     0     0     0     0     0     0     0     0     0     0     0     0     0     2     1     0     1     2     2     3     1     5     5     9    11     6    14    18    31    28    35    53    54    44    56    82    96    78   106    95   120   104   115   110   135   120   131   101   114    83    95    96    73    60    51    50    36    38    29    26    17    14    11     7    11     4     6     2     2     2     0     0     0     1     0     0     0     0     0     0     0     0     0     0     0     0     0     0     0     0     0     0     0     0     0     0     0     0     0
     0     0     0     0     0     0     0     0     0     0     0     0     0     0     0     0     0     0     1     1     2     1     5     0     7     6     5    12    14    14    24    27    25    47    48    52    66    69    75    83   100   112   109   118   128   113   107   114   108   100    94   117    81    85    81    68    65    61    36    36    22    17    17    15    12    13     8     3     5     4     1     1     0     1     0     0     0     0     1     0     0     0     0     0     0     0     0     0     0     0     0     0     0     0     0     0     0     0     0     0
     0     0     0     0     0     0     0     0     0     0     0     0     0     0     1     0     0     1     0     0     1     5     2     4     5     9     6    11    11    13    20    14    36    35    46    56    52    62    45    94    83    97   119   101   117   102   126   109   108   106   109   102    81    98    88    70    62    52    46    45    32    25    21    14    20     8    19     4     3     3     1     1     0     1     0     0     1     0     0     0     0     0     0     0     0     0     0     0     0     0     0     0     0     0     0     0     0     0     0     0
     0     0     0     0     0     0     0     0     0     0     0     0     0     0     1     0     0     1     1     0     0     0     0     1     1     3     7     9     6    13    14    19    23    22    32    33    36    48    63    62    93    94   101    99   102   104   118    93   118   113   100   114   100    81    94    90    73    78    60    48    50    35    17    22    15    12    17    15     1     4     2     2     2     2     0     1     0     0     0     0     0     0     0     0     0     0     0     0     0     0     0     0     0     0     0     0     0     0     0     0
     0     0     0     0     0     0     0     0     0     0     0     0     0     0     0     0     1     0     0     1     0     1     0     1     2     0     3     8     4    14     7    10    22    27    33    28    29    43    76    54    72    86    96   100   110    98    79   117   123    95   109   115    94    85    85    87    80    65    59    47    52    57    29    22    23    24    20    13    10     4     5     2     0     1     0     3     0     1     0     0     0     0     0     0     0     0     0     0     0     0     0     0     0     0     0     0     0     0     0     0
     0     0     0     0     0     0     0     0     0     0     0     0     0     0     0     0     0     0     0     0     0     0     3     0     0     2     1     4     7    11     9    10    12    16    17    23    28    43    38    54    49    60    82    85    86   111   116   121   111   123   120    90   130    91   106    74    69    84    66    55    61    49    39    39    33    34    20    17    11    10     1     4     2     2     2     1     1     0     0     0     1     0     0     0     0     0     0     0     0     0     0     0     0     0     0     0     0     0     0     0
     0     0     0     0     0     0     0     0     0     0     0     0     0     0     0     0     0     0     0     0     0     0     1     0     0     0     1     1     3     3     7    13     3     9    15    19    22    24    38    50    52    79    72    61    82    81    99   104   105   104   111   120   127   107   100    97   102    92    73    86    67    52    46    53    36    29    30    13    13     1    10     5    10     4     2     4     0     2     0     0     0     0     0     0     0     0     0     0     0     0     0     0     0     0     0     0     0     0     0     0
     0     0     0     0     0     0     0     0     0     0     0     0     0     0     0     0     0     0     0     0     0     0     1     0     0     0     2     2     1     2     8     9     4     9    11    22    22    32    35    36    43    53    61    80    74    98    92    88    94   111    99   114   100   104   103    87    85    94    59    86    70    76    52    50    46    37    22    20    21    13     6     9    10     2     2     3     1     2     2     0     0     0     1     0     1     0     0     0     0     0     0     0     0     0     0     0     0     0     0     0
     0     0     0     0     0     0     0     0     0     0     0     0     0     0     0     0     0     0     0     0     0     0     0     0     0     0     0     1     2     1     3     6     5     8    12    13    25    20    21    27    36    41    54    64    74    64    76    87   102    87    90   101   114   106   114    85   115    76   100    81    70    73    74    61    44    50    33    23    19     7    11     9     2     6     2     5     2     2     0     2     1     1     0     0     0     0     0     0     0     0     0     0     0     0     0     0     0     0     0     0
     0     0     0     0     0     0     0     0     0     0     0     0     0     0     0     0     0     0     0     0     0     0     0     0     0     1     0     1     0     2     1     2     4     5    13     9    13    13    17    26    34    33    37    54    65    55    88    73    79    83   114    90    78   112   108   101   110    90    89    83    70    72    63    63    55    48    40    27    26    18    16    10    13     9     5     4     3     2     0     1     2     2     0     1     0     0     0     0     0     0     0     0     0     0     0     0     0     0     0     0
     0     0     0     0     0     0     0     0     0     0     0     0     0     0     0     0     0     0     0     0     0     0     0     0     0     0     0     2     0     0     1     4     2     8     2     7    13     9    19    27    34    30    32    44    42    58    63    79    69    79    82   113    93   104   112   106    90    90   103    91   105    82    77    77    57    60    49    40    35    31    17    10    10     8     4     6     3     5     7     0     3     0     0     0     1     1     0     0     0     0     0     0     0     0     0     0     0     0     0     0
     0     0     0     0     0     0     0     0     0     0     0     0     0     0     0     0     0     0     0     0     0     0     0     0     0     0     0     0     0     0     2     5     3     2     3     5     8     8     8     8    26    38    26    40    50    40    69    62    76    87    92    88    92   106    75   100    97    82   111   105   112    69    99    68    65    68    56    47    20    32    25    17    17    13    12     7     6     1     6     4     1     2     3     1     0     0     0     0     0     0     0     0     0     0     0     0     0     0     0     0
     0     0     0     0     0     0     0     0     0     0     0     0     0     0     0     0     0     0     0     0     0     0     0     0     0     0     0     0     0     1     0     0     1     3     1     0     4     5    11    19    18    22    25    28    35    37    54    60    54    69    87    80    79    80    81   113   101    88   103    94    86    97   101    83    81    78    67    56    44    37    25    22    26    20    11     1     6     5     6     8     6     5     0     1     1     1     0     0     0     1     0     0     0     0     0     0     0     0     0     0
     0     0     0     0     0     0     0     0     0     0     0     0     0     0     0     0     0     0     0     0     0     0     0     0     0     0     0     0     0     0     0     2     2     0     2     4     1     4     6    11    17    16    19    25    24    35    37    43    70    63    98    92    94    92    94    99    86    97    93   123    84    94    96    88    88    81    83    64    54    56    47    26    35    20    21    12    14     5     8     4     2     5     1     2     3     0     1     1     0     1     0     0     0     1     0     0     0     0     0     0
     0     0     0     0     0     0     0     0     0     0     0     0     0     0     0     0     0     0     0     0     0     0     0     0     0     0     0     1     0     0     0     0     0     2     2     1     2     4     4     7    14    20    15    21    20    28    31    33    56    63    64    74    73    81    89   100   110    93   114    91    94    92   116   125   111    91    85    70    83    61    41    38    30    34    19    24    14    15     9     6     4     9     4     0     1     1     2     0     0     0     2     0     0     0     0     1     0     0     0     0
     0     0     0     0     0     0     0     0     0     0     0     0     0     0     0     0     0     0     0     0     0     0     0     0     0     0     0     0     0     0     0     0     1     0     2     1     2     2     1     6    16    17    26    14    18    18    30    48    46    52    58    69    68    76    73    66    69    93   108   110   106   105   111   105   100   109    90    84    69    59    45    44    36    35    18    26    22    10    12    11     5     8     6     1     0     3     0     2     0     0     1     0     0     0     0     0     0     0     0     0
     0     0     0     0     0     0     0     0     0     0     0     0     0     0     0     0     0     0     0     0     0     0     0     0     0     0     0     0     0     0     0     0     0     0     0     0     3     1     4     7     8    10    15    20     8    23    19    23    45    41    46    59    58    54    70    84    90   115    92   119    97   101   123    97   128   108    85    83    82    75    50    51    36    52    34    23    19    15    12    14     7     9     7     1     5     2     1     2     0     0     1     0     0     0     0     1     0     0     0     0
     0     0     0     0     0     0     0     0     0     0     0     0     0     0     0     0     0     0     0     0     0     0     0     0     0     0     0     0     0     0     0     0     0     0     0     1     2     1     5     4     3     9    10     7    10    14    17    26    40    31    46    35    51    66    54    76    72    83    89   126   101   118   121   126   122   132   102    89    96    62    75    67    46    33    47    40    35    24    11    20    14     6    14     6     6     6     1     1     1     0     1     0     1     2     0     0     0     0     0     0
     0     0     0     0     0     0     0     0     0     0     0     0     0     0     0     0     0     0     0     0     0     0     0     0     0     0     0     0     0     0     0     0     0     0     0     0     1     2     0     0     2     8    10    11     7    20    12    14    29    33    34    39    53    60    57    66    70    85    98   120    92   107   118   114   101   134    88   101    92   121    65    69    63    50    39    38    32    28    20    21    17    14    13     8    11     6     3     1     2     2     1     0     3     0     1     0     0     0     0     0
     0     0     0     0     0     0     0     0     0     0     0     0     0     0     0     0     0     0     0     0     0     0     0     0     0     0     0     0     0     0     0     0     0     0     0     0     1     0     1     0     1     4     7     4     9     9    14    28    18    30    29    43    41    42    48    73    62    69   100    93    93    96   105   114   147   133   128   115    83    98    64    59    61    48    48    58    41    46    24    28    21    14    15     8     6     7     5     3     2     1     1     1     0     1     0     0     0     0     0     0
     0     0     0     0     0     0     0     0     0     0     0     0     0     0     0     0     0     0     0     0     0     0     0     0     0     0     0     0     0     0     0     0     0     0     0     0     1     0     0     1     1     2     5     6    10     7    18    14    25    28    28    19    35    49    42    62    62    65    84    80    94    92   109   113   118   132   100   121    98   104    85    84    85    61    52    73    55    53    41    38    20    19    13     8    10    12     8     3     5     2     0     3     2     0     1     0     0     1     0     0
     0     0     0     0     0     0     0     0     0     0     0     0     0     0     0     0     0     0     0     0     0     0     0     0     0     0     0     0     0     0     0     0     0     0     0     0     0     0     0     0     1     3     3     1     2     9     5    10     8    21    22    22    22    31    34    39    48    63    83    86    76   105    96   109   126   121   111   117   129    99    87    80    76    72    71    70    57    54    40    33    18    33    31    18    21     9    12    10     7     1     3     2     3     1     2     0     0     0     0     0
     1     0     0     1     0     0     0     0     0     0     0     0     0     0     0     0     0     0     0     0     0     0     0     0     0     0     0     0     0     0     0     0     0     0     0     0     0     0     0     0     0     1     3     4     4     4     7    10     9    21    27    24    19    40    21    38    46    55    61    86    87    83    84    97   104   105   114    99   118   101   108    70    68    81    85    87    55    55    48    35    39    22    28    14    20    13    15     6     4     8     4     3     1     1     1     0     0     0     0     0
     1     0     0     0     1     0     0     0     0     0     0     0     0     0     0     0     0     0     0     0     0     0     0     0     0     0     0     0     0     0     0     0     0     0     0     0     0     0     0     0     1     0     3     1     2     4     3     9     5    12    11    12    18    16    33    34    47    44    63    67    79    86    80   101    85    88   109   115   100   101   107    87    84    87    82    81    75    60    46    52    38    34    33    28    16    21    10     6     8     1     6     5     2     0     0     0     0     0     0     0
     1     0     1     1     0     0     0     0     0     0     0     0     0     0     0     0     0     0     0     0     0     0     0     0     0     0     0     0     0     0     0     0     0     0     0     0     0     0     0     0     0     2     0     1     0     3     1     7     6     7     8     7    16    27    32    31    35    43    55    57    74    79    77    79    93   100   101   108    86    93   105    90   101    89    93    90    76    72    67    66    42    41    35    31    21    23    17    11     7     1     4     1     3     2     1     0     1     1     0     2
     1     0     5     0     0     0     0     0     0     0     0     0     0     0     0     0     0     0     0     0     0     0     0     0     0     0     0     0     0     0     0     0     0     0     0     0     0     0     0     0     0     1     1     0     0     1     4     3     4     7     6    13    10    27    20    25    23    32    43    54    45    70    70    74    85    60   106   102   105    98    94    94    97   119    75   112    87    80    76    57    56    37    41    27    16    18    23    11    10     2     7     5     1     3     1     0     0     1     0     1
     0     0     0     0     0     0     0     0     0     0     0     0     0     0     0     0     0     0     0     0     0     0     0     0     0     0     0     0     0     0     0     0     0     0     0     0     0     0     0     0     0     0     0     0     2     2     2     1     4     2    10     6     8    10    12    17    20    19    29    41    56    52    54    71    60    68    86   102    86    86    95   109    80   109   122   100   104    95    86    78    58    47    27    36    27    21    15    15    12     7     7     4     1     3     5     6     0     0     1     1
     0     0     0     0     0     1     1     0     0     0     0     0     0     0     0     0     0     0     0     0     0     0     0     0     0     0     0     0     0     0     0     0     0     0     0     0     0     0     0     0     0     0     1     2     0     1     1     2     0     0     5     2     5     4     8    19    18    20    38    30    41    52    52    59    57    68    76    72    89    94   102    99   103   100   115    89   115   102    78    85    63    51    59    31    34    26    29    23    26    20    11     2     7     4     3     2     0     1     0     1
     0     0     0     2     0     0     0     0     0     0     0     0     0     0     0     0     0     0     0     0     0     0     0     0     0     0     0     0     0     0     0     0     0     0     0     0     0     0     0     0     0     0     0     1     0     1     1     0     1     1     0     2     5     4    14     9    10    18    22    15    28    38    54    44    56    49    86    70    87   101    92    92    80    99   115   135    98   116    89    99    82    60    55    58    33    39    34    34    37    21     8    12     4     3     1     2     4     1     2     1
     1     2     2     1     1     1     0     0     0     0     0     0     0     0     0     0     0     0     0     0     0     0     0     0     0     0     0     0     0     0     0     0     0     0     0     0     0     0     0     0     0     0     0     2     0     0     1     0     0     1     1     3     1     3     5     9    11    12    17    31    25    37    40    50    47    64    60    83    75    92    89   109    91   114   106   111    94    95    99    94    83    73    82    76    44    33    37    37    39    23    26    13     5     6     7     5     5     3     2     3
     3     1     0     2     2     1     1     0     0     0     0     0     0     0     0     0     0     0     0     0     0     0     0     0     0     0     0     0     0     0     0     0     0     0     0     0     0     0     0     0     0     0     0     0     0     0     0     0     1     1     2     1     1     3     5    12     7    10    12    12    19    34    28    39    48    43    65    73    71    93    96    72   107   108   126   117   131   113   107   108   108    87    91    64    54    56    46    35    44    29    21    13    17     9     7     4     5     6     2     1
     2     2     0     0     2     1     0     0     0     0     0     0     0     0     0     0     0     0     0     0     0     0     0     0     0     0     0     0     0     0     0     0     0     0     0     0     0     0     0     0     0     0     0     0     1     0     0     0     0     1     1     0     3     4     4     4     9    13    15    16    20    28    30    47    39    53    48    71    71   102    79    94    77   120   107    92   115   121    89   104    96    64    83    73    63    51    58    48    46    36    25    31    14     7    12     8     6     8     6     3
     4     5     4     0     1     0     1     0     0     1     0     0     0     0     0     0     0     0     0     0     0     0     0     0     0     0     0     0     0     0     0     0     0     0     0     0     0     0     0     0     0     0     0     0     1     0     0     0     1     0     0     1     3     3     1     5    12     7    13     9    16    21    37    35    34    37    61    55    66    82    85    96    84    91   100    90    96   122   100    92    80    92    79    94    74    69    66    69    55    38    24    28    16    15    20    13     9     7     5     3
     3     1     0     4     2     1     0     0     0     0     0     0     0     0     0     0     0     0     0     0     0     0     0     0     0     0     0     0     0     0     0     0     0     0     0     0     0     0     0     0     0     0     0     0     0     0     1     0     0     1     3     0     1     2     3     1     6     8    10    10    17     9    24    20    27    35    43    53    80    61    71    81   101    77    87    99   101    88    93   107    99    70    97    85    79    74    67    65    39    46    29    16    17    15    16    12    10    10     4     7
    10     4     1     2     5     1     0     0     0     0     0     0     0     0     0     0     0     0     0     0     0     0     0     0     0     0     0     0     0     0     0     0     0     0     0     0     0     0     0     0     0     0     0     0     0     0     0     0     0     0     2     0     1     2     2     3     3     3     8     6    11    20    15    20    24    28    37    37    57    60    59    68    82    82    99    88    84    98    79   107   101   110    96    98    99    89    96    83    51    62    39    31    30    20    24    14    12    15     7     4
     4     6     2     1     3     1     0     0     0     0     0     1     0     0     0     0     0     0     0     0     0     0     0     0     0     0     0     0     0     0     0     0     0     0     0     0     0     0     0     0     0     0     0     0     0     0     2     0     0     1     1     1     0     3     0     0     3     1     6     4     6     9    13    14    21    22    25    31    46    42    61    68    67    72    70    84    98    83    88    78    98    97    97   108    87   114    80    80    77    66    43    41    28    39    29    18    15    13    10     6
     5    11     8     3     2     0     0     0     1     0     0     1     0     0     0     0     0     0     0     0     0     0     0     0     0     0     0     0     0     0     0     0     0     0     0     0     0     0     0     0     0     0     0     0     0     0     0     1     2     0     0     0     2     0     1     1     1     0     2     1     4     6    15    11    17    20    20    33    26    41    56    74    58    65    56    71    68    61    79   105   107    99   112    94   106    89    94    79    71    73    60    51    44    39    29    33    24    16     5     9
    11    12     6     4     2     3     2     1     3     0     0     1     0     1     1     1     0     0     0     0     0     0     0     0     0     0     0     0     0     0     0     0     0     0     0     0     0     0     0     0     0     0     0     0     0     1     0     1     1     0     0     1     0     0     1     2     0     4     1     2     3     8     9    11     9    21    27    15    25    37    59    43    68    53    64    64    64    92    95   105    94   103   103   118   101    97   121   113    91    86    68    61    37    46    42    29    27    28    21    14
    12    14     5     9     3     4     3     2     3     0     1     1     0     0     0     0     0     0     0     0     0     0     0     0     0     0     0     0     0     0     0     0     0     0     0     0     0     0     0     0     0     0     0     0     0     0     0     0     1     0     0     1     0     0     1     0     1     0     4     3     5     1     2     9    10    11    17    24    29    29    35    53    53    53    66    63    88    77    82    91    98    95   101   117    95   117    98   102   103    84    60    62    71    43    35    38    30    24    26    14
    14    18     9     7     5     4     6     2     2     2     0     0     0     0     0     0     0     0     0     0     0     0     0     0     0     0     0     0     0     0     0     0     0     0     0     0     0     0     0     0     0     0     0     0     0     0     0     0     0     0     0     1     0     0     0     0     0     0     0     2     4     1     5     4     5     7    11    10    20    13    28    25    46    30    60    60    82    76    69    87    92   102   106    94   118   133   114   101   102    73    80    72    58    52    44    39    41    35    27    15
    21    23    19    14    12     6     5     5     5     1     0     0     0     1     0     0     0     0     0     0     1     1     0     0     0     0     0     0     0     0     0     0     0     0     0     0     0     0     0     0     0     0     0     0     0     0     0     0     0     0     0     0     0     1     2     0     0     2     2     2     2     3     3     4     2    19    10    12    22    17    36    23    38    33    59    47    59    63    73    83    81    89   110   116   109   132   113   118   117    90   106    89    65    82    65    52    32    42    40    21
    29    25    25    11    13     8     5     7     6     2     3     1     2     1     1     0     1     0     0     0     0     0     0     0     0     0     0     0     0     0     0     0     0     0     0     0     0     0     0     0     0     0     0     0     0     0     0     0     0     0     0     0     0     0     0     0     0     1     1     1     1     1     0     2     7     8     5     8    10    19    16    25    21    27    38    56    50    60    65    69    83    90   101    96   102   136   100   131   117    92    84    85    76    77    68    54    62    33    45    32
    25    33    26    21    14     8    11     9     8     3     2     1     1     1     1     0     2     1     0     0     0     0     0     0     0     0     0     0     0     0     0     0     0     0     0     0     0     0     0     0     0     0     0     0     0     0     0     0     0     0     0     0     1     0     0     0     0     0     0     0     0     0     3     2     7     6     8     9     6     9    14    13    31    30    26    46    52    53    62    51    78    82    84   119   111   109   117   106    93   107   100    93    91    75    89    62    66    54    48    31
    36    40    16    20    14    20    17     7     6     0     3     0     0     2     2     1     0     0     0     0     0     0     0     1     0     0     0     0     0     0     0     0     0     0     0     0     0     0     0     0     0     0     0     0     0     0     0     0     0     0     0     0     0     1     1     0     1     1     0     1     2     0     2     5     2     1     5    10     5     9    20    23    20    26    34    39    39    52    54    58    50    85    91    82    98   109    94    93   112    95   104   103    85    92    78    76    64    77    42    44
    43    37    42    34    27     8    10     9     6     8     1     3     7     4     3     2     0     0     1     0     0     0     0     1     0     0     0     0     0     0     0     0     0     0     0     0     0     0     0     0     0     0     0     0     0     0     0     0     0     0     0     0     0     0     0     0     0     0     0     0     1     0     2     0     1     1     2     3     7     5    11    13    13    19    24    35    40    46    53    50    39    48    65    60    82    99    89    93    96    94   105    92   100    78    62    77    57    64    63    53
    44    34    45    29    27    20    20     4    10     4     4     6     1     3     2     2     0     1     1     0     0     0     0     1     0     0     0     0     0     0     0     0     0     0     0     0     0     0     0     0     0     0     0     0     0     0     0     0     0     0     0     0     0     0     0     0     0     0     0     1     1     0     0     0     0     1     2     1     4     4     7     9    11    15    11    23    22    35    35    48    48    55    64    62    66    86   100   107   119    93   104   109    92    90    92    92    74    57    70    52
    57    53    48    45    45    29    13    20    16    10     4     4     5     5     2     4     2     1     1     0     0     0     0     0     0     0     0     0     0     0     0     0     0     0     0     0     0     0     0     0     0     0     0     0     0     0     0     0     0     0     0     0     0     0     1     0     0     0     0     1     0     0     1     2     1     3     3     2     1     6    11     9    13    18    14    25    30    35    27    33    50    51    58    58    70    88    83    90   102    84    89    70   101   100    80    98    87    67    62    53
    53    64    44    50    38    28    22    25    10    12     9    12     7     7     4     1     1     4     1     0     0     0     0     0     0     0     0     0     0     0     0     0     0     0     0     0     0     0     0     0     0     0     0     0     0     0     0     0     0     0     0     0     0     0     0     0     0     0     0     0     0     1     0     0     0     0     1     0     0     7     7    10    12     3    13     8    25    26    49    33    29    41    52    62    72    71    65    73    83    68    86    88    83   100   118    88    76    70    50    61
    80    64    54    47    46    29    29    24    21    19    18    11     9    11     6     5     5     1     0     1     0     0     0     0     0     0     0     0     0     0     0     0     0     0     0     0     0     0     0     0     0     0     0     0     0     0     0     0     0     0     0     0     0     0     0     0     0     0     0     0     0     0     0     0     0     1     2     1     2     3     2     3     7     5     9    12    20    17    26    23    36    60    57    60    68    61    87    71    80    73    87    99    96    86   101    92    88    93    56    67
    69    52    64    63    53    44    44    25    32    31    15    19     7    10     8     5     4     4     1     0     1     1     0     1     0     0     0     0     0     0     0     0     0     0     0     0     0     0     0     0     0     0     0     0     0     0     0     0     0     0     0     0     0     0     0     0     0     0     0     0     0     0     0     0     0     0     1     1     2     3     0     1     6     6     5    12    16    24    19    23    32    27    47    50    59    66    72    86    67    88    92   100    96    85   107    97    98    84    79    81
    84    87    61    87    50    49    45    29    29    28    19    15    15     9    14     5    10     3     1     1     1     2     1     0     0     0     0     0     0     0     0     0     0     0     0     0     0     0     0     0     0     0     0     0     0     0     0     0     0     0     0     0     0     0     0     0     0     0     0     0     0     0     0     0     0     1     0     2     0     3     5     3     1     2    11     9     4    15    14    21    24    24    40    37    46    67    56    69    65    64    83    76    91    80    89    97    94    99   106    80
    91   107    72    68    78    62    59    39    49    28    26    19    13    13     7     9     5     2     2     2     3     0     1     1     0     0     0     0     0     0     0     0     0     0     0     0     0     0     0     0     0     0     0     0     0     0     0     0     0     0     0     0     0     0     0     0     0     0     0     0     0     0     0     0     0     0     1     1     0     0     3     1     1     4     8     8     4     8    15    18    17    24    24    33    30    46    34    51    59    72    79    88    80    90    89    94    89   117    88    82
   104   109   109    98    84    73    68    52    55    40    41    20    26    26    14    11    17     8     4     4     3     3     1     0     0     0     0     0     0     0     0     0     0     0     0     0     0     0     0     0     0     0     0     0     0     0     0     0     0     0     0     0     0     0     0     0     0     0     0     0     0     0     0     0     0     0     0     1     1     0     1     0     3     4     4     4     7     5     6    19    24    24    23    32    31    31    39    54    46    57    54    70    70    84    91    90    94   107   121   104
    87   107   106    94    79    74    61    76    60    44    50    27    31    29    24    11    13     7     9     4     0     3     2     1     1     1     0     0     0     0     0     0     0     0     0     0     0     0     0     0     0     0     0     0     0     0     0     0     0     0     0     0     0     0     0     0     0     0     0     0     0     0     0     0     0     0     0     0     0     0     0     2     0     2     2     4     0     5     5     8    14    15    26    32    20    36    38    42    50    46    68    65    67    96    78    82    98   104    92    99
   126    90   103    89    78    87    83    75    61    58    59    48    39    30    30    16    18    13    10    11     6     3     1     2     0     0     1     0     0     0     0     0     0     0     1     1     0     0     0     0     0     0     0     0     0     0     0     0     0     0     0     0     0     0     0     0     0     0     0     0     0     0     0     0     0     0     0     0     0     0     1     0     2     0     2     2     4     2     6     7     9    16    12    12    31    23    31    39    27    41    48    56    71    79    62    66    72    99    87    93
