#lt      40.0
#count pbc
#dt      1.0
#dn      40
#edges  -27.1557089 -26.6125947 -26.0694805 -25.5263664 -24.9832522 -24.4401380 -23.8970238 -23.3539097 -22.8107955 -22.2676813 -21.7245671 -21.1814529 -20.6383388 -20.0952246 -19.5521104 -19.0089962 -18.4658821 -17.9227679 -17.3796537 -16.8365395 -16.2934253 -15.7503112 -15.2071970 -14.6640828 -14.1209686 -13.5778545 -13.0347403 -12.4916261 -11.9485119 -11.4053977 -10.8622836 -10.3191694  -9.7760552  -9.2329410  -8.6898268  -8.1467127  -7.6035985  -7.0604843  -6.5173701  -5.9742560  -5.4311418  -4.8880276  -4.3449134  -3.8017992  -3.2586851  -2.7155709  -2.1724567  -1.6293425  -1.0862284  -0.5431142   0.0000000   0.5431142   1.0862284   1.6293425   2.1724567   2.7155709   3.2586851   3.8017992   4.3449134   4.8880276   5.4311418   5.9742560   6.5173701   7.0604843   7.6035985   8.1467127   8.6898268   9.2329410   9.7760552  10.3191694  10.8622836  11.4053977  11.9485119  12.4916261  13.0347403  13.5778545  14.1209686  14.6640828  15.2071970  15.7503112  16.2934253  16.8365395  17.3796537  17.9227679  18.4658821  19.0089962  19.5521104  20.0952246  20.6383388  21.1814529  21.7245671  22.2676813  22.8107955  23.3539097  23.8970238  24.4401380  24.9832522  25.5263664  26.0694805  26.6125947  27.1557089
    77    81    74    68    79    65    55    51    61    47    47    53    55    38    42    39    39    38    29    27    26    25     9    13     9    10     4    13     3     6     4     4     1     2     1     1     0     2     1     1     0     1     0     1     1     0     0     0     0     0     0     0     0     0     0     0     0     0     0     0     0     0     0     0     4     2     1     1     2     5     8     2     7     9    12    13     8    21    13     7    20    25    39    32    37    49    52    46    54    48    62    73    72    67    70    75    74    92    88    76
    97    86    62    73    85    66    74    55    60    56    44    51    44    52    44    43    42    38    30    39    26    27    21    18     9    10     5     5     7     3     4     5     2     4     3     2     0     2     2     0     1     0     1     0     2     1     0     0     0     0     0     0     0     0     0     0     0     0     0     0     0     0     1     1     0     1     1     3     3     5     2     3     2     5     6     7     7     8    14    15    13    23    24    30    27    36    33    37    42    36    42    60    67    54    64    89    86    90    78    78
    78    75    94    77    72    66    67    81    61    65    62    61    62    50    39    48    53    44    28    46    36    34    20    26    10    13     6    12     7     9     4     5     3     2     1     1     1     0     1     1     1     1     0     0     1     1     0     0     1     0     0     0     0     0     0     0     0     0     0     0     0     0     0     1     0     0     2     3     2     4     6     2     3     8     8     1    10     7     9    12    12     9    19    24    25    30    47    28    38    35    49    51    61    58    79    60    75    84    85    70
    91    79    68    83    70    82    75    81    69    66    65    48    62    59    47    44    45    47    38    39    28    28    31    21    15     8    12    12     7    14     7     5     3     2     1     0     0     2     0     1     0     0     1     0     1     1     0     0     0     0     0     0     0     1     0     0     0     0     0     0     0     0     0     0     0     2     2     3     2     2     3     3     3     3     3     0     5     5     8    10    12    13    15    16    23    27    32    32    53    34    46    67    45    65    55    61    84    68    81    80
    66    85    64    77    90    89    64    74    72    79    73    65    64    64    60    56    57    50    36    35    35    22    29    19    13    13    10    12    11    19     6     4     8     2     2     3     2     2     1     2     2     1     1     4     0     0     0     0     0     0     0     0     0     0     0     0     0     0     0     1     1     0     0     0     0     1     2     2     4     2     2     4     5     2     3     2     5     7     7     6     8    10     9    16    26    19    24    30    35    32    41    39    48    49    64    71    67    70    72    77
    69    78    81    73    94    76    83    77    68    72    52    66    68    52    43    62    44    49    43    28    34    33    28    23    21    15     6    15     6     9    10     6     6     3     3     3     2     0     1     2     0     1     1     0     5     0     0     0     0     0     0     0     0     0     0     0     0     0     0     1     0     0     1     1     0     1     2     1     1     1     2     0     3     1     2     4     4     2     6     6    15     9    15    11    22    21    16    22    32    23    37    28    39    54    66    66    62    71    62    66
    85    82    88    88    75    66    63    78    77    73    64    62    84    76    70    47    50    58    56    60    25    34    34    32    26    27    15    10    17    14     9     7     2     3     2     5     0     6     3     2     1     1     1     0     2     0     1     0     0     0     0     0     0     0     0     0     0     0     0     0     0     0     0     0     0     0     1     0     2     0     1     4     2     0     2     4     0     2     6     6     9    16     3    13     7    15    26    26    25    28    28    33    36    46    45    57    53    64    60    75
    72    77    87    87    81    63    74    76    80    71    62    59    71    66    80    82    45    67    61    56    48    45    31    25    31    27    17    21    14    10    11     5     3     9     3     5     4     2     5     2     2     0     1     2     1     1     0     1     0     0     0     0     0     0     0     0     0     0     0     0     0     0     0     2     0     0     0     0     1     0     2     2     2     5     4     1     3     1     4     5     3     7    11     4    12    14    12    12    23    26    37    26    42    37    42    53    54    58    63    89
    61    67    80    86    78    87    75    78    86    75    68    72    75    86    73    66    66    49    53    59    56    54    35    32    33    27    27    19    20    13     6    12    10     7     6     3     2     5     2     5     3     1     0     1     2     0     1     0     0     0     0     0     0     0     0     0     0     0     0     0     0     0     0     0     0     0     0     0     1     0     1     0     0     2     1     1     6     4     2     2     8     6     7     8    12     8    14    24    18    21    26    32    24    36    48    44    57    56    56    65
    75    73    66    64    66    57    63    82    67    72    81    74    68    71    64    83    61    70    69    56    55    48    43    42    39    29    28    18    17    10    18    16     8    14     8     7     4     5     3     2     2     2     2     2     0     2     2     0     0     0     0     0     0     0     0     0     0     0     0     0     0     0     0     0     0     0     0     0     0     0     0     1     0     2     1     0     0     2     4     6     7     4     5     3     8    11    13    13    15    21    14    26    25    28    41    38    50    46    59    54
    63    56    62    55    53    63    80    75    86    67    83    60    66    73    64    59    71    57    68    62    58    52    58    33    30    26    27    26    18    17    13    13     7     8     6     8     6     8     5     3     1     3     3     0     0     2     2     0     0     0     0     0     0     0     0     0     0     0     0     0     0     0     0     0     0     0     0     0     0     0     0     0     1     1     0     1     1     6     2     2     1     6     5     4     7    10    11    11    16    20    17    21    26    33    40    39    39    47    43    62
    45    63    74    69    78    73    68    78    81    88    66    61    77    68    78    73    73    71    63    75    52    42    42    44    45    34    24    27    22    21    20    16    10    11    11     7     6     5     6    11     4     3     3     2     1     0     1     0     1     1     0     1     0     0     0     0     0     0     0     0     0     0     0     0     0     0     0     0     0     0     0     0     0     2     1     1     1     0     6     1     2     3     5     1     4     2     9    17     9    17    11    20    26    19    28    43    44    40    57    53
    59    60    55    51    55    63    71    72    84    71    62    76    83    83    88    68    82    78    74    57    61    66    64    47    40    40    30    39    26    31    21    16     9    11     4    11    10     7     5     7     3     6     3     1     6     1     1     2     0     3     0     0     0     0     0     0     0     0     0     0     0     0     0     0     0     0     0     0     0     0     0     0     0     0     1     1     1     1     1     2     2     4     1     6     3     4     3    10    11     9     9    13    23    32    30    39    26    38    41    45
    49    60    56    70    67    62    65    55    69    72    99    89    84    89    76    85    75    79    72    76    64    63    61    51    59    47    45    41    29    35    21    19    11    18    10    11    10    10    12    10     5     2     6     2     2     1     1     1     1     1     0     0     0     0     0     0     0     0     0     0     0     0     0     0     0     0     0     0     0     0     0     0     0     0     0     0     0     2     1     2     0     4     7     2     2     3     2     4    10    11    17    15    19    17    34    24    36    41    33    50
    50    43    51    65    65    55    70    68    70    85    81    91    68    91   110    94    73    89    89    64    62    76    54    61    44    54    55    39    31    36    29    26    20    14    14    16    19    15     8     9     6     5     4     5     5     2     1     4     1     1     1     0     0     1     0     0     0     0     0     0     0     0     0     0     0     0     0     0     0     0     0     0     0     0     1     0     0     0     2     0     4     4     2     3     3     4     4     8     7    10     7    18    13    24    28    26    34    39    44    35
    42    32    28    52    63    62    77    66    69    47    71    68    78    88    71    82    89    82    71    80    62    59    79    79    67    62    48    37    46    39    25    35    26    19    16    25    15    12    14    12    10     7     4     2     4     3     5     1     1     1     1     0     0     0     0     0     0     0     0     0     0     0     0     0     0     0     0     0     0     0     0     0     0     0     0     0     1     0     0     2     4     4     3     4     2     2     6     3     5     6    12    19    16    16    18    25    26    20    37    34
    30    39    43    52    46    51    47    57    70    59    57    80    77    80    81    75    60    67    77    67    53    67    79    72    66    62    53    39    38    40    39    43    27    29    23    27    20    12    16    19     8     6     8    10     5     6     8     1     5     0     1     0     0     0     0     1     0     0     0     0     0     0     0     0     0     0     0     0     0     0     0     0     0     0     0     0     0     1     0     0     3     2     2     2     1     1     1     2     9     4    10    13    11    18    23    17    21    23    26    33
    27    27    39    43    46    38    71    68    65    56    68    70    72    80    72    71    92    69    71    90    78    81    70    69    73    59    49    70    40    56    44    34    32    30    20    27    29    15    15    19    20    11    12     8     9    10     3     5     1     9     2     4     1     0     1     0     0     0     0     1     0     1     0     0     0     0     0     0     0     0     0     0     0     0     0     0     0     0     0     1     0     1     1     1     2     2     2     4     5     9     8     4     8     9    11    15    27    29    20    27
    36    25    35    40    54    57    52    53    66    46    54    59    53    61    98    65    82    95    96    80    93    72    66    86    65    62    55    47    45    50    61    45    38    26    31    22    27    20    22    16    15    22     7    10     6     6     3     5     8     3     5     2     1     0     0     0     0     1     0     1     0     1     0     0     0     0     0     0     0     0     0     0     0     0     0     0     0     0     1     0     1     1     0     2     4     0     0     1     5     5     2     9    11     8    12    12    17    21    24    23
    31    25    24    42    44    33    47    51    51    57    48    56    71    82    68    63    84    94    99    78    68    73    92    80    68    75    56    57    52    45    53    45    37    46    30    22    27    27    23    15    20    11     7     9     5     5     5    10     3     2     1     1     4     1     0     2     0     1     0     0     0     0     0     0     0     0     0     0     0     0     0     0     0     0     0     0     0     0     0     0     0     0     2     0     3     0     2     0     2     4     5     2     6     6     4     8    20    11    20    25
    23    19    29    40    35    59    56    44    59    53    54    61    52    64    69    82    82    74    77    79    87    74    77    70    79    72    64    72    77    54    41    50    45    35    37    33    33    34    23    25    17    22    13     8     7    10     9     9     3     8     4     1     2     4     0     0     0     0     0     0     0     0     0     0     0     0     0     0     0     0     0     0     0     0     0     0     0     0     0     1     0     0     0     0     1     3     0     2     3     1     4     9     8     3     4     3    12    10    21    24
    20    20    27    30    35    38    51    46    54    47    42    52    48    57    81    63    69    73    88    68    93   109    79    77    77    77    83    79    58    60    62    57    53    38    38    38    34    34    27    21    18    21    14    19     8    11     6    11     9     6     4     4     2     4     0     0     1     1     0     0     0     0     0     0     0     0     0     0     0     0     0     0     0     0     0     0     0     0     0     0     0     0     2     0     0     1     1     5     1     1     2     2     5     4     3     8    10    13    17    12
    20    19    26    32    29    33    48    53    41    39    38    41    46    46    70    72    65    73    83    63    86   106    71    73    81    72    72    71    59    62    81    44    54    40    57    35    37    34    27    33    17    18    13    26    13    15    12     7     9     4     5     3     4     0     1     2     2     0     0     0     0     0     0     0     0     0     0     0     0     0     0     0     0     0     0     0     0     0     0     0     0     0     0     1     1     0     3     1     2     1     3     4     7     3     4     2    11     9    11    19
    13    15    26    23    23    20    38    40    34    34    32    42    48    47    54    65    61    53    75    73    74    73    80    88    84    84    81    70    68    59    70    75    61    49    54    49    36    46    35    26    21    19    26    23    20    14    13     6     7     5     7     4     2     1     1     3     0     0     1     1     2     0     0     0     0     0     0     0     0     1     1     0     0     0     0     0     0     0     0     0     0     0     0     0     0     0     0     0     1     0     0     2     5     6     3     3     9     9    11    15
     7     8    16    17    19    18    30    34    31    27    21    46    39    60    55    55    56    58    65    56    78    87    62    87    73    75    76    71    63    71    69    56    68    52    55    48    43    34    35    33    29    25    29    20    16    16    17    10    11     9     8     5     4     3     3     2     1     0     0     1     0     0     0     2     0     1     0     1     0     0     0     0     0     0     0     0     0     0     0     0     0     0     0     0     0     2     0     2     1     1     3     2     0     2     1     5     3     3     9     6
    17    13    12    18    18    23    22    31    30    31    30    41    48    55    52    60    62    69    60    57    67    65    70    71    84    87    82    72    83    71    61    58    61    68    52    64    43    42    33    39    38    26    24    31    23    19    15    18    12    14    11     3     6     1     6     3     0     0     1     3     0     0     1     0     0     0     1     0     0     0     0     0     0     0     0     0     0     0     0     0     0     0     0     0     0     0     0     0     2     3     3     1     3     0     3     6     4     3     7     7
     7     7    12     7    10    17    15    21    32    31    39    42    40    39    51    46    47    64    71    55    70    80    80    62    67    68    82    79    91    80    60    64    71    60    56    50    46    48    40    40    35    37    25    28    26    20    17    16    15    12    14     7     4     4     2     1     2     1     2     2     1     1     1     1     2     0     1     1     0     0     1     1     0     0     0     0     0     0     0     0     0     0     0     0     0     0     0     1     1     1     1     1     7     2     5     4     4     4     5     5
     7     8     8    10    14    18    20    20    16    24    32    36    29    34    47    45    39    47    52    72    81    73    63    80    65    82    70    90    99    71    78    77    76    64    70    62    58    48    48    38    33    42    38    26    26    22    23    18    14    16    12    11    12     4     5     4     2     1     4     3     2     0     1     0     0     0     0     0     0     0     0     0     0     0     0     0     0     0     0     0     0     0     0     0     0     0     0     0     0     1     0     1     0     1     1     3     5     7     2     8
     3    10    11     7    10     8    16    15    21    20    27    35    30    45    39    49    42    47    55    51    57    60    62    55    56    75    82    78    60    66    71    71    69    53    63    59    64    46    72    45    45    41    39    32    29    30    34    26    16    14    14    17    12     7     6     5     4     5     1     2     1     1     0     0     4     1     0     0     0     1     0     0     0     0     0     0     0     0     0     0     0     0     0     0     0     0     0     0     2     1     1     0     1     0     2     3     0     5     7     9
     2     6     5     4    10    13    12     8    15    26    34    33    35    30    33    37    44    38    51    59    61    50    64    67    61    72    81    76    63    70    83    80    80    66    57    63    50    70    49    41    46    58    65    36    32    37    35    33    26    22    17    12     9     8     9     2     5     2     2     2     3     2     2     1     2     0     1     0     2     0     0     1     0     0     0     0     0     0     0     0     0     0     0     0     0     0     0     0     2     1     0     1     1     2     0     0     0     5     4     2
     4     5     9     4     4     9     7    17    16    28    26    19    25    34    34    46    34    39    47    37    55    56    73    56    58    74    74    79    74    66    84    68    66    73    84    78    66    58    58    74    57    59    52    39    47    27    38    27    33    32    22    14    13     7    10    10     2     7     4     2     1     3     0     2     0     1     1     0     2     2     0     2     2     1     1     0     0     1     0     0     0     0     1     0     0     0     0     0     1     0     0     0     0     0     0     3     2     0     3     2
     2     7     6     5     7     4     8    13    12    14    15    26    23    23    26    28    31    37    46    40    46    39    56    64    63    77    77    63    81    81    81    81    83    73    66    54    60    60    60    60    62    58    44    43    44    33    38    46    36    34    20    17    10    15    19    11     5    11     7     2     3     3     0     1     0     3     5     2     3     0     0     1     3     0     3     2     0     0     0     0     0     0     0     1     0     0     0     0     0     0     0     1     0     0     1     0     2     1     1     2
     1     1     5     3     5     2     9     9    11    10    21    11    16    26    17    24    28    39    32    31    49    51    52    50    51    67    72    80    73    67    85    89    74    65    71    68    82    77    81    65    62    59    73    58    57    54    48    37    35    18    25    26    20    14    15     9    12     9     4     5     3     2     4     3     1     0     6     3     0     4     1     0     1     0     1     0     0     0     0     2     0     0     0     0     0     0     0     0     1     0     0     0     0     1     2     0     1     1     2     4
     0     4     4     2     8     5     4     4    12     8    18    13    15    14    24    22    14    27    29    39    44    30    56    41    51    58    67    53    74    64    69    72    78    87    84    73    74    61    68    80    63    50    60    55    57    58    54    44    22    31    28    30    30    14    19    18     9    10     9     6     8     6     2     6     4     5     3     2     4     2     0     2     0     0     1     0     0     0     0     0     0     0     0     0     1     0     0     2     1     0     0     0     0     0     0     0     1     2     0     1
     2     3     1     1     1     3     3    11     7     6     6    12    17    12    21    20    25    21    31    27    32    39    37    50    38    53    50    58    52    68    65    63    70    82    67    80    73    74    94    69    63    80    60    64    73    46    47    46    45    41    18    39    17    19    25    18    15     9    11    13     5     3     4     3     8     3     2     2     3     3     0     1     2     0     0     0     0     0     0     0     0     0     0     0     0     0     0     0     0     0     0     0     0     0     0     1     1     1     2     0
     1     2     1     5     3     3     4     4     7     8    12     7    16    11    11    16    21    24    19    27    42    43    32    39    33    40    61    65    64    71    63    66    78    92    64    77    84    72    69    73    74    55    73    69    47    50    50    50    39    37    23    23    19    23    17    25    22    14     9    11     8     6     6     3     5     5     5     5     4     4     1     0     1     0     3     2     0     0     0     0     0     0     0     0     0     0     0     0     0     0     0     0     0     0     0     0     1     0     1     0
     0     1     2     0     2     2     1     2     3     3     2    11     7    15    15    17    16    28    16    26    32    28    31    44    46    55    44    49    69    54    56    63    86    82    70    66    87    66    65    74    75    65    83    65    72    58    64    51    39    43    37    40    27    21    18    20    20    22    13    13     7    10     5     6     4     6     3     4     1     5     6     1     0     1     0     0     0     1     0     0     0     0     0     0     0     0     0     0     0     0     0     0     0     0     0     0     0     1     1     0
     0     0     1     2     2     0     1     2     5     8     3     8    10    12    12    14    18    27    17    26    32    31    52    36    41    37    47    45    56    74    68    63    65    72    66    55    69    73    68    82    59    71    82    71    64    68    48    57    55    48    43    43    34    36    36    29    25    20    13    17     7     7     5     8     6     5     7     7     3     1     1     2     0     2     0     1     1     1     0     1     0     0     0     0     0     0     2     0     0     0     0     0     0     0     0     0     0     0     0     0
     0     0     2     0     1     0     8     1     2     7     3     9     8     8    14    12    11    16    13    18    25    38    37    33    26    45    54    58    50    76    55    60    80    60    62    76    75    83    72    76    75    77    72    81    76    70    64    55    57    58    44    48    37    29    32    22    21    28    25    25    10    16    11     9     6    11     6    11     5     5     4     5     3     5     3     0     0     0     0     0     0     1     0     1     0     1     0     0     0     1     0     0     0     0     0     0     0     0     0     0
     0     0     0     1     0     0     4     3     3     4     5     9     3    12    12    12    12    24    22    14    25    50    37    36    33    40    47    55    57    46    74    60    75    66    65    73    64    62    93    74    76    78    77    77    75    59    65    69    66    45    55    44    32    34    43    25    34    19    21    16    22    10     7    11    12    11     8     6    12     7     2     3     2     3     1     0     1     0     1     0     0     0     2     1     1     0     0     0     0     0     0     0     0     0     0     0     0     0     0     0
     0     0     2     1     0     1     0     1     5     3     8     8     9     5    11    11    13    16    19    15    20    29    19    18    38    41    34    39    44    54    51    62    57    62    74    69    70    74    93    69    87    77    84    74    66    65    67    71    70    63    63    38    31    42    36    31    37    20    26    28    24    22    18    11     9     4     1    10     6    11     7     6     3     0     0     3     1     0     0     0     1     0     0     0     1     0     1     0     0     0     1     0     1     0     0     0     0     0     0     0
     0     0     0     0     0     2     0     2     0     4     3     4     6     9     8    14    15    11    16    12    28    23    30    28    33    40    43    43    36    38    58    58    73    78    60    81    59    85    79    74    91    94    91    77    74    65    69    66    80    64    62    39    48    32    33    29    36    34    23    35    29    19    19    13    14     7     7     9    11     8     2     5     4     4     2     1     0     0     0     0     2     0     0     0     0     0     0     0     0     0     0     0     0     0     0     0     0     0     0     0
     0     1     0     0     1     0     0     1     1     1     4     5    10     6     8    10     8     7    14    11    20    14    16    20    23    25    42    36    43    61    55    52    68    60    67    69    64    79    79    90    90    96    94    80    69    76    63    79    70    64    64    59    46    45    52    34    28    42    31    26    25    22    15     6    11    13    17     8    11     9     2     9     3     2     3     0     0     0     0     1     0     1     1     0     1     0     0     0     0     0     0     0     0     0     0     0     0     0     0     0
     0     0     0     1     0     0     1     1     2     1     3     2     4     7     7     5     7    15     8    17     9    11    11    24    21    24    27    43    40    31    50    40    51    71    60    65    65    55    63    73    83   100    92    92    87    67    71    74    64    76    60    59    51    57    51    43    44    34    44    25    26    17    19    14    15    14    11     8    11     9     9     5     3     2     4     1     1     0     0     0     0     0     3     0     1     0     0     0     0     0     0     0     0     0     0     0     0     0     0     0
     0     0     0     1     0     0     3     2     0     3     3     0     4     4     2     6     3    10     8    15    15     9    14    26    20    24    18    36    30    40    40    50    48    47    57    50    71    67    83    83    85    75    81    82    85    82    81    69    75    66    62    62    66    47    47    51    47    43    38    33    27    19    23    22    13    15    13    10    12    11     7     3     9     5     6     3     1     0     0     0     4     1     0     0     3     1     0     0     0     0     0     0     0     0     1     0     0     0     0     0
     0     0     0     0     0     0     0     2     0     2     2     2     3     5     3     4     5     5     5     8    10     9    13    15    15    15    24    30    29    48    43    38    46    37    46    57    47    63    85    76    69    93    85    76    66    82    79    75    79    80    76    67    60    60    53    52    51    31    50    48    31    27    17    14    25    17    22     8     6    11     6     8     6     3     4     1     1     3     3     2     1     0     0     2     0     0     0     0     0     0     0     0     0     0     0     0     0     0     0     0
     0     0     0     0     0     0     0     0     0     0     0     5     2     4     5     0     5     2     4     6     8     7     9     9    14    18    27    28    26    22    40    33    47    41    46    41    56    69    54    82    71    74    53    81    75    74    88    84    80    72    89    80    65    64    56    67    60    51    46    41    47    23    35    28    12    26    18    13    16     8    10    12     5    10     6     3     4     9     0     3     1     0     2     0     0     1     0     0     0     0     0     0     0     0     0     1     0     0     0     0
     0     0     0     0     0     0     1     0     0     0     0     1     1     4     7     4     2     4     5     9    11    10     5    12     5    21    26    10    17    16    19    51    47    47    45    41    54    50    60    57    71    96    86    64    84    82    70    83    76    67    71    75    77    70    83    65    52    52    50    51    41    44    43    39    18    24    27    11    12    12    17    11     5     6     6     2     5     3     3     4     2     4     1     2     0     0     0     0     0     0     0     0     0     0     0     0     0     0     0     0
     0     0     0     0     0     0     0     0     0     1     0     0     2     3     2     3     1     2     4     3     5     8     6    11     9     8     6    27    19    24    35    44    47    41    42    41    38    52    66    69    87    85    71    72    73    81    70    73    81    86    78    69    67    77    61    65    69    69    55    64    54    47    33    38    34    22    20    16    19    11     4    18    14    12     7     6     5     3     4     5     3     3     3     2     1     2     0     0     0     0     0     0     0     0     0     0     0     0     0     0
     0     0     0     0     0     0     0     1     0     1     0     1     1     1     0     0     2     1     6     6     4     7     3    11    11    14    14    17    19    20    29    27    35    40    43    35    45    56    42    55    57    73    65    73    61    68    72    84    74    65    75    84    80    82    81    66    68    56    60    58    50    53    49    42    45    26    25    24    21    19    22    24    19     9    13    11     6     4     2     4     2     4     3     0     2     0     2     2     0     0     0     0     0     0     0     0     0     0     0     0
     0     0     0     0     0     0     0     0     0     1     0     1     1     2     1     2     0     2     1     5     5     6     5     6     4     7     7    12    12    16    23    25    29    31    38    43    39    41    69    60    64    73    55    74    54    78    81    73    77    87    78    68    65    71    74    68    52    73    74    51    62    74    51    39    41    39    38    34    23    22    30    14    22    14     8     6     5     4     2     7     6     4     2     1     4     1     0     0     0     0     0     0     0     0     0     0     1     0     1     0
     0     0     0     0     0     0     0     0     0     0     0     0     0     0     0     0     0     2     1     2     2     1     6     1     7    14    10     9     8    20    22    17    22    32    36    24    37    41    45    51    48    42    61    52    66    68    56    71    81    82    67    91    83    77    75    75    71    74    69    63    50    54    52    51    48    39    33    36    31    29    25    26    21    17     7     6     7     9    16     7     4     2     7     4     3     0     3     2     1     2     0     0     0     0     0     0     0     0     1     0
     0     1     0     0     0     0     0     0     0     0     0     1     0     0     0     0     1     1     2     6     0     4     1     6     2     4     6    11    15    13    16    15    26    30    34    40    36    30    42    53    45    49    52    50    61    55    64    61    71    74    93    67    69    69    74    80    80    76    53    89    73    61    52    45    52    38    41    44    34    33    23    22    18    10    17    13    14     5    11     7     6     4     9     2     3     0     4     3     2     0     0     0     0     0     0     0     0     0     1     0
     0     1     0     1     0     0     0     0     0     0     0     0     0     0     0     0     2     2     3     2     1     1     5     1     4     8     6     7     7    13    11    15    18    23    27    26    22    36    31    47    41    46    42    46    48    64    63    58    57    80    87    65    77    90    80    78    63    80    78    86    66    75    64    64    49    55    39    42    49    32    33    29    16    17    14     7    12     5     5     2     5     4     8     6     6     6     5     3     5     0     0     2     1     0     0     0     0     0     0     0
     0     0     0     0     0     0     0     0     0     0     0     0     0     0     0     0     2     0     1     1     4     2     4     2     1     8     6    11     8    10    13    15     9    15    15    14    32    25    36    33    38    38    41    36    66    46    63    61    62    61    79    75    90    74    81    91    84    69    71    86    83    68    80    55    72    55    67    32    41    33    34    22    25    18    21     9    18     5     8    11     4    10     2     7     5     4     5     1     1     0     2     1     0     1     1     0     0     0     0     0
     1     0     2     0     0     0     0     0     0     0     0     0     0     0     0     0     0     0     1     0     5     0     1     3     1     2     2     5     8     9    11    13    22    10    19    13    22    29    26    26    38    40    54    36    49    52    51    72    70    62    86    68    80    89    67    87    94    79    77    86    62    66    78    54    61    58    64    66    42    33    41    28    17    30    14    10    18    12    13    11    13    14     4     5     5     3     6     2     1     1     2     0     1     1     0     0     0     0     0     0
     1     0     0     0     0     0     0     0     0     0     0     0     0     0     0     0     0     1     0     1     1     0     2     0     3     0     3     6     0     5     5     4    11    13    14    12    13    17    16    24    33    19    31    46    41    48    57    64    72    67    66    56    78    99    79    73    65    82    95    93    86    87    70    71    63    77    74    63    64    44    33    22    19    28    23    19    13    17    18    13     6     8     3     3     4     5     3     4     4     2     0     0     3     2     1     1     1     0     0     0
     0     1     0     0     0     0     0     0     0     0     0     0     0     0     0     0     0     0     0     0     4     2     1     3     1     7     2     4     4     4     8     6     7    12    14    14    18    18    19    15    21    22    37    38    43    64    52    59    56    71    65    67    81    62    61    71    78    94    85    89    97    89    88    65    58    71    68    56    60    61    34    29    25    26    22    25    21    20    18    17     6    11     5     7     5     4     2     6     8     1     7     5     0     2     2     1     0     0     0     0
     0     0     0     0     0     0     0     0     0     0     0     0     1     0     1     1     1     0     0     0     0     1     1     0     1     1     6     2     1     3     9     8     8    12    14    11    10    10    17    23    26    29    36    34    37    47    66    59    65    58    60    75    87    67    64    82    97    86    94    87    96    64    77    73    79    70    54    60    51    41    48    39    40    34    24    19    19    23    22    16    18    18     7    11     6     9     8     2     1     4     2     0     0     1     2     2     0     0     0     0
     0     0     0     0     0     0     0     0     0     0     0     0     0     0     0     0     1     0     0     1     0     0     0     2     0     3     2     1     2     3     2     4     6     9     9     9     9    16    15    20    35    25    26    41    48    39    60    51    74    68    76    72    82    92    90    85    74    83    87    94    86    91    83    86    76    69    48    72    63    54    52    41    27    30    26    19    32    23    20    30    17    12    10    13     9     3     4     8     1     4     2     3     2     2     1     1     3     0     0     0
     0     0     0     1     0     0     0     0     0     0     0     0     0     0     0     0     0     0     0     0     1     1     1     1     0     1     1     3     1     5     5     6     2     7     4    13    10    12    21    29    23    24    17    28    39    33    32    46    75    59    62    71    75    75    71    86    85    99    94    93    60    84    72   104    69    79    55    70    55    61    48    32    35    41    23    22    31    35    31    22    23    16    15    17    14    12    15     8     5     5     3     3     4     6     1     2     2     0     0     0
     0     0     0     0     0     0     1     0     0     2     0     0     0     0     0     0     0     0     0     0     0     0     0     0     0     1     2     2     0     4     2     4     6     4    11     6    10    15    14    15     9    23    18    30    26    27    29    36    45    58    72    58    73    68    59    79    89    83    88    88    81    76    83    90    86    78    54    64    59    49    53    38    39    29    34    28    32    32    30    29    24    14    16    11    20    19     8     8     5     9     6     4     4     2     4     1     1     1     0     0
     2     1     0     0     0     0     0     0     0     0     0     0     0     0     0     0     0     0     0     0     0     0     0     1     1     1     0     1     0     1     1     3     2     2     7     4    10    14    14    11    16    16    22    27    26    29    30    26    44    49    45    59    66    75    83    71    81    89    82    57    79    80    74    89    86    85    74    76    69    48    52    50    48    46    34    42    34    36    25    16    28    23    10    15    13     8    13    11     6     5    11    10     4     6     3     1     2     1     0     1
     1     1     1     0     0     0     0     0     0     1     0     0     0     0     1     0     0     0     0     0     0     0     1     0     0     0     0     0     2     2     0     4     0     5     6     8    16     5    14     7     8    17    11    17    30    26    34    34    37    46    30    52    61    62    79    65    54    62    71    70    71    69    87    87    59    93    84    68    68    77    47    54    48    47    44    41    31    32    33    33    37    24    12    25    17    12    16    12     8    14     6     8     5     5     5     2     2     5     1     1
     1     0     0     2     1     0     0     0     1     0     0     0     0     0     0     0     0     0     0     0     0     1     0     0     0     0     0     0     1     4     2     6     1     3     6    11     4     8     9    17     6     9    14     7    19    17    25    29    42    38    36    36    43    69    58    74    73    63    72    70   102    73    85    68    74    80    83    69    61    56    59    53    58    42    36    47    43    33    25    35    38    32    26    24    20    15    18    12    11    19     7     5     7     4     0     4     6     6     2     3
     1     1     0     1     0     0     0     0     0     0     2     0     0     0     0     0     0     0     0     0     0     0     0     0     1     0     1     0     0     0     0     3     2     2     2     2     5     6     9    10    10    11    17    10    18    30    35    33    23    38    33    49    43    54    69    59    58    54    66    86    68    77    79    82    71    74    82    76    66    48    71    52    61    48    42    48    42    44    33    34    30    39    30    29    25    22    22    18     7     6     8    10     4     5     4     3     4     2     6     2
     3     2     3     0     2     0     1     0     0     0     0     1     0     0     0     0     0     0     0     0     0     0     0     0     0     0     0     0     1     0     1     1     1     4     0     6     5     8     6     6     5     7    14    17    16    17    18    22    24    40    34    34    51    37    52    51    54    58    85    63    66    77    72    70    71    92    65    94    76    53    60    67    53    59    71    47    48    49    44    42    36    26    37    28    23    24    17    18    14     8    10     6     6     4     3     2     4     3     2     3
     0     4     3     1     2     0     0     0     0     1     0     0     0     0     0     0     0     0     0     0     0     0     0     0     0     0     0     0     0     0     0     1     0     0     1     1     1     6     6     2     7    10    13    10    12    17    14    20    18    21    34    36    30    51    44    45    51    43    68    67    85    70    77    79    89    66    67    76    66    67    83    65    69    68    72    51    58    54    51    38    47    27    34    31    30    33    28    22    16    11    14     8    11    12     8     3     1     3     1     3
     3     1     1     0     2     0     0     0     0     0     1     0     0     0     0     0     0     0     0     0     0     0     0     0     0     0     0     0     0     0     0     0     0     0     3     3     3     4     2     8     6     3     4    11    13    11    10    23    20    22    25    39    37    37    33    48    40    52    55    71    62    71    73    57    71    68    75    72    87    86    70    69    74    68    61    50    49    64    54    52    57    48    32    37    43    30    30    25    14    21    11     7     6     8     8    12     9     2     4     6
     4     2     3     4     4     0     1     0     0     0     0     0     0     0     0     0     0     0     0     0     0     0     0     0     0     0     0     0     0     1     0     0     2     0     0     0     3     3     5     1     4     6     3     9     9     6    11    11    19    15    27    30    39    26    44    33    48    44    56    64    68    65    74    65    68    76    67    78    60    73    74    80    72    67    50    59    60    50    63    59    49    46    40    35    38    26    27    33    19    15    18     8     3     8    15    10     6     5     6     5
     3     5     5     2     1     2     2     1     0     1     0     0     1     0     0     0     0     0     0     0     0     0     0     0     0     0     0     0     0     0     0     0     1     1     0     0     0     3     2     3     2     7    12     6     6     4    10    11    15    26    22    32    32    24    30    42    32    42    28    49    61    54    52    64    70    51    62    66    70    72    77    61    67    92    65    75    67    64    57    62    53    44    46    36    49    31    28    40    18    26    17    21    11    16    11    10     5     9     5     2
     4     1     1     1     2     0     0     1     0     1     0     1     0     0     0     0     0     0     0     0     0     0     0     0     0     0     0     0     0     0     0     0     0     0     1     1     4     3     1     3     2     1     9     7    11     8     7    10    16    12    28    26    21    25    40    26    30    32    46    49    60    68    60    50    52    58    58    59    54    77    78    62    66    72    83    57    70    69    65    69    57    45    64    43    50    39    39    37    20    20    24    13    15    13     8     5     6     4     7     3
     8     5     0     4     1     2     3     0     1     0     0     1     0     0     0     0     0     0     0     0     0     0     0     0     0     0     0     0     0     0     0     0     0     0     0     2     2     2     0     4     6     4     5     2     6     8    14     6    13    13    23    16    16    19    22    31    26    38    39    40    41    41    61    44    63    70    59    68    64    70    60    67    65    65    78    63    76    61    78    57    75    54    47    53    51    33    34    32    35    27    28    22    22    22    14     9     6    11     6     7
     4     9     4     5     3     4     2     2     2     1     3     0     1     1     0     0     0     0     0     0     0     0     0     0     0     0     0     0     0     0     0     0     0     2     0     1     2     0     3     2     2     4     2     5     6     8     9    10    13     7    11    20    14    21    23    31    29    34    36    39    45    37    44    57    61    43    57    65    69    68    67    81    58    70    80    75    93    80    69    79    65    58    67    60    59    45    43    49    42    34    22    25    16    27     7    14     9     8     9    13
    11     1     4     3     1     1     1     4     5     2     3     1     3     1     1     0     0     0     0     0     0     0     0     0     0     0     0     0     0     0     0     0     0     0     2     1     0     2     0     3     1     6     3     6     6     5     4    11     9     8     9    14    12    17    13    36    28    27    26    28    42    37    28    39    46    51    54    68    73    70    82    74    70    80    61    63    78    75    65    77    73    70    70    56    54    57    52    50    47    26    28    27    26    18    16    11    11    12    15    12
     8     5     7     0     2     4     0     5     2     2     4     1     0     2     0     0     1     0     0     0     0     0     0     0     0     0     0     0     0     0     0     0     0     0     0     0     0     2     1     4     3     3     5     2     2     3     3     3     5    12    10    10    13    17    12    19    24    29    23    29    28    36    41    29    36    30    60    48    64    51    56    70    64    61    57    72    74    82    67    74    85    79    67    69    57    57    53    54    54    41    41    40    23    26    21    21    11     9     8    12
    12    15     7     5     6     1     4     3     5     7     5     0     0     2     0     0     0     1     0     0     0     0     0     0     0     0     0     0     0     0     0     0     0     0     0     1     3     2     3     1     1     5     3     2     3     4     4     4    15     7    12    15     8     8    10    15    22    27    29    47    38    30    32    43    42    47    49    60    66    66    71    65    63    79    85    71    84    63    84    70    83    70    78    69    68    56    70    48    63    42    43    37    36    29    23    18    22    10    21    17
     8     7    10     6     7     4     3     3     6     1     4     1     0     0     0     0     0     0     0     0     0     0     0     0     0     0     0     0     0     0     0     0     0     0     0     0     3     2     0     2     1     1     3     1     1     3     3     3     5     7    13    12    11     7    12    18    18    20    21    25    34    27    41    43    42    48    46    46    55    63    70    63    61    69    75    65    81    79    94    96    70    74    81    80    66    82    63    60    68    56    52    48    39    34    32    26    16    25    19    18
    12    10    11     7     3     5     6     5     2     3     1     1     0     0     0     0     0     0     0     0     0     0     0     0     0     0     0     0     0     0     0     0     0     0     0     0     0     0     0     0     1     1     3     1     1     4     3     3     5     4     7     7     7    16     5    19    17    18    19    20    25    29    32    36    44    42    57    50    40    65    67    58    74    68    83    82    76    97    79    74    72    69    73    62    75    65    71    66    61    54    55    47    43    38    34    27    28    23    24    15
    11    15     7     4     5     8    12     8     6     3     2     4     3     2     1     1     1     0     0     0     0     1     0     0     0     0     0     0     0     0     0     0     0     0     0     0     0     1     2     0     2     0     0     0     1     3     1     5     3     3     4     7     8    12    13     8    18    16    21    22    28    22    36    48    26    37    39    50    51    46    62    57    53    73    83    76   111    82    91    80    67   100    79    72    76    72    74    62    57    67    52    51    56    57    39    27    25    32    22    12
    20    22    24    10     5    12     5     8    10     6    10     4     5     2     2     0     4     0     0     0     0     0     0     0     0     0     0     0     0     0     0     0     0     0     0     0     0     0     0     0     0     1     0     1     2     2     1     0     2     3     4     4     7     4     8    12    16    12    13    23    18    21    20    21    28    32    36    44    58    55    50    56    71    81    71    83    87    80    73    98    81    91    89    69    72    64    78    75    67    62    57    59    42    45    40    35    36    28    19    24
    26    14    14    17    24    14    13     8    10     3     1     3     3     4     3     2     0     2     0     1     0     0     0     0     1     0     0     0     0     0     0     0     0     0     0     0     0     0     0     0     3     1     1     0     0     2     0     1     1     4     6     2     5     4    10    11    10    10    13    16    19    20    23    24    27    29    36    45    46    45    47    63    50    69    61    83    71    74    74    88    83    84    86    98    56    74    57    79    70    76    60    60    68    54    52    37    29    36    35    29
    31    24    23    20    24    11    10    14     9    14     6     6     5     3     2     1     2     1     1     0     0     0     0     0     0     0     0     0     0     0     0     0     0     0     0     0     0     0     0     0     0     0     0     0     2     1     1     4     2     1     3     4     2     7     7     3    11     7     8    12    15    16    18    21    30    21    29    26    37    35    39    51    61    75    65    62    80    80    84    83    83    88    79    83    80    86    69    80    70    73    60    58    60    51    49    42    43    39    36    32
    24    33    21    23    24    24     9     9    11    12     7     4     1     3     1     2     1     0     0     2     1     3     1     0     0     0     0     0     0     0     0     0     0     0     0     0     0     0     0     0     0     0     0     0     0     0     0     1     0     0     1     3     4     5     3     5     5     6     8    11    13    13    15    17    20    17    33    40    36    56    39    55    59    63    52    80    77    78    99    72    76    93    62    78    87    80    59    77    72    76    74    65    64    49    53    63    46    52    40    33
    32    43    29    23    25    17    16    12    12    16    11    10     4     7     8     4     4     4     2     3     1     0     1     2     0     0     0     0     0     0     0     0     0     0     0     0     0     0     0     0     0     0     0     1     1     0     0     1     0     0     2     2     2     8     2     4     8     6     3    13    11    19    15    15    14    17    17    37    40    35    42    62    65    49    56    66    81    76    87    87    82    91    85    84    85    83    80    78    93    77    67    77    51    74    64    53    54    39    34    43
    30    35    45    29    27    27    22    15    16    11     5     9     6     6     4     8     3     0     1     4     1     1     1     0     0     0     0     0     0     0     0     0     0     0     0     0     0     0     0     0     0     1     0     1     0     1     0     0     0     0     2     0     4     4     1     2     0     4     1     2    10    13     6    14    21    14    21    20    35    33    28    44    47    49    78    58    78    68    60    80    90    74    83    78    81    75    84    66    52    73    70    81    65    67    67    73    77    54    48    40
    35    46    29    36    35    27    26    16    10    17    12     9     8    14     3    10     2     8     4     0     0     2     0     0     0     0     0     0     0     0     0     0     0     0     0     0     0     0     0     0     0     0     1     0     0     0     0     1     0     1     2     1     1     1     3     1     4     7     7     7    13     7    14    12    18    28    21    13    21    28    33    35    49    43    59    45    67    75    60    73    69    73    60    82    90    83    81    68    70    85    85    62    87    76    68    87    71    46    33    44
    51    42    38    38    31    24    21    24    19    15    15    17    18     8    11     9     3     5     2     2     2     2     2     0     1     0     0     0     0     0     0     0     0     0     0     0     0     0     0     0     0     0     0     0     0     0     2     0     0     0     1     0     1     1     2     2     2     6     4     8    12     6    10     7    11    13    21    21    19    28    28    25    35    47    42    53    41    66    60    76    60    75    88    93    86    68    67    77    67    85    58    82    70    95    72    71    73    70    54    49
    44    37    45    41    27    32    24    35    22    18    18    17    20    10     7     9     3     3     4     0     2     3     2     0     0     0     0     0     0     0     0     0     0     0     0     0     0     0     0     0     0     0     0     0     1     1     0     0     0     0     0     1     0     2     4     2     4     3     5     4     7     9     6    16    11    15    18     8    18    31    16    27    42    50    43    48    49    79    53    62    64    62    88    67    84    83    81    74    85    69    62    70    78    80    71    69    76    46    61    60
    51    48    45    32    39    42    27    36    28    18    21    15    15    16    15    12     8     1     0     4     6     3     1     0     0     0     0     0     0     0     0     0     0     0     0     0     0     0     0     0     0     0     0     0     0     2     0     2     2     3     0     0     1     1     0     2     2     4     7     2     6    10     4     8    14     9    17    11    23    21    25    35    40    37    36    43    47    49    47    46    58    81    66    72    83    86    67    73    67    78    77    66    81    83    82    55    69    59    58    59
    44    44    45    34    40    37    17    34    26    29    16    19    14    11    15    18     4     5     2     3     7     1     2     3     3     1     0     0     0     0     0     0     0     0     0     0     0     0     0     0     0     0     0     0     0     0     0     0     2     0     0     0     1     5     0     3     1     3     1     1     6     7     5     9     4    10    13    14    16    19    18    24    28    35    38    48    42    47    47    66    58    57    74    59    81    48    70    81    73    86    89    71   102    84    91    76    81    62    66    53
    48    43    48    45    34    39    35    24    27    31    14    18    15    19    17     9    12     5     5     4     2     3     2     5     3     2     0     0     2     0     1     0     0     0     0     0     0     0     0     0     0     0     0     0     0     0     1     1     0     1     0     0     1     0     0     0     0     2     1     2     3     5     8     7     5     8     9    10    11    10    12    25    25    34    43    37    38    43    56    43    56    55    65    84    88    77    79    76    72    92    79    73    98    86    78    80    80    78    65    48
    56    62    64    32    35    33    40    25    29    24    26    22    16    16    24    13     9    11     2     6     2     8     7     3     2     2     2     0     0     1     0     1     1     0     0     0     1     0     0     0     0     0     0     0     1     0     0     0     1     0     1     0     0     0     2     1     1     1     2     0     2     5     2     2     4     6     9    14    12    12    13    17    27    29    24    22    38    39    47    63    55    63    67    73    85    77    75    87    83    88    83    76   105   102    81    68    75    69    87    75
    55    65    52    51    45    47    41    44    33    38    25    30    31    16    26    10    15    11     8     2     4     5     9     2     6     3     4     2     0     0     1     0     1     1     0     0     0     0     0     0     0     0     0     0     1     0     0     0     0     0     0     0     2     0     0     1     0     0     0     0     1     2     1     5     6     4    11     9     8     7    23    22    15    22    28    38    42    38    36    43    39    55    56    66    61    66    82    71    84    86    62    86    89    68    87   100    97    74    74    68
    76    68    63    42    46    39    41    39    38    51    35    27    23    13    36    18    17    10     4     9     8     3     5     7     2     3     4     3     1     2     0     0     0     0     0     0     0     0     0     0     0     0     0     1     0     0     0     1     0     0     0     1     0     0     1     0     1     0     0     0     1     2     2     3     5     5     2     8     9     6    13    17    14    25    19    29    27    28    40    46    44    45    58    70    57    88    95    77    71    62    89    92    80    61    79    69   106    85    80    95
    67    63    71    53    57    46    57    67    46    39    38    35    23    23    25    12    19    18    16    17     9     2    11     4     6     1     2     5     0     1     3     0     1     0     0     0     0     0     0     0     0     0     0     0     0     0     1     0     0     1     1     0     0     1     0     0     0     0     0     1     0     0     1     3     2     1     5     2     9    10     9     5    17    24    14    22    28    34    30    33    34    40    49    60    66    72    64    75    72    63    79    76    86    80    83    91   100    88    75    79
    96    64    63    77    59    41    54    58    52    40    28    34    25    33    32    25    25    16    14     9    11    16    12     7     8     5     1     2     2     4     3     4     1     2     2     0     0     1     1     0     0     0     0     0     0     0     1     0     0     2     0     0     0     1     1     0     1     2     0     1     0     0     2     4     3     2     4     7    13    10     5    12    13    13    24    16    18    33    35    32    41    43    47    56    68    67    75    68    75    75    87    66    83    76    83    88    87    89    81    84
    86    60    72    79    67    56    58    55    46    52    44    49    32    37    37    23    18    18    21    16    13    11    10    14     7     3     2     3     6     4     4     0     2     0     1     1     3     1     0     1     0     0     0     0     0     0     0     0     0     0     0     0     1     0     0     0     0     1     0     1     2     2     1     2     1     5     2     3     5     4     7     9    10     5    15    22    22    24    20    22    43    43    28    61    68    67    70    55    71    55    77    80    92    89    76    70    74    77    83    81
    86    69    77    85    68    67    61    48    53    43    45    54    38    36    38    30    25    25    19    17    16     6     8    10     5     2     4     6     9     3     3     1     2     2     3     3     1     0     0     0     1     0     0     2     0     0     0     0     0     0     0     0     0     1     1     0     0     0     0     0     2     1     4     0     1     2     1     1     2     5     2     2     8    10     9     5    22    24    12    20    39    27    34    33    54    58    53    68    80    73    80    78    58    67    81    94    77    93    94    71
    77    61    70    80    61    80    64    46    59    49    55    39    45    51    40    33    22    34    35    33    17    21    17    14    13     8     4     8     5     4     3     3     3     0     1     1     0     2     0     1     0     0     0     0     0     0     0     0     0     0     0     0     0     0     0     1     0     0     0     0     0     0     1     3     2     3     4     3     1     6     5     5     8    11     6    10     9    18    15    32    31    29    28    34    39    55    51    58    54    78    73    69    81    69    86    67    62   105    76    89
