#lt      50.0
#count pbc
#dt      1.0
#dn      50
#edges  -27.1557089 -26.6125947 -26.0694805 -25.5263664 -24.9832522 -24.4401380 -23.8970238 -23.3539097 -22.8107955 -22.2676813 -21.7245671 -21.1814529 -20.6383388 -20.0952246 -19.5521104 -19.0089962 -18.4658821 -17.9227679 -17.3796537 -16.8365395 -16.2934253 -15.7503112 -15.2071970 -14.6640828 -14.1209686 -13.5778545 -13.0347403 -12.4916261 -11.9485119 -11.4053977 -10.8622836 -10.3191694  -9.7760552  -9.2329410  -8.6898268  -8.1467127  -7.6035985  -7.0604843  -6.5173701  -5.9742560  -5.4311418  -4.8880276  -4.3449134  -3.8017992  -3.2586851  -2.7155709  -2.1724567  -1.6293425  -1.0862284  -0.5431142   0.0000000   0.5431142   1.0862284   1.6293425   2.1724567   2.7155709   3.2586851   3.8017992   4.3449134   4.8880276   5.4311418   5.9742560   6.5173701   7.0604843   7.6035985   8.1467127   8.6898268   9.2329410   9.7760552  10.3191694  10.8622836  11.4053977  11.9485119  12.4916261  13.0347403  13.5778545  14.1209686  14.6640828  15.2071970  15.7503112  16.2934253  16.8365395  17.3796537  17.9227679  18.4658821  19.0089962  19.5521104  20.0952246  20.6383388  21.1814529  21.7245671  22.2676813  22.8107955  23.3539097  23.8970238  24.4401380  24.9832522  25.5263664  26.0694805  26.6125947  27.1557089
     8     9     6    10    12     8     1     6     8     4     5     1     0     0     2     1     1     0     0     0     0     0     1     1     0     0     1     0     0     0     0     0     2     1     0     0     1     3     2     2     3     5     4     3     4     3     7     4    13    10    10    22    16    20    22    19    24    28    38    36    45    51    58    48    48    65    67    61    58    62    62    55    57    78    64    91    73    67    79    53    71    48    45    58    62    50    42    51    62    51    39    37    33    45    21    28    31    20    21    18
    21    13    19    17     9    10     4     8     5     4     3     1     2     0     3     1     0     0     1     0     0     0     0     0     0     0     0     1     0     0     0     0     0     0     0     0     2     2     3     3     3     2     2     1    11     6     3     8     5    11     9    10    14    16    20    24    14    24    26    25    38    40    39    48    46    50    57    43    62    55    57    62    53    63    73    63    95    63    80    51    58    60    59    69    82    45    55    52    43    36    36    36    32    55    28    34    23    15    22    23
    17    19    16    12     7     1     9     2     4     3     7     2     2     2     6     2     1     1     0     1     2     1     0     0     1     2     1     0     0     0     0     0     0     0     1     1     1     0     4     0     2     5     5     6     3     4     2     5     6    14    10    13    19     8    10    15    16    19    31    33    25    35    42    53    46    53    52    54    61    54    61    68    62    62    63    67    63    71    74    67    53    61    58    61    80    59    53    61    41    45    56    34    31    36    29    36    32    24    20    15
    23    22    18    23    18    13    10    10     4     8     5     6     2     3     2     2     2     3     1     0     0     0     1     2     0     1     0     0     0     0     0     0     0     0     1     1     0     1     2     1     0     1     3     8     9     2     3     8    10     8     8    11    19     6    10    16    16    13    19    20    23    38    28    37    39    48    48    47    65    56    42    65    52    55    66    70    66    62    74    61    72    61    73    71    71    70    74    72    64    54    32    47    36    44    32    41    44    33    18    20
    23    15    14    14    18    11    13    13     9     8    10     7     2     2     3     2     3     1     1     1     3     0     2     1     1     0     0     0     2     0     1     0     0     1     0     0     1     1     0     0     3     3     1     5     8     2     5     3     3     8     5     9     5     8    12    16    15    20    14    27    25    18    39    41    31    43    42    41    60    57    63    62    68    55    68    49    78    75    74    74    66    77    57    63    76    76    64    70    40    61    53    48    46    40    34    28    36    25    24    21
    22    15    22    26    19    23    24    14    11     7    10     4     2     3     0     1     2     0     3     1     0     1     2     1     0     0     1     0     1     1     1     0     0     0     0     0     1     3     0     0     0     4     2     3     2     4     3     3     2     3     4     1     8     8    10    11    10    15    19    23    15    17    29    31    35    45    35    37    50    56    55    53    47    63    58    57    75    66    82    78    64    75    87    67    78    78    66    60    67    53    52    53    45    34    42    32    30    28    30    29
    36    22    28    32    30    22    16    17    20    11     4     7     6     9     1     4     0     2     2     3     1     1     1     1     0     0     0     1     1     0     0     1     1     0     0     0     0     2     0     0     1     2     2     0     2     4     0     4     4     6     4     3     9    11     8    10     9    18    16    19    21    22    20    31    22    39    40    33    46    47    55    45    64    40    48    58    69    60    62    68    60    67    78    62    77    70    70    69    66    77    59    58    52    41    45    40    39    37    37    36
    36    41    43    28    25    13    14    14    20    13    11     9    10     4     4     1     3     0     1     4     0     1     2     1     1     0     1     0     0     0     0     1     0     1     0     0     2     0     0     0     2     0     0     1     1     0     2     3     2     2     6     3     6     9     9    15     8    11    12    14    17    16    13    28    34    21    36    48    47    34    54    47    52    59    44    60    68    60    67    58    85    69    76    75    69    71    65    68    75    61    71    58    71    58    59    51    48    51    45    34
    37    40    36    31    35    33    25    17    15    10    13    11     9     6     3     3     1     4     3     2     2     4     1     3     2     0     0     0     0     1     0     0     0     1     0     0     0     0     0     1     0     0     1     1     1     3     2     2     2     0     1     2     7     3     9     7     5    13    10    13    20    17    19    23    28    34    28    29    31    45    46    46    43    50    52    52    54    65    52    65    64    71    75    64    82    58    45    64    70    67    64    73    65    54    56    60    49    40    26    49
    34    35    51    41    30    31    21    25    15    21    13     8     9     7     7     7     4     6     1     0     1     2     0     0     0     0     0     0     0     0     0     1     1     0     1     1     0     0     0     0     0     2     2     3     2     1     3     2     3     3     1     0     5     2     7     4    10    13     8    11    11    14    15    18    21    16    28    25    38    39    45    57    50    57    57    57    42    50    59    57    47    71    59    85    67    63    75    71    61    74    65    69    70    46    45    57    34    45    41    35
    36    41    37    44    38    30    36    25    18    20    14    15     9    11     8    10     5     8     5     2     0     4     0     1     1     3     0     0     1     0     1     1     0     0     0     1     0     0     0     1     0     0     0     0     0     2     0     4     1     2     1     3     1     2     5     5     5     7     4    10    16    18    14    17    20    21    25    28    29    30    44    47    43    54    55    63    44    51    58    60    62    86    63    61    78    81    65    57    68    75    55    79    87    44    54    62    45    53    42    49
    63    34    34    34    33    32    28    23    22    14    15     8    12    14    10     8     6     7     2     6     5     3     2     2     2     2     1     0     0     0     0     1     1     0     2     0     1     0     0     0     0     0     0     0     1     0     0     0     3     0     2     2     4     4     4     6     3     2    12     8    10     6    16    22    16    15    28    31    34    34    36    39    53    46    47    58    41    58    63    67    61    61    80    59    82    61    73    59    60    64    77    52    67    55    52    50    48    47    57    56
    55    45    39    41    36    30    30    32    20    28    19    16    12    11    17    11     6     8     2     9     5     4     5     1     2     1     1     0     0     1     0     0     1     0     0     0     0     0     0     0     0     0     0     0     1     1     0     2     4     2     2     6     1     5     5     4     1     4     4    11     7     6    10    13    17    17    15    19    26    37    42    37    40    58    41    54    42    34    40    59    61    61    56    66    66    66    68    53    61    72    62    77    60    73    78    65    47    65    41    49
    59    41    47    39    32    29    24    44    30    27    19    24    14    15    13     8    14    11     3     5     7     6     4     5     2     2     2     1     0     2     0     2     1     0     1     0     2     0     0     0     1     1     0     0     0     0     2     1     1     3     6     4     2     4     1     3     4     2     8     3     8     8     3    11    15    16    14    21    23    33    32    35    34    41    42    54    45    36    33    51    56    66    57    62    55    65    61    76    81    70    69    51    69    63    79    62    66    62    63    55
    64    48    42    45    31    43    23    23    39    44    30    15    20    22    20    20     6     8     8     7     4     4     7     3     3     4     2     1     0     0     1     2     0     0     1     1     2     0     0     0     0     2     0     0     1     2     1     2     0     1     2     5     0     1     2     2     4     3     4     6     7    10     9     8    13    12    19    16    16    37    21    28    30    45    44    42    51    43    42    52    49    54    79    68    65    63    75    70    63    68    72    59    78    72    58    59    68    59    62    63
    60    58    51    33    41    46    41    30    33    24    35    27    23    22    22    21    20    16    12    12     8     8     1     4     3     1     2     1     2     1     0     1     0     0     1     0     0     0     0     0     0     0     1     1     0     0     1     0     2     1     3     2     2     1     2     0     1     3     3     7     1     6     7     7     9    15    19    14    14    28    20    26    25    41    42    43    57    42    49    45    66    49    65    69    57    67    64    71    77    71    72    68    71    63    65    72    49    64    55    67
    67    66    56    48    49    34    43    45    33    30    29    20    27    22    26    27    23    11    18     8    11     9     9     7     5     3     1     1     1     1     2     1     2     0     0     0     0     0     0     0     0     0     0     0     1     1     0     0     1     2     0     0     2     2     0     2     0     3     0     1     3     4     6     7     4     5     8    11    16    11    18    14    34    35    39    29    34    35    48    41    49    44    51    68    61    42    52    71    79    80    56    60    51    69    55    72    67    59    76    68
    66    57    63    61    51    49    40    43    50    42    41    55    33    28    40    27    31    28    13    17     6     9    12     3     3     4     1     3     2     1     1     1     1     1     1     1     1     0     0     0     0     0     0     0     1     1     0     1     0     1     0     0     1     1     1     0     1     1     1     2     2     2     7     8     9     9    18    15    17    15    21    23    23    39    24    28    40    24    35    39    34    33    37    48    43    67    67    61    72    62    74    67    72    69    70    88    69    55    79    85
    67    65    55    53    40    42    54    43    41    43    49    52    37    29    36    27    17    17    13    13    16    10     8     6     7     8     4     4     1     1     3     1     1     0     0     1     2     0     0     0     0     1     0     0     0     1     0     0     0     2     0     0     1     0     0     0     2     2     0     2     4     4     4     2     5     8    13    11    15    19    14    16    14    17    23    23    24    36    25    31    43    56    35    66    51    53    51    64    65    55    80    78    71    70    62    64    61    61    70    65
    67    61    46    51    51    47    48    48    39    55    49    46    39    40    38    26    24    29    22    13    25     9    11     9    11    10     4     3     0     0     4     1     1     1     1     0     1     0     0     0     1     0     0     0     0     1     1     1     0     0     3     0     2     1     1     0     2     2     2     2     0     4     2     6     8     5     8     6     8    12    17     6    19    16    21    27    28    34    30    28    32    39    41    55    48    54    59    67    58    58    69    76    62    70    68    62    67    70    59    55
    57    62    52    63    65    55    56    67    45    50    47    50    29    46    47    44    39    33    29    18    27    17    17    12     9     6     4     6     2     4     2     0     5     0     4     1     1     0     1     0     0     0     0     0     2     1     0     0     0     0     0     0     0     0     1     0     1     1     0     3     4     2     2     4     7     5     5     7    12     6    12    15    19    18    16    32    27    33    32    26    35    32    47    45    43    68    59    66    53    72    74    70    64    68    77    69    76    91    68    83
    53    63    55    50    72    61    55    44    47    31    46    39    38    36    42    36    42    27    32    32    20    14    14    12     7     8    13     6     3     4     3     2     2     3     1     2     0     0     0     0     0     0     0     1     0     2     0     1     1     0     0     0     2     0     0     1     2     1     0     3     1     0     1     2     5     6     5     9     8    16     9     9    17    19    27    24    34    21    24    25    39    33    37    46    51    48    29    74    55    55    59    66    63    62    68    74    61    83    82    71
    74    59    72    67    54    53    77    58    42    43    54    57    45    48    35    45    38    43    31    35    22    15    27    14    14     9    11     2     4     2     6     4     3     2     1     0     1     0     0     0     0     0     0     0     0     0     0     2     0     0     1     0     1     1     0     0     0     0     0     1     0     1     3     3     2     2     2     5     4     9     5     7     8    10    13    18    21    24    31    35    27    26    28    41    42    47    43    65    52    67    42    61    85    68    53    57    77    78    57    79
    75    69    50    66    64    63    53    54    55    65    45    43    41    48    53    40    36    42    27    31    23    20    16    17     7    15    12     9    10     6     4     1     0     0     1     2     2     1     1     1     0     0     0     0     0     0     2     1     0     1     1     4     1     1     1     0     0     0     2     1     0     1     5     2     1     2     2     3     6     7     3     5    12     8    20    15    17    26    21    27    27    21    29    26    31    40    39    44    48    51    52    40    55    54    66    67    78    68    67    73
    65    77    72    59    59    49    59    51    73    43    45    36    38    46    42    31    48    48    34    40    20    28    17    18    15    11     8    12    12     8     3     3     3     6     3     3     3     1     2     1     0     1     0     0     0     0     0     0     1     0     0     0     0     1     0     0     0     1     2     0     0     3     1     2     2     4     1     2     4     5    11     7     5     4     6     7    16    20    17    20    25    25    28    22    27    38    52    52    48    57    56    76    56    64    66    70    79    61    89    73
    73    62    74    62    67    65    61    70    63    61    59    49    53    46    61    66    48    42    27    21    31    27    22    19    19    15    10     6     7    11     7     5     3     3     1     2     1     1     4     0     0     0     0     0     0     1     1     0     0     2     1     0     0     0     1     0     0     0     0     0     0     4     0     1     3     0     3     6     6     9     3     5     6    10    11    11    20    12    14    25    14    28    27    26    34    27    25    48    36    39    54    55    62    48    55    50    69    64    65    54
    74    74    59    57    57    58    71    70    65    58    46    58    55    47    41    57    43    47    34    29    26    31    29    22    15    25    14     9     7     5     3     3     2     3     4     2     2     3     3     3     2     3     0     0     0     0     0     0     0     1     0     1     0     0     0     1     2     0     0     1     1     0     1     5     0     1     3     3     5     2     5     6     8     8     7     8    12    16    12    17    22    22    22    22    26    37    32    31    49    54    46    55    58    52    45    59    64    57    67    56
    68    63    54    68    56    64    75    72    72    57    53    59    65    49    48    54    39    58    57    37    38    36    21    29    21    17    17    16    19    10     7     2     4     6     1     3     1     2     3     4     3     3     0     0     0     0     0     0     0     1     0     0     1     0     0     0     1     0     0     0     0     0     2     3     2     2     1     1     3     3     9     8     5     8    10     8     8    17    12    21    17    17    19    22    23    29    28    29    39    35    40    42    46    52    68    52    67    63    65    52
    74    58    62    59    50    65    65    59    68    53    65    68    49    61    57    61    47    42    45    41    49    35    25    25    26    24    23    14     7     8     5     8     4    12     5     7     2     4     4     3     3     0     1     1     0     1     1     0     4     0     1     0     0     0     0     1     1     0     0     1     0     0     0     0     1     1     0     7     3     1     5     3     4     8     9     7     6     7    10    12    16    13     9    19    24    30    33    37    32    56    45    53    56    39    45    63    46    40    60    62
    66    67    58    74    64    78    80    62    64    55    69    64    62    75    54    53    52    55    55    39    33    28    29    33    43    28    21    19    21     9    13     8    10    12     9     6     3     5     5     3     4     1     1     0     1     2     2     1     0     0     1     0     0     0     0     0     0     0     2     0     1     1     1     2     1     1     1     0     1     1     1     7     3     6     5     6     6    10    12    10    15     7    23    22    25    24    24    34    32    37    40    47    41    61    48    48    57    54    64    65
    57    62    62    69    71    85    62    77    71    71    68    66    62    59    57    45    48    47    52    42    44    35    41    37    35    28    27    14    16    10    13     9    11     9     6     5     6     9     4     4     3     3     1     2     0     3     3     0     1     0     0     0     0     0     0     0     0     0     0     0     1     0     0     0     0     0     2     1     2     0     4     2     2     5     2     9     7     6    14     8    14    11     7    13    26    16    22    31    21    22    25    42    44    48    44    52    43    47    72    57
    56    64    57    66    60    74    64    74    60    59    74    55    54    66    69    63    56    57    54    48    49    39    47    47    37    31    21    20    16    20    17    15    21    15     9     6     3     4     8     6     2     1     1     2     1     0     1     0     1     0     1     2     0     0     0     0     0     0     0     1     0     0     0     0     0     0     0     1     4     0     1     0     1     2     4     9     7    10     9     8    15    18    15    15    22    21    15    18    22    36    25    39    52    45    39    42    42    60    50    56
    60    53    55    68    54    68    67    65    67    65    58    59    65    54    48    60    56    66    51    49    58    38    43    46    43    34    28    33    19    25    14    14    13    14    11     8     8     5     8     6     2     2     3     3     2     1     0     2     2     0     1     0     0     0     0     0     0     0     0     0     1     0     0     2     0     0     0     0     2     2     3     2     6     2     7     6     5     6     9     7    10    12    11    20    10    15    21    21    20    24    36    27    41    48    41    38    48    45    50    59
    53    64    57    61    63    62    79    60    71    62    54    63    69    70    60    67    45    52    48    53    46    53    43    43    48    39    37    27    29    18    21    12    15    16    12     9    13    12     6     5     9     5     2     1     1     3     2     3     2     1     2     1     0     0     0     0     0     0     0     0     0     1     0     0     1     0     2     2     1     1     0     1     4     3     5     4     1     2     6     6     9     7    10    15    15    21    18    27    27    18    28    27    29    39    31    45    40    49    53    59
    49    57    60    64    76    79    67    70    57    55    62    62    89    64    63    60    58    72    62    46    61    57    48    49    48    32    38    29    29    30    23    24    19    10    17     9     9     7    17     7     7     2     6     3     1     3     3     3     1     2     0     1     1     1     0     1     0     0     0     1     0     0     0     0     0     0     1     1     0     2     1     2     1     1     0     1     3     5     1     5     7     6    12     8    22    13    18    20    18    30    27    32    41    43    36    38    48    43    43    44
    56    48    60    68    66    67    58    69    62    61    73    70    68    56    70    57    80    73    43    63    67    37    50    37    37    34    35    33    35    38    30    20    21    15    16    10    13    10    15    12    15     8     4     3     0     8     0     1     1     1     1     2     0     0     2     0     0     0     0     0     0     0     2     1     0     1     1     0     2     1     2     3     2     2     2     4     3     4     0     4    12     9     8    12    19    13    21    14    22    18    35    21    22    40    33    23    33    27    44    53
    50    51    55    63    62    47    53    93    51    70    79    78    67    58    74    61    64    75    58    42    61    42    56    44    49    37    36    45    29    26    33    29    21    13    15    12    17     8    13     9     5     6     7     2     6     1     3     2     1     1     0     1     1     1     0     1     0     0     1     1     0     1     1     0     0     2     1     0     2     0     1     1     0     0     1     1     5     5     3     5     5     5     6    10    10    16    16    18    15    16    20    20    23    41    32    38    35    30    34    34
    42    45    33    57    41    62    70    55    64    59    45    59    71    55    65    69    62    52    63    55    47    51    37    61    49    42    37    31    35    35    40    36    23    19    15    19    19    16    11    11    15     6     7     6     3     2     2     4     1     1     0     2     1     0     2     2     1     1     0     0     0     0     0     0     0     1     0     0     1     0     2     0     1     1     4     5     2     7     4     4     7     6     7     8     4    13    10    13    15    13    20    26    22    31    23    27    31    28    45    41
    36    37    50    40    57    54    54    75    80    58    70    65    53    68    66    63    67    69    60    60    58    63    55    41    36    42    44    44    47    27    36    29    27    37    19    27    21     9    14    14     6     4     3     3     4     5     2     4     2     3     2     3     6     2     2     2     1     1     0     0     0     0     0     1     0     0     0     0     3     0     0     0     1     0     0     1     1     4     3     1     3     3     7     5    11    13    11    17    17    16    17    18    26    23    33    29    27    27    39    36
    31    46    44    37    55    55    56    59    55    60    66    66    56    54    64    61    61    59    54    71    72    71    52    49    44    41    54    45    45    38    31    34    26    27    28    24    22    19    16    14    12    16     8     6     2     5     4     2     3     4     1     4     1     6     3     1     0     1     0     0     0     0     0     0     0     1     0     0     1     1     1     2     0     1     2     1     2     1     1     4     2     3     7     8     5    12     5    14    18     9    13    13    19    18    25    30    31    28    27    32
    35    32    41    39    53    46    43    47    46    73    55    57    47    49    64    69    56    57    56    61    58    75    64    60    54    43    46    42    46    34    47    40    33    23    32    29    32    24    18    26    12     8     7     3     4     4     4     3     4     3     6     5     3     5     0     1     1     2     0     0     0     0     0     0     0     2     0     0     0     1     1     0     0     1     3     5     3     3     4     3     3     1     4     3     6     6     7     6    11    12     7    17    13    19    19    18    27    33    43    36
    31    46    42    48    40    49    55    72    53    54    60    55    60    75    55    66    61    55    58    74    59    56    84    62    72    48    55    57    45    56    39    34    35    30    29    26    32    18    14    17    21    11     7    12     8     7     6     3     5     5     4     3     3     1     3     3     0     0     1     0     0     0     0     0     0     0     1     1     0     0     1     0     3     2     2     4     4     1     2     2     2     3     4     7     4     8     5    15    10    15    11    10    12    11    17    25    25    28    20    29
    31    25    40    43    42    41    42    54    49    56    65    56    57    56    61    61    54    68    70    53    59    84    60    54    61    58    55    60    52    45    46    44    40    45    42    35    25    20    19    18    16    12    18     3     4     4     8     6     6     7     2     7     4     3     0     4     1     2     0     1     0     1     0     0     0     0     0     0     0     0     0     0     0     2     0     4     0     2     4     2     1     0     4     4     4     4     6     8     5     9     4     9    11    11    10    10    20    23    24    32
    23    30    37    55    36    42    49    51    66    56    53    63    60    73    62    53    69    69    67    63    83    69    60    69    81    68    63    54    66    55    51    30    45    41    57    35    30    32    29    17    19    11    10    16    11     6    10     7     5     3     3     4     2     3     5     1     1     3     3     3     1     0     0     0     0     0     0     0     0     1     1     0     0     0     2     0     0     0     1     3     0     1     1     2     3     5     4     6     8     9     9    15     5    14    22    20    16    14    35    25
    31    36    42    33    41    40    45    37    39    39    49    58    65    66    74    67    66    66    86    68    77    68    62    65    70    57    54    54    51    65    47    63    41    57    60    37    37    22    34    26    19    22    24    10    15    19     4     4     4     7     4     3     2     5     3     4     1     3     1     0     0     0     0     0     1     1     1     0     0     1     0     0     0     1     0     1     1     1     0     3     1     0     3     3     3     9     5     8    10     5     5    12    16    11    15    17    20    23    16    14
    19    28    24    47    45    35    42    54    48    60    58    48    49    58    53    66    54    74    66    72    77    75    63    71    63    62    47    60    50    51    60    50    56    61    41    35    34    43    29    33    15    20    16    16    16    13    16    18     7     4     5     2     5     3     8     0     6     1     0     2     2     1     0     1     1     0     1     0     0     0     0     1     0     1     1     0     0     0     1     0     1     0     2     2     1     3     1     6     6     7     7    12     7    15    17     8    21    23    16    20
    22    17    24    19    41    31    38    33    33    53    45    39    50    63    49    54    47    79    68    68    76    78    74    85    85    62    54    57    69    73    55    64    48    48    45    51    42    33    35    28    24    20    14    10    17    11    17    13     4     4     7     4     4     6     3     2     2     1     0     3     2     0     1     1     1     1     1     1     0     0     0     0     0     0     0     0     1     0     0     1     0     2     0     2     7     5     4     2     3     2     5     5     4     8    10     9    21    23    19    20
    22    21    12    32    27    31    28    41    33    52    37    38    59    55    60    52    55    66    63    79    69    63    53    56    69    69    77    75    53    62    51    58    55    54    52    52    41    36    28    20    22    32    23    17    26    17    13    16     8     4     6     5     4     4     3     6     0     1     1     5     4     2     1     2     1     1     2     0     1     1     0     0     0     1     0     1     0     2     1     0     3     0     2     0     1     2     2     6     7     7     9     7     8     6     7    11    11     9    18    21
    24    17    22    23    23    27    24    26    28    24    45    38    33    44    55    54    64    70    60    58    66    57    56    72    52    64    78    59    71    59    64    65    60    58    62    62    47    42    29    36    34    18    28    24    22    20    22    14    10     8     7    11     1     2     3     3     1     1     2     3     3     4     5     1     4     2     0     0     0     0     0     0     1     0     1     0     1     0     0     0     0     2     1     2     1     2     1     4     4     5     2     7     6     9    10     9    11    11    18    28
    11    20    22    22    25    22    26    34    30    41    37    35    42    40    58    56    56    61    59    60    65    66    68    63    59    63    64    57    58    71    44    56    54    55    58    53    45    48    46    34    33    29    29    23    25    24    16    16    10    16     9     6     1     5     6     2     2     2     1     6     4     1     2     3     2     0     2     0     2     0     1     0     0     0     0     0     0     0     0     0     0     1     1     1     4     1     0     4     4     4     4     0     6     4     5     7    14    14    10    12
    19    17    20    16    14    31    31    27    32    26    34    39    46    48    52    48    51    41    56    59    76    74    70    50    51    49    64    54    56    66    77    65    55    58    69    44    56    46    55    36    32    41    32    35    27    23    15    12     7    11     9     5     9     4     3     2     4     1     3     0     1     5     1     1     3     1     1     0     0     0     0     0     0     0     0     1     0     0     1     0     0     0     0     0     2     2     0     2     3     3     2     3     2    10     3     9     9    13    14    17
    11     7    14    19    23    23    31    27    37    34    43    32    47    45    38    50    38    47    57    52    67    77    72    45    52    74    52    58    60    69    61    57    41    65    74    50    59    41    47    41    37    30    41    30    26    17    22    19    12    12    14     9    12     8     7     9     8     2     9     2     2     4     2     4     4     1     0     1     0     0     0     2     0     3     1     2     0     1     0     0     0     0     1     1     0     2     2     1     1     5     1     6     6     6     4    10     9    10     2    12
     7    15    20    16    24    22    27    24    21    30    34    41    48    37    40    32    35    46    66    40    72    57    71    56    60    54    64    68    61    63    63    66    71    54    73    68    65    54    52    46    47    41    45    39    37    34    30    21    26    18    14    15    12     9    10     7     4    11     2     3     4     0     2     2     1     2     0     0     1     1     0     1     0     3     1     1     0     0     0     0     0     2     1     1     1     1     4     2     3     3     2     2     3     4     6     5     6    11     8     8
     7    10    14    11    15    23    17    20    32    24    27    36    31    33    37    45    38    45    55    51    56    60    66    58    51    57    51    53    58    62    66    68    68    74    68    62    56    41    59    43    52    48    45    38    45    36    33    20    22    17    20    19    16    17    13    17     8     3     2     4     2     3     0     3     0     1     0     0     1     0     0     0     1     2     1     1     2     0     0     0     1     0     0     3     1     2     1     0     2     1     2     2     3     0     3     2     8     8    11     8
     2    12    11     8    16    12    18    21    20    24    37    38    28    35    37    48    36    43    46    60    69    59    54    66    76    51    62    68    71    52    61    73    64    61    60    66    45    75    47    54    37    43    46    49    43    45    29    25    22    26    16    23    15    16    13     6     5     9     4     4     4     4     1     2     2     5     1     0     1     1     1     1     0     0     0     0     2     1     1     0     1     0     1     0     1     1     0     0     1     2     5     0     3     2     1     5     2     0     3     8
     2     8     8     9    12    13    23    19    26    16    30    26    28    30    33    39    33    49    38    51    52    61    71    52    66    73    69    60    66    69    59    72    67    73    69    71    56    54    37    48    56    49    37    52    46    50    31    15    25    25    22    17    16    24    17    20     8     8     7     2     4    11     4     1     3     4     0     1     1     2     0     0     1     1     1     1     0     2     0     0     0     0     0     0     1     2     0     0     2     1     3     2     2     4     3     1     2     6     4     4
     6     3     7    13    11     9    15    24    21    18    18    18    27    33    19    43    51    46    42    45    53    39    55    49    55    45    50    50    61    57    50    80    81    73    55    54    60    47    75    51    47    63    39    51    47    50    35    29    25    25    24    22    20    14    15     8    13    13     8    11     9     1     5     3     4     1     2     0     1     2     0     0     4     3     0     1     1     2     0     0     0     0     1     0     0     0     0     0     0     0     2     1     1     1     2     2     2     3     8     4
     6     4     4     6    22     9    13    17    13    22    28    27    26    21    21    34    34    41    42    43    59    48    45    48    54    50    52    59    66    74    85    66    57    75    69    59    57    53    49    65    46    45    52    58    43    41    41    38    27    34    32    27    23    18    19    16    23    12    16    15     7    14    11     5     4     2     3     1     1     3     1     0     0     0     2     0     1     0     0     0     0     0     0     0     0     0     0     1     2     2     2     4     1     2     1     2     7     4     5     3
     4     5     7     3     7     6    11    12     8    17    12    19    24    19    29    24    35    35    35    40    52    49    58    46    49    58    57    54    58    71    54    69    66    54    81    69    67    60    45    63    54    67    54    51    55    57    45    36    30    35    35    34    29    23    19    17    21    22    11    14    16     4     8     5     1     3     1     5     0     1     1     1     0     1     1     0     2     2     0     0     0     0     0     0     0     1     1     1     0     2     3     2     0     1     3     1     2     5     6     6
     4     6     4     3     5    14     7    14    21    17    16    14    20    24    29    31    31    34    31    39    38    36    55    43    37    56    61    54    44    65    70    76    69    76    64    66    74    61    61    76    60    72    45    48    41    49    40    43    42    36    31    37    23    23    34    27    20    26    24    14    12    11     9     7    11     4     4     7     4     4     2     3     1     4     2     4     0     0     1     0     0     0     0     0     0     0     3     1     0     1     1     0     1     0     3     2     0     4     2     5
     2     6     7     3     7    10     9     7    13    12    14    21    21    20    27    29    20    24    28    31    27    31    35    39    38    47    36    59    62    64    58    71    63    57    65    64    61    56    69    52    62    60    61    53    53    50    53    68    37    44    41    42    35    43    29    25    25    27    27    15    14    14    15    11     8    13     8     5     1     3     1     2     1     4     5     1     1     0     0     0     0     0     0     0     0     0     1     0     0     2     0     0     1     2     2     2     1     3     4     2
     2     1     7     5     7     7     7    10    13    13    16    14    15    10    19    22    30    17    23    26    32    38    36    37    57    48    54    63    47    47    63    59    69    70    56    60    53    62    55    63    57    56    66    67    72    59    47    60    54    48    37    26    33    39    42    29    27    19    29    17    29    23    10    10     6     7     8     5     2     4     1     1     5     5     1     0     0     0     0     0     0     0     0     0     0     0     0     0     0     0     0     0     0     1     1     1     1     4     2     2
     5     3     6     7     4     6     2     7     7     9    16    26    19    16    18    18    25    13    18    34    32    34    41    35    39    60    45    56    60    49    49    48    57    61    54    58    59    67    74    52    74    87    53    69    68    54    61    54    52    39    53    42    54    41    26    25    34    29    17    30    26    15     9    14     8     5     7     9     4     3     2     1     2     1     1     1     1     0     1     0     0     0     0     0     0     0     0     0     0     0     0     0     0     0     0     0     1     2     1     2
     3     0     3     4     5     2     6     4     8     5     9     5     8    17    19    26    22    24    39    24    37    28    34    27    35    45    47    62    53    59    67    63    50    58    49    64    54    61    56    60    56    67    54    62    59    51    42    59    53    52    49    38    42    43    39    37    29    31    21    28    19    17    12    11    12    16     3    13     7     9     3     1     9     3     2     1     0     0     0     1     0     0     0     0     0     0     0     1     0     0     0     1     1     1     2     1     0     0     3     2
     3     3     3     3     4     5     9     6    17     8    12    12    12    11    14    13    22    28    19    23    24    19    27    29    38    33    38    71    48    68    45    45    49    69    61    71    56    59    58    74    70    61    77    72    78    56    51    53    60    57    42    55    39    33    50    37    25    39    22    20    22    17    15    10    11    18    10    12     9    10     5     4     7     7     2     6     1     1     0     0     0     0     0     0     0     0     0     0     0     0     0     0     1     0     0     1     0     0     1     3
     0     0     2     1     4     3     2     7     2     9    12    10    13    12    10    24    16    20    17    26    21    24    33    42    36    35    41    46    48    83    51    51    63    58    61    63    54    58    74    71    72    65    70    79    67    64    76    62    50    57    50    53    46    53    43    38    33    27    25    35    26    22     9    21    14    16    12    11     7     4     4     6     2     5     3     5     2     2     1     3     1     1     0     0     0     0     0     0     1     0     0     0     0     2     0     0     1     1     0     2
     0     1     0     3     4     4     2     7     5     4     3     6     7    14    11    19    16    23    14    16    21    27    29    32    34    33    32    51    46    49    45    51    51    33    63    62    58    65    58    59    62    60    72    72    78    71    60    59    53    43    37    62    44    53    49    49    37    26    27    36    28    27    19    24    13    17    11     8     9    12     3     7     6     7     5     4     3     2     2     0     0     0     0     0     0     0     0     0     0     0     0     0     0     0     1     1     0     0     0     0
     1     1     0     3     2     1     3     3     0     6     6     5     5     9     8     7    14    21    18    21    17    25    30    31    26    32    27    43    40    50    57    42    55    50    47    64    54    55    54    56    62    57    65    75    67    63    60    67    63    48    48    47    51    51    45    36    35    46    44    43    29    25    26    21    25    16    20    14     9    10     7     8     8    10     3     5     1     2     4     2     1     0     0     0     1     0     0     0     0     0     0     0     0     0     0     1     1     1     0     0
     1     0     0     2     4     5     3     4     3     1     1     5     7    10     5    14    10    10    11    22    20    18    23    16    19    28    32    34    39    38    34    35    34    51    54    60    53    58    55    74    67    77    67    79    83    72    61    49    49    55    62    69    60    60    53    50    39    44    52    36    37    30    32    26    16    23    18    16    12    14    11     9    10     7     3     5     4     1     0     0     1     2     0     0     0     0     0     0     0     0     0     0     0     0     0     0     1     0     0     0
     0     0     0     2     2     2     5     4     3     3     5     3     9     2     9    10    12     4     8    13    19    17    11    17    21    23    31    34    30    47    48    46    45    38    60    41    56    57    45    60    60    65    70    72    69    71    79    72    78    60    48    67    74    50    48    51    40    43    55    47    37    35    31    27    27    20    20    18    11    21    16    12    10     4     7     4     4     3     3     3     4     2     1     0     0     1     1     0     0     0     0     0     1     0     0     0     0     1     1     1
     1     1     0     1     1     1     3     0     4     3     7     4     7    10     5    10     6    18     6    12    22    16    21    17    18    32    30    40    23    38    40    48    33    32    51    43    46    65    78    52    63    70    64    72    76    52    75    67    71    67    79    50    46    50    55    54    49    41    36    54    45    41    45    32    23    25    22    21    26    18    17     8    13     8     9     8     6     4     1     6     2     3     4     1     1     1     0     0     1     0     0     0     0     0     0     0     0     0     0     1
     0     2     0     0     0     0     1     2     4     5     4     4     8     5     5    11     3     6    15     7     9    13    21    20    24    33    25    30    35    34    28    30    43    45    40    46    65    58    58    64    47    63    48    68    79    73    64    77    64    68    61    55    59    63    56    46    54    46    38    31    51    40    46    23    27    28    22    17    21    25    12     7    18     6     7     9     7     1     5     8     2     5     2     1     2     1     0     0     0     0     0     0     0     1     0     0     0     0     0     0
     1     1     0     0     2     1     2     3     2     4     6     2     8     5     3     3     6     6     4    11    15    16    19    15    20    34    23    25    24    26    32    36    31    31    38    44    49    46    47    53    54    55    48    64    73    51    74    67    74    71    80    63    61    62    58    58    44    44    58    47    46    36    35    27    31    32    25    22    19    15    14     9    12    11    18     3    11     7    10     2     3     2     5     1     1     1     0     0     0     0     0     1     0     0     1     0     0     0     2     0
     0     1     0     1     0     0     0     1     1     0     3     2     5     5     5     3     5     3     7     5    10    17    10    15    17    18    14    11    25    30    39    31    41    33    28    49    48    57    45    46    48    75    73    70    62    86    66    69    68    66    72    60    69    73    53    61    46    60    53    48    60    38    40    37    42    37    22    29    18    31    19    11     9    21    19    11     7     6     6     5     4     4     4    10     2     1     0     0     0     0     0     1     0     0     1     0     0     0     0     0
     0     0     2     1     1     0     0     1     0     1     0     2     2     3     4     3     7     7     7     5    12     8     9    18    21    16    18    25    26    26    26    26    36    31    50    42    50    46    43    51    59    47    43    57    61    71    68    84    77    59    60    55    53    60    54    60    69    61    53    56    52    50    47    40    42    28    33    29    28    30    15    26    17    14    13    12     9    15     9     6    11     8     6     7     4     4     1     1     0     0     0     1     0     1     1     0     0     0     0     0
     0     0     0     0     0     0     0     0     0     0     2     5     3     4     3     3     4     4     3     3    11    10     9    16    10    13    14    21     9    25    20    32    33    36    36    45    35    49    51    43    55    52    50    65    64    82    71    55    72    65    71    63    61    60    52    63    61    51    71    57    60    58    46    44    50    31    29    34    24    33    23    15    19    13    18    16    13    11    18    10    10    10     3     8     4     5     2     1     2     2     1     0     1     1     1     0     2     0     0     0
     0     1     0     2     1     0     0     0     0     0     0     3     3     1     3     2     2     7     3     6     5     4     7    13     7    12    21    11    26    26    30    23    24    34    29    37    41    35    54    46    45    62    57    57    59    58    65    75    80    71    56    80    70    64    63    62    63    55    70    41    47    45    52    37    47    34    35    33    29    17    21    16    16    14    14    15    17    22     7     8    15     8    11     3     5     5     4     0     0     1     1     0     0     4     0     0     0     0     0     1
     0     0     2     0     0     0     0     1     2     0     0     2     1     0     4     3     1     1     4     8     8     3     7     7     9    11    12    19    16    22    15    16    27    23    30    37    34    28    34    41    48    60    55    64    65    51    71    60    51    65    60    61    63    57    50    62    67    60    50    64    61    57    56    53    54    42    36    40    29    27    39    17    27    18    18    11     7     5    15    12    10     6    14     9     5     8     1     2     4     2     0     1     1     0     0     0     0     2     0     0
     0     0     1     0     2     1     1     0     0     1     1     2     1     0     3     1     1     4     3     6     5     5     6     6    17     8    10    11    18     9    13    25    24    13    26    29    30    25    41    34    41    43    49    51    43    69    65    54    55    53    69    62    69    67    60    87    54    62    64    55    53    68    53    57    50    49    33    36    34    29    32    29    25    26    12     9    15    27    19    13    12     8     8     9     8    10     6     3     5     3     1     2     0     0     0     2     1     0     0     0
     0     1     1     0     0     1     3     0     0     0     2     0     0     0     0     1     1     2     2     3     3     2     5     5     4     6    10     8     9    12    17    18    20    16    27    29    37    33    37    39    44    51    38    51    37    41    53    54    56    76    68    59    65    80    65    57    66    68    44    60    61    56    59    60    58    53    48    42    40    31    23    29    19    22    23    21    10    24    12    20    14    15     9     9    12    15     9     4     7     4     2     1     0     0     2     4     3     0     0     0
     0     3     2     0     1     0     0     0     0     0     0     3     2     0     0     0     3     0     0     0     3     2     4     7     8     5     9     7     9     4     8    15    15    23    14    21    32    18    23    33    32    35    32    42    43    55    44    57    66    62    59    51    73    49    71    61    73    72    55    79    61    60    68    47    54    67    50    37    52    38    33    38    29    28    21    23    17    23    12    20    16    18    17    12    13     9    11     9     1     6     3     2     6     2     5     0     0     1     0     0
     1     0     0     0     1     1     0     0     1     2     2     0     0     0     0     0     3     1     1     2     3     5     8     3     4     9     9     2    15     8     9    13    18    10    15    23    25    27    30    29    27    34    44    40    42    50    43    55    58    48    56    63    67    64    63    69    61    66    74    62    66    52    52    61    71    61    48    44    53    48    30    25    40    29    31    17    29    21    20    20    21    15    14    18    19    15    14     6     4     9     0     5     5     1     2     2     2     2     1     1
     1     0     0     0     1     0     0     0     0     0     0     0     0     1     0     1     2     0     1     3     6     5     3     3     8     9     3     3     5    10     9    11     9     8    11    23    20    19    32    26    36    32    42    43    40    43    45    38    47    43    53    49    66    68    67    54    63    69    70    59    81    73    62    65    62    57    53    68    55    56    54    42    35    41    26    28    19    23    22    11    17    18    15     8    14    18    13    12     5     9     8     3     5     2     4     0     4     1     0     2
     0     0     0     1     2     0     1     0     0     0     0     0     0     2     2     0     3     0     1     3     6     1     0     0     3     7     9     7     8     7     6    10     8    10    11    11    13    19    22    26    23    33    31    42    50    48    46    34    46    62    53    60    68    64    58    63    71    80    77    71    58    66    70    64    64    63    80    55    42    41    54    66    45    32    37    37    31    29    28    25    13    20    19    25    16    17    15     8    18    12     4     6     4     0     4     3     1     2     2     5
     1     3     0     0     1     1     0     0     2     1     1     0     1     0     1     1     0     1     0     1     1     2     4     1     1     2     4     6     5     9     4     7    12    11    13    17    16    21    21    18    21    37    38    38    40    51    46    42    43    46    49    73    72    49    77    69    61    70    63    68    59    66    74    65    70    61    77    71    50    58    64    58    50    42    43    42    32    27    20    27    28    31    23    24    18    15    17    21    14    10     8     8     7    16     4     1     3     3     2     1
     2     3     0     1     1     0     0     0     0     1     1     0     0     2     1     0     0     1     2     0     4     2     6     3     1     3     3     5     7     7     6    10    11    15    14    11    16    19    19    26    21    31    31    38    40    32    44    32    49    45    55    55    58    59    57    70    72    68    63    69    58    68    63    63    73    65    61    66    63    68    63    60    52    58    46    40    25    28    27    30    41    24    25    28    19    28    12    15    18     8    11    12    11     6     8     2     3     5     4     6
     2     0     0     1     1     1     1     0     0     0     0     0     0     0     0     0     0     2     2     1     4     1     3     2     2     2     3     6     2     8     5     9     9    11    10    11    10    14    16    21    19    26    33    29    22    40    31    33    45    44    37    46    70    52    56    56    63    64    58    60    59    67    68    60    53    57    59    69    67    56    68    60    54    48    48    43    36    26    35    25    28    26    34    25    27    25    18    15    12    13     9    12     8     2     3     4     9     5     4     1
     7     1     1     1     0     0     0     0     0     0     0     0     0     0     0     0     0     1     4     1     1     1     1     0     5     7     3     2     2     5     4     5     7     7    13     8    11    13    22    20    26    24    26    30    32    37    44    37    43    44    60    35    54    60    64    76    67    69    64    77    64    74    60    65    71    75    60    64    70    44    67    82    60    52    52    46    39    30    32    33    26    29    32    16    32    25    25    17    17    16     9     9     8    10     7    10     5     6     5     2
     2     0     2     1     0     0     1     2     0     0     0     0     0     0     0     0     0     0     2     0     2     0     0     2     2     2     1     1     4     7     3     3     4     6     3    12     9    13    17    10    15    18    14    25    26    26    37    43    47    33    45    57    55    38    55    55    54    63    55    56    65    56    77    60    69    85    74    70    67    77    73    60    52    59    57    45    45    29    34    36    35    32    28    45    31    23    23    28    25    14    12    14     7    15     5     5     4     2     3     2
     3     2     1     1     1     2     0     1     0     0     1     1     0     0     0     1     0     3     0     0     3     1     1     1     1     3     3     3     0     0     2     4     4     4     6     9     9     5    11    16    17     9    21    27    29    29    33    36    42    56    40    41    37    49    61    52    59    59    63    58    50    61    72    64    75    83    80    76    61    63    65    49    52    60    52    65    52    48    39    45    32    43    25    27    28    28    22    33    21    16    15    13    13     9     8    10     4     9     4     1
     2     1     0     0     3     0     0     1     1     0     0     0     0     0     2     3     1     0     1     1     0     0     0     1     1     3     4     2     1     2     4     5     4     9     8     4     9    14    11    12    14    11    18    27    31    22    25    31    28    34    39    45    52    47    43    43    42    52    72    58    58    57    65    65    70    79    61    83    63    63    64    56    57    54    60    54    49    50    41    48    40    39    30    40    31    28    25    27    24    16    13    12     3    11    15     9    10     7     8     7
     2     1     7     2     0     0     1     0     0     2     0     0     2     0     0     0     0     0     0     0     0     1     1     0     1     1     1     3     1     0     7     8     5     3     5     8     7     3    14     9    13    15    17    17    19    24    30    28    25    23    45    35    47    50    46    58    46    57    55    60    70    71    59    59    80    84    69    74    74    65    61    62    48    52    60    67    50    56    51    53    41    44    50    31    36    42    26    23    11    18    23    10    15     5    13     6     3     6     5    13
     6     7     3     6     2     2     0     1     2     1     0     0     1     0     0     0     0     0     0     1     0     0     0     0     1     4     3     2     0     3     0     4     0     3     6     4     6     7     4     4    10     9    14    15     3    20    23    29    25    26    31    19    44    43    55    50    62    47    56    56    63    71    76    68    72    73    64    67    69    67    76    71    72    57    74    71    70    60    48    37    42    35    37    42    30    42    28    34    24    26     9    20    12    13     7     8    15     6    11     4
     6     1     4     5     3     3     2     1     1     0     0     0     0     1     0     0     0     0     1     0     0     1     1     4     1     2     1     3     1     0     3     2     3     5     3     3     7     5     3     7     5    12     5    11    21    16    21    24    34    26    21    20    40    36    51    54    44    53    51    69    74    65    63    59    57    77    56    56    64    59    73    77    55    52    43    64    60    67    50    59    46    38    44    44    37    42    27    30    22    21    24    23    12    11    18    14    19    10     8     7
     6     8     4     1     2     0     2     1     1     2     1     1     0     0     0     0     0     0     0     0     1     1     1     1     1     0     1     1     2     2     3     3     2     2     4     6     6     2     7     7     6     7     8    14    15    18    20    17    23    30    21    23    26    28    32    40    46    53    53    62    62    64    63    56    65    63    71    69    61    68    66    55    58    56    72    65    57    54    59    52    50    50    37    47    38    39    35    32    26    28    28    28    13     9    15     9    11     7     9     4
     8     1     7     4     3     0     2     1     2     0     0     0     2     0     0     0     0     0     0     0     1     0     1     1     0     0     1     0     2     1     1     3     0     4     4     4     6     4     4     6     4     7     8    12    14    14    19    15    16    15    20    28    26    30    31    50    41    50    47    49    47    51    56    58    63    64    76    59    56    71    63    72    57    74    61    53    64    55    49    56    53    60    44    39    44    47    46    46    41    31    33    24    30    23    14    19    22     9     7     4
     8     8     5     6     1     0     0     7     4     5     3     1     2     3     1     0     1     0     0     0     2     0     0     0     0     1     1     0     0     1     2     3     4     1     4     2     3     3     3     7     4     8    10    12    12    16    11    23    21    17    16    22    25    28    28    31    38    47    48    59    45    50    44    60    62    68    49    57    68    52    71    77    70    62    60    60    60    60    68    55    50    51    53    53    59    50    48    51    37    37    39    24    40    15    20    20     8     9    11     5
    13     8     8     7     9     4     3     4     2     4     4     2     0     1     2     0     1     0     0     0     1     0     0     0     0     1     0     1     0     0     2     0     1     1     1     5     3     3     2     3     1     2     7    10     8    11     9    17    13    18    16    22    20    22    31    29    24    42    42    36    33    59    49    55    56    54    50    48    60    69    68    49    56    63    59    67    68    70    63    65    56    61    43    64    51    60    47    39    40    32    40    40    24    17    28    21    20    14    11    16
    13    12    12     7     5     6     2     4     2     2     4     1     2     3     0     1     0     0     0     0     0     0     0     0     0     0     0     0     0     0     1     1     0     1     4     0     2     3     4     0     2     3     5     2     7    12    16    18    15    12    22    21    23    20    26    29    41    29    36    48    44    43    62    52    46    58    53    58    62    61    77    73    66    76    78    60    71    63    52    55    46    74    67    43    57    57    53    44    47    38    43    36    28    30    22    21    18     9    17    15
    16    10     9     7     3     3     0     4     7     4     3     3     2     1     0     0     0     0     0     0     0     0     0     0     0     1     1     0     0     0     0     1     1     0     2     1     2     2     5     4     3     6     3     4    13     6    12    13    16    11    20    19    18    23    26    20    27    27    37    44    39    41    54    42    52    52    54    55    61    73    68    73    74    77    82    59    53    65    71    85    56    59    57    59    59    44    55    44    47    46    40    43    41    27    26    23    27    16    19    19
