#lt      30.0
#count pbc
#dt      1.0
#dn      30
#edges  -27.1557089 -26.6125947 -26.0694805 -25.5263664 -24.9832522 -24.4401380 -23.8970238 -23.3539097 -22.8107955 -22.2676813 -21.7245671 -21.1814529 -20.6383388 -20.0952246 -19.5521104 -19.0089962 -18.4658821 -17.9227679 -17.3796537 -16.8365395 -16.2934253 -15.7503112 -15.2071970 -14.6640828 -14.1209686 -13.5778545 -13.0347403 -12.4916261 -11.9485119 -11.4053977 -10.8622836 -10.3191694  -9.7760552  -9.2329410  -8.6898268  -8.1467127  -7.6035985  -7.0604843  -6.5173701  -5.9742560  -5.4311418  -4.8880276  -4.3449134  -3.8017992  -3.2586851  -2.7155709  -2.1724567  -1.6293425  -1.0862284  -0.5431142   0.0000000   0.5431142   1.0862284   1.6293425   2.1724567   2.7155709   3.2586851   3.8017992   4.3449134   4.8880276   5.4311418   5.9742560   6.5173701   7.0604843   7.6035985   8.1467127   8.6898268   9.2329410   9.7760552  10.3191694  10.8622836  11.4053977  11.9485119  12.4916261  13.0347403  13.5778545  14.1209686  14.6640828  15.2071970  15.7503112  16.2934253  16.8365395  17.3796537  17.9227679  18.4658821  19.0089962  19.5521104  20.0952246  20.6383388  21.1814529  21.7245671  22.2676813  22.8107955  23.3539097  23.8970238  24.4401380  24.9832522  25.5263664  26.0694805  26.6125947  27.1557089
    41    28    14    24    26    18     8    11     2     7     7     4     3     1     2     1     0     0     0     1     2     0     0     0     0     0     0     0     0     0     0     0     0     0     0     0     0     0     0     0     0     0     0     0     0     1     1     0     0     0     0     1     2     1     0     1     2     1     6     3     5     8     8     7    18    14    19    22    13    28    25    21    42    49    52    73    49    72    69    85    85    71    71    83    79   105    84   105   101   101    96    89    80    52    77    78    54    59    55    40
    52    40    26    32    17    19    20     9     8     4     7     7     4     2     6     3     3     1     2     0     0     0     1     0     0     0     0     0     0     0     0     0     0     0     0     0     0     0     0     0     0     0     0     0     0     0     1     0     0     0     0     1     0     0     3     2     2     2     5    10     5     5     6     6    12    13    13    18    15    15    30    34    33    36    48    60    45    64    55    75    72    74    80    83    73    87    78   102    90    96    83    85    63    69    81    75    58    55    42    47
    48    42    42    31    31    21    21    18    12     8    11     4     6     6     2     2     1     0     1     1     0     0     0     1     0     0     0     0     0     0     0     0     0     0     0     0     0     0     0     0     0     0     0     0     0     0     0     0     0     0     0     0     2     1     1     0     1     3     3     1     4     6     3     6    12     9     7     8    22    17    25    24    29    32    38    36    54    53    44    70    69    73    75    83    93    98    79    76    85    94    90    83    79    79    69    81    55    68    67    40
    41    45    46    34    27    32    20    14    19     9     7     7    10     8     6     2     2     0     1     3     0     0     0     0     1     0     0     0     0     0     0     0     0     0     0     0     0     0     0     0     0     0     0     0     0     0     0     1     0     0     0     0     0     0     1     1     1     2     2     1     5     6     4     6     5     9     8    10     8    18    19    19    24    23    42    29    51    60    65    67    71    52    70    78    69    71    94    96    73   105    92    96    87    83    69    75    85    79    66    48
    39    35    39    34    36    23    24    21    18    12    14    12    10     4     7     7     2     5     1     1     1     1     0     0     0     0     0     0     0     0     0     0     0     0     0     0     0     0     0     0     0     0     0     0     0     0     0     0     0     0     0     0     0     1     0     1     0     2     1     3     3     4     3     3     8     6     5    12     9    10    12    14    21    30    25    41    39    41    38    74    66    81    83    89    79    53    86    88   109    77    71    98    89    79    75    98    64    87    74    61
    68    50    37    53    38    31    39    28    19    12    13    14    12    11     8     6     0     3     2     0     1     0     0     0     0     0     0     0     0     0     0     0     0     0     0     0     0     0     0     0     0     0     0     0     0     0     0     0     0     1     0     0     0     0     0     0     1     1     0     1     3     4     2     0     9     4     5     6     9     7    10    16    14    30    24    34    38    51    33    52    59    57    52    74    84    87    92    71    86    98    84    65    86    97    77    69    71    64    70    64
    77    48    37    46    40    29    33    32    26    23    15    13     9    11     8     8     3     5     1     0     0     0     0     0     1     1     0     0     0     0     0     0     1     0     0     0     0     0     0     0     0     0     0     0     0     0     0     0     0     0     0     1     0     1     1     1     0     0     1     1     2     3     2     3     3     5     5     3     6    11     3    15    20    15    22    29    26    28    38    46    44    63    64    71    64    77    77    69    71   103   101    82    82    78    90    68    80    76    79    70
    75    55    67    38    41    46    33    39    30    23    18    15    11    14    16     8     6     1     3     3     2     4     0     0     2     0     0     0     0     0     1     1     0     0     0     0     0     0     0     0     0     0     0     0     0     0     0     0     0     0     1     0     0     0     0     0     0     1     0     3     3     1     1     1     6     1     4     5     4    13     8    10    19    17    15    22    24    34    38    55    54    67    70    65    66    60    86    87    94    90   100    87    77    69    82    76    91    94    87    82
    59    49    66    66    57    41    31    38    25    20    19    15    15     9    11     9     7     8     1     6     0     5     4     3     0     1     2     0     0     0     0     2     0     0     0     0     0     0     0     0     0     0     0     0     0     0     0     0     0     0     0     0     0     0     0     0     1     0     0     2     1     1     0     1     0     1     5     5     3     5     1    10     8    15    13    20    22    36    36    45    49    53    54    45    70    78    66    82    93    98   104    73    78    77   104   106    82    83    79   102
    81    73    46    59    59    50    35    43    42    25    24    17    13    17     6    10     7    12     7     5     4     2     3     3     1     1     1     1     0     1     0     1     0     0     0     0     0     0     0     0     0     0     0     0     0     0     0     0     0     0     0     0     0     0     0     0     0     0     0     0     0     1     2     0     2     2     2     5     8     6     8    10     6    19    16    18    22    26    31    20    32    34    55    54    44    54    49    78    75    88    79    77    90    73    87    77    77    80    72    68
    81    73    65    62    63    62    53    42    47    23    27    20    21    31    22    13    12     6    10     9     9     6     8     5     4     0     1     0     0     0     0     1     0     0     0     0     0     0     0     0     0     0     0     0     0     0     0     0     0     0     0     0     0     0     0     0     0     0     1     0     0     1     0     1     1     1     2     2     4     6     7     3     6    11    15    25    24    22    27    24    34    52    40    55    52    52    51    67    69    64    76    80    91    88    89    86    80    94    83    78
    83    84    65    70    67    65    48    46    41    36    24    21    33    30    24    10    17    15    17     7     9     7     7     4     2     5     5     1     3     1     0     0     0     0     0     0     0     0     0     0     0     0     0     0     0     0     0     0     0     0     0     0     0     0     0     0     0     0     0     1     0     0     1     1     0     1     1     3     4     2     5    11     9     9     9    12    17    18    24    27    26    28    50    35    43    39    53    57    68    64    66    81    68    93    73    94    94    75    79    80
    78    77    61    82    69    70    62    62    49    39    43    38    31    30    25    20    15    15    16    14     9     4     9     7     6     0     5     1     2     1     1     2     1     0     0     0     0     0     0     0     0     0     0     0     0     0     0     0     0     0     0     0     0     0     0     0     0     0     0     1     0     0     3     0     1     4     1     2     3     4     1     5     8     5     5    15    20    14    23    20    31    37    42    31    38    40    54    54    45    92    81    74    76    84    89    76    81    85    89    93
    92    83    72    79    70    78    70    63    45    47    49    55    33    30    22    24    25    16    18    13    16     5     5     6    10     5     2     1     3     0     0     0     0     0     0     0     0     0     0     0     0     0     0     0     0     0     0     0     0     0     0     0     0     0     0     0     0     0     0     0     0     0     1     0     1     0     0     1     2     4     4     7     2    12     6    12    16    12    19    17    21    24    27    31    43    48    51    50    60    57    69    64    79    74    77    90    92    92    69    98
    75    85    72    73    79    71    70    78    57    40    59    37    44    35    35    25    18    23    22    18    13    14    15     8     2     8     3     3     4     1     0     0     0     0     0     0     0     0     0     0     0     0     0     0     0     0     0     0     0     0     0     0     0     0     0     0     0     0     0     0     0     0     0     0     0     0     1     1     1     2     3     2     0     2     6     5     7     9    18     7    13    25    25    30    22    39    40    55    67    70    77    68    73    83    86    81    77    85    94    92
    87    85    76    66    73    67    62    64    46    51    51    47    45    48    34    39    35    24    27    18    20    13    12     7     6     4    11     4     2     2     0     4     1     0     0     0     0     0     0     0     0     0     0     0     0     0     0     0     0     0     0     0     0     0     0     0     0     0     0     0     0     0     0     0     1     0     1     4     0     1     5     2     6     2     5     2     6    12    10    23    17    15    28    19    26    23    48    41    46    43    39    65    70    67    74    73    78    89    76    86
    85   104    74    77    81    82    80    79    81    59    57    49    57    52    45    49    39    33    22    16    27    11    10     9     6     4    10     4     3     2     3     0     0     1     0     0     0     0     0     0     0     0     0     0     0     0     0     0     0     0     0     0     0     0     0     0     0     0     0     0     0     0     0     0     0     0     1     2     0     1     1     1     2     2     1     2     7     4    12     9    14     9    15    20    27    32    38    30    36    30    49    70    73    79    68    79    65    74    78    92
   101    86    95    92    73    76    77    83    87    70    96    49    63    45    46    48    50    30    27    18    23    18    13    10     4    14     5     8     7     6     3     1     2     0     0     1     0     0     0     0     1     0     0     0     0     0     0     0     0     0     0     0     0     0     0     0     0     0     0     0     0     0     0     0     0     0     0     1     0     1     0     0     1     2     1     5     4     7     8     8     6    10    14    23    16    35    25    29    40    37    51    62    56    78    64    71    75    62    76    78
    88    93    85    92    87    89    69    90    70    72    68    60    57    68    60    49    34    37    29    31    28    22    19    15     5     9     7     9     6     5     2     5     4     2     0     0     0     0     0     0     1     0     0     0     0     0     0     0     0     0     0     0     0     0     0     0     0     0     0     0     0     0     0     0     0     0     0     1     0     0     1     1     6     2     3     6     2     5     5     8    13     6    16    15    15    11    26    26    29    32    34    55    54    65    64    82    56    75    86    88
   102    81   100    81    99    81    82    75    82    72    82    76    60    63    51    45    50    48    41    26    27    20    12    16    12    14     6     4     7    11     8     5     2     0     2     0     0     0     0     0     0     1     0     0     0     0     0     0     0     0     0     0     0     0     0     0     0     0     0     0     0     0     0     0     0     0     0     0     0     1     0     2     2     1     1     4     5     3     6     5     4     7    12    17    17    13    22    17    28    34    50    47    48    58    58    52    74    76    81    98
    94    88    83    80    75    73    79    94    94    80    73    49    71    53    62    51    54    49    39    48    30    33    21    18    25    18    18    13     9     7     4     3     2     2     1     1     0     0     0     2     0     0     0     0     0     0     0     0     0     0     0     0     0     0     0     0     0     0     0     0     0     0     0     0     0     0     0     1     1     1     0     0     0     2     2     1     0     2     6     8     7     7     9    10    10    22    20    25    22    35    24    31    37    42    65    52    61    55    82    76
    81    78    85    89    79    74    83    93   102    71    86    68    81    68    71    64    55    49    43    43    37    35    27    27    19    13    17     8    13     9     7    10     9     4     4     1     1     1     0     1     1     0     1     0     0     0     0     0     0     0     0     0     0     0     0     0     0     0     0     0     0     0     0     0     0     0     0     0     0     1     0     1     0     1     1     2     5     2     5     5     7     2     5     7     9    14    14    16    22    29    35    32    32    36    48    46    42    53    87    69
    63    71    80   105    71    89    80    85    68    72   110    93    71    91    82    52    58    64    57    50    38    37    39    21    25    20    26    15    18     8     6    12     5     4     3     5     4     1     0     0     3     2     1     0     0     0     0     0     0     0     0     0     0     0     0     0     0     0     0     0     0     0     0     0     0     0     1     0     0     0     0     0     0     0     1     1     1     5     4     5     5     5     2     8     6     5    14    21    16    21    19    32    31    31    35    48    65    59    60    70
    71    77    96    81    82    77    74    95   105    87    71    76    81    57    83    69    76    76    74    55    45    40    38    37    27    19    24    15    13    14     5     8     3     7     4     5     2     1     2     3     2     0     1     1     0     0     0     0     0     0     0     0     0     0     0     0     0     0     0     0     0     0     0     0     0     0     0     0     0     0     0     0     0     1     0     0     2     0     2     4     9     3     8     9     4     7    13    15    14    16    18    28    34    32    32    25    58    57    53    56
    80    70    65    86    88    71    75    86    94    99    96    87    91    93    80    74    90    80    69    65    54    50    51    41    39    30    29    25    16     7     9     6    12    11     3     5     4     4     6     2     0     1     1     0     0     0     0     0     0     0     0     0     0     0     0     0     0     0     0     0     0     0     0     0     0     0     0     0     0     0     0     0     0     1     2     1     0     0     1     0     0     1     3     4     5     7     6    11    18    14    21    20    20    28    35    29    36    47    61    52
    63    65    83    76    93    85    77    80    84    93    88    88   109    78    61    82    64    77    77    67    58    59    47    37    44    36    29    22    19    12    12     4     6     6     5    11     0     4     2     0     2     2     1     3     1     1     0     0     0     0     0     0     0     0     0     0     0     0     0     0     0     0     0     0     0     0     0     0     0     0     0     0     0     0     0     0     1     1     0     1     4     1     3     5     4     7    10     8    13     7    14    18     9    20    25    34    45    36    43    56
    48    46    71    60    71    59    72    71    71    88    70    93    81    87    77    79    70    75    82    70    59    54    39    41    43    41    31    20    26    24    12     4    12    12     4     5     9     8     4     1     5     2     0     3     0     0     0     0     0     0     0     0     0     0     0     0     0     0     0     0     0     0     0     0     0     0     0     0     0     0     0     0     0     0     0     0     0     0     0     0     1     2     1     4     2     3     4     5     9     9    10    16    17    20    23    36    32    40    40    42
    43    53    71    65    83    76    79    82    78    85    85    71    92    85    83    76    76    85    80    79    66    66    67    58    71    41    45    33    32    29    24     9    17    10    17     5    10     8     1     2     2     3     2     1     0     0     0     0     0     0     0     0     0     0     0     0     0     0     0     0     0     0     0     0     0     0     0     0     0     0     0     0     0     0     0     0     0     0     1     0     0     0     0     1     3     2     5     3     8     8     9    12    10    15    23    27    28    31    34    29
    37    52    56    58    57    69    69    80    75    66    66    88    74    87    79    94    81    73    73    70    64    67    69    65    61    53    50    56    32    41    21    20    14    14     9     8     8     3     4     4     3     2     1     1     2     0     2     0     0     0     0     0     0     0     0     0     0     0     0     0     0     0     0     0     0     0     0     0     0     0     0     0     0     0     0     0     0     0     0     1     0     0     1     0     3     2     1     5     3     8    11     7    13    19    18    30    16    32    28    35
    32    38    47    49    72    62    70    71    82    69    79    66    82    83    92    63    79    90    62    74    83    71    76    59    58    65    43    51    32    27    24    34    19    16    17     8     5     9     4     8     5     8     3     1     0     1     1     0     2     0     1     0     0     0     0     0     0     0     0     0     0     0     0     0     0     0     0     0     0     0     0     0     0     0     0     0     0     0     1     0     2     1     1     0     2     5     2     1     3     4     6     7     7     9    11    19    20    18    25    33
    28    41    39    45    47    58    59    69    70    78    78    86    84    88    94    74    89    81    87    85    82    73    68    74    76    58    49    56    49    39    41    39    20    16    18    21    16    12    10    10     7     5     4     2     3     0     1     0     0     1     0     0     0     0     0     1     0     0     0     0     0     0     0     0     0     0     0     0     0     0     0     0     0     0     0     0     0     0     0     0     0     0     0     2     2     0     0     3     4     2    12     3     4    13    12    12    18    14    25    25
    35    40    34    35    31    42    59    56    60    60    69    70    67    92    93    72    83    73    84    82    82    72    67    84    72    69    53    56    53    42    30    29    33    21    29    12    18    24    10     8     6     6     3     2     4     0     0     1     3     3     1     0     0     0     0     0     0     0     0     0     0     0     0     0     0     0     0     0     0     0     0     0     0     0     0     0     0     0     0     0     0     0     0     1     0     0     3     0     4     5     2     3     6     8    10    11    12    19    23    32
    23    30    38    42    31    37    44    61    73    65    56    67    77    75    66    71    72    97    92    93    75    73    94    72    64    68    62    65    57    55    36    33    46    46    33    19    17    18    16     6    11     6     4     5     3     0     2     0     2     0     2     2     0     0     0     0     0     0     0     1     0     0     0     0     0     0     0     0     0     0     0     0     0     0     0     0     0     0     0     0     0     0     0     0     0     2     2     2     3     1     5     4     4    13    12    10    18    17    21    17
    13    20    34    37    43    43    44    61    58    65    59    77    74    78    83    93    92    78    77   118    74    88    77    96    79    72    73    67    57    58    56    54    57    45    32    34    27    21    16    14    13    11     6     5     6     2     2     0     3     0     1     1     0     1     1     0     1     0     0     0     0     0     0     0     0     0     0     0     0     0     0     0     0     0     0     0     0     0     0     0     0     0     0     0     0     0     0     2     5     3     2    10     4     8    12     6     8    14    18    17
    23    16    23    25    31    29    35    48    51    59    56    68    81    67    72    67    81    84    68    85    77    74    93    72    76    77    84    68    52    43    80    53    44    44    25    45    22    28    16    11    15     9     9     9     2     4     6     2     1     2     2     0     0     1     0     0     0     0     0     0     0     0     0     0     0     0     0     0     0     0     0     0     0     0     0     0     0     0     0     0     0     0     0     0     0     0     1     1     0     1     2     5     4     5     8    12    17    11    16    17
    15    16    16    22    35    36    44    56    53    55    67    56    52    80    77    56    84    81    91    82    79    76    88   102    92    71    83    77    73    67    64    63    55    38    40    43    30    27    21    24    11    17     8     8     7     5     2     1     0     2     0     1     0     0     1     1     2     0     0     0     0     0     0     0     0     0     0     0     0     0     0     0     0     0     0     0     0     0     0     0     0     0     0     0     1     0     1     0     1     0     1     2     0     5     4    10    11    12    10    16
    21    16    13    23    23    30    32    33    43    45    42    56    65    58    62    76    74    73    71    72    79    92   105    93    96   109    76    81    85    90    83    79    74    54    49    35    46    31    36    22    15    18    11     5     6     6     8     7     1     3     3     2     1     1     0     0     0     0     0     0     0     0     0     0     0     0     0     0     0     0     0     0     0     0     0     0     0     0     0     0     0     0     0     0     0     0     0     1     4     0     2     1     3     2     3     4    11    12    10    15
    14    14    26    21    22    23    36    34    42    34    52    63    53    50    67    54    65    79    61    69    83    77    87    81    84    74    66    97    70    68    74    70    58    62    51    51    26    41    27    24    18    16    17    13     6     5     5     3     5     6     2     2     3     2     0     0     0     0     0     0     0     0     0     0     0     0     0     0     0     0     0     0     0     0     0     0     0     0     0     0     0     0     0     0     0     0     0     1     0     1     0     2     4     2     4     6     3     6    12    13
     5    11    13    12    18    19    29    32    34    45    46    60    40    56    61    60    68    71    89    91    75    93    87    81    92    86    86    69    94    72    78    79    58    61    49    42    40    38    37    21    23    21    18    17    15    12     7     4     7     7     1     1     2     2     2     1     1     0     0     0     0     0     0     0     0     0     0     0     0     0     0     0     0     0     0     0     0     0     0     0     0     0     0     0     0     0     0     0     0     1     2     0     3     2     1     1     4     2     8    10
     7    12    12    11    17    22    25    36    27    36    30    39    39    66    57    77    76    83    72    89    77    84    96    85    90    95    71    82    67    70    65    65    62    64    47    63    56    39    31    32    31    21    23    23    17     6     8     8     3     8     1     1     5     5     2     0     1     0     0     0     0     0     0     0     0     0     0     0     0     0     0     0     0     0     0     0     0     0     0     0     0     0     0     0     0     0     0     0     0     1     1     0     2     0     0     3     4     4     7     5
     8     7    12     9    16    17    19    28    33    30    49    35    43    48    55    49    64    72    70    79    66    88    96    79    85    71    89    77    82    72    93    80    69    76    62    58    53    51    41    35    25    30    37    21    25    19    12    10     9     6     7     7     7     5     4     3     0     0     1     0     0     0     0     0     0     0     0     0     0     0     0     0     0     0     0     0     0     0     0     0     0     0     0     0     0     0     0     1     0     2     1     0     0     0     1     1     2     3     6     4
     3     7     8     8     9    18    18    18    18    24    47    37    50    42    46    55    59    56    69    80    63    80    75    87    89    91    64    88   107    82    75    61    87    72    83    75    46    47    48    37    35    49    37    27    34    26    25    18    10     8    10     5     8     4     6     1     0     0     0     0     0     0     0     0     0     0     0     0     0     0     0     0     0     0     0     0     0     0     0     0     0     0     0     0     0     0     0     0     0     0     0     1     0     2     0     1     3     3     2     2
     3     9     4     8     8    12    15    15    27    18    33    36    55    43    46    56    68    61    58    54    78    68    82    86    87    79    69    88    73    81    95    82    87    95    67    65    66    46    49    57    47    40    35    28    33    10    18    13    18    15     9    12     8     4     4     4     2     0     1     0     0     0     2     1     0     0     0     0     0     0     0     0     0     0     0     0     0     0     0     0     0     0     0     0     0     0     0     0     0     1     0     0     0     0     1     1     0     1     5     3
     0     2     8     6     7    10    12    13    20    26    26    32    32    44    44    52    55    51    55    57    64    56    80    77    91    92    71    81    84    88    89    75    81    90    70    92    75    71    67    47    59    39    42    34    28    15    26    24    14    23    13    14     3     2     3     3     3     2     2     2     0     0     0     0     0     0     0     0     0     0     0     0     0     0     0     0     0     0     0     0     0     0     0     0     0     0     0     0     0     0     0     0     1     2     1     0     0     4     2     2
     4     7     3     6     6     5    11     8    16    13    14    20    22    25    39    41    42    46    53    46    66    66    77    88    84    93    94    89    99    81    89    85    81   101    75    90    86    73    58    58    54    51    42    44    45    30    32    29    31    12    15    18     8    10     4     5     2     2     3     0     1     1     0     0     0     1     0     0     0     0     0     0     0     0     0     0     0     0     0     0     0     0     0     0     0     0     0     0     0     0     0     0     0     0     0     0     0     2     2     1
     1     3     2     4     4     7     9     3    10    11    13    21    23    28    25    31    27    34    54    47    65    59    71    72    72    59    63    88    96    92    91    85    79    84    82    91    75    72    76    64    54    50    53    43    29    38    16    24    31    26    16    15    13     3    12     3     4     5     4     3     1     1     0     0     0     0     0     0     0     0     0     0     0     0     0     0     0     0     0     0     0     0     0     0     0     0     0     0     0     0     0     0     1     0     0     0     0     1     0     3
     0     1     3     0     1     3     3     6    10    14    13    10    27    21    26    21    24    36    38    47    50    63    60    59    85    53    66    81    70    76    85    88    78    91    79    81    84    78    74    76    80    65    47    41    43    44    33    27    27    22    21    12    11    20    10     3     8     8     2     2     2     1     3     1     0     1     0     2     0     0     0     0     0     0     0     0     0     0     0     0     0     0     0     0     0     0     0     0     0     0     0     0     0     2     0     3     0     1     1     1
     1     3     1     1     2     5     4     5    10     6    11     9    14    14    21    23    38    26    46    43    45    68    52    57    65    63    70    89    67    91    78    84    94    96    84   102   119    70    88    97    62    74    36    63    44    48    50    32    27    32    24    23    19    15     7    12     4     3     3     5     1     2     0     1     0     0     1     0     0     0     1     0     0     0     0     0     0     0     0     0     0     0     0     0     0     0     0     0     0     0     0     1     1     1     0     1     1     0     0     0
     1     0     0     1     4     3     1     2     4     6     9     9    18    14    20    19    21    28    28    44    44    45    31    67    75    71    71    67    72    75    88    76    98   100   105    80   103    72    84    99    94    76    74    76    54    47    41    53    37    32    30    27    21    19    20     6     7     5     3     2     6     2     1     1     1     0     2     0     0     0     0     0     0     2     0     0     0     0     0     0     0     0     0     0     0     0     0     0     0     0     0     0     0     0     1     0     0     1     1     0
     0     0     0     1     0     3     3     6     1     3     3     4    14    14    17    16    24    33    32    37    41    43    48    47    69    57    58    67    61    69    87    81    87    85    85    89    94    98    88    83    75    92    75    73    60    76    52    48    35    39    30    31    21    15    15     6     9     7     5     4     2     0     4     3     2     1     1     3     2     0     1     1     1     2     0     0     0     0     0     0     0     0     0     0     0     0     0     0     0     0     1     0     0     0     0     0     0     0     0     0
     1     0     1     2     0     2     4     5     5     4     3    12    14    13    13    18    21    25    36    32    30    35    37    45    57    59    43    65    57    59    83    91    72    95    90    94   104    80    93    73    88    72    77    74    68    59    47    64    39    28    28    29    31    21    17    18    15     7     4     6     2     6     3     3     2     1     0     0     2     1     0     0     0     0     0     0     0     0     0     0     0     0     0     0     0     0     0     0     0     0     0     0     0     0     0     0     1     0     2     0
     1     0     1     0     0     1     2     2     3     4     4    10     9    14    11    16    14    20    19    23    30    30    32    34    56    64    59    69    51    54    77    55    80    85    94    79    80    89    97    84    80    76    87    77    61    63    59    68    56    34    49    37    24    35    24    18    13    14     5     0     6     4     1     3     4     0     0     1     2     0     1     0     0     2     0     0     0     0     0     0     0     0     0     0     0     0     0     0     0     0     0     0     0     0     0     0     1     0     1     1
     0     1     0     0     2     0     0     1     2     5     6     8     6     6     9    11    16    24    22    15    32    40    26    49    37    49    35    54    61    74    65    67    86    85    86    77    84    89    94    92    86    71    78    59   105    80    53    74    71    55    53    42    45    31    18    18    17    18     4     7     6     5     4     6     2     5     0     1     4     2     0     0     1     0     0     0     0     0     0     0     0     0     0     0     0     0     0     0     0     0     0     0     0     0     0     0     0     0     1     1
     0     0     0     0     1     0     1     2     4     0     4     6     7     4     8     7    10    11    20    20    28    30    26    26    27    46    47    60    59    59    66    60    77    95    76    82    98    76    92    87    97    86    78    85   105    72    69    84    61    50    50    44    32    45    27    32    20    12    15     7     9     9     5     3     5     1     3     1     6     2     1     2     0     0     0     0     0     0     0     0     0     0     0     0     0     0     0     0     0     0     0     0     0     0     0     0     0     0     0     0
     0     0     0     1     1     1     1     1     2     2     4     2     5     3     5     9     5     9     7    16    27    17    15    24    29    44    23    44    54    65    55    62    55    62    71    70    93    80   100   110    86    86    72    66    95    75    95    64    75    62    52    39    49    34    32    39    32    23    25    15    11    13    10     8     3     6     5     1     0     4     0     0     1     0     0     0     0     0     0     0     0     0     0     0     0     0     0     0     0     0     0     0     0     0     0     0     0     0     0     0
     2     0     0     0     0     0     0     0     1     2     3     3     7     6     6     4     6     8    13    12    13    28    21    28    26    26    34    41    40    42    62    57    59    76    81    83    69    63    82    87    69    94   104    89    88    78    79    66    61    55    56    53    48    25    37    38    31    18    20    12    12     4     7     6     5     3     1     1     5     0     1     0     0     0     0     2     0     0     0     0     0     0     0     0     0     0     0     0     0     0     0     0     0     0     0     0     0     0     0     0
     0     0     2     2     0     0     2     1     0     1     3     4     6     4     3     7     7     6    13    12     9    15    20    17    17    33    30    39    45    46    63    51    49    62    67    91    86    87    77    85    81    90    99    85   103    76    75    69    71    68    56    63    45    50    38    27    33    21    19    23    11     6     8     8    13     3     1     4     3     0     3     1     1     0     0     0     1     0     1     1     0     0     0     0     0     0     0     0     0     0     0     0     0     0     0     0     0     0     0     0
     0     0     0     2     1     1     0     1     1     1     2     4     1     3     3     0     6     6    12    11     8    11    21    15    18    28    25    27    35    38    36    47    62    45    59    63    91    81    74    77    79   101    76    97   105    94    81    84    79    74    66    65    49    48    59    42    36    30    39    20    18    10    15    11     4     4     7    11     6     6     2     0     3     1     0     0     2     0     0     0     0     1     0     0     0     0     0     0     0     0     0     0     0     0     0     0     0     0     1     0
     0     0     0     0     0     0     0     0     0     1     0     2     1     4     3     5     5     4     7    16    10     6    13    14    19    21    17    27    35    34    47    44    44    60    59    76    68    61    79    75    97    90    90    74   103    75    70    91    74    64    63    66    54    66    54    33    32    34    31    25    29    12    13    12    11    12    12     6     9     6     2     4     2     2     3     1     0     1     2     0     3     0     1     0     0     0     0     0     0     0     0     0     0     0     0     0     0     0     0     0
     0     0     0     0     0     0     0     1     0     1     0     0     2     0     2     0     3     5     4     4    13    11     5    14    10    18    29    25    20    31    38    35    31    55    48    54    57    64    84    68    86    89    91    88   105    78    89    77   108   102    67    60    87    68    60    51    44    42    26    26    31    22    17    23    14    11    16     9     8     5     4     5     2     3     1     0     1     0     0     1     0     1     1     1     0     0     0     0     0     0     0     0     0     0     0     0     0     0     0     0
     0     0     0     0     0     0     0     0     0     0     0     0     0     1     2     3     1     5     1     3     8     8     7    13     7    10    20    17    30    24    33    34    43    54    47    52    61    75    64    62    75    90    94   103    93   105    78    95   105    86    96    89    80    75    63    68    60    54    47    40    30    27    34    22    18    21     7     8     6    10    10     3     1     7     6     4     4     1     2     1     0     1     1     0     0     0     0     0     0     0     0     0     0     0     0     0     0     0     0     0
     0     0     0     0     1     0     0     2     1     0     0     0     0     2     2     1     2     4     4     4     6     9     7     6    13    18     7     9    16    31    24    26    34    60    37    46    60    60    75    72    86    87    89    90    87    85    95    90    91    90    88    74    77    77    81    63    62    46    36    27    45    32    36    23    33    25    18    16     6    10     9     2    10     2     3     3     1     2     1     4     1     1     0     0     0     0     0     0     0     0     0     0     0     0     0     0     0     0     0     0
     0     0     0     0     0     0     0     0     0     0     0     2     0     3     0     0     2     3     0     7     4     5     3     7     8     9    13    16    23    14    15    20    30    34    33    56    46    60    43    60    59    82    83    97    88    88   103    81   103    80   110    81    95    76    98    67    59    62    49    46    55    36    37    43    34    31    31    25    14    15     9     4     7     5     2     3     2     5     2     2     1     1     0     0     0     0     0     0     0     0     0     0     0     0     0     0     0     0     0     0
     0     0     0     0     0     0     0     0     0     0     0     0     1     1     1     0     0     0     1     0     0     4     2     6     7     6     6    14    17    13    15    22    30    32    41    38    58    41    54    57    66    77    90    74    95   100    86   108    96    84    95    84    89    80    70    68    58    60    57    56    52    68    40    32    21    30    30    31    10    18    15     7     9     5     6     4     3     1     3     2     1     0     0     1     0     0     0     0     0     0     0     0     0     0     0     0     0     0     0     0
     0     0     0     0     0     0     0     0     0     0     0     0     0     0     0     0     1     1     1     1     0     1     4     3     5     6     5    12    14    12    21    22    28    31    33    47    46    41    42    64    68    63    79    83    89    81    77   111   112    85    95   104    91    92    80    67    76    68    65    74    51    48    61    23    30    31    26    32    18    12    14    11     3    19     5     4     2     1     0     1     0     0     0     0     0     0     0     0     0     0     0     0     0     0     0     0     0     0     0     0
     0     0     0     0     0     0     0     0     0     0     0     0     0     0     1     1     0     0     1     1     1     1     1     4     4     3     7    11    10    14    10    12    15    31    26    27    35    35    34    53    57    60    65    66    62    70    78    74   101    98    94   116   107    92    89    75    77    75    73    57    69    61    53    45    38    27    35    35    21    21    17    13     9     7     7     4     6     2     6     3     2     1     1     0     1     0     0     0     0     0     0     0     0     0     0     0     0     0     0     0
     0     0     0     0     0     0     0     0     0     0     0     0     0     1     0     0     0     0     1     1     2     0     1     2     0     2     3     7     8     4    12    12    19    28    26    19    36    36    43    45    45    56    66    82    59    77    79   102    76    81    87   107    97    77    92    82    88    90    67    84    66    70    54    44    50    50    52    27    27    32    29    19    13    15    10    12     8     5     4     4     1     2     0     2     0     0     0     0     0     0     0     0     0     0     0     0     0     0     0     0
     0     0     0     0     0     0     0     0     0     0     0     1     0     0     0     1     0     0     0     2     0     0     1     4     5     6     4     8    10    12    10    15    18    14    17    21    30    35    42    34    47    49    64    64    68    71    72    85    90   102    87    89    98   100    89    84    99    78    91    73    75    70    60    42    46    48    60    30    40    22    19    20    13    20    12    12     7     3     4     2     4     2     0     2     1     0     0     0     1     0     1     0     0     0     0     0     0     0     0     0
     0     0     0     0     0     0     0     0     0     0     0     0     0     0     0     0     0     0     0     1     0     0     2     1     1     4     4     5     3     5     6    10    12    21    24    20    20    27    22    36    43    40    54    49    52    58    63    75    64    78    78    88    99    94    90    82   102   100    72    93    88    65    66    63    61    53    45    30    37    36    30    18    22    13    16    20     8     8     6     4     2     2     4     2     0     2     1     1     1     0     0     0     0     0     0     0     0     0     0     0
     0     0     0     0     0     0     0     0     0     0     0     0     0     0     0     0     0     0     1     2     1     1     0     1     2     2     3     1     3     1     3     8    11     7    14    17    26    20    29    28    47    37    44    55    49    71    60    51    66    83    82    68    86    77    75    65    96    84   106    83    79    86    75    51    64    64    58    40    55    41    39    22    19    20    18    12    11     8     9     4     3     2     2     1     0     1     1     1     0     0     1     0     0     0     0     0     0     0     0     0
     0     0     0     0     0     0     0     0     0     0     0     0     0     0     0     0     0     0     0     0     0     0     1     0     0     1     2     4     4     4     8     8     9     8    14    16    19    25    19    33    32    35    42    51    56    48    60    76    69    71    67    78    76    92    73    85    91    89    87    82    79    74    75    70    79    49    49    48    33    43    29    19    17    23    27    17    11     8    10     5     9     7     2     4     0     1     1     1     1     1     2     1     0     0     0     0     0     0     0     0
     0     0     0     0     0     0     0     0     0     0     0     0     0     0     0     0     0     1     0     0     0     3     3     0     2     3     2     5     4     1     5     4     6     7     9     8    12    17    17    32    28    31    29    48    40    44    52    55    53    75    71    59    62    81    87    89    74    80    85    96    96    84    86    72    68    59    43    52    46    36    50    31    37    28    27    10     9     9     8     8     6     4     2     3     1     1     0     0     1     0     0     0     0     0     0     0     0     0     0     0
     0     0     0     0     0     0     0     0     0     0     0     0     0     0     0     0     0     1     0     1     0     0     1     1     1     1     2     0     1     2     1     3     1     5     8    11    13    11    14    17    12    34    36    38    37    42    46    50    59    57    64    73    78    84    91    87    87    80    79    93    95    80   103    74    70    50    59    53    58    51    33    38    31    36    33    17    18     5    14     8     5     9     1     1     7     4     5     3     0     1     1     4     1     0     0     0     0     0     0     0
     0     0     0     0     0     0     0     0     0     0     0     0     0     0     0     0     0     0     0     0     0     0     1     0     3     1     1     2     1     2     5     6     5     8     8     8     9     6    18    13    21    15    27    22    37    30    40    50    46    74    67    69    86    64    70    67    83    80   102    95    85    81    70    87    91    70    66    70    53    53    45    37    38    29    33    29    11    18    20     9     8     8     5     2     4     8     2     1     2     4     3     5     0     1     0     0     0     0     0     0
     0     0     0     0     0     0     0     0     0     0     0     0     0     0     0     0     0     0     0     0     0     0     0     0     2     1     2     1     0     1     2     1     3     4     4     6    12     9    16    16    16    18    19    35    23    35    34    38    48    59    48    58    56    68    65    72    80    80    82    85    93    95    74   104    82    78    89    77    64    63    51    42    39    24    35    35    34    20    19    17    15     9    11     7     4     7     4     6     2     3     4     3     0     1     0     0     0     0     0     0
     0     0     0     0     0     0     0     0     0     0     0     0     0     0     0     0     0     0     0     0     1     0     0     1     2     2     1     0     1     3     0     1     3     3     5     8    10     4    14    13    16    12    21    21    24    23    33    31    47    57    70    56    66    73    71    74    69    98    82   100   102    67    76    92    89    76    81    79    66    58    59    63    53    38    32    35    38    34    31    21    23    15     8     4    11     4     5     4     6     4     1     2     2     2     0     0     0     0     0     0
     0     0     0     0     0     0     0     0     0     0     0     0     0     0     0     0     0     0     0     0     0     0     0     0     1     1     0     1     2     1     0     1     0     1     3     8     4     5     8     6    14    13    17    19    17    35    26    36    50    36    46    56    61    73    61    78    62    78    84    94    94   109   103    98    90   102    89    65    78    76    50    49    44    49    34    36    39    30    28    23    21    11    17     9     8     1     5     6     2     2     2     7     4     4     3     1     0     0     0     0
     0     0     0     0     0     0     0     0     0     0     0     0     0     0     0     0     0     0     0     0     0     0     1     0     0     1     0     0     1     0     3     2     1     2     3     4     7     6    10    11    16    12    13    10    17    23    22    23    45    49    45    59    51    55    52    76    72    87    89    75   102    84   111   111    98    89    86    91    74    69    59    64    67    39    42    36    42    26    37    22    24    24    17    12    11     8    12     4     5     4     4     4     7     0     1     2     1     0     0     0
     0     0     1     0     0     0     0     0     0     0     0     0     0     0     0     0     0     0     0     0     0     0     0     1     0     0     2     1     0     1     0     2     0     1     0     0     5     8     5    10    20    17     8    22    15    16    25    30    32    46    49    39    62    55    56    61    88    75    69    75   106    94   111    86    93    77   107    89    89    69    61    63    47    54    64    43    47    45    42    31    33    24    19    14    15    17     5     8     6     1     6     3     5     1     1     1     1     0     0     0
     0     0     0     0     0     0     0     0     0     0     0     0     0     0     0     0     0     0     0     0     0     0     1     0     0     0     0     0     0     0     0     0     3     1     1     2     8     3     1     7     7    12    12    17    15    17    18    26    29    42    40    42    46    70    54    85    74    70    78    72    78    87    98    94    96    97    92    91    85    73    66    70    83    67    46    48    49    55    38    33    38    33    36    23    11     8    14     7     5     2     3     0     6     1     1     1     2     0     1     1
     0     0     0     1     0     1     0     0     0     0     0     0     0     0     0     0     0     0     0     0     0     0     0     0     0     0     0     1     0     1     0     0     0     1     4     2     4     4     3     3     8     6     6    11    11    15    21    29    26    32    36    30    46    58    57    70    65    49    63    79    97    86   112   107    71    98    95   113    89    85    74    81    74    66    59    67    77    63    61    50    34    42    33    24    16    17    11     8    11    10     7    10     0     2     3     2     0     2     2     0
     0     0     0     0     0     0     0     0     0     0     0     0     0     0     0     0     0     0     0     0     0     0     0     0     0     0     0     0     0     0     1     0     0     0     1     2     2     2     3     0     7     3    10     8    14     8    15    10    20    21    33    29    38    47    43    55    56    73    78    68    75    82    83   107    84    84    86    79    95    78    87    86    80    69    59    70    47    72    55    54    50    30    27    30    21    18    24     9     8    10    10     8     6     3     0     1     1     1     0     1
     1     0     1     0     1     0     0     0     0     0     0     0     0     0     0     0     0     0     0     0     0     0     0     0     0     0     0     0     0     0     0     0     0     1     1     0     1     4     2     2     1     5     8     4    12    13    17    12    17    22    23    25    37    39    41    46    53    48    53    65    70    92    88    78    77    94    79    98   106    92    83    80    80    83    71    82    69    71    74    62    50    38    53    41    27    24    29    13    10    10    10     2     6     2     3     4     1     1     0     1
     1     0     0     1     0     0     0     0     0     0     0     0     0     0     0     0     0     0     0     0     0     0     0     0     0     0     0     0     0     0     0     0     0     1     0     0     0     1     3     0     1     8     9    13     6     4    12    13    24    20    20    19    34    46    45    27    41    40    55    60    84    75    91    78    95    80    70   109    96    92    97    95    65    72    65    59    73    69    63    62    68    56    48    36    39    18    22    16    18    22    17    13     8     9     7     2     3     0     4     2
     1     1     0     0     0     0     0     0     0     0     0     0     0     0     0     0     0     0     0     0     0     0     0     0     0     0     0     0     0     0     0     0     0     0     0     0     0     0     0     1     2     4     0    10     9     5     9    15    14    12    13    16    26    34    42    31    27    46    42    58    56    69    63    76    81    74    95    96    92    92   103    95    73    99    72    53    54    57    78    68    64    65    47    67    47    44    23    22    25    18    17    17    13     6     3     2     1     2     4     1
     2     3     1     0     1     0     0     0     0     0     0     0     0     0     0     0     0     0     0     0     0     0     0     0     0     0     0     0     0     0     0     0     0     0     2     0     0     1     3     0     2     2     4     8     5     4     4     6    15    10    10    13    23    21    27    37    30    48    38    46    65    59    68    91    67    90    85   105    87    86    93    68    82    85    76    74    69    60    75    51    72    62    46    46    36    46    42    40    26    14    18    13    12    11     5     3     3     6     1     4
     4     2     1     0     1     1     0     0     0     0     0     0     0     0     0     0     0     0     0     0     0     0     0     0     0     0     0     0     0     0     0     0     0     1     0     2     1     2     3     0     2     4     5     3     4     8     8     7     7    10     7    16    21    28    26    28    27    45    30    52    50    65    55    62    78    69   101    79    95    87    84    67    87    73    83    79    78    77    73    79    74    67    47    68    67    38    45    33    24    30    21    24    14    16    13    14     5     8     2     2
     4     1     3     0     0     0     0     0     0     0     0     0     0     0     0     0     0     0     0     0     0     0     0     0     0     0     0     0     0     0     0     0     0     0     0     0     0     0     0     1     0     3     1     2     4     3     2     0    13     7     6    16    15    18    28    30    27    33    36    34    50    55    72    69    68    75    67    86    76    93    80    78    96    69    87    91    75    82    76    69    79    61    53    63    59    59    42    42    36    25    23    22    18    13    12     5    10    10     3     2
     3     3     1     4     0     0     0     1     0     0     0     0     0     0     0     0     0     0     0     0     0     0     0     0     0     0     0     0     0     0     0     0     0     1     0     0     0     0     0     0     0     0     0     2     3     4     5     7     4     9    14    10    12    21    15    12    24    31    31    33    41    43    51    82    74    62    64    89    85    76    98    81    78    76    83    88    91    87    70    76    81    74    70    54    70    61    47    46    42    38    22    29    15    18    18    14     8     9     6     6
     8     5     3     1     1     5     0     0     0     0     0     0     0     0     0     0     0     0     0     0     0     0     0     0     0     0     0     0     0     0     0     0     0     0     0     1     0     0     0     0     0     0     2     0     2     3     1     5     4     3     6     4     8    12    12    14    24    26    18    32    30    43    28    63    48    73    88    79    68    89    78    91    76    91   115    89    81    86    85   100    81    66    82    86    58    66    57    52    51    42    36    42    25    24    12    17    14    13     3     3
    11     4     0     2     3     3     0     0     0     0     0     0     0     0     0     0     0     0     0     0     0     0     0     0     0     0     0     0     0     0     0     0     0     0     0     0     0     1     0     0     0     0     1     2     0     3     6     2     4     4     4     5     4    11     3    13    13    33    25    27    30    46    40    31    60    67    60    65    79    81    87    72    90    82    75   102    92   100   100    96    91    73    88    72    60    55    63    55    38    44    41    34    30    28    18    13    13     8     5     4
     5     6     8     2     2     1     0     1     0     0     0     0     0     1     0     0     0     0     0     0     0     0     0     0     0     0     0     0     0     0     0     0     0     0     0     0     0     0     0     0     0     0     0     0     3     1     3     5     1     2     3     4     5     3    11    10    12    11    18    41    25    33    42    34    54    68    52    60    69    75    61    92    87    90    93    70    95   106   101    84   104    83    81    71    69    67    54    58    47    53    44    39    37    25    28    18    16    11    13    14
    19     7     8     9     3     3     3     1     2     0     1     0     0     1     0     0     0     0     0     0     0     0     0     0     0     0     0     0     0     0     0     0     0     0     0     0     0     0     0     0     0     0     0     0     0     0     3     2     1     4     4     2     5     5     8     5     9    11    15    13    20    35    27    30    50    44    44    49    53    60    67    78    77    73    95    88   104    95    91   102    90    76    84    80    72    58    62    53    54    52    33    38    32    40    25    16    34    15    13    21
    14    10     5     6     2     3     5     4     2     1     0     1     1     0     0     0     0     0     0     0     0     0     0     0     0     0     0     0     0     0     0     0     0     0     0     0     0     0     1     0     0     0     0     1     0     1     2     2     1     4     1     2     1     2     8     6     8    12    10    16    19    27    28    31    38    32    53    50    39    61    85    67    77    86    63    94    79    80    93    93    95   105    97    74    89    78    83    64    51    46    45    42    42    38    32    25    19    15    20    15
    17     7     9     9     2     7     3     4     2     2     1     1     0     0     2     1     0     0     0     0     0     0     0     0     0     0     0     0     0     0     0     0     0     0     0     0     0     0     0     0     1     0     0     0     0     0     1     1     2     2     1     1     5     4     6     4     7     9    15    13    24    21    18    24    33    39    47    52    62    46    64    76    66    68    82    92    92    88    66    88   103    87    92    75    90    77    71    63    70    66    46    55    36    41    45    36    28    26    21    24
    12    16    16     7     8     9     7     5     8     3     3     2     1     1     1     2     0     0     0     0     0     0     0     0     0     0     0     0     0     0     0     0     0     0     0     0     0     0     0     0     0     0     1     0     0     1     1     3     2     2     1     1     1     2     3     1     8     7    10    13    16    22    25    36    33    36    43    34    40    57    41    56    74    60    73    81    74    80    81    82    72    85    83    86    89    98    99    78    74    71    74    51    44    52    48    46    33    29    26    16
    14    19    17     9    16    10     7     4     2     2     5     3     4     1     1     2     0     0     0     0     0     0     0     0     0     0     0     0     0     0     0     0     0     0     0     0     0     0     0     0     0     0     0     0     0     1     0     1     0     2     1     0     2     3     4     5     3     7     9     3    16    14    14    20    28    32    31    36    32    30    53    59    50    54    56    68    84    70    88    87   106    86    94   105    96    82    94    79    68    60    76    61    55    46    50    42    35    27    13    19
    17    21    22    22    20    10     8     9     6     2     5     4     0     1     1     0     0     0     0     0     0     0     0     0     0     0     0     0     0     0     0     0     0     0     0     0     0     0     0     0     0     0     0     1     0     0     1     1     2     3     2     4     2     1     2     3     2     6     3     7     7     9    15    15    24    18    36    36    31    32    42    37    42    51    55    64    57    75    84    74    92    96   105    81    99    85    96    84    90    72    63    79    64    68    51    52    34    34    40    26
    19    22    21    21    16    24    12     8     8     3     3     3     3     1     1     0     1     0     0     0     0     0     0     0     0     0     0     0     0     0     0     0     0     0     0     0     0     0     0     0     0     0     0     0     0     3     1     0     0     1     0     1     2     1     2     3     3     4     3     8     6     8    12    10    16    17    36    29    30    31    41    40    44    55    63    81    76    79    81    73    78    74    83   102   101    87    90    79    99    95    88    75    76    56    51    50    43    40    28    25
    29    29    23    19    17    13    13     6     7     6     2     7     1     1     2     2     1     0     0     0     1     1     0     0     0     0     0     0     0     0     0     0     0     0     0     0     0     0     0     0     0     0     0     0     0     0     2     0     1     1     1     0     1     2     3     2     2     3     5     5     9     8     3    15    12    10    14    24    33    23    35    40    55    51    64    66    76    64    72    71    98    85    86    86    95    88    84   105    79    89    60    71    76    59    66    66    54    42    49    36
