#lt      20.0
#count pbc
#dt      1.0
#dn      20
#edges  -27.1557089 -26.6125947 -26.0694805 -25.5263664 -24.9832522 -24.4401380 -23.8970238 -23.3539097 -22.8107955 -22.2676813 -21.7245671 -21.1814529 -20.6383388 -20.0952246 -19.5521104 -19.0089962 -18.4658821 -17.9227679 -17.3796537 -16.8365395 -16.2934253 -15.7503112 -15.2071970 -14.6640828 -14.1209686 -13.5778545 -13.0347403 -12.4916261 -11.9485119 -11.4053977 -10.8622836 -10.3191694  -9.7760552  -9.2329410  -8.6898268  -8.1467127  -7.6035985  -7.0604843  -6.5173701  -5.9742560  -5.4311418  -4.8880276  -4.3449134  -3.8017992  -3.2586851  -2.7155709  -2.1724567  -1.6293425  -1.0862284  -0.5431142   0.0000000   0.5431142   1.0862284   1.6293425   2.1724567   2.7155709   3.2586851   3.8017992   4.3449134   4.8880276   5.4311418   5.9742560   6.5173701   7.0604843   7.6035985   8.1467127   8.6898268   9.2329410   9.7760552  10.3191694  10.8622836  11.4053977  11.9485119  12.4916261  13.0347403  13.5778545  14.1209686  14.6640828  15.2071970  15.7503112  16.2934253  16.8365395  17.3796537  17.9227679  18.4658821  19.0089962  19.5521104  20.0952246  20.6383388  21.1814529  21.7245671  22.2676813  22.8107955  23.3539097  23.8970238  24.4401380  24.9832522  25.5263664  26.0694805  26.6125947  27.1557089
    71    58    33    44    37    19    23    15     6     6     9     4     3     2     5     1     3     1     0     0     0     0     0     0     0     0     0     0     0     0     0     0     0     0     0     0     0     0     0     0     0     0     0     0     0     0     0     0     0     0     0     0     0     0     1     0     1     0     0     0     1     2     1     0     1     0     0     3     4     3    10     6     8    12    27    22    32    33    46    35    55    46    59    64    90    95    84   104   103    98    99   101   116   106   107    98   104    91    95    76
    82    60    56    36    50    33    30    15    15    16     6    16     8     6     4     3     3     1     0     2     0     0     0     0     0     0     0     0     0     0     0     0     0     0     0     0     0     0     0     0     0     0     0     0     0     0     0     0     0     0     0     0     0     1     1     0     0     0     0     3     1     1     1     3     2     2     6     1     5     3     4     2     9    17    15    16    26    30    26    36    42    45    57    73    72    79    90    70    96    82   107    90   114   120   118   108   116    90    87    83
    83    69    77    50    40    34    39    22    25    22    14    17     9     7     5     2     2     1     0     0     1     0     0     1     0     0     0     0     0     0     0     0     0     0     0     0     0     0     0     0     0     0     0     0     0     0     0     0     0     0     0     0     0     0     0     0     0     0     2     0     0     0     1     2     1     1     0     3     3     1     4     7     8     7    17    11    17    23    30    35    29    48    57    67    71    81    81    90    97   110   100   110   113   110   114    92   103    98    96    70
    99    65    67    63    52    42    34    29    27    21    12    18     8    10     8     5     0     3     4     0     0     1     0     0     0     0     0     0     0     0     0     0     0     0     0     0     0     0     0     0     0     0     0     0     0     0     0     0     0     0     0     0     0     0     0     0     0     1     1     0     0     0     0     0     0     1     2     1     1     3     4     5     6    11    14    10     8    27    24    30    33    46    41    47    59    67    77    73    88    87    88   117    78   139   116   124   118   106    83    99
    80   100    79    76    62    45    43    29    28    17    17    22    12     9     8     9     7     2     4     1     1     0     1     0     1     1     0     0     0     0     0     0     0     0     0     0     0     0     0     0     0     0     0     0     0     0     0     0     0     0     0     0     0     0     0     0     0     0     0     0     0     1     0     1     1     0     1     3     1     0     3     4     7    10     6     6    11     9    21    18    28    30    47    33    59    70    72    67    80   104    97   100   109   104   129   128   107   110   102    81
    85    87    91    70    65    35    49    58    32    34    21    14    21    13     7    12     7     5     2     2     0     1     2     0     3     0     1     0     0     0     0     0     0     0     0     0     0     0     0     0     0     0     0     0     0     0     0     0     0     0     0     0     0     0     0     0     0     0     0     0     0     0     0     0     0     0     2     0     0     3     2     2     2     2     4     5    10    10    18    19    13    29    34    35    38    49    60    72    80    80    89   114    99    89   117   112   107   114   115   102
    91   109    97    81    64    57    48    54    39    35    30    27    23    18    16    14     8     2     5     0     2     2     0     0     2     5     1     0     0     0     0     0     0     0     0     0     0     0     0     0     0     0     0     0     0     0     0     0     0     0     0     0     0     0     0     0     0     0     0     0     0     0     1     0     0     0     0     1     3     2     6     1     4     5     6     8     4     9     6    18    16    27    24    34    48    43    45    68    65    91    72    91   101    95   108   108    97   116    78    97
   103   100   120   105    66    51    65    72    60    50    35    24    26    22    12    10    11     8     6     6     0     2     6     4     3     1     0     2     1     3     0     0     0     0     0     0     0     0     0     0     0     0     0     0     0     0     0     0     0     0     0     0     0     0     0     0     0     0     1     0     0     0     1     0     0     0     0     1     0     1     0     4     8     5     8     1     3     8    12     8    12    19    25    19    38    51    31    65    66    65    79    79    87   107    98   103   108    86   129   118
   123   101   115   111    99    96    79    84    62    56    35    36    41    28    14    15    14     8     7     4     6     6     1     4     3     3     0     1     1     0     0     0     0     0     0     0     0     0     0     0     0     0     0     0     0     0     0     0     0     0     0     0     0     0     0     0     0     0     0     0     0     0     0     0     0     1     1     0     2     1     1     4     4     2     4     1    10     5     6    14     9    18    22    25    23    36    51    53    34    49    67    69    89    80   106   101   110   104    97   111
    99   112    92   107   109    89    89    70    67    67    58    61    40    44    27    27    25    12    10     8     6     3     4     4     1     3     1     1     1     0     1     0     0     0     0     0     0     0     0     0     0     0     0     0     0     0     0     0     0     0     0     0     0     0     0     0     0     0     0     0     0     1     1     1     0     0     0     0     0     0     3     2     4     0     3     3     3    10     5     9     9    12    16    21    23    34    37    50    53    54    66    90    76    80    81   107    99   100   121   106
   110    96   113    96   100    94    66    94    70    68    51    52    47    41    30    37    24    14    19    11     9     7     3     2     0     4     6     2     0     0     0     0     0     0     0     0     0     0     0     0     0     0     0     0     0     0     0     0     0     0     0     0     0     0     0     0     0     0     0     0     0     0     0     0     0     1     0     0     1     0     1     2     3     1     3     2     2     2     3     6    10    15    18    23    19    24    28    28    39    52    54    67    81    74    92    91    94    97    95   101
    92   119   128   120   116   103    76    85   103    63    57    60    47    48    37    34    20    19     8    15    13     8     3     2     6     3     2     2     2     1     0     0     0     0     0     0     0     0     0     0     0     0     0     0     0     0     0     0     0     0     0     0     0     0     0     0     0     0     0     0     0     0     0     0     0     0     0     0     0     0     0     1     1     5     0     4     2     2     2     8     8     8     9    11    10    21    27    29    36    53    34    52    68    58    75    79    84   104    95   106
   116   109   109   108   116   122   110   109   109    77    83    61    53    54    41    33    34    20    18     6    11     5     5     5     7     4     3     2     2     1     2     0     0     0     0     0     0     0     0     0     0     0     0     0     0     0     0     0     0     0     0     0     0     0     0     0     0     0     0     0     0     0     0     0     0     0     0     0     0     0     0     1     0     0     0     2     2     0     1     6     5     6     9     8    14    15    20    26    26    37    49    48    48    46    64    89    68    81    87    94
   106   117   108   109   114   104   111   123    98   106    70    73    93    70    54    50    31    34    25    21    17     6     6     4     4     4     0     2     3     0     0     0     0     0     0     0     0     0     0     0     0     0     0     0     0     0     0     0     0     0     0     0     0     0     0     0     0     0     0     0     0     0     0     0     0     0     0     2     0     0     0     0     0     1     0     2     0     1     2     5     4     2     6    12     7    19    14    10    22    28    39    44    48    55    51    70    69    65   101   101
    92    85   106   112   111   111   106   109   108   126    92    86    90    67    57    44    51    35    23    22    19    12    13     8     6     1     6     6     2     1     1     0     0     0     2     1     0     1     0     0     0     0     0     0     0     0     0     0     0     0     0     0     0     0     0     0     0     0     0     0     0     0     0     0     0     0     0     0     0     0     2     0     2     0     1     0     2     2     0     0     4     7     4     7    16     6    12    17    19    28    31    37    56    49    44    56    66    67    72    71
    78    80    95    97   117   126   112   111   105   107    96    86    67    70    65    64    37    57    32    29    15    16    15    12     8     9     2     2     1     1     1     0     0     0     0     0     0     0     0     0     0     0     0     0     0     0     0     0     0     0     0     0     0     0     0     0     0     0     0     0     0     0     0     0     0     0     0     1     0     0     0     0     0     0     0     0     1     1     3     1     1     2     6     5     6     5    18    23    18    24    27    30    38    40    46    62    53    73    73    89
    85    85    87    99   102    96   122   107   132   107    84    81    71    82    72    77    51    44    37    21    34    26    19    11     9     4     6     0     2     5     1     1     1     1     0     0     0     0     0     0     0     0     0     0     0     0     0     0     0     0     0     0     0     0     0     0     0     0     0     0     0     0     0     0     0     0     0     0     0     0     0     1     1     0     1     1     0     1     2     4     0     1     1     3     1     7    11    10    14    16    24    19    40    36    44    52    68    58    82    56
    64    93    87    99    95   123   108   107   122   106   105   100    87    91    73    69    66    64    37    29    26    23    20    17    14     9     1     7     5     0     4     4     3     2     1     2     0     0     0     0     0     0     0     0     0     0     0     0     0     0     0     0     0     0     0     0     0     0     0     0     0     0     0     0     0     0     0     0     0     0     0     0     0     1     0     0     1     1     1     1     0     5     0     4     3     6    12     9    14    10    17    20    27    42    42    38    57    57    67    80
    77    75    79    81    88    91    92   111   113   114    97   123    89   110    86    71    70    56    45    40    29    34    26    23    24     8     7     4     2     3     0     5     3     2     2     1     2     0     0     0     0     0     0     0     0     0     0     0     0     0     0     0     0     0     0     0     0     0     0     0     0     0     0     0     0     0     0     0     0     0     1     0     0     1     0     0     0     0     0     0     0     1     2     5     5     3     5     6    12     9    10    17    24    20    42    49    57    47    67    68
    64    52    85    83    81    81    84    95    81   112   114   104   100    96    87    83    69    75    63    49    47    37    38    31    26    16    17    10     6     3     4     5     5     2     4     1     2     0     0     0     0     0     0     0     0     0     0     0     0     0     0     0     0     0     0     0     0     0     0     0     0     0     0     0     0     0     0     0     0     0     0     1     0     0     0     0     0     0     0     0     0     0     0     1     1     4     5     3     6     7    11    13    12    22    16    45    34    45    37    57
    45    51    78    82    78    86    94    81    99   119   110   119   119   113    97    94    82    61    68    53    49    50    50    31    33    28    16    17    18     5     6     7     9     5     3     0     0     1     2     0     0     0     0     0     0     0     0     0     0     0     0     0     0     0     0     0     0     0     0     0     0     0     0     0     0     0     0     0     0     0     0     0     0     0     0     0     0     0     0     0     1     0     0     0     3     1     4     6     7     8    10     8    23    13    14    21    42    44    44    52
    46    56    69    58    67   105    79    91   109   108   126   128    90   115   109    81    96    86    93    54    58    69    57    44    35    25    19    20    20    14    12    10     9     6     2     3     1     1     0     0     0     2     0     0     0     0     0     0     0     0     0     0     0     0     0     0     0     0     0     0     0     0     0     0     0     0     0     0     0     0     0     0     0     0     0     0     0     0     0     0     0     0     0     1     0     0     3     4     7     7     5     6    14    17    17    21    21    45    35    47
    44    45    47    50    69    59    76   103   120   111    99   114   115   118   110    99    99    95    74    84    70    52    66    40    46    36    31    32    29    11    12     5    13     6     4     7     2     4     3     2     1     0     0     0     0     0     0     0     0     0     0     0     0     0     0     0     0     0     0     0     0     0     0     0     0     0     0     0     0     0     0     0     0     0     0     0     0     0     0     0     0     0     0     0     2     1     2     6     4     7     6     6    10    11    12    16    16    24    31    44
    37    37    35    53    63    67    67    73    79    97   115    91   129   102   101    97   109    95    82    75    78    88    85    67    63    33    41    28    32    19    14    12     9     7     4     3     5     3     1     1     0     0     0     1     0     0     0     0     0     0     0     0     0     0     0     0     0     0     0     0     0     0     0     0     0     0     0     0     0     0     0     0     0     2     0     0     0     0     0     0     0     0     0     0     0     0     1     2     4     1     3     9    10     7     8    14    12    19    27    40
    22    28    41    48    58    67    67    72    84    87   113    98    95   108   105   107   122   117   104    81    81    78    63    79    64    54    44    32    27    26    17    13     7    12     5     5     4     7     0     2     2     0     0     0     0     0     0     0     0     0     0     0     0     0     0     0     0     0     0     0     0     0     0     0     0     0     0     0     0     0     0     0     0     0     0     0     0     0     0     0     0     0     0     0     0     0     0     0     2     1     3     4     7     7    11     8    21    18    21    19
    18    34    37    47    49    54    58    69    75    86    79    86    96   101   110   116   109   110    82    91    98    84    74    74    74    72    57    37    37    29    31    14    14    13     8     8     4     3     5     2     2     1     1     0     0     0     0     0     0     0     0     0     0     0     0     0     0     0     0     0     0     0     0     0     0     0     0     0     0     0     0     0     0     0     0     0     0     0     0     0     0     0     0     0     1     0     0     1     0     1     3     3     4     2     2    10    10    13     9    18
    11    24    30    34    38    52    53    75    78    86    89    68   100    91   130   113   109    95   105   121    96    92    86    83    71    63    54    51    36    37    30    19    20    13    11    10     6     4     0     3     0     0     2     0     0     0     0     0     0     0     0     0     0     0     0     0     0     0     0     0     0     0     0     0     0     0     0     0     0     0     0     0     0     0     0     0     0     1     0     0     0     0     0     0     0     1     0     1     3     4     1     1     5     4     2     4    13     6    10    17
    18    20    14    29    47    34    45    48    65    89    72    89    89   118   105    80   118   119   114   111   112    96    90    98    82    79    62    64    48    33    44    25    24    14    31    13    14    11     4     1     2     2     3     1     0     0     0     0     0     1     0     0     0     0     0     0     0     0     0     0     0     0     0     0     0     0     0     0     0     0     0     0     0     0     0     0     0     0     0     0     0     0     0     0     0     0     0     0     1     0     3     1     0     0     1     3     3    13     7    22
     7    14    17    16    21    40    39    46    57    64    75    72   102    95   105   102    90   111   115    99   116   103    97    82    94    82    78    55    67    40    34    29    21    28    18    16    13    10     1     3     3     5     1     1     0     0     0     0     0     0     0     0     0     0     0     0     0     0     0     0     0     0     0     0     0     0     0     0     0     0     0     0     0     0     0     0     0     0     0     0     0     1     0     0     0     0     0     0     0     1     1     1     1     2     3     2     6     6    11     7
     5    20    10    15    28    27    29    46    51    60    71    70    65    69    95    98    85    95   118    93    98   126   104    94   107    80    68    89    58    52    47    39    37    31    25    24    20    13     6     3     4     4     1     2     0     1     0     0     0     0     0     0     0     0     0     0     0     0     0     0     0     0     0     0     0     0     0     0     0     0     0     0     0     0     0     0     0     0     0     0     0     0     0     0     0     0     0     0     1     0     0     1     2     1     4     4     1     6     4     4
    12    10    14    13    14    33    46    36    29    47    54    80    76    72    78    91    97    93   105   108   109   133    96   106   101    68    73    66    62    60    48    51    48    31    40    25    21    15    16    13     9     2     3     3     1     1     1     0     1     0     0     0     0     0     0     0     0     0     0     0     0     0     0     0     0     0     0     0     0     0     0     0     0     0     0     0     0     0     0     0     0     0     0     0     0     0     0     0     0     0     0     0     0     3     2     1     0     7     4     5
     4     6     8    13    19    16    24    33    37    33    54    56    71    75    81    78    76    92   101   118    92   116   104   109    90    94    96    91    83    55    64    74    58    50    35    26    23    28    13    17     8    10     3     8     2     2     1     2     0     0     0     0     0     0     0     0     0     0     0     0     0     0     0     0     0     0     0     0     0     0     0     0     0     0     0     0     0     0     0     0     0     0     0     0     0     0     0     0     0     0     0     0     0     0     1     1     1     0     3     5
     4     6     4     6     9    15    29    25    30    40    40    41    42    76    72    74    75    86   115   101   124   114   104   112   106    96   112    73    83    80    56    67    64    32    62    36    41    20    14    23    10    10    11     2     4     2     1     1     1     3     0     0     0     0     0     0     0     0     0     0     0     0     0     0     0     0     0     0     0     0     0     0     0     0     0     0     0     0     0     0     0     0     0     0     0     0     0     0     0     0     0     0     0     0     0     1     2     1     0     2
     1     3     1     9    14    13    16    18    22    31    34    44    45    46    61    66    79    86    94    86   103   109   110   107   100   100   112   110    77    75    85    61    64    54    42    50    42    22    25    22    15    14     7     8     4     2     4     3     2     2     0     1     0     0     0     1     0     0     0     0     0     0     0     0     0     0     0     0     0     0     0     0     0     0     0     0     0     0     0     0     0     0     0     0     0     0     0     0     0     1     0     0     0     0     0     0     1     2     2     1
     3     1     1     4     8    13     9    11    21    27    36    34    35    43    48    62    57    60    82    73   112   111   121   108   102   102   106   109   111    85    95    92    68    74    66    61    52    34    34    19    18    14     6     6     4     3     4     3     1     4     0     1     1     0     0     0     0     0     0     0     0     0     0     0     0     0     0     0     0     0     0     0     0     0     0     0     0     0     0     0     0     0     0     0     0     0     0     0     0     1     0     0     0     0     0     0     3     3     0     3
     0     0     3     3     5     5     7    10    14    16    23    31    28    28    41    51    52    59    75    85    94   121   108    88    89   120   110   113    93   109    87   106    69    77    68    55    54    47    36    40    23    23    12     8     3     8    10     4     3     4     1     1     2     0     0     1     0     0     0     0     0     0     0     0     0     0     0     0     0     0     0     0     0     0     0     0     0     0     0     0     0     0     0     0     0     0     0     0     1     0     0     0     0     0     0     1     1     3     0     1
     2     2     0     4     2     6     9     9    12    17    28    21    31    19    41    49    58    71    68    72    92    96    96    94   115   106   120   146   127    96    93    87   101    76    85    66    53    60    68    30    28    18    18    17    10     7     7     8     2     4     2     0     2     2     1     0     0     0     0     0     0     0     0     0     0     0     0     0     0     0     0     0     0     0     0     0     0     0     0     0     0     0     0     0     0     0     0     0     0     0     0     0     1     0     0     0     0     0     1     0
     0     0     2     1     1     3    13     9     9    14    15    22    22    32    43    61    52    67    51    74    87    89    98    85   121    93   115   115   111   104    97   104    92    95    86    69    84    72    35    48    33    31    20    17    12    12     9     8     6     3     4     0     1     0     2     3     2     1     0     0     1     0     0     0     0     0     0     0     0     0     0     0     0     0     0     0     0     0     0     0     0     0     0     0     0     0     0     0     0     0     0     0     0     1     0     1     0     1     0     1
     0     0     0     5     1     4     8     5     6     9    18    11    17    27    22    37    45    62    69    47    57    88    79    74    87   117   112   135   103   124   105    93    99    90    83    95    85    68    69    54    47    33    28    25    18    11    11     8     7     5     2     2     5     2     0     1     2     1     0     0     0     0     0     0     0     0     0     0     0     0     0     0     0     0     0     0     0     0     0     0     0     0     0     0     0     0     0     0     0     0     0     0     0     0     0     0     0     2     0     0
     2     1     0     0     1     1     2     6     6     9    12     9    24    23    23    39    35    51    31    55    48    62    82    86    84   105    97   114   102   117   105   105   100   105    92    77    98    83    71    55    56    39    28    33    26    23    13    17    10     5     5     6     2     0     3     2     2     0     0     0     0     0     0     0     0     0     0     0     0     0     0     0     0     0     0     0     0     0     0     0     0     0     0     0     0     0     0     0     0     0     0     0     0     0     0     0     0     0     1     0
     2     1     0     1     1     1     3     3     4     9     7     6    12    18    22    32    25    35    39    45    49    55    60    84    92    84    84   110   103   120   104   105   115   100    87   108    97    82    83    76    64    49    45    38    36    25    20    14    16     8     5     7     8     6     0     2     1     3     1     0     1     0     0     0     0     0     0     0     0     0     0     0     0     0     0     0     0     0     0     0     0     0     0     0     0     0     0     0     0     0     0     0     0     0     0     0     0     1     0     0
     0     2     2     1     3     0     2     1     3     3     4     3     7    14    19    20    27    36    31    35    43    58    65    68    77    82    93    86    88   104    97   103    95    82    75    96    95   103   101    86    81    60    59    37    33    36    20    16    17    14    11    10    11     1     3     2     2     2     1     1     0     0     0     0     0     0     0     0     0     0     0     0     0     0     0     0     0     0     0     0     0     0     0     0     0     0     0     0     0     0     0     0     0     0     0     0     0     0     0     0
     1     0     0     0     2     1     1     0     3     3     8     2     6    12    12    19    12    28    41    31    44    51    60    69    52    83    78    89   113    95    95    98   104   102    85   108    94    99    88    76    79    58    52    48    41    34    39    17    11    14     9     7     5     4     7     3     4     3     3     1     0     1     0     0     0     0     0     0     0     0     0     0     0     0     0     0     0     0     0     0     0     0     0     0     0     0     0     0     0     0     0     0     0     0     0     0     0     0     0     0
     0     0     0     0     0     0     0     1     0     2     3     4     9     9    11    10    17    24    26    28    41    34    56    58    72    66    84    76    81   101   109   102   120   109   108   101   101   101    90    86    91    63    64    56    56    45    31    37    29    26    13    11     9    11     7     7     2     4     3     0     1     0     0     1     0     0     0     0     0     0     0     0     0     0     0     0     0     0     0     0     0     0     0     0     0     0     0     0     0     0     0     0     0     0     0     0     0     0     0     0
     0     0     0     0     1     0     0     2     2     2     1     4     1    10     4     2    10    15    22    27    39    36    39    58    52    58    68    76    63    98    90   111    97    92   114   108   114   118    86   101    89    75    62    68    63    42    39    51    30    22    22    14    17    16     6     6     4     1     1     0     0     1     0     0     1     1     0     1     0     0     0     0     0     0     0     0     0     0     0     0     0     0     0     0     0     0     0     0     0     0     0     0     0     0     0     0     0     0     0     0
     0     0     0     0     1     0     1     1     2     3     1     2     1     4     4     6    10    18    11    29    25    24    44    39    42    54    65    66    88    83   117   106    96   131   104   120   125   126   103   106    97    85    85    72    63    76    55    33    42    37    26    26    24    10     9     8     5     3     1     1     0     2     0     0     0     0     0     0     0     0     0     0     0     0     0     0     0     0     0     0     0     0     0     0     0     0     0     0     0     0     0     0     0     0     0     0     0     0     0     0
     0     0     0     1     3     2     2     0     2     1     0     1     2     2     6     2    11    13    20    15    28    24    25    37    44    48    50    65    59    88    96    99   112   103   108   123   125   110   109    97   106    98    74    87    70    80    57    57    46    40    35    27    28    17     8    11    11     1     2     2     0     5     0     1     0     2     0     0     0     1     0     0     0     0     0     0     0     0     0     0     0     0     0     0     0     0     0     0     0     0     0     0     0     0     0     0     0     0     0     0
     0     0     0     0     0     0     1     1     0     1     2     3     5     2     5     1     5     9    13    16    19    17    33    31    28    48    45    57    74    71    83    87    87    90   125    90    96   109   108   103   100   102    90    72    85    86    62    68    56    40    50    30    31    33    20    11     9     3     7     4     5     8     3     0     0     1     2     1     0     0     1     0     0     0     0     0     0     0     0     0     0     0     0     0     0     0     0     0     0     0     0     0     0     0     0     0     0     0     0     0
     0     0     0     0     0     2     0     1     1     1     2     1     1     3     3     2     4    10     9     7    16    13    16    24    30    34    32    59    55    41    71    81    77    88    97    96   110   110   108   115   116   114   112    78    89    81    61    64    42    56    44    25    40    20    12    12    16    10     4     3    11     3     5     1     1     1     1     1     0     2     0     1     0     1     0     0     0     0     0     0     0     0     0     0     0     0     0     0     0     0     0     0     0     0     0     0     0     0     0     0
     0     0     0     1     0     0     0     0     0     1     1     0     1     0     7     1     3     5    10    11    11    11    15    18    23    25    28    35    45    48    70    65    66    78    79    77   100   105   102    98   107   106   117   100    87   102    79    77    71    63    39    44    33    30    26    19    12    14    17     4     9     7     4     3     2     0     0     1     0     0     0     1     0     0     0     0     0     0     0     0     0     0     0     0     0     0     0     0     0     0     0     0     0     0     0     0     0     0     0     0
     0     0     0     0     0     0     1     1     0     0     1     0     0     0     1     1     3     4     7     6     9     7    11    16    18    21    34    26    41    45    52    57    69    83    92    83    87    97   118   113   114   101   110   118   108    90    89    98    69    56    57    50    39    42    37    22    24    11    12    11     8     5     2     2     3     0     0     1     1     0     2     1     0     1     1     0     0     0     0     0     0     0     0     0     0     0     0     0     0     0     0     0     0     0     0     0     0     0     0     0
     0     0     0     0     0     0     0     0     0     2     0     1     0     0     1     0     0     4     6     7     9     4    13    15    19    17    22    33    28    41    50    52    65    67    65    62    96    97    89    88   110   102   117   103   100   107    91   100    68    60    55    63    38    47    39    36    19    26    13    10     8    12     2     6     3     0     0     5     1     1     1     1     0     0     0     0     0     0     0     0     0     0     0     0     0     0     0     0     0     0     0     0     0     0     0     0     0     0     0     0
     0     0     0     0     0     0     0     0     0     0     1     1     0     1     0     0     1     1     4     4     7     3    14    11    10    11    24    27    25    24    22    45    51    61    66    76    75    95    93    94   115   115   109   120   128   103   109    78    85    68    83    59    74    44    50    46    37    37    24    22     8    16    11     3     6     3     3     0     4     0     1     1     1     0     0     0     0     0     0     0     0     0     0     0     0     0     0     0     0     0     0     0     0     0     0     0     0     0     0     0
     0     0     0     0     0     0     0     0     0     0     0     0     0     0     1     0     0     0     3     4     2     6     5     7     6    16    15    17    18    26    25    42    50    52    61    63    72    96    96   106   106   114   112   101   116   119    96   102    74    75    72    88    71    52    48    39    30    37    32    25    12    19     8     7     3     2     1     4     4     2     0     0     2     2     0     0     0     0     0     0     0     0     0     0     0     0     0     0     0     0     0     0     0     0     0     0     0     0     0     0
     0     0     0     0     0     0     0     0     0     0     1     0     1     0     0     1     0     1     3     4     4     6     4     8     6    11    16    17    20    26    34    43    33    39    43    61    69    87   102    82   111   102   103   110   107    97   107    97    99    89    89    73    81    53    72    52    45    49    39    33    24    13    15     7     8     7     2     1     3     1     1     1     1     1     0     0     1     0     0     0     0     0     0     0     0     0     0     0     0     0     0     0     0     0     0     0     0     0     0     0
     0     0     0     0     0     0     0     0     0     0     0     0     0     0     0     0     2     1     1     2     6     5     2     6     6    14     6    10    18    29    31    26    39    37    46    50    69    65    80    94   105    97    97   148   104   118   124   122    87    96    97    94    82    75    78    76    55    34    36    34    24    19    18    10    12     7     6     2     4     3     1     2     0     1     3     0     0     1     0     0     0     0     0     0     0     0     0     0     0     0     0     0     0     0     0     0     0     0     0     0
     0     0     0     0     0     0     0     0     0     0     0     0     0     0     0     0     0     0     0     2     2     1     5     6     3     4    12     9     9    24    15    33    26    36    37    45    57    51    66    92    64    92   103   117   116   127   122   105    99   107   108    87    86    89    70    70    60    32    49    41    32    34    15    13    16     8     8     7     5    11     6     2     2     0     0     1     0     0     2     0     0     0     0     0     0     0     0     0     0     0     0     0     0     0     0     0     0     0     0     0
     0     0     0     0     0     0     0     0     0     0     0     0     0     0     0     0     0     1     1     1     1     0     1     4     2     5     3     8    12    13    18    21    29    26    47    44    52    52    85    71    71    89    78   121   111   121   116   122   104   108   103   103    89    89    75    73    59    68    66    41    35    35    20    23    12    10    11    10     4     7     1     3     1     1     1     0     0     0     0     0     0     1     0     0     0     0     0     0     0     0     0     0     0     0     0     0     0     0     0     0
     0     0     0     0     0     0     0     0     0     0     0     0     0     1     0     0     0     0     0     1     2     1     0     2     2     4    15     6    10    13    17    19    24    23    35    39    42    45    59    60    64    71    70   111    94   118   117   130   103   104   112    92   101    89    98    90    79    66    60    49    37    41    28    19    17    19    12    15     5     7     5     2     2     0     1     0     2     0     3     0     0     0     0     0     0     0     0     0     0     0     0     0     0     0     0     0     0     0     0     0
     0     0     0     0     0     0     0     0     0     0     0     0     0     0     0     0     1     0     0     0     1     0     2     2     0     4     4     9     9     8     7    12    20    29    29    23    31    35    62    60    69    72    64    74    93   127   108   128   129   122   112    91   104    99    77    80    73    74    62    52    51    25    38    19    19    18    10     6     9    14     5     3     6     2     3     4     0     0     1     0     1     0     0     0     0     0     0     0     0     0     0     0     0     0     0     0     0     0     0     0
     0     0     0     0     0     0     0     0     0     0     0     0     0     0     0     0     0     0     0     1     0     0     1     1     1     3     2     4     6     8    12     5    14    11    19    21    28    33    41    46    39    56    72    68    87   101    98    97   110    94   112   116    89    90    92    90    85    77    82    50    50    48    32    40    28    24    23    20     9     5    10     2     2     5     3     1     2     0     0     1     0     1     0     0     1     0     0     0     0     0     0     0     0     0     0     0     0     0     0     0
     0     0     0     0     0     0     0     0     0     0     0     0     0     0     0     0     0     0     0     2     0     0     0     1     2     3     3     2     4     3     6     3     5    11    10    20    20    27    30    42    55    53    48    61    72    93    93   109   112   118   107   109   110   105    93   102    83    82    75    71    65    58    65    32    25    35    25    17     9    11    11     7    10     7     8     1     4     2     2     1     1     0     0     0     0     0     0     0     0     0     0     0     0     0     0     0     0     0     0     0
     0     0     0     0     0     0     0     0     0     0     0     0     0     0     0     0     0     1     0     2     0     0     0     0     0     1     0     1     1     3     4     1     9    11    13    14    19    25    26    36    35    46    55    60    62    73   111    75    88   100   124   127   108   106    97   105    99    67    74    79    66    64    46    52    55    34    42    24    12    10    12    18    11     6     5     4     3     4     1     3     1     1     1     1     1     0     0     0     0     0     0     0     0     0     0     0     0     0     0     0
     0     0     0     0     0     0     0     0     0     0     0     0     0     0     0     0     0     1     0     0     0     0     0     1     0     2     2     0     3     1     3     1     8     8    10     5    17    19    15    24    30    30    63    65    47    63    99    85    93    92   110    96   111   100   101   113    91   106    85    91    66    68    81    52    40    37    41    30    17    23    10    15    14     6     6     6     5     1     2     0     4     0     0     0     0     0     0     0     0     0     0     0     0     0     0     0     0     0     0     0
     0     0     0     0     0     0     0     0     0     0     0     0     0     0     0     0     0     0     0     0     0     0     0     0     1     3     2     1     1     4     3     6     4     5    13     8     4    15    15    20    28    30    41    41    48    72    80    78    89   100   102    83    97   120   105   112   108   105    74    81    82    93    70    53    54    50    47    42    21    16    19    21    17    13    13    13     9     2     5     2     0     3     0     0     1     0     0     0     0     0     0     0     0     0     0     0     0     0     0     0
     0     0     0     0     0     0     0     0     0     0     0     0     0     0     0     0     0     0     0     0     0     0     0     2     1     0     0     1     1     3     4     4     3     4     7    13    14    15    18    18    31    32    35    40    44    54    64    74    88    89   108    92   100   113   138   108   104   115   102   114    86    75    88    78    70    58    36    51    36    28    30    24    19    12    14    12     7     9     4     4     1     1     1     0     0     0     0     0     0     0     0     0     0     0     0     0     0     0     0     0
     0     0     0     0     0     0     0     0     0     0     0     0     0     0     0     0     0     0     0     0     0     0     0     0     0     0     1     0     0     0     3     1     1     1     4     4     5    15    10    10    15    25    18    28    43    72    49    55    75    76    92    89    94   105   112   110   111   107    97   109    88    79    86    90    62    91    70    58    49    47    35    24    26    14     9    11    10     9     4     5     6     1     1     1     0     0     0     1     0     0     0     0     0     0     0     0     0     0     0     0
     0     0     0     0     0     0     0     0     0     0     0     0     0     0     0     0     1     0     1     0     0     0     0     0     0     0     1     0     0     1     0     1     1     0     3     4     2     4     6    10    16    20    36    17    35    30    47    49    72    50    79    76    86   111   105   101   130   121   119   103   118   107   109    92    86    95    78    61    55    43    26    32    23    21    17    15     8     9     6     4     4     5     0     6     1     0     1     0     0     1     0     0     0     0     0     0     0     0     0     0
     0     0     0     0     0     0     0     0     0     0     0     0     0     0     0     0     0     1     0     0     0     0     0     0     0     1     1     0     0     0     1     2     1     0     3     1     2     9     9     7    10     9    13    26    31    15    48    52    62    62    58    70    79    83    96   122   109   120   126   121    94    88    89   105    81    84    79    67    58    52    43    26    32    28    23    18    16    12     9     7     5     0     3     4     2     1     1     2     0     0     0     0     1     0     1     0     0     0     0     0
     0     0     0     0     0     0     0     0     0     0     0     0     0     0     0     0     0     0     0     0     0     0     0     0     0     0     0     0     0     0     0     0     0     0     1     0     0     5     6     9    10     8    14    26    23    31    38    35    34    40    58    60    72    84    99   103   100   126   107   125   105    97    96    89    89    95   104    69    66    65    58    49    24    33    28    24    12    19    12     3     4     4     0     1     4     1     3     0     1     1     1     1     0     0     0     0     0     0     0     0
     0     0     0     0     0     0     0     0     0     0     0     0     0     0     0     0     0     0     0     0     0     0     0     0     0     0     0     0     0     1     1     1     1     0     0     2     3     2     2     5    10    13     8    12    12    24    36    35    44    57    47    56    76    71    99    93   103   109   131   123   102   110   101   108   102    99    99   104    85    68    59    39    53    36    25    20    24    14    14     7     3     6     4     7     1     2     3     2     0     0     0     0     0     0     1     1     0     0     0     0
     0     0     0     0     0     0     0     0     0     0     0     0     0     0     0     0     0     0     0     0     0     0     0     0     0     0     0     0     0     0     0     0     0     2     0     2     1     1     8     1     6     9     8     8    11    19    33    28    35    36    39    47    68    64    65    96   115   118   117    92    82    92    93    96    96    99   108   106    69    73    70    57    38    48    33    39    32    23    14    10     7    10     4     4     4     6     0     3     0     0     0     0     2     0     0     0     0     0     0     0
     0     0     0     0     0     0     0     0     0     0     0     0     0     0     0     0     0     0     0     0     0     0     0     0     0     0     0     0     1     0     0     0     1     1     0     2     3     2     1     6     2     3     4     9    14    16    30    19    18    32    36    41    56    61    64    93    77    89    84   106   114    91    84   101   113    94    90    78    87    80    60    76    54    49    44    38    39    28    24    13     8    10     7     8     4     2     2     4     2     2     0     0     1     0     0     0     0     0     0     0
     0     0     0     0     0     0     0     0     0     0     0     0     0     0     0     0     0     0     0     0     0     0     0     0     0     0     0     0     0     0     0     1     1     1     0     3     1     1     0     3     4     2     1    10    10    11    15    15    27    25    34    46    57    77    71    81    92    86    80   103    97   104    84    85   107    83   102   101   100    74    90    83    60    50    50    41    36    25    28    19    17    15     8     5     1     4     3     2     2     3     0     0     0     0     0     0     0     0     0     0
     0     0     0     0     0     0     0     0     0     0     0     0     0     0     0     0     0     0     0     0     0     0     0     0     0     0     0     0     0     0     0     0     0     0     0     2     0     0     0     4     1     4     5     4     5     9    13    12    25    26    27    38    47    52    49    75    60    70    96    83    96    85    94    98    87    94    98    92   111    89   114    80    77    62    66    58    56    33    32    20    20    14    21    14     3     4     7     7     4     7     1     2     1     0     0     0     0     0     0     1
     0     0     0     0     0     0     0     0     0     0     0     0     0     0     0     0     0     0     0     0     0     0     0     0     0     0     0     0     0     0     0     1     0     0     1     0     1     0     1     1     1     4     6     5     8     6    10    12    12    20    26    30    32    34    60    83    67    74    65    86    92    95    92   105    94   123   105   113    89   103   119    72    77    77    66    68    43    49    36    33    30     8     8     9    14     8    13     3     3     4     2     2     1     0     1     1     0     0     0     1
     0     1     0     0     0     0     0     0     0     0     0     0     0     0     0     0     0     0     0     0     0     0     0     0     0     0     0     0     0     0     0     0     0     1     0     0     1     0     0     1     0     4     7     2     1     4     4     9     9    10    22    23    31    38    48    48    66    69    83    70    92    90    90   107   109   119   118   111    99   114    93    98    75    91    84    69    65    41    42    24    23    32    21    14    10     6     5     5     8     4     6     1     3     0     1     0     0     0     0     0
     0     0     0     0     0     0     0     0     0     0     0     0     0     0     0     0     0     0     0     0     0     0     0     0     0     0     0     0     0     0     0     0     0     0     0     0     1     2     0     1     0     0     3     1     1     5     5     7     9     3    12    23    29    38    32    56    53    64    71    71    83    86   104   105    84   110    98   109   102   112    95    91    98    73    73    65    57    57    51    28    39    29    19    24    18     1    10     8     4     6     4     5     1     5     0     0     1     0     0     0
     0     0     0     0     0     0     0     0     0     0     0     0     0     0     0     0     0     0     0     0     0     0     0     0     0     0     0     0     0     0     0     0     0     0     1     2     0     0     1     0     2     3     2     2     5     3     4     6     8     8    13    13    16    19    40    45    43    53    59    62    65    79    95    86    77    94   113   110   110   102    98   100    92    99    90    88    72    61    58    39    41    38    30    30    15    15    13     6     9    11     1     1     2     2     2     0     0     1     0     0
     0     0     0     0     0     0     0     0     0     0     0     0     0     0     0     0     0     0     0     0     0     0     0     0     0     0     0     0     0     0     0     0     0     0     0     0     0     0     0     0     0     3     0     3     1     1     3     3     6     7     3     5    12    20    21    21    51    51    53    46    67    79    80    75    97    88   105   108   116   110   138   118    92    79    91    70    83    72    59    65    32    45    39    19    31    28    20    12    12     8     5     6     3     4     0     1     0     0     0     0
     0     0     0     1     0     0     0     0     0     0     0     0     0     0     0     0     0     0     0     0     0     0     0     0     0     0     0     0     0     0     0     0     0     0     0     0     0     0     0     1     1     2     0     3     2     3     2     2     1     9     6    13    12    12    22    22    30    49    43    50    50    72    83    81    89    97    79    90   107   127    94   108    90   100    88    97    93    76    69    71    56    34    38    32    31    20    15    18    13    17     9     4     4     4     1     2     0     0     0     0
     0     0     0     0     0     0     0     0     0     0     0     0     0     0     0     0     0     0     0     0     0     0     0     0     0     0     0     0     0     0     0     0     0     0     0     0     0     0     1     0     2     0     0     0     1     2     2     3     2     4     3     8    10     8    11    24    23    36    34    46    39    46    65    69    88   115    84    88   112   100   123   112    87    94    81    83    88    75    85    84    76    59    58    42    29    39    18    22    15    19    14     9     7     7     3     3     2     0     1     0
     1     1     1     0     0     0     0     0     0     0     0     0     0     0     0     0     0     0     0     0     0     0     0     0     0     0     0     0     0     0     0     0     0     1     0     0     0     0     1     1     0     0     0     2     2     0     2     1     5     3     9     5     9     9    16     7    16    27    32    23    36    44    42    63    77    98    66    84    82   100   111   117    93   101   107   119   104    91    76    85    59    59    54    65    40    37    34    23    19    15    16    12    10    13     3     7     2     1     2     0
     0     1     1     2     0     0     0     0     0     0     0     0     0     0     0     0     0     0     0     0     0     0     0     0     0     0     0     0     0     0     0     0     0     0     0     0     0     1     0     0     0     1     0     1     0     1     1     2     2     2     2     4     3     3     9    13    17    23    22    29    29    49    45    56    69    72    83    93    77    97    90    86   102   108   108   111    96    83    78   100   107    74    80    47    48    54    41    30    28    25    26    16    16     8     3     9     4     0     0     1
     2     0     0     0     0     1     0     0     0     0     0     0     0     0     0     0     0     0     0     0     0     0     0     0     0     0     0     0     0     0     0     0     0     0     0     0     0     0     0     1     1     0     0     1     0     1     0     2     3     2     0     1     6    10     6     9    19    14    32    25    25    39    49    44    58    68    72    82    86   101    98    88    93   105    98   106   104    99    95   111    74    77    89    78    59    78    50    39    38    29    23    25    14    15     5     8     5     2     1     1
     2     0     0     2     1     0     0     0     1     0     0     0     0     0     0     0     0     0     0     0     0     0     0     0     0     0     0     0     0     0     0     0     0     0     0     0     0     0     0     0     0     0     0     0     0     1     2     0     0     0     1     1     3     2    11     6     5    14    26    24    15    26    37    48    55    61    67    73    77    77    96    91    87    96   100   101   115   106   123   101    92   106    78    70    61    64    53    51    44    41    23    27    22    16    13     9     7     4     3     3
     3     4     1     0     1     0     0     1     0     0     0     0     0     0     0     0     0     0     0     0     0     0     0     0     0     0     0     0     0     0     0     0     0     0     0     0     0     0     0     0     0     0     0     0     0     0     0     2     0     1     1     4     2     3     2     4    11    12    13    11    25    36    30    24    44    59    56    79    91    76    84    90   108   100    99   113   136   108   108   102   119    86    88    87    69    51    74    51    44    43    39    27    28    15    17    13     8     4     2     3
     1     1     2     2     1     0     0     0     0     0     0     0     0     0     0     0     0     0     0     0     0     0     0     0     0     0     0     0     0     0     0     0     0     0     0     0     0     0     0     1     0     0     0     0     0     0     1     0     0     0     1     2     1     1     1     3     7     5    10    16    17    18    26    33    34    45    46    57    64    66    68    67    88    81    97   115   106   118   107   113   113   105   108   113    96    86    76    71    57    44    40    28    28    20    12    13    15     6     6     2
     0     0     2     3     2     0     2     0     0     0     0     0     0     0     0     0     0     0     0     0     0     0     0     0     0     0     0     0     0     0     0     0     0     0     0     0     0     0     0     0     0     0     0     0     0     0     0     0     0     3     0     3     0     0     1     4     6     7     8     6    16    15    28    32    26    42    35    46    61    66    61    82    87    99   102    93   103   115   116   124   113    88    84   115    94    82    90    67    66    58    51    46    32    18    26    14    14     9    10     5
     4     1     4     1     3     0     2     1     0     1     0     0     0     0     0     0     0     0     0     0     0     0     0     0     0     0     0     0     0     0     0     0     0     0     0     0     0     0     0     0     0     0     0     0     0     0     0     0     1     1     0     1     0     4     1     1     6     3     8    10     7    15    16    28    25    32    29    43    53    44    70    52    69    87    88   111    99   136   111   105   114   108   113   110   106    91   100    82    67    53    53    50    35    36    26    18    20     9     7     9
     9     2     3     2     0     5     0     1     0     0     0     0     0     1     0     0     0     0     0     0     0     0     0     0     0     0     0     0     0     0     0     0     0     0     0     0     0     0     0     0     0     0     0     0     0     0     0     0     0     0     0     0     0     1     4     2     4     1     7     5     2    13    16    24    34    24    36    41    32    45    50    65    63    71    74    99    86    94   104   104    98   114   101   114   111   110    94    99    92    71    72    59    43    41    26    24    29    18    15    10
    17     3     2     3     3     5     2     4     2     0     0     0     0     0     0     0     0     0     0     0     0     0     0     0     0     0     0     0     0     0     0     0     0     0     0     0     0     0     0     0     0     0     0     0     0     0     0     0     0     0     0     0     1     1     0     2     2     2     0     4    10     3    13    10    19    20    26    42    39    36    50    57    59    68    79    96    93    96   113   103   118   112   101   103   129    93   107    84    85    91    75    70    59    31    50    37    35    15    16    12
    12     5    11     8     5     1     3     3     1     1     0     1     1     1     0     0     0     0     0     0     0     0     0     0     0     0     0     0     0     0     0     0     0     0     0     0     0     0     0     0     0     0     0     0     0     0     0     0     0     0     0     0     0     0     0     0     0     1     1     4     1     5     9     5    17    16    25    29    28    37    43    55    48    70    74    80   101    67   102    98   107   116   100   109   145   106   102   120    93    89    81    67    66    54    41    47    26    38    25    16
    17    13    10    13     3     3     3     4     1     2     2     1     0     0     0     0     0     0     0     0     0     0     0     0     0     0     0     0     0     0     0     0     0     0     0     0     0     0     0     0     0     0     1     0     0     0     0     0     0     0     0     0     1     0     1     1     1     1     1     2     1     3     4     3    14    12    15    23    27    24    43    38    64    43    71    69    75    77    83   101   101    95   117   115   121    98   105   114    85    82    84    76    77    59    49    45    30    25    29    24
    18    19    17     5    10     2     2     1     1     4     1     2     0     2     0     0     0     0     0     0     0     0     0     0     0     0     0     0     0     0     0     0     0     0     0     0     0     0     0     0     0     0     0     0     0     0     0     0     0     0     0     0     0     0     0     0     0     1     1     1     3     7     8     5     7     9    14    10    21    14    36    37    45    37    49    52    65    86    80    93   118   107   114   118   121   113   121   102   120   116    92    84    68    61    60    47    61    38    34    26
    24    31    14    12     8     7     5     2     1     4     1     1     2     0     2     2     0     0     0     0     0     0     0     0     0     0     0     0     0     0     0     0     0     0     0     0     0     0     0     0     0     0     0     0     0     0     0     0     0     0     1     0     0     0     0     0     0     0     1     0     1     2     1     3     8     9    11    12    13    26    43    35    38    49    53    45    44    69    80    96    77    98   112   104   115   109   118   111   104   100    85   118   107    75    78    53    61    46    39    27
    31    30    31    19    19    11     5     4     7     3     4     1     1     0     1     1     0     0     0     0     0     0     0     0     0     0     0     0     0     0     0     0     0     0     0     0     0     0     0     0     0     0     0     0     0     0     0     0     0     1     0     0     0     0     1     0     0     1     0     2     1     3     1     5     5     6     9    11    18    19    18    30    32    37    40    53    47    60    62    70    96    94   100    80    87   105   128   116   110   107   115   100   103    93    89    63    54    47    53    45
    46    43    24    29    13    10     9     4     6     3     2     2     0     0     1     0     1     0     0     0     0     0     0     0     0     0     0     0     0     0     0     0     0     0     0     0     0     0     0     0     0     0     0     0     0     0     0     0     0     0     0     0     0     0     1     1     0     0     0     4     3     3     6     3     5     7     6     7    14    10    19    15    15    40    25    34    45    46    49    76    77   100    72    85    97   117   119   105   112    93   112   106    94    88    97    81    61    66    52    39
    53    48    29    32    22    14    11     8     9     5     6     1     4     0     1     0     0     0     0     0     0     0     0     0     0     0     0     0     0     0     0     0     0     0     0     0     0     0     0     0     0     0     0     0     0     0     0     0     0     0     0     0     0     0     0     0     0     0     0     1     1     0     0     4     4     3     2     4     9     9    11    13    14    27    29    36    48    56    44    54    56    77    70    82    99   102   100   108   120   107   117   107    92    96    86    87    85    80    74    63
    55    54    40    31    37    25    21     9     9     6     4     1     7     2     2     4     0     0     0     0     0     0     0     0     0     0     0     0     0     0     0     0     0     0     0     0     0     0     0     0     0     0     0     0     0     0     0     0     0     0     0     0     0     0     0     0     0     0     0     0     1     2     1     4     3     5     3     6     8     7     8    10    15    18    23    25    47    39    57    40    51    59    61    75    91    90    97    91   121   111   118   109    97   100   114    94    97    75    61    70
