#lt      10.0
#count pbc
#dt      1.0
#dn      10
#edges  -27.1557089 -26.6125947 -26.0694805 -25.5263664 -24.9832522 -24.4401380 -23.8970238 -23.3539097 -22.8107955 -22.2676813 -21.7245671 -21.1814529 -20.6383388 -20.0952246 -19.5521104 -19.0089962 -18.4658821 -17.9227679 -17.3796537 -16.8365395 -16.2934253 -15.7503112 -15.2071970 -14.6640828 -14.1209686 -13.5778545 -13.0347403 -12.4916261 -11.9485119 -11.4053977 -10.8622836 -10.3191694  -9.7760552  -9.2329410  -8.6898268  -8.1467127  -7.6035985  -7.0604843  -6.5173701  -5.9742560  -5.4311418  -4.8880276  -4.3449134  -3.8017992  -3.2586851  -2.7155709  -2.1724567  -1.6293425  -1.0862284  -0.5431142   0.0000000   0.5431142   1.0862284   1.6293425   2.1724567   2.7155709   3.2586851   3.8017992   4.3449134   4.8880276   5.4311418   5.9742560   6.5173701   7.0604843   7.6035985   8.1467127   8.6898268   9.2329410   9.7760552  10.3191694  10.8622836  11.4053977  11.9485119  12.4916261  13.0347403  13.5778545  14.1209686  14.6640828  15.2071970  15.7503112  16.2934253  16.8365395  17.3796537  17.9227679  18.4658821  19.0089962  19.5521104  20.0952246  20.6383388  21.1814529  21.7245671  22.2676813  22.8107955  23.3539097  23.8970238  24.4401380  24.9832522  25.5263664  26.0694805  26.6125947  27.1557089
   108   111    74    74    47    43    38    36    22    16     7     6     3     1     1     2     0     0     0     0     0     0     0     0     0     0     0     0     0     0     0     0     0     0     0     0     0     0     0     0     0     0     0     0     0     0     0     0     0     0     0     0     0     0     0     0     0     0     0     0     0     0     0     0     0     0     0     0     0     0     0     0     1     2     1     3     0     3     7     4     3    11    18    16    32    49    49    68    77    98   119   151   126   149   167   144   165   159   137   126
   151   110    95    90    71    52    47    29    21    10    11     5     6     5     2     1     1     1     0     0     0     0     0     1     0     0     0     0     0     0     0     0     0     0     0     0     0     0     0     0     0     0     0     0     0     0     0     0     0     0     0     0     0     0     0     0     0     0     0     0     0     0     0     0     0     0     0     0     0     0     0     0     0     0     1     0     1     1     0     5     2    12    12    12    27    28    41    58    62    78    92   112   134   136   122   142   142   133   161   154
   143   131   117   104    76    58    56    40    28    26    11    12     2     3     9     0     0     0     1     0     0     0     0     0     0     0     0     0     0     0     0     0     0     0     0     0     0     0     0     0     0     0     0     0     0     0     0     0     0     0     0     0     0     0     0     0     0     0     0     0     0     0     0     0     0     0     0     0     0     0     0     0     0     1     0     1     1     0     3     4     1     4     3    11    22    17    30    47    54    64    73    94   105    96   145   145   129   172   183   163
   164   147   139   129    92   104    65    57    51    35    28    12    10     8     5     2     2     3     0     1     1     1     0     0     0     1     0     0     0     0     0     0     0     0     0     0     0     0     0     0     0     0     0     0     0     0     0     0     0     0     0     0     0     0     0     0     0     0     0     0     0     0     0     0     0     0     0     0     0     0     0     0     0     0     0     1     0     2     3     0     3     5     8    11     5    24    16    35    39    59    68    62    98    93   107   142   173   145   150   155
   169   142   155   124   116    96    78    64    66    47    32    18    16    10     9     5     5     2     4     1     0     0     1     0     0     0     0     0     0     0     0     0     0     0     0     0     0     0     0     0     0     0     0     0     0     0     0     0     0     0     0     0     0     0     0     0     0     0     0     0     0     0     0     0     0     0     0     0     0     0     0     0     0     1     1     0     0     0     1     2     2     0     6     4     7    13    16    44    38    37    50    59    93    90    99   112   137   138   166   164
   170   169   134   148   124   135   114    87    70    59    47    27    20    17    13     5     3     6     1     0     2     0     2     0     0     0     0     0     0     0     0     0     0     0     0     0     0     0     0     0     0     0     0     0     0     0     0     0     0     0     0     0     0     0     0     0     0     0     0     0     0     0     0     0     0     0     0     0     0     0     0     0     0     0     0     0     0     0     0     3     0     2     2     4     6    12    13    13    21    30    42    54    64    73    74   108   110   124   155   160
   156   145   139   132   151   138   123   127    97    73    57    49    33    21    22    15     8     7     4     1     3     0     0     0     1     0     0     0     0     0     0     0     0     0     0     0     0     0     0     0     0     0     0     0     0     0     0     0     0     0     0     0     0     0     0     0     0     0     0     0     0     0     0     0     0     0     0     0     0     0     0     0     0     0     0     0     0     0     1     0     3     2     3     1     5     5     8    21    13    28    26    39    56    65    84   103    84   121   144   147
   151   160   170   177   178   129   165   110   119    94    82    58    56    25    23    19    13     7     5     1     0     3     1     0     0     0     0     0     1     0     0     0     0     0     0     0     0     0     0     0     0     0     0     0     0     0     0     0     0     0     0     0     0     0     0     0     0     0     0     0     0     0     0     0     0     0     0     0     0     0     0     0     0     0     0     0     0     0     0     0     1     1     0     0     1     4     8     4    11    17    23    32    45    43    57    78    95   109   136   139
   140   132   157   156   144   150   164   142   120   105    89    83    58    34    33    33    14    12     7     6     5     2     1     2     1     0     1     0     0     0     0     0     0     0     0     0     0     0     0     0     0     0     0     0     0     0     0     0     0     0     0     0     0     0     0     0     0     0     0     0     0     0     0     0     0     0     0     0     0     0     0     0     0     0     0     0     0     0     0     0     0     0     1     2     5     2     3     7    10     9    15    23    31    46    49    58    66    96   109   121
   133   149   141   161   153   161   139   144   134   117    93    80    65    45    36    28    29    19    17     9     6     0     2     1     1     1     0     0     0     0     0     0     0     0     0     0     0     0     0     0     0     0     0     0     0     0     0     0     0     0     0     0     0     0     0     0     0     0     0     0     0     0     0     0     0     0     0     0     0     0     0     0     0     0     0     0     0     0     0     0     1     0     0     2     2     3     1     3     9    10    11    21    16    25    45    42    70    66   101   110
   103   125   144   153   149   186   162   163   142   127   121   101    79    77    62    45    31    29    13    16     8     5     5     1     1     0     2     1     0     0     0     0     0     0     0     0     0     0     0     0     0     0     0     0     0     0     0     0     0     0     0     0     0     0     0     0     0     0     0     0     0     0     0     0     0     0     0     0     0     0     0     0     0     0     0     0     0     0     0     0     0     1     0     0     2     1     1     2     2     5    11    14    15    29    29    38    53    60    76    99
    74   102   126   158   164   155   137   161   157   145   135   128    96    68    75    46    44    25    21    16     6     9     6     1     2     1     3     0     0     0     0     0     0     0     0     0     0     0     0     0     0     0     0     0     0     0     0     0     0     0     0     0     0     0     0     0     0     0     0     0     0     0     0     0     0     0     0     0     0     0     0     0     0     0     0     0     0     0     0     0     0     0     0     0     0     1     0     2     3     5     8     5    14    22    21    29    55    51    65    85
    71    95   126   109   132   144   158   164   158   151   140   129   110   120    81    56    49    47    29    26    12    11     4     4     6     1     5     1     1     0     0     0     0     0     0     0     0     0     0     0     0     0     0     0     0     0     0     0     0     0     0     0     0     0     0     0     0     0     0     0     0     0     0     0     0     0     0     0     0     0     0     0     0     0     0     0     0     0     0     0     0     0     0     0     1     0     1     0     1     4     7     7     7    10    22    15    25    47    53    71
    60    77   101   104   110   136   149   165   164   160   171   127   128   126   113    84    65    60    44    36    24    13     6     5     8     3     3     0     0     0     1     0     0     0     0     0     0     0     0     0     0     0     0     0     0     0     0     0     0     0     0     0     0     0     0     0     0     0     0     0     0     0     0     0     0     0     0     0     0     0     0     0     0     0     0     0     0     0     0     0     0     0     0     0     0     0     0     0     1     1     1     2     7     6     8    18    23    32    41    53
    41    78    83    88   101   113   143   161   134   177   151   140   151   128   127   113    91    91    50    47    35    30    21    20    12     5     3     3     2     0     0     0     0     1     0     0     0     0     0     0     0     0     0     0     0     0     0     0     0     0     0     0     0     0     0     0     0     0     0     0     0     0     0     0     0     0     0     0     0     0     0     0     0     0     0     0     0     0     0     0     0     0     0     0     0     0     0     2     2     0     3     4     4     5     9    18    19    25    32    32
    49    45    69    78    77   115   130   162   145   128   160   178   139   157   147   126   109    92    83    54    45    42    37    16     6    13     5     3     1     1     0     0     0     0     0     0     0     0     0     0     0     0     0     0     0     0     0     0     0     0     0     0     0     0     0     0     0     0     0     0     0     0     0     0     0     0     0     0     0     0     0     0     0     0     0     0     0     0     0     0     0     0     0     0     0     0     0     0     0     1     2     1     0     1     5    11    11    18    26    36
    30    34    36    55    70    85   103   105   127   155   162   175   150   147   155   154    98   103    77    83    70    37    37    31    25    12    12     3     6     4     1     0     1     0     0     0     0     0     0     0     0     0     0     0     0     0     0     0     0     0     0     0     0     0     0     0     0     0     0     0     0     0     0     0     0     0     0     0     0     0     0     0     0     0     0     0     0     0     0     0     0     0     0     0     0     0     1     1     0     0     1     0     2     2     5     6     6    12    17    13
    25    29    47    50    82    80    97   105   126   146   152   155   162   171   172   141   138   157   107    82    72    60    54    34    31    19     8     4     6     3     3     3     1     0     0     0     0     0     1     0     0     0     0     0     0     0     0     0     0     0     0     0     0     0     0     0     0     0     0     0     0     0     0     0     0     0     0     0     0     0     0     0     0     0     0     0     0     0     0     0     0     0     0     0     0     0     0     0     0     0     0     1     1     1     5     4     7     8     8    13
    13    16    23    38    51    49    61   103   114   126   155   146   157   162   151   159   147   143   124    86    87    69    63    47    26    35     8    10    10     1     1     1     0     2     0     0     0     0     0     0     0     0     0     0     0     0     0     0     0     0     0     0     0     0     0     0     0     0     0     0     0     0     0     0     0     0     0     0     0     0     0     0     0     0     0     0     0     0     0     0     0     0     0     0     0     0     0     0     0     0     1     0     2     3     1     2     4     3     7    13
    12    16    17    38    44    40    70    77    90    95   110   124   148   146   176   180   144   148   139   133   110    91    73    49    38    23    19    17    12     5     3     0     0     0     0     0     0     0     1     0     0     0     0     0     0     0     0     0     0     0     0     0     0     0     0     0     0     0     0     0     0     0     0     0     0     0     0     0     0     0     0     0     0     0     0     0     0     0     0     0     0     0     0     0     0     0     0     0     0     0     0     1     1     1     2     3     3     4     3     8
    13    15    21    27    27    39    50    61    74    81   113   144   152   170   158   193   165   149   148   163   146   130   103    78    59    42    23    29    11    17     4     1     2     0     1     1     0     0     0     0     0     0     0     0     0     0     0     0     0     0     0     0     0     0     0     0     0     0     0     0     0     0     0     0     0     0     0     0     0     0     0     0     0     0     0     0     0     0     0     0     0     0     0     0     0     0     0     0     0     0     0     0     1     1     1     4     1     3     5     9
     5     6    15    24    25    30    45    57    55    70    93   126   111   148   151   173   173   191   154   131   131   125    95    78    62    42    51    31    17     6    13     4     2     1     1     1     0     3     0     0     0     0     0     0     0     0     0     0     0     0     0     0     0     0     0     0     0     0     0     0     0     0     0     0     0     0     0     0     0     0     0     0     0     0     0     0     0     0     0     0     0     0     0     0     0     0     0     0     0     0     0     0     0     0     0     3     2     3     3     2
     7     7     3    10    29    23    26    38    50    59    68   101   101   126   134   135   171   165   173   163   156   145   122    92    91    79    50    35    26    23    19    18     5     8     2     1     4     0     0     0     1     0     0     0     0     0     0     0     0     0     0     0     0     0     0     0     0     0     0     0     0     0     0     0     0     0     0     0     0     0     0     0     0     0     0     0     0     0     0     0     0     0     0     0     0     0     0     0     0     0     0     0     0     0     1     2     2     3     0     1
     2     3     7     5    15    10    12    27    28    46    59    70    93    84   117   159   150   165   139   147   172   133   136   129   110    91    57    42    25    41    22    22    11     4     7     1     3     0     3     1     0     0     0     0     0     0     0     0     0     0     0     0     0     0     0     0     0     0     0     0     0     0     0     0     0     0     0     0     0     0     0     0     0     0     0     0     0     0     0     0     0     0     0     0     0     0     0     0     0     0     0     0     0     0     0     0     1     0     0     2
     1     2     3     6    11    14    12    25    29    40    46    53    84    88    97   123   138   155   167   156   166   155   139   133   142    92    82    74    50    33    26    19    15     7     6     7     4     1     0     3     0     0     1     0     0     0     0     0     0     0     0     0     0     0     0     0     0     0     0     0     0     0     0     0     0     0     0     0     0     0     0     0     0     0     0     0     0     0     0     0     0     0     0     0     0     0     0     0     0     0     0     0     0     0     0     0     1     0     1     1
     1     0     4     3     7    10    10    20    20    23    42    46    64    74    82   103   121   148   139   154   173   173   158   140   134   101   102    74    56    40    41    27    18    18    15    10     5     2     3     1     0     0     0     0     0     0     0     0     0     0     0     0     0     0     0     0     0     0     0     0     0     0     0     0     0     0     0     0     0     0     0     0     0     0     0     0     0     0     0     0     0     0     0     0     0     0     0     0     0     0     0     0     0     0     0     1     0     0     0     0
     1     0     0     3     2     5     9    16    17    23    41    38    44    66    81    93    91   113   129   129   177   156   155   133   129   117    98   106    64    70    43    51    47    18    20    10    12     5     4     2     2     2     1     0     0     0     0     0     0     0     0     0     0     0     0     0     0     0     0     0     0     0     0     0     0     0     0     0     0     0     0     0     0     0     0     0     0     0     0     0     0     0     0     0     0     0     0     0     0     0     0     0     0     0     0     0     0     0     0     1
     2     1     0     1     4     4     4    10    14    11    19    31    42    47    52    71    88    96   120   142   158   149   166   169   169   131   131   105    87    82    70    57    37    37    23    13     8     8     5     3     5     1     0     0     1     0     1     0     0     0     0     0     0     0     0     0     0     0     0     0     0     0     0     0     0     0     0     0     0     0     0     0     0     0     0     0     0     0     0     0     0     0     0     0     0     0     0     0     0     0     0     0     0     0     0     0     0     0     0     0
     0     0     1     1     2     1     3     9     6    12    20    21    34    49    40    64    72    90   102   106   155   153   174   144   155   127   124   111   102    91    69    69    48    47    37    37    11     9     7    12     2     2     2     0     2     0     0     0     0     0     0     0     0     0     0     0     0     0     0     0     0     0     0     0     0     0     0     0     0     0     0     0     0     0     0     0     0     0     0     0     0     0     0     0     0     0     0     0     0     0     0     0     0     0     0     0     0     0     0     0
     1     0     0     0     2     0     2     5    11     9    17    11    29    37    45    54    62    78    90    98   107   165   149   157   167   154   173   136   130    92   117    79    62    68    39    29    28    20    10     3     3     3     2     1     0     0     0     0     0     0     0     0     0     0     0     0     0     0     0     0     0     0     0     0     0     0     0     0     0     0     0     0     0     0     0     0     0     0     0     0     0     0     0     0     0     0     0     0     0     0     0     0     0     0     0     0     0     0     0     0
     0     0     0     1     0     1     3     3     6     4     8     6    22    20    31    38    52    59    75    89   129   107   142   143   129   157   154   132   143   130   122   104    82    65    46    36    27    24    14    18     6     3     1     1     1     0     2     0     1     0     0     0     0     0     0     0     0     0     0     0     0     0     0     0     0     0     0     0     0     0     0     0     0     0     0     0     0     0     0     0     0     0     0     0     0     0     0     0     0     0     0     0     0     0     0     0     0     0     0     0
     0     0     0     0     1     1     1     4     1     3    12    10    10    18    29    30    26    52    66    80   109   110   107   140   135   156   150   142   153   164   137   119    91    90    55    53    39    29    24    13    11    10     4     0     1     0     0     0     0     0     0     0     0     0     0     0     0     0     0     0     0     0     0     0     0     0     0     0     0     0     0     0     0     0     0     0     0     0     0     0     0     0     0     0     0     0     0     0     0     0     0     0     0     0     0     0     0     0     0     0
     0     0     0     0     0     0     2     1     1     2     3     6    12    11    23    23    31    42    43    71    70    84   103    95   116   137   125   164   149   165   147   147   118   100    86    59    57    42    38    11    15    10     7     7     5     0     1     3     1     0     0     0     0     0     0     0     0     0     0     0     0     0     0     0     0     0     0     0     0     0     0     0     0     0     0     0     0     0     0     0     0     0     0     0     0     0     0     0     0     0     0     0     0     0     0     0     0     0     0     0
     0     0     0     1     0     0     0     2     1     1     5     1    11     7    17    13    23    29    43    58    67    76    88   103   119   124   148   155   154   166   136   139   125   111   117    79    75    40    30    22    22    13    14     7     7     3     1     2     1     0     0     0     0     0     0     0     0     0     0     0     0     0     0     0     0     0     0     0     0     0     0     0     0     0     0     0     0     0     0     0     0     0     0     0     0     0     0     0     0     0     0     0     0     0     0     0     0     0     0     0
     0     0     0     0     0     0     1     0     1     2     3     3     3     8     5    10    18    22    39    36    47    55    74    90   106   129   133   154   171   166   163   152   135   144   121   102    94    73    49    32    30    31    11     7     9     6     3     4     1     1     1     1     0     0     0     0     0     0     0     0     0     0     0     0     0     0     0     0     0     0     0     0     0     0     0     0     0     0     0     0     0     0     0     0     0     0     0     0     0     0     0     0     0     0     0     0     0     0     0     0
     0     0     0     0     0     1     0     0     3     0     4     2     4     6     2    11    13    15    23    27    50    36    62    82    90   118   142   133   157   158   142   155   142   132   133    96   102    84    63    50    59    27    17    12    12    10     5     5     4     2     1     1     0     0     0     0     0     0     0     0     0     0     0     0     0     0     0     0     0     0     0     0     0     0     0     0     0     0     0     0     0     0     0     0     0     0     0     0     0     0     0     0     0     0     0     0     0     0     0     0
     0     0     0     0     0     1     0     0     0     1     0     2     1     2     5     5     7    11    14    25    32    38    44    60    76   110   110   134   134   159   137   171   149   121   152   116   118    75    77    58    56    40    34    26    14    10     8     2     5     1     0     0     0     0     0     0     0     0     0     0     0     0     0     0     0     0     0     0     0     0     0     0     0     0     0     0     0     0     0     0     0     0     0     0     0     0     0     0     0     0     0     0     0     0     0     0     0     0     0     0
     0     0     0     0     0     0     0     0     0     0     2     1     1     1     2     5     6    13    11    16    25    23    30    37    57    60    77   117   141   124   118   151   134   138   156   150   101   105    90    90    58    62    36    27    26    22    16     6     6     2     1     1     0     1     0     0     0     0     0     0     0     0     0     0     0     0     0     0     0     0     0     0     0     0     0     0     0     0     0     0     0     0     0     0     0     0     0     0     0     0     0     0     0     0     0     0     0     0     0     0
     0     0     0     0     0     0     0     0     0     1     0     2     2     2     3     4     5     5     7     6    21    18    29    33    58    58    89    89   116   128   134   142   176   154   153   147   124   117    92   103    76    47    38    39    38    17    21    13     8     3     0     3     2     1     1     1     0     0     0     0     0     0     0     0     0     0     0     0     0     0     0     0     0     0     0     0     0     0     0     0     0     0     0     0     0     0     0     0     0     0     0     0     0     0     0     0     0     0     0     0
     0     0     0     0     0     0     0     0     0     0     0     0     1     1     1     3     3     6     5     7    15    14    26    17    47    53    66    74    77   103   127   119   129   136   170   170   137   127   133    94    92    74    67    55    40    31    19    19    11     3     4     2     0     2     2     0     0     0     0     0     0     0     0     0     0     0     0     0     0     0     0     0     0     0     0     0     0     0     0     0     0     0     0     0     0     0     0     0     0     0     0     0     0     0     0     0     0     0     0     0
     0     0     0     0     0     0     0     0     0     0     0     0     0     0     0     2     1     3     7     5     7    10    19    24    24    44    46    70    54    86    91   116   124   140   150   160   169   130   126   114   100    89    96    67    44    38    32    22     7     9     9     3     7     1     2     3     1     0     0     0     0     0     0     0     0     0     0     0     0     0     0     0     0     0     0     0     0     0     0     0     0     0     0     0     0     0     0     0     0     0     0     0     0     0     0     0     0     0     0     0
     0     0     0     0     0     0     0     0     0     0     1     0     1     0     1     0     0     3     1     4    12     5    13    19    20    44    34    65    58    92    99   105   128   129   140   162   136   136   127   157   138   107    81    80    68    55    46    32    29     7    11     5     9     4     6     1     0     1     0     0     0     0     0     0     0     0     0     0     0     0     0     0     0     0     0     0     0     0     0     0     0     0     0     0     0     0     0     0     0     0     0     0     0     0     0     0     0     0     0     0
     0     0     0     0     0     0     0     0     0     0     0     0     0     0     1     0     0     2     1     0     8    12     3    16    18    21    27    29    44    66    74    88    97   121   143   141   155   153   147   145   122   135   107    99    72    61    45    35    26    17    14    11     9     5     2     3     1     1     0     0     0     0     0     0     0     0     0     0     0     0     0     0     0     0     0     0     0     0     0     0     0     0     0     0     0     0     0     0     0     0     0     0     0     0     0     0     0     0     0     0
     0     0     0     0     0     0     0     0     0     0     0     0     0     0     0     0     0     2     0     2     3     4    10     9    13    17    22    37    48    64    69    66   111    99   125   136   143   149   172   156   141   134   149   120   129    81    76    52    25    45    13    17     6     4     6     1     1     1     1     0     1     1     0     0     0     0     0     0     0     0     0     0     0     0     0     0     0     0     0     0     0     0     0     0     0     0     0     0     0     0     0     0     0     0     0     0     0     0     0     0
     0     0     0     0     0     0     0     0     0     0     0     0     0     0     0     0     0     4     0     1     5     2     4     8     6     9    11    27    34    45    60    68    81   102   109   125   136   140   166   152   156   157   132   133   152   112    78    69    55    34    27    22    13    12     7     2     3     1     1     0     0     0     0     0     0     0     0     0     0     0     0     0     0     0     0     0     0     0     0     0     0     0     0     0     0     0     0     0     0     0     0     0     0     0     0     0     0     0     0     0
     0     0     0     0     0     0     0     0     0     0     0     0     0     0     0     0     0     1     0     1     1     4     4     3     2    13     9    28    28    41    42    57    62    91    96   104   120   128   146   160   156   158   136   146   141   131   102    95    59    36    30    18    18    19    18     7     5     3     4     2     0     0     0     0     0     0     0     0     0     0     0     0     0     0     0     0     0     0     0     0     0     0     0     0     0     0     0     0     0     0     0     0     0     0     0     0     0     0     0     0
     0     0     0     0     0     0     0     0     0     0     0     0     0     0     0     0     0     0     0     0     1     1     2     4     3     8    11    10    13    24    35    35    53    68    74   104   113   132   141   125   150   147   140   170   148   134   117    98    74    61    39    42    33    22    12    11     6     2     4     2     2     0     0     0     0     0     0     0     0     0     0     0     0     0     0     0     0     0     0     0     0     0     0     0     0     0     0     0     0     0     0     0     0     0     0     0     0     0     0     0
     0     0     0     0     0     0     0     0     0     0     0     0     0     0     0     0     0     0     0     0     3     0     3     1     3     6     7    10    17    13    25    24    46    55    73    87    84   115   117   120   138   150   132   169   132   131   127   122    78    92    62    43    40    37    27    11    10     9     6     8     2     1     0     0     0     0     0     0     0     0     0     0     0     0     0     0     0     0     0     0     0     0     0     0     0     0     0     0     0     0     0     0     0     0     0     0     0     0     0     0
     0     0     0     0     0     0     0     0     0     0     0     0     0     0     0     0     0     2     0     0     1     0     2     1     2     4     2     7    10    13    15    17    26    36    56    68    64    89   110   119   130   145   150   174   154   154   149   121    88    80    73    62    56    32    28    16    18    11    16     7     7     0     0     0     1     0     0     0     0     0     0     0     0     0     0     0     0     0     0     0     0     0     0     0     0     0     0     0     0     0     0     0     0     0     0     0     0     0     0     0
     0     0     0     0     0     0     0     0     0     0     0     0     0     0     0     0     0     0     0     0     0     0     1     0     2     2     0     7     5    10     9    23    20    29    44    42    56    70    85    97   106   137   144   164   164   141   131   137   114    97    91    77    63    59    35    38    16    19    10    10     4     1     2     0     2     1     0     0     0     1     0     0     0     0     0     0     0     0     0     0     0     0     0     0     0     0     0     0     0     0     0     0     0     0     0     0     0     0     0     0
     0     0     0     0     0     0     0     0     0     0     0     0     0     0     0     0     0     0     0     0     0     0     0     0     2     1     0     3     5    11     4    11    19    24    28    38    50    56    87    93   100   130   120   134   162   177   156   122   114   117   101    77    65    67    46    49    35    22    19    11     5     4     3     1     0     2     0     0     0     0     0     0     0     0     0     0     0     0     0     0     0     0     0     0     0     0     0     0     0     0     0     0     0     0     0     0     0     0     0     0
     0     0     0     0     0     0     0     0     0     0     0     0     0     0     0     0     0     0     0     0     0     0     0     1     0     1     0     0     1     5     5    12    16    19    12    34    36    45    68    69    81   120   122   141   129   141   122   158   155   141   138   111    82    68    57    41    38    38    15    15    17     8     3     5     4     3     3     0     1     0     0     0     0     0     0     0     0     0     0     0     0     0     0     0     0     0     0     0     0     0     0     0     0     0     0     0     0     0     0     0
     0     0     0     0     0     0     0     0     0     0     0     0     0     0     0     0     0     0     0     0     0     0     0     0     0     0     0     0     3     3     7     4     8    16    19    23    36    39    56    51    75    84   104   119   139   171   168   145   152   137   147   130   104   109    70    64    56    40    35    13    15    13     7     9     8     4     3     1     0     0     0     0     0     0     0     0     0     0     0     0     0     0     0     0     0     0     0     0     0     0     0     0     0     0     0     0     0     0     0     0
     0     0     0     0     0     0     0     0     0     0     0     0     0     0     0     0     0     0     0     0     0     0     0     0     0     0     0     1     2     2     3     4     7    11    16    17    23    25    29    54    52    66    88   117   115   128   160   152   157   144   132   135   122   117    91    78    70    50    40    24    30    12    12     8     3     6     3     0     1     0     0     0     1     0     0     0     0     0     0     0     0     0     0     0     0     0     0     0     0     0     0     0     0     0     0     0     0     0     0     0
     0     0     0     0     0     0     0     0     0     0     0     0     0     0     0     0     0     0     0     0     0     0     0     0     0     0     0     0     1     0     1     4     1     6     9    15    16    18    30    45    40    67    64    84   107   130   136   137   149   160   164   150   132   112   106    93    92    58    51    36    32    24    17    11    13     6     5     4     3     2     0     0     0     0     0     0     0     0     0     0     0     0     0     0     0     0     0     0     0     0     0     0     0     0     0     0     0     0     0     0
     0     0     0     0     0     0     0     0     0     0     0     0     0     0     0     0     0     0     0     0     0     0     0     0     0     0     0     0     1     0     2     3     0     3     3     7    25    18    22    31    33    55    53    81    97   102   112   138   159   160   152   143   143   133   133   122    84    83    53    55    39    31    16    17    11    11     6     4     6     0     0     0     0     0     0     0     0     0     0     0     0     0     0     0     0     0     0     0     0     0     0     0     0     0     0     0     0     0     0     0
     0     0     0     0     0     0     0     0     0     0     0     0     0     0     0     0     0     0     0     0     0     0     0     0     0     0     0     1     0     0     0     1     2     3     3    10    15    10    15    21    20    48    39    54    87    91    97   117   128   117   135   148   175   162   135   132    88    87    66    65    47    41    22    21    14    11     8     2     5     2     3     0     0     0     0     0     0     0     0     0     0     0     0     0     0     0     0     0     0     0     0     0     0     0     0     0     0     0     0     0
     0     0     0     0     0     0     0     0     0     0     0     0     0     0     0     0     0     0     0     0     0     0     0     0     0     0     0     0     0     0     1     1     0     4     3     2     5    14    13    20    23    28    54    56    57    87    87    95   138   112   148   144   164   147   163   147   123   121    84    75    54    46    42    23    26    15     9    10     1     4     3     0     0     1     0     0     0     0     0     0     0     0     0     0     0     0     0     0     0     0     0     0     0     0     0     0     0     0     0     0
     0     0     0     0     0     0     0     0     0     0     0     0     0     0     0     0     0     0     0     0     0     0     0     0     0     0     0     0     0     0     2     1     2     1     1     1     2     3     8    15    14    26    47    39    47    66    86    77   111   126   134   155   154   157   149   154   135    93   112   103    86    55    43    42    26    21    13    10     7     4     5     0     1     1     0     0     0     0     0     0     0     0     0     0     0     0     0     0     0     0     0     0     0     0     0     0     0     0     0     0
     0     0     0     0     0     0     0     0     0     0     0     0     0     0     0     0     0     0     0     0     0     0     0     0     0     0     0     0     0     1     0     0     0     0     1     2     4     5     6     5    15    19    26    35    54    51    51    99   102   121   105   127   148   149   155   160   150   149   129   112   102    85    59    52    26    29    12    16    12     8     8     3     1     2     3     0     1     0     0     0     0     0     0     0     0     0     0     0     0     0     0     0     0     0     0     0     0     0     0     0
     0     0     0     0     0     0     0     0     0     0     0     0     0     0     0     0     0     0     0     0     0     0     0     0     0     0     0     0     0     1     0     0     0     0     0     0     2     3     7     6     6    15    16    33    38    33    49    67    71   104    90   110   123   144   140   151   152   162   145   136   123   113    82    61    51    36    22    26    13     8     2     1     2     4     0     0     0     2     0     0     0     0     0     0     0     0     0     0     0     0     0     0     0     0     0     0     0     0     0     0
     0     0     0     0     0     0     0     0     0     0     0     0     0     0     0     0     0     0     0     0     0     0     0     0     0     0     0     0     0     0     0     0     0     0     1     0     3     1     2     3     5     9    13    18    16    37    46    48    79    79    86   102   144   123   145   131   134   154   150   150   151   109   105    71    74    48    34    18    14    19    10     6     4     3     1     1     3     1     0     0     0     0     0     0     0     0     0     0     0     0     0     0     0     0     0     0     0     0     0     0
     0     0     0     0     0     0     0     0     0     0     0     0     0     0     0     0     0     0     0     0     0     0     0     0     0     0     0     0     0     0     0     0     0     0     0     0     0     1     0     2     2     4     5    13    11    27    34    45    55    58    72    92   115   124   136   146   144   177   168   147   138   117   120    93    83    62    38    45    36    15    15    12    10     6     1     2     1     0     2     0     0     0     0     0     0     0     0     0     0     0     0     0     0     0     0     0     0     0     0     0
     0     0     0     0     0     0     0     0     0     0     0     0     0     0     0     0     0     0     0     0     0     0     0     0     0     0     0     0     0     0     0     0     0     0     0     0     0     0     1     1     2     8     9     8    18    15    25    24    33    56    62    66   102   108   132   133   144   130   159   154   133   146   114   116   100    78    52    36    48    28    19    15    11     5     6     7     1     2     0     0     0     0     0     0     0     0     0     0     0     0     0     0     0     0     0     0     0     0     0     0
     0     0     0     0     0     0     0     0     0     0     0     0     0     0     0     0     0     0     0     0     0     0     0     0     0     0     0     0     0     0     0     0     0     0     1     0     0     0     1     4     2     3     3     4     9     7    14    17    32    40    61    72    76    89   105   124   118   130   153   154   149   152   149   107   122   112    81    71    63    55    35    20    17    11     8     4     4     2     1     2     2     0     1     0     0     0     0     0     0     0     0     0     0     0     0     0     0     0     0     0
     0     0     0     0     0     0     0     0     0     0     0     0     0     0     0     0     0     0     0     0     0     0     0     0     0     0     0     0     0     0     0     0     0     0     1     0     1     0     0     0     1     2     2     8     5     8    17    19    22    23    49    44    72    65   108   122   127   130   141   160   159   166   166   140   134   131    79    86    58    67    36    28    27    18     8    14     5     3     0     0     2     0     2     0     0     0     0     0     0     0     0     0     0     0     0     0     0     0     0     0
     0     0     0     0     0     0     0     0     0     0     0     0     0     0     0     0     0     0     0     0     0     0     0     0     0     0     0     0     0     0     0     0     0     0     0     0     0     1     0     0     2     1     3     6     4     3     8    11    19    27    30    29    47    81    60    70   105   123   135   126   161   163   164   129   133   140   107    76    89    54    60    44    34    28    19    12     7     4     3     3     0     0     0     0     0     0     0     0     0     0     0     0     0     0     0     0     0     0     0     0
     0     0     0     0     0     0     0     0     0     0     0     0     0     0     0     0     0     0     0     0     0     0     0     0     0     0     0     0     0     0     0     0     0     0     0     0     0     0     0     0     0     0     1     1     2     5     7    10    13    15    26    35    36    32    62    69    70    96   114   140   126   146   126   151   172   159   123   118    97    98    75    62    37    28    26    20     7    10     6     2     1     0     0     0     0     0     0     0     0     0     0     0     0     0     0     0     0     0     0     0
     0     0     0     0     0     0     0     0     0     0     0     0     0     0     0     0     0     0     0     0     0     0     0     0     0     0     0     0     0     0     0     0     0     0     0     0     0     0     0     0     0     0     1     2     0     3     3     4     8    13    19    28    38    29    52    68    64   100   125   128   119   130   151   148   168   143   145   153   107    97    85    50    50    43    34    17    13    12     7     6     1     2     0     1     0     0     0     0     0     0     0     0     0     0     0     0     0     0     0     0
     0     0     0     0     0     0     0     0     0     0     0     0     0     0     0     0     0     0     0     0     0     0     0     0     0     0     0     0     0     0     0     0     0     0     0     1     0     0     0     0     0     0     0     1     1     3     1     4     5     6    14    22    18    24    39    46    59    82    87    97   121   129   144   165   155   167   172   152   135   108    91    89    68    64    38    22    20    19     8     5     4     7     0     0     1     0     0     1     0     0     0     0     0     0     0     0     0     0     0     0
     0     0     0     0     0     0     0     0     0     0     0     0     0     0     0     0     0     0     0     0     0     0     0     0     0     0     0     0     0     0     0     0     0     0     0     0     0     0     0     0     0     0     0     0     1     1     3     4     5     6    10    15    16    25    29    37    49    58    74    92   102   125   130   169   154   161   173   159   134   135   122    93    86    66    69    45    27    15    14     8    10     3     3     0     1     1     3     0     0     0     0     0     0     0     0     0     0     0     0     0
     0     0     0     0     0     0     0     0     0     0     0     0     0     0     0     0     0     0     0     0     0     0     0     0     0     0     0     0     0     0     0     0     0     0     0     0     0     0     0     0     0     0     0     0     1     1     0     0     1     6     6    14    12    13    11    30    34    52    51    91   100   111   140   145   158   186   165   147   142   128   126   104    83    68    69    54    41    29    21    10     4     3     3     1     1     1     1     0     0     0     0     0     0     0     0     0     0     0     0     0
     0     0     0     0     0     0     0     0     0     0     0     0     0     0     0     0     0     0     0     0     0     0     0     0     0     0     0     0     0     0     0     0     0     0     0     0     0     0     0     0     0     0     0     0     0     1     2     2     2     2     4     8    13     7    18    35    25    35    43    67    62    95   107   121   145   154   151   173   141   154   142   127   109    84    77    50    48    40    20    17    13    10     2     1     3     1     0     0     0     0     0     0     0     0     0     0     0     0     0     0
     0     0     0     0     0     0     0     0     0     0     0     0     0     0     0     0     0     0     0     0     0     0     0     0     0     0     0     0     0     0     0     0     0     0     0     0     0     0     0     0     0     0     0     0     0     0     0     2     6     3     2     4     7     9    10    21    24    36    47    57    72    69   109    99   110   132   145   145   163   173   157   146   133   137    85    92    62    52    35    20    19     8     9     9     3     3     0     1     0     0     0     0     0     0     0     0     0     0     0     0
     0     0     0     0     0     0     0     0     0     0     0     0     0     0     0     0     0     0     0     0     0     0     0     0     0     0     0     0     0     0     0     0     0     0     0     0     0     0     0     0     0     0     0     0     0     0     1     0     1     0     0     0     3     5    11    14    17    27    22    50    54    66    90   104    94   118   160   137   149   164   161   145   155   113   123   103    74    59    52    37    29    23    13     9     7     5     2     1     2     0     0     0     0     0     0     0     0     0     0     0
     0     0     0     0     0     0     0     0     0     0     0     0     0     0     0     0     0     0     0     0     0     0     0     0     0     0     0     0     0     0     0     0     0     0     0     0     0     0     0     0     0     0     0     0     0     0     0     0     1     0     1     2    10     1     7     8    18    19    22    32    35    49    61    67    88    95   136   123   151   156   167   171   153   155   139   124   104    77    83    51    31    21    23     9    12     3     1     4     4     2     1     0     0     1     0     0     0     0     0     0
     0     0     0     0     0     0     0     0     0     0     0     0     0     0     0     0     0     0     0     0     0     0     0     0     0     0     0     0     0     0     0     0     0     0     0     0     0     0     0     0     0     0     0     0     0     0     1     0     1     1     3     2     2     3     4     5     9    17    17    14    31    47    60    55    63   101   104    94   135   151   156   158   163   149   148   140   114    92    82    59    44    42    36    16    15     8    12     6     3     2     0     0     0     0     1     0     0     0     0     0
     0     0     0     0     0     0     0     0     0     0     0     0     0     0     0     0     0     0     0     0     0     0     0     0     0     0     0     0     0     0     0     0     0     0     0     0     0     0     0     0     0     0     0     0     0     0     0     0     0     0     0     2     2     2     5     0     7    10    12    18    21    27    38    43    60    85    84   111   125   119   154   164   137   139   167   135   138    94    84    76    51    55    40    32    26    17    12     8     5     3     1     1     2     1     0     0     0     0     0     0
     0     0     0     0     0     0     0     0     0     0     0     0     0     0     0     0     0     0     0     0     0     0     0     0     0     0     0     0     0     0     0     0     0     0     0     0     0     0     0     0     0     0     0     0     0     0     0     0     0     1     1     2     0     2     3     2     3     8     9    15    17    16    29    27    55    52    65    88   102   120   138   138   141   148   161   142   149   125   118    99    85    74    36    35    35    24    12    16     8     8     3     1     0     1     0     0     1     0     0     0
     0     0     0     0     0     0     0     0     0     0     0     0     0     0     0     0     0     0     0     0     0     0     0     0     0     0     0     0     0     0     0     0     0     0     0     0     0     0     0     0     0     0     0     0     0     0     0     0     0     0     0     1     1     0     1     1     6     3     5    10    11    13    15    29    29    46    53    53    79    97   126   158   134   149   140   157   160   151   120   108    94    77    65    57    51    41    23    18    15    11     7     5     2     0     3     1     0     0     0     0
     0     0     0     0     0     0     0     0     0     0     0     0     0     0     0     0     0     0     0     0     0     0     0     0     0     0     0     0     0     0     0     0     0     0     0     0     0     0     0     0     0     0     0     0     0     0     0     0     0     0     1     1     2     2     2     2     4     5     3     6     5    14    14    21    26    34    34    61    67    82   102   130   118   141   145   158   151   127   126   140    95   103    84    81    57    49    36    27    20    13     8     7     3     3     1     1     1     0     0     0
     0     0     0     0     0     0     0     0     0     0     0     0     0     0     0     0     0     0     0     0     0     0     0     0     0     0     0     0     0     0     0     0     0     0     0     0     0     0     0     0     0     0     0     0     0     0     0     0     0     0     0     0     0     0     1     2     1     3     3     6     4     9    12    11    23    29    41    51    61    82    96   108   106   151   142   132   132   135   138   131   117   124    85    92    75    72    51    39    32    24    20     8     3     3     5     0     1     0     0     0
     0     0     0     0     0     0     0     0     0     0     0     0     0     0     0     0     0     0     0     0     0     0     0     0     0     0     0     0     0     0     0     0     0     0     0     0     0     0     0     0     0     0     0     0     0     0     0     0     0     0     0     0     0     0     0     1     1     2     1     2     4     4     6    12    12    24    26    33    45    56    74    85    97   118   127   141   134   155   159   150   122   127   113    95   108    86    70    66    39    26    17    13    11     9     4     0     1     0     0     0
     0     0     0     0     0     0     0     0     0     0     0     0     0     0     0     0     0     0     0     0     0     0     0     0     0     0     0     0     0     0     0     0     0     0     0     0     0     0     0     0     0     0     0     0     0     0     0     0     0     0     0     0     0     0     0     0     1     3     1     3     2     1     3    12    16    16    19    25    50    44    59    67    94   132   128   124   124   144   146   160   170   139   148   125    95    77    88    73    48    48    23    29    22    11     3     3     1     1     2     1
     1     0     0     0     0     0     0     0     0     0     0     0     0     0     0     0     0     0     0     0     0     0     0     0     0     0     0     0     0     0     0     0     0     0     0     0     0     0     0     0     0     0     0     0     0     0     0     0     0     0     0     0     0     0     0     0     0     1     0     4     3     5     3    11    12    13    17    26    22    35    51    53    73    82    97   145   145   164   158   138   155   132   134   162   154   131    88   101    61    54    40    40    18    16     9     4     4     1     0     1
     1     1     0     1     0     0     0     0     0     0     0     0     0     0     0     0     0     0     0     0     0     0     0     0     0     0     0     0     0     0     0     0     0     0     0     0     0     0     0     0     0     0     0     0     0     0     0     0     0     0     0     0     0     0     0     0     0     1     0     1     1     2     2     1     4     9     4    21    28    31    41    48    81    63    90   106   135   134   130   162   154   171   160   152   161   147   117   107    83    60    39    37    33    18     7    11     4     7     1     3
     2     0     0     0     0     0     0     0     0     0     0     0     0     0     0     0     0     0     0     0     0     0     0     0     0     0     0     0     0     0     0     0     0     0     0     0     0     0     0     0     0     0     0     0     0     0     0     0     0     0     0     0     0     0     0     0     0     0     0     1     0     2     2     2     7     6     6    13    13    27    24    28    39    71    75    91   102   120   121   154   138   145   168   161   169   163   113   115    73    75    55    41    26    19    17     9     4     2     4     3
     2     0     2     0     0     0     0     0     0     0     0     0     0     0     0     0     0     0     0     0     0     0     0     0     0     0     0     0     0     0     0     0     0     0     0     0     0     0     0     0     0     0     0     0     0     0     0     0     0     0     0     0     0     0     0     0     0     0     0     2     0     0     1     1     2     3     6    11    17    22    29    30    36    60    74    94    87    99   143   130   154   145   189   170   177   161   116   139   106    99    87    55    50    20    26    26     6     4     4     2
     1     1     2     1     1     0     0     0     0     0     0     0     0     0     0     0     0     0     0     0     0     0     0     0     0     0     0     0     0     0     0     0     0     0     0     0     0     0     0     0     0     0     0     0     0     0     0     0     0     0     0     0     0     0     0     0     0     0     0     0     0     0     0     3     2     3     3    12    10    17    15    30    31    42    45    63    80    89   103   130   142   144   146   176   151   174   148   140   133    99    83    84    54    37    24    22    19     8     6     4
     4     2     4     1     3     1     0     0     0     0     0     0     0     0     0     0     0     0     0     0     0     0     0     0     0     0     0     0     0     0     0     0     0     0     0     0     0     0     0     0     0     0     0     0     0     0     0     0     0     0     0     0     0     0     0     0     0     0     1     0     0     1     2     4     1     2     4     4     8    11    11    16    29    38    37    48    81    92    87   100   124   125   125   145   165   167   168   137   141   127   116    93    78    63    48    31    25    10    14     7
    10     2     1     4     3     0     0     0     0     0     0     0     0     0     0     0     0     0     0     0     0     0     0     0     0     0     0     0     0     0     0     0     0     0     0     0     0     0     0     0     0     0     0     0     0     0     0     0     0     0     0     0     0     0     0     0     0     0     0     0     0     0     1     0     2     3     2     5     7     6     8    11    19    28    34    38    51    62    74    75   122   149   121   161   140   164   150   162   131   134   105   109   101    70    48    39    38    20    17    15
     6    10     3     2     2     1     0     0     0     0     0     0     0     0     1     0     0     0     0     0     0     0     0     0     0     0     0     0     0     0     0     0     0     0     0     0     0     0     0     0     0     0     0     0     0     0     0     0     0     0     0     0     0     0     0     0     0     0     0     0     1     0     1     0     0     3     2     2     4     8     8     4     6    23    25    38    50    54    61    83    90   111   126   159   145   144   171   154   161   154   122   115   107    88    73    54    34    34    31    24
    23     6     2     7     4     2     3     2     1     1     0     0     0     1     0     0     0     0     0     0     0     0     0     0     0     0     0     0     0     0     0     0     0     0     0     0     0     0     0     0     0     0     0     0     0     0     0     0     0     0     0     0     0     0     0     0     0     0     0     0     0     0     0     0     0     0     1     0     2     1     5     5    10    12     9    31    30    36    58    76    82    98   112   126   147   132   142   151   170   153   156   125   120   135    83    72    68    39    29    30
    26    21    12    10    10     2     2     4     1     0     1     1     0     0     1     0     0     0     0     0     0     0     0     0     0     0     0     0     0     0     0     0     0     0     0     0     0     0     0     0     0     0     0     0     0     0     0     0     0     0     0     0     0     0     0     0     0     0     0     0     0     0     0     0     0     1     1     2     6     1     5     5     3    14    16    16    20    28    51    45    59    64   113   102   132   155   129   145   157   146   165   143   112   102   106   101    82    39    48    23
    24    20    15     8     9     6     3     2     3     3     0     0     0     0     0     0     0     0     0     0     0     0     0     0     0     0     0     0     0     0     0     0     0     0     0     0     0     0     0     0     0     0     0     0     0     0     0     0     0     0     0     0     0     0     0     0     0     0     0     0     0     0     1     0     0     0     0     1     1     2     4     1     4     3    11    13    15    23    32    40    62    75    83    93   109   101   133   151   155   154   159   140   142   129   133    96    74    60    51    34
    36    25    20    16    15    11     7     5     4     2     2     0     0     0     1     1     0     0     0     0     0     0     0     0     0     0     0     0     0     0     0     0     0     0     0     0     0     0     0     0     0     0     0     0     0     0     0     0     0     0     0     0     0     0     0     0     0     0     0     0     0     0     0     0     0     0     3     0     2     0     2     3     2     4     8     9    17    20    17    31    38    48    71    72    88   115    96   136   142   149   164   151   163   161   118   127   116    89    48    57
    63    40    29    26    21    16     5     8     9     4     3     1     0     1     2     0     0     0     0     0     0     0     0     0     0     0     0     0     0     0     0     0     0     0     0     0     0     0     0     0     0     0     0     0     0     0     0     0     0     0     0     0     0     0     0     0     0     0     0     0     0     0     0     0     0     0     0     0     1     1     1     1     2     1     6     8    14    12    18    25    26    41    37    55    80    85   101   116   128   154   141   156   183   154   151   119   135   106    91    72
    74    65    41    31    19    20    18    16     3     2     3     0     1     0     0     0     0     0     0     0     0     0     0     0     0     0     0     0     0     0     0     0     0     0     0     0     0     0     0     0     0     0     0     0     0     0     0     0     0     0     0     0     0     0     0     0     0     0     0     0     0     0     0     0     0     0     0     0     1     0     1     1     0     2     2     4     6     9     7    16    21    33    41    49    59    79    81   103   109   132   134   150   160   158   133   126   114   149    96    98
    89    63    50    46    37    19    20    13     9     6     4     0     2     0     1     0     0     0     0     0     0     0     0     0     0     0     0     0     0     0     0     0     0     0     0     0     0     0     0     0     0     0     0     0     0     0     0     0     0     0     0     0     0     0     0     0     0     0     0     0     0     0     0     0     0     0     0     0     0     1     0     0     0     0     5     7     7     8     7    12    20    18    23    40    46    64    82    96   122   116   126   155   148   167   149   179   153   127   118   105
   119    80    57    60    55    33    22    19    14     6     5     2     3     2     0     0     0     0     0     0     0     0     0     0     0     0     0     0     0     0     0     0     0     0     0     0     0     0     0     0     0     0     0     0     0     0     0     0     0     0     0     0     0     0     0     0     0     0     0     0     0     0     0     0     0     0     1     0     0     1     0     0     1     1     0     3     4     5    10     9    19    12    16    35    40    42    70    68    88   108   115   151   136   163   173   164   184   139   124   128
