#lt      40.0
#count pbc
#dt      1.0
#dn      40
#edges  -27.1557089 -26.6125947 -26.0694805 -25.5263664 -24.9832522 -24.4401380 -23.8970238 -23.3539097 -22.8107955 -22.2676813 -21.7245671 -21.1814529 -20.6383388 -20.0952246 -19.5521104 -19.0089962 -18.4658821 -17.9227679 -17.3796537 -16.8365395 -16.2934253 -15.7503112 -15.2071970 -14.6640828 -14.1209686 -13.5778545 -13.0347403 -12.4916261 -11.9485119 -11.4053977 -10.8622836 -10.3191694  -9.7760552  -9.2329410  -8.6898268  -8.1467127  -7.6035985  -7.0604843  -6.5173701  -5.9742560  -5.4311418  -4.8880276  -4.3449134  -3.8017992  -3.2586851  -2.7155709  -2.1724567  -1.6293425  -1.0862284  -0.5431142   0.0000000   0.5431142   1.0862284   1.6293425   2.1724567   2.7155709   3.2586851   3.8017992   4.3449134   4.8880276   5.4311418   5.9742560   6.5173701   7.0604843   7.6035985   8.1467127   8.6898268   9.2329410   9.7760552  10.3191694  10.8622836  11.4053977  11.9485119  12.4916261  13.0347403  13.5778545  14.1209686  14.6640828  15.2071970  15.7503112  16.2934253  16.8365395  17.3796537  17.9227679  18.4658821  19.0089962  19.5521104  20.0952246  20.6383388  21.1814529  21.7245671  22.2676813  22.8107955  23.3539097  23.8970238  24.4401380  24.9832522  25.5263664  26.0694805  26.6125947  27.1557089
    23    21    15    10    17    10     9     5     6     5     2     1     3     2     1     1     1     1     1     0     1     1     0     1     0     0     0     0     0     1     0     0     0     0     1     1     0     0     0     0     1     2     2     1     2     0     1     3     6     4     6    10     9     6    11    11    15    15    16    20    23    27    32    28    31    43    45    48    40    40    47    59    55    74    67    62    69    90    58    77    75    85    69    80    68    86    77    73    64    60    55    64    52    42    41    35    39    41    25    24
    23    21    16    11    11    11     8     5     4     7     4     4     3     2     2     1     2     1     0     2     0     0     1     0     0     0     1     0     0     0     0     0     0     0     0     0     0     0     0     0     1     2     0     1     0     2     1     1     2     7     4     1     4     5     6     4     8    13    14    11    14    25    22    25    22    41    26    52    43    40    56    67    58    52    62    78    69    77    62    68    89    63    74    79    76    76    73    95    84    77    43    71    40    37    38    49    52    29    30    48
    30    18    24    13    16    13    10     7     4     3    12     6     7     4     2     2     3     2     0     1     0     1     0     0     1     1     0     0     0     0     0     0     0     0     0     0     0     0     0     1     0     1     1     0     0     0     2     2     2     3     1     4     6     3     8     8     6    12    14     6    19    16    15    23    23    20    31    31    53    43    40    49    62    64    67    62    63    49    77    77    60    70    71    95    66    69    74    79    86    71    49    71    47    47    42    42    33    41    35    36
    27    25    28    22    21     9    12     8    13     7     8     7     9    10     8     5     5     0     0     0     3     1     0     0     1     0     0     0     1     0     0     0     0     0     0     0     1     0     1     1     1     1     0     1     2     0     1     0     3     3     2     1     3     4     6     7    11    10    10    10    12    11    17    15    23    26    37    32    37    43    42    49    51    56    73    66    61    78    52    87    70    66    76    80    74    77    70    71   103    71    81    62    49    40    41    39    47    50    37    36
    46    34    25    26    18    24    13    13    12     2     6     8    12     4     6     4     5     2     5     1     3     3     2     0     1     1     1     0     0     1     0     1     0     0     0     0     0     0     0     0     1     2     2     1     1     0     2     0     0     3     0     3     4     4     8     4     6     9    13     9    11    13    22    21     7    16    21    33    39    42    46    57    49    55    55    66    75    43    83    75    69    76    69    99    89    79    73    80    77    80    74    75    58    60    52    49    51    43    39    35
    39    28    38    25    25    18    16    20    15    13    13    11    10     9     5     2     4     3     4     3     3     2     2     0     0     1     0     1     0     0     0     0     0     0     0     0     0     0     0     0     0     0     1     0     2     2     1     0     0     0     0     3     1     2     5     6     2     2     5     9    13    11    10    15    15    15    17    24    30    23    47    43    46    38    44    61    49    55    56    59    64    77    80    75    78    65    69    61    67    78    93    66    71    54    65    46    53    38    48    45
    51    47    27    39    43    24    27    17    20    18    17    10     9    10     8     6     3     4     2     2     0     2     0     2     0     0     0     0     0     0     0     0     0     0     0     0     0     0     0     0     0     0     2     0     0     1     2     0     0     0     1     2     0     0     4     2     5     6     7     9     3     8    13    11    17    14    23    25    29    37    28    40    40    38    51    49    51    48    67    57    64    81    64    72    78    86    78    75    85    86    90    69    60    60    59    63    53    47    42    46
    48    50    33    36    30    25    24    35    16    12    16    14    13    11    11     7     5     4     0     3     1     3     2     0     2     1     0     0     0     1     0     0     1     0     0     0     1     0     0     0     0     0     0     0     0     2     1     1     0     0     1     0     1     0     0     2     3     4     6    12     5     6     8     8    11    13    16    23    24    35    27    28    41    37    38    35    57    48    66    69    63    77    72    65    80    83    98    83    80    91    65    73    80    81    60    80    66    70    49    44
    52    48    51    47    36    29    32    29    26    18    17    17    12     9     7     6     4     4     6     3     2     5     1     2     1     1     0     3     0     0     0     0     0     1     1     0     0     0     0     0     0     0     1     0     0     0     0     1     0     1     3     0     1     1     2     2     4     4     4     3     4     6     9    10     5    17    21    18    31    26    39    29    26    34    28    45    42    38    58    76    63    59    85    80    74    66    82    85    77    96    98    79    76    70    76    70    59    52    54    60
    58    62    52    43    37    38    36    35    32    21    20    21    17    17    14     6     9     3     5     5     0     2     4     1     2     0     1     0     0     2     0     0     0     0     0     0     0     0     0     0     0     0     0     0     1     0     0     0     0     2     1     0     2     2     1     2     3     2     6     3     2     2     4     3     8     8    11    20    13    12    25    27    41    28    35    31    38    31    43    57    66    68    72    65    77    71    68    75    79    93   109    71    85    68    63    71    63    61    67    56
    53    48    51    56    65    37    41    34    37    27    24    19    20    17     8    10    18     5     5     2     1     2     2     1     3     4     2     0     1     0     1     0     0     0     0     0     0     0     0     0     0     0     0     0     0     0     0     0     0     0     0     0     2     0     4     2     5     1     4     0     2     4     4     5     5     9    14    11    13    21    19    17    25    32    35    20    41    44    37    49    54    56    63    71    68    70    63    97    70    92    93    80    74    79    80    64    64    61    61    52
    48    70    56    70    74    43    47    40    43    30    27    22    20    14     9     8     6     8     6     4     4     2     2     3     1     1     1     1     0     1     3     0     1     0     1     0     0     0     0     0     0     0     0     0     0     0     0     1     0     0     0     0     0     1     1     3     2     0     2     1     3     7     9     4     6     3     2    13     9    18    15    25    20    27    23    34    35    38    39    42    38    48    55    60    61    81    70    77    79    88    79    85    85    79    78    81    77    64    69    79
    76    62    61    73    67    45    66    53    44    29    19    32    35    21    17    24     9    15     7     7     2     5     2     1     3     0     2     0     1     2     0     0     0     0     0     0     0     0     0     0     0     0     0     0     0     0     0     0     0     0     0     0     0     0     1     3     3     0     0     2     6     6     1     4     8     6     5    11     7    14    14    20    23    15    22    24    34    42    36    44    48    50    55    53    57    83    89    76    85    82    90    82    87    70    82    73    75    52    66    72
    69    65    65    59    79    62    51    54    48    40    43    30    18    28    30    18    11    11    10     8     9     3     5     3     1     2     5     3     0     2     0     0     0     0     0     0     0     0     0     0     0     0     0     0     0     0     0     0     0     0     0     0     1     0     0     0     1     1     1     3     1     4     4     5     4     5    10     8     8    13    12    14    16    14    14    26    22    38    34    36    34    49    43    56    45    74    80    61    85    80    62    81    63    74    77    95   100    58    62    82
    73    70    61    65    58    52    60    44    67    52    44    32    31    28    25    22    13    14     5     8     4     3     3     3     1     2     1     2     3     2     1     1     1     0     0     0     0     0     0     0     0     0     0     0     0     0     0     1     0     0     1     0     2     0     1     0     0     0     1     1     0     0     5     3     2     1     5     8     6    10     5    14    13    18    13    23    20    21    32    44    34    38    52    49    57    72    68    79    77    64    71    65    67    70    86    77    76    79    83    68
    57    71    75    73    58    52    49    54    45    61    52    43    37    24    29    25    17    16    10    10     5     5     6     4     1     2     1     1     0     3     0     0     1     2     0     1     0     0     0     0     0     0     0     0     0     0     0     1     0     0     0     0     0     0     0     0     0     1     1     1     2     1     1     0     4     3     4     3     6     7     7    14    13    22    14    16    19    21    32    34    33    32    38    45    60    56    58    72    62    59    76    63    56    61    87    89    84    85    70    75
    78    83    83    67    74    54    56    58    48    46    43    35    50    46    32    20    26    17    16    16    12    12     5     2     3     4     0     6     3     1     0     1     0     0     1     0     1     1     0     0     0     0     0     0     0     0     0     0     0     0     0     0     0     0     0     1     0     0     0     1     0     0     0     3     2     2     4     5     5     6    12    12     6    13    15    21    19    20    21    30    39    44    42    44    56    52    44    60    70    75    60    76    72    69    78    80    73    75    69    87
    82    70    76    63    68    67    55    57    59    52    38    52    38    44    29    30    33    24     9    10    23     7    10     5     7     9     2     1     3     0     5     2     2     1     1     1     0     0     0     0     0     0     0     0     0     0     0     0     0     1     0     2     1     0     1     0     0     0     0     0     0     1     0     1     0     2     2     0     2     7     6     8     9    10    13    24    21    22    22    22    29    25    26    45    31    44    42    61    47    68    50    70    52    73    64    82    74    71    78    76
   102    74    69    86    72    69    59    62    52    51    58    62    56    43    34    36    26    20    20    19    10    14    10     6     5     9     6     3     1     4     4     1     2     0     0     1     1     0     0     0     0     0     0     0     0     0     0     0     0     0     0     0     0     0     1     0     0     1     1     1     0     0     1     0     5     1     2     1     4     4     6     5     3    10    11    11    10    21    15    26    18    25    33    29    43    39    42    45    43    60    58    52    59    64    73    73    64    67    94    84
    73    87    79    74    53    75    73    52    80    63    61    56    54    46    48    26    33    21    21    18    24     8    10     8    18    11     8     4     6     1     1     1     2     4     2     4     2     0     0     0     1     0     0     0     0     0     0     0     0     0     0     0     0     0     0     0     1     0     0     0     0     2     0     2     2     1     1     3     2     4     4     7     3     6     5     4    14    19    28    15    18    28    27    34    30    43    33    35    39    62    48    48    80    55    69    91    64    75    75    70
    91    88    73    84    95    79    83    71    63    62    70    63    56    66    44    30    35    36    28    22    15    15    17     7    16     9     8     7     4     4     3     2     5     0     4     1     2     0     0     0     1     0     0     0     0     0     0     0     0     0     0     0     0     0     0     0     0     0     0     1     0     0     0     1     0     0     2     2     2     1     3     6     1     4     6    10    12    15    17    13    21    26    19    22    32    31    37    42    46    37    54    67    57    65    62    60    67    71    71    89
    77    84    80    84    61    68    77    86    77    76    62    55    60    54    36    42    41    30    31    21    23    33    20     9    10     8     7     4    10     5     6     2     6     2     1     2     2     1     1     0     0     1     0     0     0     0     0     0     0     0     0     0     0     0     1     0     0     0     0     0     0     1     0     1     0     2     1     1     0     2     2     3     2     6     7     6    11    18    10    13    15    14    19    27    26    41    38    39    37    39    41    52    75    66    59    60    74    71    77    77
    90    75    71    86    72    91    83    64    83    76    72    65    50    61    47    36    54    41    43    30    32    32    30    24    17     6    13     7    11     8     3     5     0     2     2     3     1     2     0     0     2     0     1     0     0     0     0     0     0     0     0     0     0     0     0     0     0     0     0     0     0     0     1     0     0     0     0     2     0     3     0     3     6     5     8     5     6     5     7    10    12    16    14    30    22    31    33    35    33    46    41    42    43    55    63    69    69    72    87    74
    78    75    88    77    74    81    74    83    81    66    68    80    59    59    50    46    51    30    41    37    29    34    32    23    21     9    16     7    11    10     9     6     3     3     3     6     1     0     2     1     2     0     0     0     1     0     0     0     0     0     0     1     0     0     0     1     0     0     1     0     0     0     0     0     0     0     1     2     1     1     2     1     4     4     4     3     6    11    13     5     9    15    13    28    28    27    33    33    31    36    39    32    52    55    55    57    60    75    69    71
    72    81    68    91    85    70    64    73    65    71    63    61    65    52    57    57    41    55    38    32    39    31    29    21    20    25    13     7    13     7     8     9     6     8     0     0     3     0     5     2     1     0     1     0     0     2     0     0     0     1     0     0     0     1     0     0     0     0     0     0     0     0     0     0     0     1     0     1     1     4     0     6     3     1     3     1     7     2     9     4     6    11    26    17    26    23    23    29    29    30    33    35    44    53    43    64    65    62    51    76
    63    74    78    63    71    73    81    79    82    52    76    69    71    64    57    50    59    43    54    44    36    41    38    21    21    16    20     7     8    18    12    12     7     5     8     2     5     2     2     3     0     0     1     2     0     1     0     1     0     0     0     0     0     1     0     0     0     0     0     0     0     0     1     0     0     0     0     2     2     0     0     2     2     4     3     5     6     9     6     3    11    13    24    17    19    24    18    20    25    24    41    27    34    37    40    66    54    55    49    76
    69    62    56    73    89    83    84    70    68    55    67    58    98    59    59    61    56    49    55    63    38    43    26    36    18    16    17    12    11     8    11     7     7    10     5    10     3     6     2     1     1     1     2     1     1     3     2     0     0     1     1     0     0     0     0     0     0     0     1     0     0     0     0     0     0     0     0     0     1     2     4     0     1     1     1     0     4     4     1    10     6    13    18    12    15    24    17    11    31    28    26    34    35    45    36    39    42    55    68    64
    64    65    52    72    67    69    82    79    64    81    79    75    64    52    76    57    55    54    46    42    34    39    40    32    20    23    16    23    18    18    12    15     8     7     5     4     8     5     2     3     0     0     1     1     0     0     1     1     0     0     0     0     0     0     0     0     0     0     0     0     0     0     0     1     0     0     0     0     0     1     1     2     1     2     0     4     3     1     4     3     6     5     8    10     8    14    17    19    18    27    29    37    35    35    47    49    51    54    52    45
    54    68    62    54    78    58    78    58    95    83    59    70    86    76    65    83    57    58    60    53    48    37    40    34    25    23    38    22    22    21    13    18    20     8     7     7     8     5     2     2     1     0     1     0     2     0     1     1     0     0     0     0     0     0     0     0     0     0     0     0     0     0     1     0     1     0     2     0     0     0     1     2     1     0     0     1     2     1     4     0     6     7     9     6    19    15    13    14    22    30    30    31    34    26    41    44    45    46    48    49
    55    51    58    55    70    66    82   100    73    67    85    75    67    70    72    60    74    68    65    55    44    62    34    52    26    35    35    30    29    22    31    24    15     7    10    11    12     8     5     6     6     3     3     1     1     1     0     2     1     1     1     0     0     0     0     0     0     0     0     0     0     0     0     0     0     1     1     0     0     0     0     0     0     1     0     1     0     3     1     0     6     2     7     7     8     8    15    11    19    23    25    29    23    33    31    42    52    45    44    57
    62    41    44    55    65    70    69    87    82    92    59    70    79    80    69    82    67    71    71    69    61    48    43    48    40    38    30    34    29    28    19    23    13    18    10    13    13    12     9     4     5     2     3     4     2     1     0     0     0     0     1     0     0     0     0     0     0     0     0     0     0     0     0     0     0     0     0     1     0     0     0     0     1     1     0     0     1     1     1     3     3     6     7     5     8    11     9    12    13    20    23    32    26    25    36    41    50    53    40    64
    40    58    57    66    64    63    73    77    72    78    66    79    87    68    81    82    75    56    83    55    63    64    56    59    48    38    44    33    33    32    26    24    18    17    10    13    13    13    12     7     4     4     2     3     2     0     1     0     1     0     1     0     0     0     0     1     0     0     0     0     0     0     0     0     0     1     0     0     1     0     1     1     0     1     0     0     1     1     2     3     2     3     4     3     5    12     3    13    19    19    13    24    26    32    23    36    31    33    32    55
    47    46    47    50    56    54    58    70    62    72    91    77    76    97    83    74    78    72    66    69    66    63    46    54    57    58    47    38    43    37    20    30    25    23    21    22    20    12    12     6     4     5     5     3     4     1     0     0     0     1     0     0     1     0     0     0     0     0     0     0     0     0     0     0     0     0     0     1     0     0     0     0     0     1     0     0     1     1     1     1     1     1     3     4     7     6     8    10     9    15    13    18    17    35    25    25    29    33    30    44
    48    38    37    48    47    65    73    53    86    60    89    84    82    85    71    84    86    91    77    86    66    71    55    74    44    57    42    44    26    39    27    33    24    20    23    20    25     7    10     9     9     4     4     5     6     4     4     2     0     0     0     0     0     0     1     0     0     0     0     0     0     0     0     0     0     0     0     0     0     0     0     0     0     0     0     3     0     0     0     4     1     3     4     5     4     5     7    11    13    12    11    23    18    17    38    29    27    25    36    35
    32    43    26    43    56    53    54    72    65    79    71    77    61    81    97    73    90    59    70    75    78    71    70    69    52    57    50    51    44    44    30    25    34    28    28    23    14    18     8    16     8     3     6     5     7     4     3     0     0     0     0     1     1     0     0     0     1     2     1     0     0     0     0     0     0     0     0     2     0     0     0     0     1     0     0     0     0     1     1     1     1     1     2     6     2     3     4    11     5     4     8    11    14    17    19    26    32    41    33    48
    47    30    30    35    48    43    53    71    62    69    60    85    72    82    79    90    77    84    64    77    91    78    56    67    55    60    54    44    41    47    52    35    34    22    27    23    19    13    16    14     6    10     8     5     8     3     5     2     2     2     2     1     1     0     0     2     1     0     0     0     0     0     0     0     0     0     0     0     0     0     0     1     0     0     0     2     0     1     1     0     2     0     3     3     1     3     4     6     8    11    11    11    22    16    14    18    30    26    27    26
    34    37    46    43    41    58    46    46    73    65    72    78   100    75    72    69    61    80    79    91    72    84    82    74    72    78    54    56    61    44    56    42    31    27    29    26    19    18    11    15    17    15    13     5     4     3     4     4     4     0     2     2     1     1     2     1     2     0     0     0     0     0     1     0     0     0     0     0     1     0     1     0     0     0     0     1     0     0     2     1     0     0     0     2     3     7     3     4     5     5     9     9    13    12    14    16    22    19    26    29
    29    23    40    35    35    40    52    57    59    57    71    67    83    82    77    76    81    77    76    70    90    74    81    82    57    58    52    44    64    49    36    48    43    41    30    37    24    20    19    12    21    17    11     5     7     8     8     3     2     2     2     4     3     0     0     0     0     0     0     0     0     0     0     0     0     0     0     0     0     0     0     0     0     0     1     0     0     0     3     1     1     0     0     0     0     3     3     5     6     2     7    10     7    16    17    18    18    20    26    25
    26    28    40    38    42    43    34    46    49    56    53    71    70    66    73    73    75    63    80    62    78    69    93    79    63    73    52    60    66    52    55    47    48    42    40    29    34    24    31    18    21    19    15     7     5     7     4     5     3     0     3     1     3     2     0     1     1     0     1     1     0     0     0     0     0     0     0     0     0     0     0     0     1     1     0     0     1     0     1     0     0     1     1     1     5     4     0     1     2     2     5     5     7     6     8    14    20    14    27    23
    25    34    37    36    38    37    34    44    48    56    49    62    60    79    69    72    76    71    65    78    85    78    80    68    75    65    80    71    73    56    50    51    52    32    30    33    30    28    31    21    28    17    12    14     6     5     6     5     5     8     4     2     3     1     0     2     3     0     0     0     0     0     0     0     0     0     0     0     0     0     0     1     1     0     0     0     0     0     0     0     2     1     1     1     1     1     0     0     3     6     2     8     8     7     9    18    18    14    15    31
    25    20    21    30    43    41    31    34    48    54    50    64    60    70    68    75    62    81    75    57    69    75    75   100    69    48    51    66    66    60    69    53    54    54    44    45    37    31    23    21    27    21    13    14    16    12     5     6     4     3     5     4     4     2     2     4     3     3     0     1     2     0     0     0     0     0     0     0     0     0     0     0     0     0     0     0     0     0     0     0     1     1     0     1     1     0     1     2     1     3     7     6     4     7     9     9     7    13    18    18
    20    23    21    29    26    29    37    44    42    53    46    48    52    79    57    77    88    69    61    74    86    70    77    89    91    75    71    73    73    52    76    63    59    66    43    52    55    44    40    27    32    33    14     8    13    11     8     7     7     8     3     5     5     3     3     0     2     2     2     0     1     0     0     0     0     0     0     0     0     0     0     0     0     0     0     0     0     0     0     0     0     1     0     1     1     1     1     1     1     2     1     0     2     6     9    12     7    18     7    17
     5     9    25    19    32    22    26    35    34    41    53    42    51    65    83    61    71    68    71    53    73    70    65    78    80    70    75    76    60    63    63    56    68    58    51    53    43    27    34    28    22    27    26    21    16    12     7    10     9     5     1     5     2     3     6     2     5     1     1     0     1     3     1     1     0     0     0     0     0     0     0     0     0     0     0     0     0     0     0     0     0     0     0     0     0     0     0     1     0     2     1     1     2     6     5     8    11    10     9    13
    23    13    16    18    29    19    23    37    21    46    35    36    58    43    49    51    63    55    82    75    74    76    66    66    56    91    74    60    82    69    73    70    61    56    57    51    49    39    32    36    27    28    17    17    15    14     9    13     6    11     7     7     6     5     1     5     1     1     1     2     0     0     1     1     1     0     0     0     0     0     0     0     0     0     0     0     0     1     0     0     0     0     0     1     0     0     1     0     2     6     3     3     3     2     3     8     6     4    12     9
    10    15    14    22    28    17    24    39    46    29    31    46    46    40    53    49    66    55    73    66    59    77    83    76    77    74    63    65    64    75    70    71    64    61    70    67    56    52    38    45    32    34    19    19    16    16    15    14     6     6     3    12     1     8     2     5     5     3     3     2     1     4     2     1     0     0     0     1     1     0     0     0     0     0     0     0     0     0     0     1     1     0     0     0     0     0     0     0     0     0     3     1     4     2     4     3     1     6     5    11
    10    16    11    18    18    15    36    32    38    36    33    32    44    48    56    60    50    54    55    75    85    66    73    81    75    73    79    78    76    78    69    63    59    71    69    60    63    67    61    38    27    34    41    18    21    20    17    13    15    11    16    14     7     6     9     5     3     1     1     2     5     2     3     0     1     0     0     0     1     0     0     0     0     0     0     0     1     1     1     1     0     0     0     0     0     0     1     0     0     0     0     0     2     1     1     1     2     6     7     9
     4    11    14    11    18    16    28    17    28    40    32    34    52    39    32    51    55    52    62    60    68    63    79    72    72    63    87    77    71    69    82    60    77    81    63    75    53    53    46    43    41    49    34    24    26    29    20    22    21    17    10    17    10     7     4     7     2     1     1     4     2     2     2     2     0     0     2     0     1     0     0     0     0     0     0     0     0     0     0     0     1     0     0     0     0     0     0     1     0     0     0     2     1     4     1     2     4     1     5     4
     4     8    11    13    12    17    22    26    18    31    31    21    34    35    40    44    58    51    56    62    62    62    74    62    77    69    66    66    76    83    70    76    69    85    84    65    64    70    66    48    44    33    27    30    31    31    28    29    23    19    22    13    11     9    18     7     5     6     5     3     7     3     2     2     2     0     1     0     0     1     0     1     0     0     0     0     0     0     0     0     2     0     0     0     1     0     0     1     0     0     0     0     2     1     4     7     2     9     5     6
     5    12     6     7    11    11    20    18    28    22    23    26    34    30    35    32    57    47    63    52    68    50    74    64    69    71    64    52    60    68    76    84    72    88    78    64    60    73    53    45    46    47    34    40    28    30    24    28    30    20    18    14    17    12    11     9    18     7     4     5     1     2     1     5     2     0     1     3     1     1     0     1     0     0     0     0     1     0     0     1     0     0     0     1     0     1     2     0     1     1     0     2     2     0     1     0     2     7     7     5
     4     4     7     9    11    19    18    20    23    16    26    26    24    23    36    34    39    54    51    41    55    69    75    63    66    67    68    78    76    67    83    77    71    74    71    72    82    57    66    70    38    56    51    48    36    43    32    39    38    33    29    21    13    18    10     6    12    10    10     5     2     5     4     0     3     3     0     3     2     0     2     0     0     0     0     0     0     0     0     0     0     0     0     0     0     0     0     0     0     0     0     1     2     1     1     2     2     1     6     8
     2     2     6     8     7     6     9    17    22    17    14    20    35    34    24    29    47    37    41    53    51    60    79    77    67    67    63    77    68    79    79    91    72    77    64    69    62    69    58    51    49    59    63    40    40    54    37    36    34    28    21    23    21    18    14    11    12     8    10    14     2     0     3     7     3     0     1     0     1     1     0     0     0     0     0     0     0     0     0     0     0     0     0     0     0     0     0     0     0     0     0     0     0     1     2     0     1     1     3     5
     4     3     5     5    10     6    11    13    12    24    17    25    17    18    25    31    28    43    55    38    47    43    57    65    67    62    83    65    64    63    76   102    91    84    94    86    80    71    70    74    59    63    73    45    42    49    39    34    33    32    27    24    20    22    12    17    10    10    10     1     2     5     7     2     0     0     1     0     0     0     0     0     0     0     1     0     0     0     0     0     0     1     0     0     0     0     0     0     0     0     0     0     0     1     0     0     1     1     4     3
     3     4     3     5     8     3     4     8    14    11    19    24    19    20    18    29    24    28    36    51    47    53    54    66    68    73    60    61    72    80    80    76    97    82    85    75    99    74    89    75    61    71    44    58    38    37    43    38    31    29    23    23    15    15    21    12    13    15    13     9     6     0     1     4     2     1     2     0     0     3     2     1     0     0     0     0     0     0     0     0     1     0     0     0     0     0     0     0     0     1     0     0     0     0     1     0     1     1     0     1
     0     4     2     3     1     4     7     9     5    14    16    17    17    21    23    24    30    25    19    42    38    41    42    58    66    85    66    56    73    78    74    79    85    78    76    95    86    94    84    71    76    74    42    59    41    43    38    46    37    51    40    30    30    21    16    18    22    14    11     8     8     3     4     1     4     1     3     2     0     1     1     1     0     0     0     0     0     0     0     0     0     0     0     0     0     0     0     0     1     0     0     0     0     0     2     0     0     3     4     1
     2     4     4     0     2     6     4     8     2    16    11    16    17    21    26    28    25    28    24    38    49    47    44    44    51    50    63    74    46    78    83    67    75    78    79    70    79    89    86    82    79    66    70    63    51    40    45    45    42    35    36    27    28    35    29    22    31    18     7    10    10     2     3     2     2     0     2     2     0     1     0     1     0     0     0     0     0     0     0     0     0     0     0     0     0     0     0     0     0     0     1     0     0     1     0     2     1     0     2     0
     5     0     5     1     1     3     5     7     6     5    14     7    15    16    22    21    28    29    29    36    39    36    45    35    45    56    63    53    68    65    69    66    76    90    73    83    86    68    77    89    74    78    55    73    52    66    57    59    50    46    36    37    38    21    26    15    24    22    26    18    18     7     4     7     3     4     1     2     5     2     0     0     0     0     0     0     0     0     0     0     0     0     0     0     0     0     0     0     0     0     0     0     1     0     0     1     0     2     2     3
     0     1     0     1     4     5     7     3     5     3     6    12     5    11    15    19    23    27    29    36    30    43    46    40    51    48    59    48    43    62    65    60    56    65    81    65    73    88    72    87    76    79    77    60    64    61    61    70    52    57    48    34    33    34    34    37    26    22    14    13    19     9     5     8     8     4     1     4     5     6     0     1     1     4     1     1     0     1     0     0     1     0     0     0     0     0     0     0     0     0     0     0     1     1     0     0     0     0     2     0
     1     1     2     1     2     2     2     3     5     6     8    13    10    10    15    18    21    20    17    26    26    43    33    25    45    37    43    49    54    58    68    68    57    70    89    79    75    76    87    82    63    62    83    71    55    62    64    60    72    58    43    36    59    41    42    43    29    40    21    17    18     7    11    15     5     8     6     3     4     4     5     4     0     1     1     1     1     0     0     0     0     0     0     0     0     0     0     0     0     0     0     0     1     0     0     0     1     1     1     4
     0     0     3     0     2     2     3     4     6     3     2    12     9     8    16    15    12    14    22    27    28    35    31    40    38    34    52    60    57    67    64    64    68    81    56    82    56    76    68    95    87    76    75    78    64    64    75    60    66    70    56    54    53    39    41    32    35    36    32    19    12    19    12    10     9    15     5     7     2     3     3     2     2     0     2     2     0     2     1     0     0     0     0     0     0     0     0     0     0     0     0     0     1     1     0     0     0     1     0     0
     1     1     2     2     4     1     2     4     5     2     5     7     7     8    11    17    19    14    15    21    20    30    29    32    40    31    43    42    46    54    63    58    72    66    72    65    69    67    70    72    75    69    68    88    58    65    82    59    54    73    72    43    41    53    46    45    30    28    23    28    15    24    13    14    16    11     5     8     4     4     1     1     3     1     2     0     0     0     0     0     0     0     0     0     0     0     0     0     0     0     0     0     0     0     0     0     0     0     1     1
     0     2     0     5     1     2     2     3     6     7     7     4     8     7    13     6    14    20    13    17    15    17    25    29    30    38    21    40    42    48    65    56    61    64    62    69    66    68    73    78    81    80    62    73    68    72    69    62    80    60    58    51    56    23    42    44    25    28    33    29    26    23    14    18    13     9    13     5     6     6     2     2     8     5     1     3     1     3     0     0     1     0     0     0     0     0     0     0     0     0     0     0     0     0     0     1     2     0     0     2
     1     0     3     0     2     1     2     1     3     2     3     5     6     9     6    10     6    10     9    16    21    13    30    21    17    39    30    23    58    56    50    49    70    53    69    49    59    67    63    90    69    86    86    67    81    80    82    73    67    83    65    54    47    52    37    30    24    35    27    32    30    11    23    18    15     8    12    11    12     4     2     2     3     2     4     0     0     1     2     2     0     0     0     0     0     0     0     0     0     0     0     0     0     0     0     0     1     1     0     1
     0     2     0     1     2     2     2     0     0     7     3    11     3     6     7     9     2    14    16    20    17    16    18    14    21    26    38    34    37    33    43    47    48    57    48    55    55    79    74    76    57    74    63    93    88    78    63    83    84    75    55    56    39    42    42    49    39    29    33    30    23    20    15    12    16    12    18     5     4     9     3     4     6     2     3     0     3     1     2     0     1     1     0     0     0     0     0     0     0     0     0     0     0     0     1     0     0     1     0     1
     1     0     1     0     0     1     0     0     0     1     2     3     5     7     5     2    12    10     6     8    14    15    11    14    16    23    29    29    38    36    40    53    51    58    65    65    60    60    62    73    59    66    77    71    79    86    86    67    79    62    61    71    61    50    47    48    42    39    39    25    21    21    24    21    19    12     9    10     8     5     6     4     0     3     5     0     1     0     1     2     1     1     0     0     0     0     0     0     0     0     0     0     0     0     0     0     0     0     0     0
     1     0     0     0     1     0     2     2     0     2     3     4     5     4     8     4     8     9     4    14    13    11    16    18    18    21    33    20    34    37    43    35    45    44    51    44    53    48    52    57    80    76    79    72    87    75    73    79    62    62    71    71    63    50    62    39    47    36    53    32    45    29    31    28    16    15    15    18    13     3    14     4     7     3     2     3     5     3     0     0     0     0     0     1     0     0     0     0     0     0     0     0     0     0     0     0     0     0     0     1
     0     0     0     0     0     1     0     1     0     0     2     1     7     2     6     4     2     5     7    10    17     9    16    12     7    20    16    19    17    24    37    41    30    47    53    52    52    60    47    60    63    79    65    65    78    95    72    66    66    70    73    90    57    65    53    58    55    56    41    36    42    26    32    38    20    13    17    14    10     7    10     8     3     6     9     5     1     2     2     0     0     1     0     1     0     0     0     0     0     0     0     0     0     0     0     0     0     0     0     0
     0     0     1     0     0     1     0     0     1     0     0     0     5     6     6     3     8     6     4     6    15    11    15    18     9    20    17    21    23    24    34    36    39    49    44    39    47    52    47    68    57    66    63    76    80    76    66    72    65    66    78    74    85    68    64    45    48    44    44    43    44    41    28    26    23    24    24    14     7    14    12     5     6     8     4     7     8     4     0     0     4     0     0     0     0     0     0     0     0     0     0     0     0     0     0     0     0     0     0     0
     0     0     0     0     1     0     1     0     0     1     0     2     1     5     4     5     1     1    10     7     6     8    13    12    11    14    16    23    17    24    25    31    26    40    42    43    58    67    63    57    87    67    54    75    88    95    77    88    73    78    74    85    73    78    44    74    64    58    57    57    45    44    43    30    29    20    21    18    21    16     6    11    10     3     4     4     4     5     3     1     2     1     0     0     0     0     0     0     0     0     0     0     0     0     0     0     0     0     0     0
     0     0     0     0     1     1     0     0     0     0     0     0     2     4     0     4     4     4     1     2     5     7     6     8    11    15     8    15    10    27    25    24    29    34    40    43    51    50    58    54    70    62    71    73    75   101    88    88    73    79    88    83    78    76    74    73    62    75    63    49    48    42    49    45    27    19    26    22    21    15    21    13    12    10     5     5     3     4     2     1     1     0     0     1     0     0     0     0     0     0     0     0     0     0     0     0     0     0     0     0
     0     0     0     0     0     0     0     0     0     0     1     1     1     2     4     0     2     3     3     5     8     5     8     6    12    11    13    14    17    20    17    23    32    34    33    29    33    40    52    51    58    57    62    57    77    77    78    84    73    90    71    89    78    85    76    82    64    59    59    65    52    55    49    35    39    23    22    34    15    14    19    11    14    11    11    11     7     3     3     6     2     1     0     3     0     0     1     0     0     0     0     0     0     0     0     0     0     0     0     0
     0     0     0     0     0     0     0     0     0     0     0     0     2     0     1     1     4     3     3     3     5     3     8     8    11     9     8    13    13    18    15    33    19    32    36    30    59    51    43    62    50    71    55    47    71    80    75    79    63    84    63    95    90    78    71    65    67    76    66    49    55    46    43    31    32    34    34    25    28    25     9    16    10    11    11    11     9     7     6     2     2     3     3     1     1     1     0     1     1     1     0     0     0     0     0     0     0     0     0     0
     0     0     0     0     0     0     0     0     0     0     0     0     0     0     1     2     2     3     6     1     2     5     7     9    13     5     9    16    13    22    21    16    24    42    32    22    40    31    47    46    63    67    65    69    69    77    64    65    65    77    81    86    89    99    81   104    67    68    64    54    42    71    47    49    45    37    24    31    21    25    20    29    15    13    11     8    11     5     4     3     2     7     4     1     1     2     2     1     3     2     0     0     0     0     0     0     0     0     0     0
     0     0     0     0     0     0     0     0     0     0     0     1     1     1     2     1     2     2     1     3     3     3     8     6    10     1     8     9    12    16    12    20    22    30    19    25    37    34    42    46    65    68    56    57    56    59    65    69    74    66    84    91   109    75    75    74    83    75    68    76    60    49    50    52    41    36    35    29    33    21    24    21    11    11     9    15     4     8     8     7     8     4     1     3     1     1     2     1     1     1     0     0     0     0     0     0     0     0     0     0
     0     0     0     0     0     0     0     0     0     0     0     1     0     0     2     1     1     3     2     4     4     3     1     3     6    13     8    11     9    15    13    19    22    16    20    26    33    32    39    39    37    43    53    49    49    68    53    71    51    74    85    86    71    88    87    85    81    65    62    76    59    54    60    52    40    57    31    39    40    36    23    20    24    29    13    18    11    13    11    11     7     6     1     2     0     2     0     0     1     0     0     1     0     0     0     0     0     0     1     1
     0     0     0     0     0     0     0     0     0     0     0     0     0     1     1     1     0     2     1     3     5     2     5     3     6     2     5    10     8    10    12    10    14     9    27    26    28    37    32    38    45    53    49    58    61    53    55    46    53    68    83    72    80    87    92    88    79    69    75    59    62    53    59    47    58    48    44    38    36    29    28    23    29    13    25     8    12    12     5     9     6     5     4     0     0     0     0     0     2     0     0     1     0     1     0     0     0     0     1     0
     0     0     0     0     0     0     0     0     0     0     0     1     1     1     1     0     0     1     0     3     2     5     3     2     5     4     5     3     6    10     7     9    12    15    10    26    23    20    25    34    34    49    37    42    45    52    59    67    65    65    62    70    63    80    74    88    63    88    81    90    62    82    47    61    44    40    35    54    45    45    41    25    26    26    31    18    17    11    13     8     5     7     1     0     0     2     1     0     1     0     0     0     0     0     2     1     0     2     0     0
     0     0     0     0     0     0     0     0     0     0     0     1     0     1     1     0     0     2     1     2     3     0     3     0     3     1     1     5     3     1     7     9     6    10    14    18    22    28    32    35    34    53    54    52    42    51    55    47    63    70    52    54    69    98    76    79    77    80    82    89    71    74    64    60    58    59    41    48    46    40    32    47    20    21    31    18    16    17    13    13     8     7     9     4     2     3     3     6     1     1     1     1     0     2     0     0     0     0     0     0
     0     0     0     1     0     0     0     0     0     0     0     0     0     1     0     0     0     0     1     0     1     4     2     3     1     2     2     3     5     6     1     3     8     9     9    13    23    27    22    26    33    36    37    33    44    40    52    45    58    58    55    65    60    76    82    79    73    83    96    82    73    73    67    66    68    58    53    46    59    52    41    31    29    28    30    20    22    15    17     7    16    11     5     3     3     3     4     0     3     4     3     1     3     3     0     2     0     1     0     0
     0     0     0     0     0     0     0     0     0     0     0     0     1     0     1     0     2     1     1     0     0     1     0     0     0     1     2     2     4     5     4     9     8     8     9    14    18    16    21    14    28    27    28    40    44    45    45    48    44    66    47    74    60    68    79    68    74    92    82    81    77    67    65    59    69    70    60    53    54    60    40    44    41    34    30    31    18    16    14    15    16    11     6     9     6     9     4     6     4     7     2     2     2     5     1     0     2     1     0     0
     0     0     0     0     0     0     0     0     0     0     0     0     0     0     0     0     2     0     1     1     2     0     0     2     3     2     0     2     3     3     2     2     6     7     3    11    19    19    13    17    14    26    31    25    39    46    62    47    50    44    76    61    55    58    82    77    86   100    85    78    80    82    74    70    66    58    58    59    62    52    61    61    50    33    24    40    26    24    21    22    17    18    13     6     9     9     7     8     2     2     3     2     2     5     1     0     0     0     0     0
     0     0     0     0     0     0     0     0     0     0     0     0     0     0     0     0     1     0     2     0     0     0     0     0     1     0     1     3     1     4     2     7     2     4     4    10    14    10    10    10    16    28    17    35    33    43    38    44    57    51    47    62    54    72    58    55    60    78    67    79    79    66    62    74    67    73    66    66    64    56    62    48    55    45    30    24    49    22    21    25    21    16    15    13    14    14     7     6     8     6     4     2     1     4     3     0     0     0     0     2
     0     0     0     0     0     0     0     0     0     0     0     0     0     0     0     0     0     0     0     0     0     0     0     1     0     0     0     0     1     2     2     5     3     6     4     4    17     8    13    11    17    15    24    12    23    23    32    41    51    40    54    44    65    77    63    75    71    61    80    74    72    87    58    78    89    78    81    78    69    60    60    59    56    62    35    34    34    23    30    21    24    24    17    16    14    17     9     6     3    10     2     7     3     4     5     0     1     3     0     0
     0     0     0     0     0     0     0     0     0     0     0     0     0     0     0     1     0     0     0     0     0     0     0     1     1     1     0     2     4     1     1     0     4     4     5     7     9     5    11    12     7    14    13    19    23    28    33    45    47    40    53    39    74    59    46    63    69    81    71    73    68   102    77    86    76    77    65    80    73    70    55    52    65    58    37    38    32    34    38    23    20    23    29    23    13    14     9    10     3     6     3     4     6     5     1     2     2     1     1     1
     0     0     1     0     0     0     0     0     0     0     0     0     0     0     0     0     1     1     1     0     1     0     1     0     0     3     1     0     0     1     2     2     0     1     7     3     6    13     6     6    17    14     9    14    23    16    22    27    34    40    42    47    49    59    51    62    71    60    67    71    83    81    81    55    74    71    91    72    81    88    85    67    58    59    54    42    39    44    50    43    37    19    22    27    16    16     9     8    15    11     3     5     4     4     4     2     2     0     4     1
     1     1     2     0     0     0     0     0     0     0     0     0     0     0     0     0     0     1     0     1     0     0     1     0     0     0     0     0     0     3     0     3     3     3     5     2     3     9     6     7     9     9    22    11    11    14    25    27    19    33    35    35    37    48    51    49    73    62    73    80    78    74    88    67    80    88    69    81    99    67    64    69    70    48    61    56    50    48    41    37    39    34    20    22    20    15    16     9    13     4     5     7     6     5     2     2     2     3     0     2
     4     1     0     1     3     0     0     0     0     0     0     0     0     0     0     0     0     0     0     1     1     1     0     1     0     0     2     2     2     0     1     1     2     5     5     3     6     4     6     5     9    11     6     8    16    19    21    22    29    34    44    27    47    55    54    61    47    66    63    68    82    73    80    86    59    65    75    92    88    74    88    74    84    71    67    62    55    58    55    45    36    30    36    34    31    18    17    16     9     7     9     8    10     6     4     7     7     1     2     3
     4     2     1     0     1     0     0     1     0     0     0     0     0     0     0     0     0     0     1     1     0     0     1     0     0     0     0     0     0     1     1     0     0     1     2     5     3     2     6     5     8     8    12    13    21    19    18    32    23    29    28    39    25    42    45    56    65    58    72    67    78    67    71    62    62    60    75    73    85    77    79    72    66    66    66    64    60    61    43    42    40    56    29    25    26    20    26    13    10     8     6     7    12     2     4     6     4     5     1     2
     1     2     0     0     2     2     1     0     0     0     1     0     0     0     0     0     0     0     0     0     1     0     0     0     0     0     1     1     1     0     0     0     1     2     1     2     6     4     5     7     5    10    11    15    17    16    14    25    23    23    24    30    32    39    44    49    47    65    87    63    63    76    72    74    82    62    76    88    80    75    84    66    82    77    70    59    56    67    62    48    43    40    48    36    31    27    21    25    13    12    12     7    13    11    11     8     4    10     5     1
     6     2     1     1     1     1     0     0     0     1     0     0     0     0     0     0     0     0     0     0     0     0     0     0     0     0     0     0     1     2     0     0     0     0     2     2     3     4     5     4     5     5    11     8     9     6    13    19    32    22    19    33    34    28    41    35    40    62    55    65    71    67    79    60    71    76    67    84    77    78    85    94    80    90    73    63    63    59    58    52    43    42    46    37    39    42    20    20    27    12    14    10    10     8     9    11     4     7     5     2
     4     1     2     1     1     2     1     2     0     0     1     1     0     0     0     0     0     0     1     0     0     0     0     0     0     0     0     0     1     1     2     0     1     0     1     2     3     2     3     5     8     4     6     9    12     9    17    15    16    22    23    26    26    35    29    48    44    51    48    45    58    72    77    66    82    87    66    83    89    78    95   108    76    91    73    68    83    63    60    54    49    46    48    34    39    33    21    23    23    21    16    22    12    13    13     4     3     2     8     5
     4     2     5     3     1     2     0     2     0     2     1     0     3     0     0     0     0     1     1     0     0     0     0     0     0     0     0     0     0     0     0     0     1     1     0     2     1     1     3     5     3     4     3     3    13    10    11     8    16    19    25    30    17    26    35    32    31    42    46    44    53    53    49    54    75    73    73    73    70    97    87    73    79    90    81    79    77    66    73    51    59    44    53    42    39    45    39    23    23    16    25    23    15     9     9     9     9     5     6     5
     5     3     1     6     1     0     0     1     1     0     1     2     0     0     0     0     0     0     0     0     0     0     0     0     0     0     1     0     0     1     0     0     0     1     0     2     3     2     4     1     2     3     0     3     7     8    10     5    13    12    12    28    16    20    27    30    33    36    41    44    55    53    58    50    75    68    56    66    78    71    73    99    73    88    92    70    77    72    72    83    55    65    44    37    42    39    36    43    36    21    28    23    24    12    17    10     6     6     3     4
     4     6     2     3     3     1     3     2     1     2     1     0     0     0     0     0     0     0     0     0     0     1     0     0     0     0     0     0     0     0     1     0     0     0     0     1     1     1     2     2     4     2     0     1     4     6     7    14    14     8    16    12    22    20    28    21    31    31    35    45    38    40    51    61    53    46    63    74    70    63    60    82    81    68    83    87    76    75    57    75    59    56    62    45    60    42    37    52    42    32    31    22    20    16    16    17     8     5    12    11
     7     3     4     1     0     2     2     0     2     1     3     1     2     0     0     0     0     0     0     1     0     0     0     0     0     1     0     0     0     0     0     1     0     1     0     0     0     0     2     1     2     1     1     1     5     3     3     8    10     9    14    14    14     9    18    21    36    22    42    31    39    39    48    46    53    68    59    62    58    83    62    90    78    63    73    66    65    71    69    85    58    62    56    53    47    56    35    49    37    32    31    29    31    21    12    17    13    14    11     7
    11     5     5     4     5     2     2     4     2     3     2     0     0     0     0     0     0     0     0     0     0     0     0     0     0     0     0     1     0     1     0     0     0     0     1     1     0     0     1     0     0     3     0     0     4     4     9     8     6    12    15    11    15    15    15    29    27    32    31    36    44    39    33    44    62    62    55    66    76    81    62    67    69    58    65    63    70    68    63    74    70    70    57    55    52    53    56    52    46    31    39    30    24    25    17    24    10    14    12    14
    12    14     8     3     4     5     3     6     1     3     1     0     0     0     0     0     0     0     0     0     0     0     0     0     0     0     0     0     0     0     0     0     1     1     0     1     2     0     0     2     1     1     1     2     3     2     4     9     3    13    12     9    16     9    21    13    24    15    36    40    21    39    34    48    62    58    67    68    62    58    94    72    70    67    73    74    82    63    89    68    71    75    75    74    50    64    67    63    57    42    39    35    33    28    16    18    23    18    15    15
     9    11    15    12     7     5     1     2     1     3     3     3     1     0     0     0     0     0     0     0     0     0     0     1     2     0     0     0     1     0     1     1     0     0     0     0     0     0     0     2     2     1     2     2     2     3    10     9     6    11    14    11    10    18    15    18    21    19    32    19    23    40    27    47    47    64    60    54    56    71    57    65    63    69    65    67    64    88    74    80    68    90    62    66    48    69    58    57    50    57    45    34    24    26    27    24    24    21    20    21
    13    11     6     7     6     3     4     3     1     3     7     1     0     0     0     0     0     0     0     1     0     0     1     0     1     0     0     0     0     0     1     1     1     0     0     2     2     2     1     2     2     0     1     2     2     2     4     4     5     5     5    10     7    11    13    14    19    18    29    25    36    28    33    38    42    45    55    61    54    56    52    47    71    75    66    63    76    74    57    72    67    57    67    65    70    75    66    67    59    59    47    39    38    38    32    26    27    27    16    19
    17    10     6     7    11     5     6     2     1     4     1     1     0     1     1     2     0     0     0     1     1     0     0     1     0     0     0     0     0     0     1     0     1     0     0     1     0     0     0     2     3     1     0     1     0     2     3     3     1     7     3     7     6     8    12    15    15    16    24    28    29    21    32    30    38    37    55    56    82    46    68    63    74    67    66    64    75    81    76    80    84    76    63    73    67    62    61    66    46    62    47    40    36    29    23    26    23    24    22    16
    13    23    11    10     8     9     6     6     2     3     2     0     2     0     1     1     0     2     1     0     2     0     1     2     2     0     1     0     0     0     0     0     0     0     2     0     1     0     0     0     1     2     0     0     2     3     1     6     1     3     5    11     6     9     7     9    17     9    19    15    29    37    29    43    34    44    50    43    47    50    47    71    65    81    65    88    82    70    71    90    79    71    95    71    81    65    73    76    65    72    55    55    54    37    34    38    38    22    25    23
